Non-reactive		500 rpm		1000 rpm	
t(s)	C/Cin	t (s)	C/Cin (t2)	t (s)	C/Cin (t2)
30	0.049673089	30	0.003215696	30	0.005070821
60	0.052985665	60	0.006211429	60	0.007476488
90	0.05672387	90	0.009884342	90	0.009492366
120	0.060149947	120	0.013558177	120	0.011701691
150	0.064245131	150	0.017883367	150	0.013284686
180	0.068203014	180	0.020702476	180	0.016451828
210	0.072059297	210	0.023452634	210	0.018262554
240	0.076048302	240	0.027394851	240	0.025648827
270	0.080083988	270	0.031006991	270	0.02272857
300	0.084115098	300	0.035476896	300	0.020909428
330	0.088164515	330	0.037547494	330	0.022363963
360	0.0923494	360	0.042199814	360	0.037797126
390	0.096459229	390	0.04304444	420	0.036981283
420	0.100807043	420	0.044139364	450	0.028089563
450	0.104379573	450	0.044474559	480	0.022840913
480	0.108461026	480	0.04471957	510	0.023080462
510	0.112979091	510	0.049201224	540	0.022686926
540	0.116489379	540	0.047781603	570	0.021694103
570	0.120262366	570	0.04879093	600	0.034854286
600	0.124058237	600	0.045158054	630	0.02069741
630	0.128198271	630	0.04599596	660	0.021258337
660	0.131968512	660	0.064992697	690	0.019429571
690	0.135656374	690	0.041887021	720	0.023635829
720	0.140380388	720	0.043847275	750	0.023408044
750	0.143422943	750	0.043524722	780	0.019146151
780	0.14701378	780	0.042603925	810	0.019643761
810	0.150362969	810	0.040876206	840	0.018981768
840	0.153928177	840	0.039795299	870	0.017893368
870	0.157487892	870	0.039824296	900	0.017794379
900	0.161067745	900	0.037966708	930	0.023371925
930	0.164927689	930	0.037442399	960	0.017006517
960	0.168383972	960	0.036598911	990	0.017445945
990	0.17207458	990	0.03527002	1020	0.016686012
1020	0.176898365	1020	0.034577735	1050	0.017285757
1050	0.178777536	1050	0.034748548	1080	0.017840989
1080	0.182217343	1080	0.034624372	1110	0.017216967
1110	0.185561041	1110	0.034802381	1140	0.017204305
1140	0.188837005	1140	0.035807509	1170	0.016919847
1170	0.192928526	1170	0.032987384	1200	0.016539168
1200	0.195257124	1200	0.033157991	1230	0.017352809
1230	0.198539495	1230	0.0336505	1260	0.023455217
1260	0.201606763	1260	0.033948494	1290	0.015938633
1290	0.206910181	1290	0.032650828	1320	0.015713192
1320	0.207893245	1320	0.030803492	1350	0.01967534
1350	0.210879964	1350	0.031375482	1380	0.016487457
1380	0.214060733	1380	0.032524517	1410	0.016941119
1410	0.217259809	1410	0.031930092	1440	0.015774916
1440	0.219959115	1440	0.030330096	1470	0.016604655
1470	0.223116086	1470	0.029953568	1500	0.016536233
1500	0.22596459	1500	0.030291715	1530	0.016048689
1530	0.228680372	1530	0.030992786	1560	0.016859686
1560	0.231602103	1560	0.030763265	1590	0.016328447
1590	0.23462452	1590	0.030995614	1620	0.01978709
1620	0.237382408	1620	0.032367248	1650	0.016041671
1650	0.240013064	1650	0.03086069	1680	0.016459491
1680	0.24262999	1680	0.031535752	1710	0.015877638
1710	0.245583758	1710	0.030759756	1740	0.016203386
1740	0.247950799	1740	0.031306529	1770	0.016474009
1770	0.250813034	1770	0.031481174	1800	0.016447096
1800	0.253501356	1800	0.031657979	1830	0.015812278
1830	0.255829038	1830	0.031185859	1860	0.016212924
1860	0.258662898	1860	0.030500631	1890	0.015609835
1890	0.261178223	1890	0.030938568	1920	0.015830808
1920	0.263797895	1920	0.03118634	1950	0.016307135
1950	0.266085303	1950	0.032960242	1980	0.016754164
1980	0.272578649	1980	0.031645701	2010	0.016792582
2010	0.270910919	2010	0.032215219	2040	0.015970055
2040	0.273447296	2040	0.032984471	2070	0.016579731
2070	0.275948891	2070	0.03456435	2100	0.015260249
2100	0.283281594	2100	0.03281786	2130	0.015877232
2130	0.284757104	2130	0.033662181	2160	0.024965087
2160	0.283096697	2160	0.032481548	2190	0.016509415
2190	0.285076554	2190	0.03212717	2220	0.016938881
2220	0.287601032	2220	0.032058654	2250	0.015796639
2250	0.289611096	2250	0.031926494	2280	0.016294145
2280	0.291970814	2280	0.033097866	2310	0.01692542
2310	0.294163943	2310	0.033086011	2340	0.023448355
2340	0.296471488	2340	0.030040572	2370	0.016550581
2370	0.298524572	2370	0.030110717	2400	0.025651765
2400	0.300379944	2400	0.031200668	2430	0.016161838
2430	0.302676506	2430	0.03345025	2460	0.016209757
2460	0.30502524	2460	0.03079012	2490	0.022883843