﻿Time,CSO4
30,5.79541E-05
60,6.48696E-05
90,7.25356E-05
120,8.02411E-05
150,8.85474E-05
180,9.69306E-05
210,0.000105448
240,0.000113569
270,0.000121934
300,0.000130529
330,0.000139819
360,0.000147092
390,0.000155
420,0.000163174
450,0.00017126
480,0.000179155
510,0.000187523
540,0.000194374
570,0.000202033
600,0.000209386
630,0.000216693
660,0.000223978
690,0.000230731
720,0.000237705
750,0.000244894
780,0.00025124
810,0.00025766
840,0.000264116
870,0.000269846
900,0.000276159
930,0.000282618
960,0.000287794
990,0.000293923
1020,0.000299372
1050,0.00030479
1080,0.00031066
1110,0.0003161
1140,0.00032128
1170,0.000325815
1200,0.000331277
1230,0.000336209
1260,0.000340902
1290,0.000345447
1320,0.000350572
1350,0.000354935
1380,0.000358901
1410,0.000363422
1440,0.000367686
1470,0.000371673
1500,0.000375853
1530,0.00037974
1560,0.000383397
1590,0.000387313
1620,0.000391238
1650,0.000394262
1680,0.000398341
1710,0.000402313
1740,0.000405499
1770,0.000408673
1800,0.000411792
1830,0.000415233
1860,0.000418574
1890,0.000421541
1920,0.000424693
1950,0.00042738
1980,0.000430291
2010,0.000433442
2040,0.000436223
2070,0.000439058
2100,0.00044143
2130,0.000443679
2160,0.000446577
2190,0.000449142
2220,0.000451641
2250,0.000453693
2280,0.000456331
2310,0.000458179
2340,0.000461514
2370,0.000464872
2400,0.000465675
2430,0.000467903
2460,0.000469746
2490,0.000471254
2520,0.000473668
2550,0.000475646
2580,0.00047705
2610,0.000479154
2640,0.000481249
