"Velocity[i] (m/s)","Normalized Radius","X (m)","Y (m)","Z (m)"
1.38210038726554,0.416531151842273,0.416,0,0.33384
1.38470248429503,0.437454419516126,0.416,0,0.33488
1.38722743414505,0.459002393829808,0.416,0,0.33592
1.39064241285595,0.703055078114597,0.416,0,0.3484
1.38972697194671,0.721466281430321,0.416,0,0.34944
0.0495548743680588,-0.976745940424564,0.416,0,0.26104
0.0789257829847081,-0.958301228919823,0.416,0,0.26208
0.110818264664,-0.938184647183877,0.416,0,0.26312
0.143479684535334,-0.91914247775776,0.416,0,0.26416
0.173994398659822,-0.902143710637373,0.416,0,0.2652
0.208377731165549,-0.883523687894555,0.416,0,0.26624
0.25359928068293,-0.860530510033713,0.416,0,0.26728
0.301693899916916,-0.840070991938256,0.416,0,0.26832
0.354160984011842,-0.819154397592166,0.416,0,0.26936
0.407490878972157,-0.798266642301956,0.416,0,0.2704
0.457540688216623,-0.778174068477797,0.416,0,0.27144
0.496067501098239,-0.758238479055113,0.416,0,0.27248
0.52901663609159,-0.738029687169057,0.416,0,0.27352
0.559203255801571,-0.717992644541379,0.416,0,0.27456
0.57957095450206,-0.699140680102379,0.416,0,0.2756
0.594495749795503,-0.680210255468247,0.416,0,0.27664
0.606852771484178,-0.660805836667103,0.416,0,0.27768
0.612844686697982,-0.639967356460381,0.416,0,0.27872
0.619027474128805,-0.620077216287876,0.416,0,0.27976
0.625212981845787,-0.599643242431481,0.416,0,0.2808
0.629234253736433,-0.580124988264172,0.416,0,0.28184
0.635539436098138,-0.560168121531813,0.416,0,0.28288
0.64021647115906,-0.540141525257043,0.416,0,0.28392
0.646376371771703,-0.518867490645695,0.416,0,0.28496
0.653193793517633,-0.499046497668095,0.416,0,0.286
0.666095654359712,-0.479773143922389,0.416,0,0.28704
0.678747030891926,-0.459922909599847,0.416,0,0.28808
0.689118734717827,-0.439563094304127,0.416,0,0.28912
0.698375029984028,-0.419147159810493,0.416,0,0.29016
0.70774743552095,-0.39914357528988,0.416,0,0.2912
0.712823102010819,-0.37890325304086,0.416,0,0.29224
0.718042633450961,-0.35895537940366,0.416,0,0.29328
0.722289003456967,-0.339146486454692,0.416,0,0.29432
0.725107712796846,-0.319830632816478,0.416,0,0.29536
0.727730506319771,-0.300424427290962,0.416,0,0.2964
0.729413569893528,-0.280678052577577,0.416,0,0.29744
0.730249505642222,-0.260534836517711,0.416,0,0.29848
0.729053287158601,-0.241153140687109,0.416,0,0.29952
0.726821946305746,-0.222038859801038,0.416,0,0.30056
0.721347354846305,-0.200842222316715,0.416,0,0.3016
0.71512458793195,-0.179781122574965,0.416,0,0.30264
0.708540485173609,-0.159500674747491,0.416,0,0.30368
0.70194700283017,-0.140012500149846,0.416,0,0.30472
0.695722869152977,-0.119912209153413,0.416,0,0.30576
0.689148466810143,-0.0990606512673118,0.416,0,0.3068
0.682325066219924,-0.0776142544853187,0.416,0,0.30784
0.676629816012941,-0.0555722883719971,0.416,0,0.30888
0.687369368243012,-0.0368832070675653,0.416,0,0.30992
0.700122959192942,-0.0173101301631906,0.416,0,0.31096
0.717409433245739,0.00274801877118058,0.416,0,0.312
0.742108288435329,0.02380236195392,0.416,0,0.31304
0.772617248143724,0.04219092193153,0.416,0,0.31408
0.809268581142233,0.0600777812554041,0.416,0,0.31512
0.858333867460537,0.0803638073669601,0.416,0,0.31616
0.915339667598348,0.102491033588644,0.416,0,0.3172
0.968917131628631,0.12270796648297,0.416,0,0.31824
1.01588955491219,0.14206891482911,0.416,0,0.31928
1.06296359769796,0.161871528495913,0.416,0,0.32032
1.11185765370727,0.182319059817623,0.416,0,0.32136
1.16319990577946,0.203517376382217,0.416,0,0.3224
1.20928155980937,0.223865572716154,0.416,0,0.32344
1.24933741131099,0.242604128051079,0.416,0,0.32448
1.28243294649957,0.260925319974443,0.416,0,0.32552
1.3129558053483,0.279266844689429,0.416,0,0.32656
1.33624487469171,0.301764997459874,0.416,0,0.3276
1.35608936254596,0.32428769621785,0.416,0,0.32864
1.36938319677304,0.344504931326041,0.416,0,0.32968
1.3731729878634,0.362837241965492,0.416,0,0.33072
1.37639278509522,0.380043733103194,0.416,0,0.33176
1.37923977297771,0.396575602780125,0.416,0,0.3328
1.38997360318981,0.479617338086858,0.416,0,0.33696
1.39279342522477,0.499490075147505,0.416,0,0.338
1.39502853814131,0.51955002410446,0.416,0,0.33904
1.39643779707417,0.539999611256706,0.416,0,0.34008
1.39714977955607,0.560559775211498,0.416,0,0.34112
1.39741513524978,0.580921177276315,0.416,0,0.34216
1.39738772950131,0.600377054444679,0.416,0,0.3432
1.39682875491341,0.619925725648232,0.416,0,0.34424
1.39542105340806,0.639830245502663,0.416,0,0.34528
1.39368942595876,0.660787766556731,0.416,0,0.34632
1.39205858916942,0.682250486292048,0.416,0,0.34736
1.38898624320692,0.740159811218908,0.416,0,0.35048
1.38843546859514,0.759076056970928,0.416,0,0.35152
1.38800157769253,0.77978609393302,0.416,0,0.35256
1.38738268562821,0.798890586006545,0.416,0,0.3536
1.38664900288395,0.817587099672926,0.416,0,0.35464
1.38590484660868,0.836564066901992,0.416,0,0.35568
1.37647509826617,0.858637674971395,0.416,0,0.35672
1.36061235733387,0.881492815751744,0.416,0,0.35776
1.30476506270939,0.900575088484521,0.416,0,0.3588
1.21143966036839,0.918500638745566,0.416,0,0.35984
1.04144681503538,0.937526757370181,0.416,0,0.36088
0.765359213178072,0.959152551708676,0.416,0,0.36192
0.442697481367106,0.978277012381557,0.416,0,0.36296
