"Velocity[i] (m/s)","Normalized Radius","X (m)","Y (m)","Z (m)"
1.35084938861492,0.416531151842273,0.416,0,0.33384
1.36123040910692,0.437454419516126,0.416,0,0.33488
1.37053272007145,0.459002393829808,0.416,0,0.33592
1.3852262504466,0.703055078114597,0.416,0,0.3484
1.38403535846265,0.721466281430321,0.416,0,0.34944
0.107845585383565,-0.976745940424564,0.416,0,0.26104
0.159541216238401,-0.958301228919823,0.416,0,0.26208
0.206209209327167,-0.938184647183877,0.416,0,0.26312
0.244031828660946,-0.91914247775776,0.416,0,0.26416
0.275369500664747,-0.902143710637373,0.416,0,0.2652
0.306710199163183,-0.883523687894555,0.416,0,0.26624
0.341900203003472,-0.860530510033713,0.416,0,0.26728
0.371326567882678,-0.840070991938256,0.416,0,0.26832
0.400356277039396,-0.819154397592166,0.416,0,0.26936
0.427189435346281,-0.798266642301956,0.416,0,0.2704
0.451605600444861,-0.778174068477797,0.416,0,0.27144
0.473183101729634,-0.758238479055113,0.416,0,0.27248
0.493634045209602,-0.738029687169057,0.416,0,0.27352
0.513396315744086,-0.717992644541379,0.416,0,0.27456
0.530444237370072,-0.699140680102379,0.416,0,0.2756
0.546414982056061,-0.680210255468247,0.416,0,0.27664
0.5622594751422,-0.660805836667103,0.416,0,0.27768
0.577938986603712,-0.639967356460381,0.416,0,0.27872
0.592216775300058,-0.620077216287876,0.416,0,0.27976
0.606021529342697,-0.599643242431481,0.416,0,0.2808
0.618411730350059,-0.580124988264172,0.416,0,0.28184
0.630220157906754,-0.560168121531813,0.416,0,0.28288
0.641516847281426,-0.540141525257043,0.416,0,0.28392
0.652733200548881,-0.518867490645695,0.416,0,0.28496
0.662636603200435,-0.499046497668095,0.416,0,0.286
0.672069783335202,-0.479773143922389,0.416,0,0.28704
0.681016333782371,-0.459922909599847,0.416,0,0.28808
0.689204505210897,-0.439563094304127,0.416,0,0.28912
0.696781127097392,-0.419147159810493,0.416,0,0.29016
0.70379986508842,-0.39914357528988,0.416,0,0.2912
0.710786679056872,-0.37890325304086,0.416,0,0.29224
0.717512691912237,-0.35895537940366,0.416,0,0.29328
0.723625235086973,-0.339146486454692,0.416,0,0.29432
0.729693122160942,-0.319830632816478,0.416,0,0.29536
0.735433816271939,-0.300424427290962,0.416,0,0.2964
0.740418671179486,-0.280678052577577,0.416,0,0.29744
0.744990801751983,-0.260534836517711,0.416,0,0.29848
0.749511336637478,-0.241153140687109,0.416,0,0.29952
0.75441492355867,-0.222038859801038,0.416,0,0.30056
0.760930693249784,-0.200842222316715,0.416,0,0.3016
0.766687318081682,-0.179781122574965,0.416,0,0.30264
0.771407929845606,-0.159500674747491,0.416,0,0.30368
0.776646706591525,-0.140012500149846,0.416,0,0.30472
0.783019578211699,-0.119912209153413,0.416,0,0.30576
0.789320162713659,-0.0990606512673118,0.416,0,0.3068
0.795352291884587,-0.0776142544853187,0.416,0,0.30784
0.800721651561362,-0.0555722883719971,0.416,0,0.30888
0.809023995752696,-0.0368832070675653,0.416,0,0.30992
0.816541967964887,-0.0173101301631906,0.416,0,0.31096
0.824410307300033,0.00274801877118058,0.416,0,0.312
0.833831932775918,0.02380236195392,0.416,0,0.31304
0.843711957675541,0.04219092193153,0.416,0,0.31408
0.854231884083045,0.0600777812554041,0.416,0,0.31512
0.869647880038747,0.0803638073669601,0.416,0,0.31616
0.887828115620189,0.102491033588644,0.416,0,0.3172
0.907391687865451,0.12270796648297,0.416,0,0.31824
0.931138838108964,0.14206891482911,0.416,0,0.31928
0.956990354368874,0.161871528495913,0.416,0,0.32032
0.985356311839433,0.182319059817623,0.416,0,0.32136
1.01590862690568,0.203517376382217,0.416,0,0.3224
1.04957062766565,0.223865572716154,0.416,0,0.32344
1.08553272383401,0.242604128051079,0.416,0,0.32448
1.12092069632936,0.260925319974443,0.416,0,0.32552
1.1566913492799,0.279266844689429,0.416,0,0.32656
1.1996637106023,0.301764997459874,0.416,0,0.3276
1.24596592651432,0.32428769621785,0.416,0,0.32864
1.28328361285183,0.344504931326041,0.416,0,0.32968
1.30477125699104,0.362837241965492,0.416,0,0.33072
1.32347015491784,0.380043733103194,0.416,0,0.33176
1.34030578615169,0.396575602780125,0.416,0,0.3328
1.37726667426886,0.479617338086858,0.416,0,0.33696
1.38011499234867,0.499490075147505,0.416,0,0.338
1.38252898867267,0.51955002410446,0.416,0,0.33904
1.38436888508285,0.539999611256706,0.416,0,0.34008
1.38582825246313,0.560559775211498,0.416,0,0.34112
1.38708501600474,0.580921177276315,0.416,0,0.34216
1.38721574267782,0.600377054444679,0.416,0,0.3432
1.38734067030396,0.619925725648232,0.416,0,0.34424
1.3872577804544,0.639830245502663,0.416,0,0.34528
1.38683009900896,0.660787766556731,0.416,0,0.34632
1.386063476647,0.682250486292048,0.416,0,0.34736
1.38167154319076,0.740159811218908,0.416,0,0.35048
1.37736829274993,0.759076056970928,0.416,0,0.35152
1.37199304640491,0.77978609393302,0.416,0,0.35256
1.36473369565187,0.798890586006545,0.416,0,0.3536
1.35536075122189,0.817587099672926,0.416,0,0.35464
1.34416846534457,0.836564066901992,0.416,0,0.35568
1.31743993726871,0.858637674971395,0.416,0,0.35672
1.27928758050836,0.881492815751744,0.416,0,0.35776
1.21577634768185,0.900575088484521,0.416,0,0.3588
1.13227723430834,0.918500638745566,0.416,0,0.35984
1.00160490195804,0.937526757370181,0.416,0,0.36088
0.78430753003026,0.959152551708676,0.416,0,0.36192
0.499929145358481,0.978277012381557,0.416,0,0.36296
