"Velocity[i] (m/s)","Normalized Radius","X (m)","Y (m)","Z (m)"
1.39276480325574,0.416531151842273,0.416,0,0.33384
1.39875463123333,0.437454419516126,0.416,0,0.33488
1.40431083823004,0.459002393829808,0.416,0,0.33592
1.4124273926558,0.703055078114597,0.416,0,0.3484
1.41164761822745,0.721466281430321,0.416,0,0.34944
0.0373466317739035,-0.976745940424564,0.416,0,0.26104
0.0655338003048229,-0.958301228919823,0.416,0,0.26208
0.098627276972951,-0.938184647183877,0.416,0,0.26312
0.13293376287044,-0.91914247775776,0.416,0,0.26416
0.16538069694507,-0.902143710637373,0.416,0,0.2652
0.203287335554044,-0.883523687894555,0.416,0,0.26624
0.253085109457647,-0.860530510033713,0.416,0,0.26728
0.302950843814303,-0.840070991938256,0.416,0,0.26832
0.35667446858034,-0.819154397592166,0.416,0,0.26936
0.407749784908215,-0.798266642301956,0.416,0,0.2704
0.452952982017182,-0.778174068477797,0.416,0,0.27144
0.482118357536023,-0.758238479055113,0.416,0,0.27248
0.504035481148393,-0.738029687169057,0.416,0,0.27352
0.522020838819875,-0.717992644541379,0.416,0,0.27456
0.532240413244596,-0.699140680102379,0.416,0,0.2756
0.538758842600159,-0.680210255468247,0.416,0,0.27664
0.545245597972774,-0.660805836667103,0.416,0,0.27768
0.546953292682657,-0.639967356460381,0.416,0,0.27872
0.549676300465354,-0.620077216287876,0.416,0,0.27976
0.55389912490008,-0.599643242431481,0.416,0,0.2808
0.560494881969061,-0.580124988264172,0.416,0,0.28184
0.56778219102132,-0.560168121531813,0.416,0,0.28288
0.574950288810199,-0.540141525257043,0.416,0,0.28392
0.583942179811143,-0.518867490645695,0.416,0,0.28496
0.592772825843122,-0.499046497668095,0.416,0,0.286
0.6066190127412,-0.479773143922389,0.416,0,0.28704
0.619976120736853,-0.459922909599847,0.416,0,0.28808
0.63054794819452,-0.439563094304127,0.416,0,0.28912
0.639024940575259,-0.419147159810493,0.416,0,0.29016
0.651044731523046,-0.39914357528988,0.416,0,0.2912
0.660567444166202,-0.37890325304086,0.416,0,0.29224
0.669648502980611,-0.35895537940366,0.416,0,0.29328
0.678591739781279,-0.339146486454692,0.416,0,0.29432
0.687504147789743,-0.319830632816478,0.416,0,0.29536
0.695712122951061,-0.300424427290962,0.416,0,0.2964
0.702220065154244,-0.280678052577577,0.416,0,0.29744
0.707526782659309,-0.260534836517711,0.416,0,0.29848
0.709062241960855,-0.241153140687109,0.416,0,0.29952
0.709980857151521,-0.222038859801038,0.416,0,0.30056
0.709469077791884,-0.200842222316715,0.416,0,0.3016
0.707658537572131,-0.179781122574965,0.416,0,0.30264
0.704721819006075,-0.159500674747491,0.416,0,0.30368
0.701086476120292,-0.140012500149846,0.416,0,0.30472
0.697043170872893,-0.119912209153413,0.416,0,0.30576
0.692382910619627,-0.0990606512673118,0.416,0,0.3068
0.687550973372805,-0.0776142544853187,0.416,0,0.30784
0.6832948858052,-0.0555722883719971,0.416,0,0.30888
0.682137483650266,-0.0368832070675653,0.416,0,0.30992
0.681664422701963,-0.0173101301631906,0.416,0,0.31096
0.681732309936022,0.00274801877118058,0.416,0,0.312
0.68257260476344,0.02380236195392,0.416,0,0.31304
0.686736465097324,0.04219092193153,0.416,0,0.31408
0.694070515228295,0.0600777812554041,0.416,0,0.31512
0.7083393053237,0.0803638073669601,0.416,0,0.31616
0.725741769296999,0.102491033588644,0.416,0,0.3172
0.750313716794363,0.12270796648297,0.416,0,0.31824
0.787301492300691,0.14206891482911,0.416,0,0.31928
0.829962488737129,0.161871528495913,0.416,0,0.32032
0.879126990418893,0.182319059817623,0.416,0,0.32136
0.933988219374158,0.203517376382217,0.416,0,0.3224
0.998418173363302,0.223865572716154,0.416,0,0.32344
1.07273084760283,0.242604128051079,0.416,0,0.32448
1.13587502152225,0.260925319974443,0.416,0,0.32552
1.19599164956538,0.279266844689429,0.416,0,0.32656
1.25481210229871,0.301764997459874,0.416,0,0.3276
1.30995476079374,0.32428769621785,0.416,0,0.32864
1.34832463386394,0.344504931326041,0.416,0,0.32968
1.36204192174506,0.362837241965492,0.416,0,0.33072
1.37448154615681,0.380043733103194,0.416,0,0.33176
1.38558399667267,0.396575602780125,0.416,0,0.3328
1.40908794911084,0.479617338086858,0.416,0,0.33696
1.41185976815343,0.499490075147505,0.416,0,0.338
1.41405442204052,0.51955002410446,0.416,0,0.33904
1.41555492295766,0.539999611256706,0.416,0,0.34008
1.41651045418325,0.560559775211498,0.416,0,0.34112
1.41710653757156,0.580921177276315,0.416,0,0.34216
1.41691411981979,0.600377054444679,0.416,0,0.3432
1.41650894266429,0.619925725648232,0.416,0,0.34424
1.41559522654045,0.639830245502663,0.416,0,0.34528
1.41443794304026,0.660787766556731,0.416,0,0.34632
1.413389164812,0.682250486292048,0.416,0,0.34736
1.41089790134383,0.740159811218908,0.416,0,0.35048
1.41042515839875,0.759076056970928,0.416,0,0.35152
1.40978191098642,0.77978609393302,0.416,0,0.35256
1.40889224495341,0.798890586006545,0.416,0,0.3536
1.40790908567106,0.817587099672926,0.416,0,0.35464
1.40682581994635,0.836564066901992,0.416,0,0.35568
1.39623225128247,0.858637674971395,0.416,0,0.35672
1.37863206466288,0.881492815751744,0.416,0,0.35776
1.31699484749884,0.900575088484521,0.416,0,0.3588
1.21477740207583,0.918500638745566,0.416,0,0.35984
1.0357354783518,0.937526757370181,0.416,0,0.36088
0.751918017727855,0.959152551708676,0.416,0,0.36192
0.428995368490631,0.978277012381557,0.416,0,0.36296
