"Velocity[i] (m/s)","Normalized Radius","X (m)","Y (m)","Z (m)"
1.39334369365669,0.416531151842273,0.416,0,0.33384
1.40060713769752,0.437454419516126,0.416,0,0.33488
1.40705514568782,0.459002393829808,0.416,0,0.33592
1.40513991351208,0.703055078114597,0.416,0,0.3484
1.40394313894807,0.721466281430321,0.416,0,0.34944
0.0343859438911734,-0.976745940424564,0.416,0,0.26104
0.0633906852034743,-0.958301228919823,0.416,0,0.26208
0.0971311370819986,-0.938184647183877,0.416,0,0.26312
0.131578132980702,-0.91914247775776,0.416,0,0.26416
0.164211837562009,-0.902143710637373,0.416,0,0.2652
0.202278627311367,-0.883523687894555,0.416,0,0.26624
0.252421743756715,-0.860530510033713,0.416,0,0.26728
0.303426301996298,-0.840070991938256,0.416,0,0.26832
0.358576900695606,-0.819154397592166,0.416,0,0.26936
0.411666092850383,-0.798266642301956,0.416,0,0.2704
0.459186270905571,-0.778174068477797,0.416,0,0.27144
0.489328619011336,-0.758238479055113,0.416,0,0.27248
0.51208064326283,-0.738029687169057,0.416,0,0.27352
0.530992028015998,-0.717992644541379,0.416,0,0.27456
0.541357195908362,-0.699140680102379,0.416,0,0.2756
0.547715355009255,-0.680210255468247,0.416,0,0.27664
0.553903837838248,-0.660805836667103,0.416,0,0.27768
0.554926178066423,-0.639967356460381,0.416,0,0.27872
0.557125085061212,-0.620077216287876,0.416,0,0.27976
0.560672884783944,-0.599643242431481,0.416,0,0.2808
0.565819345871091,-0.580124988264172,0.416,0,0.28184
0.57262816584539,-0.560168121531813,0.416,0,0.28288
0.579673707434247,-0.540141525257043,0.416,0,0.28392
0.588364173959472,-0.518867490645695,0.416,0,0.28496
0.597031785500379,-0.499046497668095,0.416,0,0.286
0.61043458399597,-0.479773143922389,0.416,0,0.28704
0.623710281597686,-0.459922909599847,0.416,0,0.28808
0.63455210558445,-0.439563094304127,0.416,0,0.28912
0.643420462191132,-0.419147159810493,0.416,0,0.29016
0.654891743109353,-0.39914357528988,0.416,0,0.2912
0.663770924136532,-0.37890325304086,0.416,0,0.29224
0.672295871875368,-0.35895537940366,0.416,0,0.29328
0.680656031908358,-0.339146486454692,0.416,0,0.29432
0.688961419628422,-0.319830632816478,0.416,0,0.29536
0.69675804239783,-0.300424427290962,0.416,0,0.2964
0.703084942173359,-0.280678052577577,0.416,0,0.29744
0.708619607898948,-0.260534836517711,0.416,0,0.29848
0.711733942755309,-0.241153140687109,0.416,0,0.29952
0.714487603524823,-0.222038859801038,0.416,0,0.30056
0.716874379048712,-0.200842222316715,0.416,0,0.3016
0.718196921799822,-0.179781122574965,0.416,0,0.30264
0.718881861374225,-0.159500674747491,0.416,0,0.30368
0.717308033334017,-0.140012500149846,0.416,0,0.30472
0.713743229319687,-0.119912209153413,0.416,0,0.30576
0.710060550356117,-0.0990606512673118,0.416,0,0.3068
0.706628582949355,-0.0776142544853187,0.416,0,0.30784
0.703343537473077,-0.0555722883719971,0.416,0,0.30888
0.699190578579291,-0.0368832070675653,0.416,0,0.30992
0.695724371376503,-0.0173101301631906,0.416,0,0.31096
0.692398651061249,0.00274801877118058,0.416,0,0.312
0.689072509580036,0.02380236195392,0.416,0,0.31304
0.688307938603412,0.04219092193153,0.416,0,0.31408
0.69061589205249,0.0600777812554041,0.416,0,0.31512
0.697807938602415,0.0803638073669601,0.416,0,0.31616
0.706974819874802,0.102491033588644,0.416,0,0.3172
0.725427480182737,0.12270796648297,0.416,0,0.31824
0.757689181575737,0.14206891482911,0.416,0,0.31928
0.796615050788192,0.161871528495913,0.416,0,0.32032
0.842443854350728,0.182319059817623,0.416,0,0.32136
0.894406756618164,0.203517376382217,0.416,0,0.3224
0.958799666839125,0.223865572716154,0.416,0,0.32344
1.03471933703114,0.242604128051079,0.416,0,0.32448
1.10049719502895,0.260925319974443,0.416,0,0.32552
1.16365517449333,0.279266844689429,0.416,0,0.32656
1.22868247845266,0.301764997459874,0.416,0,0.3276
1.29031640592207,0.32428769621785,0.416,0,0.32864
1.33399489030377,0.344504931326041,0.416,0,0.32968
1.35317757036853,0.362837241965492,0.416,0,0.33072
1.36987008263017,0.380043733103194,0.416,0,0.33176
1.38460468775473,0.396575602780125,0.416,0,0.3328
1.41182850285945,0.479617338086858,0.416,0,0.33696
1.41335264514769,0.499490075147505,0.416,0,0.338
1.41443170148481,0.51955002410446,0.416,0,0.33904
1.4149708309928,0.539999611256706,0.416,0,0.34008
1.41513226322285,0.560559775211498,0.416,0,0.34112
1.41505936469006,0.580921177276315,0.416,0,0.34216
1.4137777090713,0.600377054444679,0.416,0,0.3432
1.41243966064191,0.619925725648232,0.416,0,0.34424
1.41072373852693,0.639830245502663,0.416,0,0.34528
1.40876225882088,0.660787766556731,0.416,0,0.34632
1.40689903708175,0.682250486292048,0.416,0,0.34736
1.40310402707085,0.740159811218908,0.416,0,0.35048
1.40253951351491,0.759076056970928,0.416,0,0.35152
1.40158557573202,0.77978609393302,0.416,0,0.35256
1.40042889592815,0.798890586006545,0.416,0,0.3536
1.39930054449199,0.817587099672926,0.416,0,0.35464
1.39817289430207,0.836564066901992,0.416,0,0.35568
1.38876292422984,0.858637674971395,0.416,0,0.35672
1.37287631540902,0.881492815751744,0.416,0,0.35776
1.31391453995421,0.900575088484521,0.416,0,0.3588
1.21341097207415,0.918500638745566,0.416,0,0.35984
1.03514973199641,0.937526757370181,0.416,0,0.36088
0.751547348559888,0.959152551708676,0.416,0,0.36192
0.425944027158974,0.978277012381557,0.416,0,0.36296
