"Velocity[i] (m/s)","Normalized Radius","X (m)","Y (m)","Z (m)"
1.38632113078141,0.416531151842273,0.416,0,0.33384
1.38739444430203,0.437454419516126,0.416,0,0.33488
1.38852100755037,0.459002393829808,0.416,0,0.33592
1.39762964272137,0.703055078114597,0.416,0,0.3484
1.39672628204781,0.721466281430321,0.416,0,0.34944
0.0586248752275458,-0.976745940424564,0.416,0,0.26104
0.0890102124549915,-0.958301228919823,0.416,0,0.26208
0.121248138265559,-0.938184647183877,0.416,0,0.26312
0.153916321999146,-0.91914247775776,0.416,0,0.26416
0.184414249188758,-0.902143710637373,0.416,0,0.2652
0.218721364983711,-0.883523687894555,0.416,0,0.26624
0.263776364755394,-0.860530510033713,0.416,0,0.26728
0.31123385658495,-0.840070991938256,0.416,0,0.26832
0.362407280680856,-0.819154397592166,0.416,0,0.26936
0.414458171078443,-0.798266642301956,0.416,0,0.2704
0.463048782496861,-0.778174068477797,0.416,0,0.27144
0.500348975242001,-0.758238479055113,0.416,0,0.27248
0.532274431856532,-0.738029687169057,0.416,0,0.27352
0.561591235975177,-0.717992644541379,0.416,0,0.27456
0.581688921937929,-0.699140680102379,0.416,0,0.2756
0.596747300064263,-0.680210255468247,0.416,0,0.27664
0.609079201514423,-0.660805836667103,0.416,0,0.27768
0.615935119988745,-0.639967356460381,0.416,0,0.27872
0.622797627388312,-0.620077216287876,0.416,0,0.27976
0.629475105836258,-0.599643242431481,0.416,0,0.2808
0.634245984538697,-0.580124988264172,0.416,0,0.28184
0.641528848725972,-0.560168121531813,0.416,0,0.28288
0.647362125572685,-0.540141525257043,0.416,0,0.28392
0.654170407138489,-0.518867490645695,0.416,0,0.28496
0.661472280774126,-0.499046497668095,0.416,0,0.286
0.674426710241705,-0.479773143922389,0.416,0,0.28704
0.687330706348556,-0.459922909599847,0.416,0,0.28808
0.698375578214106,-0.439563094304127,0.416,0,0.28912
0.708472348799661,-0.419147159810493,0.416,0,0.29016
0.718812963075277,-0.39914357528988,0.416,0,0.2912
0.724511132712217,-0.37890325304086,0.416,0,0.29224
0.73037160125753,-0.35895537940366,0.416,0,0.29328
0.735180770163074,-0.339146486454692,0.416,0,0.29432
0.738267647474684,-0.319830632816478,0.416,0,0.29536
0.741140253752217,-0.300424427290962,0.416,0,0.2964
0.742906566887861,-0.280678052577577,0.416,0,0.29744
0.74355990199879,-0.260534836517711,0.416,0,0.29848
0.742019194419353,-0.241153140687109,0.416,0,0.29952
0.739692129094246,-0.222038859801038,0.416,0,0.30056
0.735254404165605,-0.200842222316715,0.416,0,0.3016
0.730248386225971,-0.179781122574965,0.416,0,0.30264
0.724651218599366,-0.159500674747491,0.416,0,0.30368
0.720044459616707,-0.140012500149846,0.416,0,0.30472
0.716915563630152,-0.119912209153413,0.416,0,0.30576
0.713467315697823,-0.0990606512673118,0.416,0,0.3068
0.709781253326177,-0.0776142544853187,0.416,0,0.30784
0.707141617574684,-0.0555722883719971,0.416,0,0.30888
0.72181997937866,-0.0368832070675653,0.416,0,0.30992
0.737699415013456,-0.0173101301631906,0.416,0,0.31096
0.757566222002421,0.00274801877118058,0.416,0,0.312
0.7843970014158,0.02380236195392,0.416,0,0.31304
0.815244730416815,0.04219092193153,0.416,0,0.31408
0.850058600140945,0.0600777812554041,0.416,0,0.31512
0.894795455961902,0.0803638073669601,0.416,0,0.31616
0.945809094224993,0.102491033588644,0.416,0,0.3172
0.993626770500964,0.12270796648297,0.416,0,0.31824
1.03534520705042,0.14206891482911,0.416,0,0.31928
1.07750064060746,0.161871528495913,0.416,0,0.32032
1.12179279631259,0.182319059817623,0.416,0,0.32136
1.16903704682632,0.203517376382217,0.416,0,0.3224
1.21218502486023,0.223865572716154,0.416,0,0.32344
1.25137654356415,0.242604128051079,0.416,0,0.32448
1.28528371762064,0.260925319974443,0.416,0,0.32552
1.31713333044313,0.279266844689429,0.416,0,0.32656
1.34162998904898,0.301764997459874,0.416,0,0.3276
1.36337310290312,0.32428769621785,0.416,0,0.32864
1.37924936539007,0.344504931326041,0.416,0,0.32968
1.38150135581679,0.362837241965492,0.416,0,0.33072
1.38341458505502,0.380043733103194,0.416,0,0.33176
1.38505982507902,0.396575602780125,0.416,0,0.3328
1.39019204035075,0.479617338086858,0.416,0,0.33696
1.39298369492368,0.499490075147505,0.416,0,0.338
1.39548616926283,0.51955002410446,0.416,0,0.33904
1.39757083454838,0.539999611256706,0.416,0,0.34008
1.39926348226516,0.560559775211498,0.416,0,0.34112
1.40067493587242,0.580921177276315,0.416,0,0.34216
1.40165133723142,0.600377054444679,0.416,0,0.3432
1.40209508722543,0.619925725648232,0.416,0,0.34424
1.4014392550895,0.639830245502663,0.416,0,0.34528
1.40018502573846,0.660787766556731,0.416,0,0.34632
1.39881678985839,0.682250486292048,0.416,0,0.34736
1.39585913581321,0.740159811218908,0.416,0,0.35048
1.39506126712735,0.759076056970928,0.416,0,0.35152
1.39418317764676,0.77978609393302,0.416,0,0.35256
1.39303524723019,0.798890586006545,0.416,0,0.3536
1.39186068398977,0.817587099672926,0.416,0,0.35464
1.39075696995283,0.836564066901992,0.416,0,0.35568
1.38139469436745,0.858637674971395,0.416,0,0.35672
1.36588901343261,0.881492815751744,0.416,0,0.35776
1.31091617042551,0.900575088484521,0.416,0,0.3588
1.21848412562521,0.918500638745566,0.416,0,0.35984
1.04906327321937,0.937526757370181,0.416,0,0.36088
0.772894901120821,0.959152551708676,0.416,0,0.36192
0.449860830544891,0.978277012381557,0.416,0,0.36296
