"Velocity[i] (m/s)","Normalized Radius","X (m)","Y (m)","Z (m)"
1.3509383206046,0.416531151842273,0.416,0,0.33384
1.35578041089165,0.437454419516126,0.416,0,0.33488
1.36044929397057,0.459002393829808,0.416,0,0.33592
1.39345290549228,0.703055078114597,0.416,0,0.3484
1.39327821406161,0.721466281430321,0.416,0,0.34944
0.0689136147241061,-0.976745940424564,0.416,0,0.26104
0.110074575403031,-0.958301228919823,0.416,0,0.26208
0.153037886906192,-0.938184647183877,0.416,0,0.26312
0.1918909299558,-0.91914247775776,0.416,0,0.26416
0.225570000616606,-0.902143710637373,0.416,0,0.2652
0.260803979758032,-0.883523687894555,0.416,0,0.26624
0.302065828896377,-0.860530510033713,0.416,0,0.26728
0.337466468292329,-0.840070991938256,0.416,0,0.26832
0.37253691160598,-0.819154397592166,0.416,0,0.26936
0.404451414491754,-0.798266642301956,0.416,0,0.2704
0.433098379877458,-0.778174068477797,0.416,0,0.27144
0.457323930823674,-0.758238479055113,0.416,0,0.27248
0.479505829017123,-0.738029687169057,0.416,0,0.27352
0.500476386007066,-0.717992644541379,0.416,0,0.27456
0.517735945865305,-0.699140680102379,0.416,0,0.2756
0.533262949752443,-0.680210255468247,0.416,0,0.27664
0.548724145661848,-0.660805836667103,0.416,0,0.27768
0.562353107952727,-0.639967356460381,0.416,0,0.27872
0.575233325162893,-0.620077216287876,0.416,0,0.27976
0.587636530590337,-0.599643242431481,0.416,0,0.2808
0.598575376132092,-0.580124988264172,0.416,0,0.28184
0.609221294476893,-0.560168121531813,0.416,0,0.28288
0.619721112054546,-0.540141525257043,0.416,0,0.28392
0.630474332175112,-0.518867490645695,0.416,0,0.28496
0.639991779411552,-0.499046497668095,0.416,0,0.286
0.649147003891563,-0.479773143922389,0.416,0,0.28704
0.658048669381251,-0.459922909599847,0.416,0,0.28808
0.666336350384359,-0.439563094304127,0.416,0,0.28912
0.674000326462095,-0.419147159810493,0.416,0,0.29016
0.680306825017472,-0.39914357528988,0.416,0,0.2912
0.687548547326524,-0.37890325304086,0.416,0,0.29224
0.694329263378661,-0.35895537940366,0.416,0,0.29328
0.699359998412247,-0.339146486454692,0.416,0,0.29432
0.703617481072061,-0.319830632816478,0.416,0,0.29536
0.707665361710575,-0.300424427290962,0.416,0,0.2964
0.710772469913281,-0.280678052577577,0.416,0,0.29744
0.713233715821504,-0.260534836517711,0.416,0,0.29848
0.715047524618786,-0.241153140687109,0.416,0,0.29952
0.716907237951445,-0.222038859801038,0.416,0,0.30056
0.719173926580464,-0.200842222316715,0.416,0,0.3016
0.721048527423333,-0.179781122574965,0.416,0,0.30264
0.72224678769393,-0.159500674747491,0.416,0,0.30368
0.725991752029525,-0.140012500149846,0.416,0,0.30472
0.732593297682075,-0.119912209153413,0.416,0,0.30576
0.739689336801338,-0.0990606512673118,0.416,0,0.3068
0.747296100370747,-0.0776142544853187,0.416,0,0.30784
0.756085537336693,-0.0555722883719971,0.416,0,0.30888
0.775370990876973,-0.0368832070675653,0.416,0,0.30992
0.795327755011398,-0.0173101301631906,0.416,0,0.31096
0.81821272593846,0.00274801877118058,0.416,0,0.312
0.846370894846709,0.02380236195392,0.416,0,0.31304
0.874619149260804,0.04219092193153,0.416,0,0.31408
0.90329709690177,0.0600777812554041,0.416,0,0.31512
0.9385373102645,0.0803638073669601,0.416,0,0.31616
0.978024868636565,0.102491033588644,0.416,0,0.3172
1.01325025392992,0.12270796648297,0.416,0,0.31824
1.04543315488859,0.14206891482911,0.416,0,0.31928
1.07804464635191,0.161871528495913,0.416,0,0.32032
1.11170268178497,0.182319059817623,0.416,0,0.32136
1.14659246793096,0.203517376382217,0.416,0,0.3224
1.17887786582343,0.223865572716154,0.416,0,0.32344
1.20615173997593,0.242604128051079,0.416,0,0.32448
1.2302928550699,0.260925319974443,0.416,0,0.32552
1.25366172566264,0.279266844689429,0.416,0,0.32656
1.27763690081725,0.301764997459874,0.416,0,0.3276
1.30050758590308,0.32428769621785,0.416,0,0.32864
1.31960993541763,0.344504931326041,0.416,0,0.32968
1.33006597402278,0.362837241965492,0.416,0,0.33072
1.33855232622759,0.380043733103194,0.416,0,0.33176
1.34583818834977,0.396575602780125,0.416,0,0.3328
1.36495265894932,0.479617338086858,0.416,0,0.33696
1.36946425497561,0.499490075147505,0.416,0,0.338
1.37375593330477,0.51955002410446,0.416,0,0.33904
1.37769866527211,0.539999611256706,0.416,0,0.34008
1.38131799773807,0.560559775211498,0.416,0,0.34112
1.38466966927145,0.580921177276315,0.416,0,0.34216
1.38750806107935,0.600377054444679,0.416,0,0.3432
1.38992934395475,0.619925725648232,0.416,0,0.34424
1.39149264611645,0.639830245502663,0.416,0,0.34528
1.39237352241011,0.660787766556731,0.416,0,0.34632
1.39297913545614,0.682250486292048,0.416,0,0.34736
1.39220648820288,0.740159811218908,0.416,0,0.35048
1.39002015574113,0.759076056970928,0.416,0,0.35152
1.38729542233562,0.77978609393302,0.416,0,0.35256
1.38302272719495,0.798890586006545,0.416,0,0.3536
1.37681378873789,0.817587099672926,0.416,0,0.35464
1.36900682819847,0.836564066901992,0.416,0,0.35568
1.34550986107558,0.858637674971395,0.416,0,0.35672
1.31000150669732,0.881492815751744,0.416,0,0.35776
1.2459518841431,0.900575088484521,0.416,0,0.3588
1.15779817204301,0.918500638745566,0.416,0,0.35984
1.01693829464143,0.937526757370181,0.416,0,0.36088
0.792056576415251,0.959152551708676,0.416,0,0.36192
0.510572017137731,0.978277012381557,0.416,0,0.36296
