"Velocity[i] (m/s)","Normalized Radius","X (m)","Y (m)","Z (m)"
1.41810084070232,0.416531151842273,0.416,0,0.33384
1.42305872692196,0.437454419516126,0.416,0,0.33488
1.42717510793488,0.459002393829808,0.416,0,0.33592
1.41563869703163,0.703055078114597,0.416,0,0.3484
1.41495893758215,0.721466281430321,0.416,0,0.34944
0.0384279482177712,-0.976745940424564,0.416,0,0.26104
0.0697549293190521,-0.958301228919823,0.416,0,0.26208
0.10881338800709,-0.938184647183877,0.416,0,0.26312
0.14992773528868,-0.91914247775776,0.416,0,0.26416
0.189421527125145,-0.902143710637373,0.416,0,0.2652
0.232889605457677,-0.883523687894555,0.416,0,0.26624
0.285497431538538,-0.860530510033713,0.416,0,0.26728
0.335645011438407,-0.840070991938256,0.416,0,0.26832
0.385944804005906,-0.819154397592166,0.416,0,0.26936
0.431324645398209,-0.798266642301956,0.416,0,0.2704
0.468442540702651,-0.778174068477797,0.416,0,0.27144
0.492291523282277,-0.758238479055113,0.416,0,0.27248
0.509869197791782,-0.738029687169057,0.416,0,0.27352
0.525371975374807,-0.717992644541379,0.416,0,0.27456
0.53519894147692,-0.699140680102379,0.416,0,0.2756
0.541719793906074,-0.680210255468247,0.416,0,0.27664
0.547336287655315,-0.660805836667103,0.416,0,0.27768
0.551477489622406,-0.639967356460381,0.416,0,0.27872
0.554555819834146,-0.620077216287876,0.416,0,0.27976
0.557027262618871,-0.599643242431481,0.416,0,0.2808
0.563815489069095,-0.580124988264172,0.416,0,0.28184
0.566061574975757,-0.560168121531813,0.416,0,0.28288
0.567974881288967,-0.540141525257043,0.416,0,0.28392
0.575822397526725,-0.518867490645695,0.416,0,0.28496
0.582069311239922,-0.499046497668095,0.416,0,0.286
0.597157938399788,-0.479773143922389,0.416,0,0.28704
0.610955072782902,-0.459922909599847,0.416,0,0.28808
0.619502146184946,-0.439563094304127,0.416,0,0.28912
0.625751068949463,-0.419147159810493,0.416,0,0.29016
0.636774084790644,-0.39914357528988,0.416,0,0.2912
0.644064139305765,-0.37890325304086,0.416,0,0.29224
0.650657067634695,-0.35895537940366,0.416,0,0.29328
0.657132769979408,-0.339146486454692,0.416,0,0.29432
0.665077794546097,-0.319830632816478,0.416,0,0.29536
0.67199501871506,-0.300424427290962,0.416,0,0.2964
0.677838411856374,-0.280678052577577,0.416,0,0.29744
0.683326596017388,-0.260534836517711,0.416,0,0.29848
0.687618340940028,-0.241153140687109,0.416,0,0.29952
0.691511405411704,-0.222038859801038,0.416,0,0.30056
0.694548231911846,-0.200842222316715,0.416,0,0.3016
0.697417892979097,-0.179781122574965,0.416,0,0.30264
0.700718100366129,-0.159500674747491,0.416,0,0.30368
0.699346946554611,-0.140012500149846,0.416,0,0.30472
0.693512482614503,-0.119912209153413,0.416,0,0.30576
0.689657919569379,-0.0990606512673118,0.416,0,0.3068
0.688243331128607,-0.0776142544853187,0.416,0,0.30784
0.68814328141336,-0.0555722883719971,0.416,0,0.30888
0.678880190773598,-0.0368832070675653,0.416,0,0.30992
0.670941387679659,-0.0173101301631906,0.416,0,0.31096
0.66212855947533,0.00274801877118058,0.416,0,0.312
0.650380122870938,0.02380236195392,0.416,0,0.31304
0.643139754121119,0.04219092193153,0.416,0,0.31408
0.640178565282917,0.0600777812554041,0.416,0,0.31512
0.647637167337495,0.0803638073669601,0.416,0,0.31616
0.661851890722608,0.102491033588644,0.416,0,0.3172
0.685542566694357,0.12270796648297,0.416,0,0.31824
0.72955711290769,0.14206891482911,0.416,0,0.31928
0.782841797087898,0.161871528495913,0.416,0,0.32032
0.844455328402309,0.182319059817623,0.416,0,0.32136
0.915937168549731,0.203517376382217,0.416,0,0.3224
0.995997850060634,0.223865572716154,0.416,0,0.32344
1.07079536986926,0.242604128051079,0.416,0,0.32448
1.13513600048856,0.260925319974443,0.416,0,0.32552
1.19643009634469,0.279266844689429,0.416,0,0.32656
1.25751851209823,0.301764997459874,0.416,0,0.3276
1.31802321800252,0.32428769621785,0.416,0,0.32864
1.35912365079596,0.344504931326041,0.416,0,0.32968
1.38015092584724,0.362837241965492,0.416,0,0.33072
1.39739085435177,0.380043733103194,0.416,0,0.33176
1.41224682990877,0.396575602780125,0.416,0,0.3328
1.42971318041736,0.479617338086858,0.416,0,0.33696
1.42941879739021,0.499490075147505,0.416,0,0.338
1.42890776168362,0.51955002410446,0.416,0,0.33904
1.42795995185778,0.539999611256706,0.416,0,0.34008
1.42671913654186,0.560559775211498,0.416,0,0.34112
1.42535576249154,0.580921177276315,0.416,0,0.34216
1.42332770639763,0.600377054444679,0.416,0,0.3432
1.42140876805918,0.619925725648232,0.416,0,0.34424
1.41960446267875,0.639830245502663,0.416,0,0.34528
1.41806165600877,0.660787766556731,0.416,0,0.34632
1.41680952997065,0.682250486292048,0.416,0,0.34736
1.41431315713263,0.740159811218908,0.416,0,0.35048
1.41353041825455,0.759076056970928,0.416,0,0.35152
1.4125778371713,0.77978609393302,0.416,0,0.35256
1.41086141371863,0.798890586006545,0.416,0,0.3536
1.4089143101945,0.817587099672926,0.416,0,0.35464
1.40693617318351,0.836564066901992,0.416,0,0.35568
1.39112833518635,0.858637674971395,0.416,0,0.35672
1.36367160875424,0.881492815751744,0.416,0,0.35776
1.29231822055176,0.900575088484521,0.416,0,0.3588
1.17998834960629,0.918500638745566,0.416,0,0.35984
0.99222982865677,0.937526757370181,0.416,0,0.36088
0.71158386746998,0.959152551708676,0.416,0,0.36192
0.40343024071977,0.978277012381557,0.416,0,0.36296
