"Velocity[i] (m/s)","Normalized Radius","X (m)","Y (m)","Z (m)"
1.38528808005836,0.416531151842273,0.416,0,0.33384
1.39427601432695,0.437454419516126,0.416,0,0.33488
1.4018989727303,0.459002393829808,0.416,0,0.33592
1.39774991296774,0.703055078114597,0.416,0,0.3484
1.39674703059922,0.721466281430321,0.416,0,0.34944
0.0351653514384132,-0.976745940424564,0.416,0,0.26104
0.0671344424044671,-0.958301228919823,0.416,0,0.26208
0.104459411900019,-0.938184647183877,0.416,0,0.26312
0.142016451872388,-0.91914247775776,0.416,0,0.26416
0.176902518699298,-0.902143710637373,0.416,0,0.2652
0.214551724038162,-0.883523687894555,0.416,0,0.26624
0.260858689535095,-0.860530510033713,0.416,0,0.26728
0.307520259969503,-0.840070991938256,0.416,0,0.26832
0.354713146174562,-0.819154397592166,0.416,0,0.26936
0.399561918377082,-0.798266642301956,0.416,0,0.2704
0.438991316757824,-0.778174068477797,0.416,0,0.27144
0.465750275846886,-0.758238479055113,0.416,0,0.27248
0.487038941045352,-0.738029687169057,0.416,0,0.27352
0.506334905625516,-0.717992644541379,0.416,0,0.27456
0.520170877007195,-0.699140680102379,0.416,0,0.2756
0.531249082029653,-0.680210255468247,0.416,0,0.27664
0.542196826149895,-0.660805836667103,0.416,0,0.27768
0.546154346025063,-0.639967356460381,0.416,0,0.27872
0.550572527762932,-0.620077216287876,0.416,0,0.27976
0.5545786545609,-0.599643242431481,0.416,0,0.2808
0.556414749235168,-0.580124988264172,0.416,0,0.28184
0.561705301062246,-0.560168121531813,0.416,0,0.28288
0.569889495339492,-0.540141525257043,0.416,0,0.28392
0.5788974555973,-0.518867490645695,0.416,0,0.28496
0.588699543133523,-0.499046497668095,0.416,0,0.286
0.603486897863999,-0.479773143922389,0.416,0,0.28704
0.61981227380639,-0.459922909599847,0.416,0,0.28808
0.636224328345883,-0.439563094304127,0.416,0,0.28912
0.652229059421461,-0.419147159810493,0.416,0,0.29016
0.6673985343447,-0.39914357528988,0.416,0,0.2912
0.677956053151964,-0.37890325304086,0.416,0,0.29224
0.688423043255992,-0.35895537940366,0.416,0,0.29328
0.696995348163194,-0.339146486454692,0.416,0,0.29432
0.703222832448844,-0.319830632816478,0.416,0,0.29536
0.709285162068877,-0.300424427290962,0.416,0,0.2964
0.71480993403899,-0.280678052577577,0.416,0,0.29744
0.719216056986504,-0.260534836517711,0.416,0,0.29848
0.719488547167617,-0.241153140687109,0.416,0,0.29952
0.71907427123067,-0.222038859801038,0.416,0,0.30056
0.717680493305763,-0.200842222316715,0.416,0,0.3016
0.71620675823354,-0.179781122574965,0.416,0,0.30264
0.715558585607982,-0.159500674747491,0.416,0,0.30368
0.711917770717984,-0.140012500149846,0.416,0,0.30472
0.704765914390858,-0.119912209153413,0.416,0,0.30576
0.698301240548583,-0.0990606512673118,0.416,0,0.3068
0.692121867206427,-0.0776142544853187,0.416,0,0.30784
0.686050914000129,-0.0555722883719971,0.416,0,0.30888
0.680950409038736,-0.0368832070675653,0.416,0,0.30992
0.6764430541959,-0.0173101301631906,0.416,0,0.31096
0.672007767335264,0.00274801877118058,0.416,0,0.312
0.666775184973796,0.02380236195392,0.416,0,0.31304
0.668849746692679,0.04219092193153,0.416,0,0.31408
0.674576042950821,0.0600777812554041,0.416,0,0.31512
0.686300521097264,0.0803638073669601,0.416,0,0.31616
0.701495859141136,0.102491033588644,0.416,0,0.3172
0.722319665082449,0.12270796648297,0.416,0,0.31824
0.752196600806528,0.14206891482911,0.416,0,0.31928
0.78865849531337,0.161871528495913,0.416,0,0.32032
0.832083464038412,0.182319059817623,0.416,0,0.32136
0.882941115586992,0.203517376382217,0.416,0,0.3224
0.943268611765113,0.223865572716154,0.416,0,0.32344
1.01179056373684,0.242604128051079,0.416,0,0.32448
1.07751685473263,0.260925319974443,0.416,0,0.32552
1.14336446760557,0.279266844689429,0.416,0,0.32656
1.20966170984794,0.301764997459874,0.416,0,0.3276
1.27494419548583,0.32428769621785,0.416,0,0.32864
1.31980645586523,0.344504931326041,0.416,0,0.32968
1.3407151561674,0.362837241965492,0.416,0,0.33072
1.35883747278634,0.380043733103194,0.416,0,0.33176
1.37583950460554,0.396575602780125,0.416,0,0.3328
1.40701854492344,0.479617338086858,0.416,0,0.33696
1.40842570666947,0.499490075147505,0.416,0,0.338
1.40922780145219,0.51955002410446,0.416,0,0.33904
1.40927112495593,0.539999611256706,0.416,0,0.34008
1.40878893277541,0.560559775211498,0.416,0,0.34112
1.40808839903206,0.580921177276315,0.416,0,0.34216
1.40662899676709,0.600377054444679,0.416,0,0.3432
1.40505383650405,0.619925725648232,0.416,0,0.34424
1.4031700496675,0.639830245502663,0.416,0,0.34528
1.4011666818774,0.660787766556731,0.416,0,0.34632
1.39943576287332,0.682250486292048,0.416,0,0.34736
1.39609389732285,0.740159811218908,0.416,0,0.35048
1.39562063068287,0.759076056970928,0.416,0,0.35152
1.39509936515903,0.77978609393302,0.416,0,0.35256
1.39434415755701,0.798890586006545,0.416,0,0.3536
1.39339830479899,0.817587099672926,0.416,0,0.35464
1.39230333077344,0.836564066901992,0.416,0,0.35568
1.38186180529602,0.858637674971395,0.416,0,0.35672
1.36349681011462,0.881492815751744,0.416,0,0.35776
1.30168985027189,0.900575088484521,0.416,0,0.3588
1.19791758877768,0.918500638745566,0.416,0,0.35984
1.01461992949269,0.937526757370181,0.416,0,0.36088
0.732612338931162,0.959152551708676,0.416,0,0.36192
0.415922794253051,0.978277012381557,0.416,0,0.36296
