"Velocity[i] (m/s)","Normalized Radius","X (m)","Y (m)","Z (m)"
1.4111235284696,0.416531151842273,0.416,0,0.33384
1.41826921549024,0.437454419516126,0.416,0,0.33488
1.42425225807472,0.459002393829808,0.416,0,0.33592
1.41888245278586,0.703055078114597,0.416,0,0.3484
1.41875398058788,0.721466281430321,0.416,0,0.34944
0.0429515686575886,-0.976745940424564,0.416,0,0.26104
0.0761996730360329,-0.958301228919823,0.416,0,0.26208
0.115886653921534,-0.938184647183877,0.416,0,0.26312
0.156748603202516,-0.91914247775776,0.416,0,0.26416
0.19571325806028,-0.902143710637373,0.416,0,0.2652
0.238299876905277,-0.883523687894555,0.416,0,0.26624
0.289655606161038,-0.860530510033713,0.416,0,0.26728
0.338486924012078,-0.840070991938256,0.416,0,0.26832
0.387129514075207,-0.819154397592166,0.416,0,0.26936
0.431545044117424,-0.798266642301956,0.416,0,0.2704
0.467587847613066,-0.778174068477797,0.416,0,0.27144
0.491128071901513,-0.758238479055113,0.416,0,0.27248
0.508650928248569,-0.738029687169057,0.416,0,0.27352
0.524035987617893,-0.717992644541379,0.416,0,0.27456
0.533654431115321,-0.699140680102379,0.416,0,0.2756
0.539771966506741,-0.680210255468247,0.416,0,0.27664
0.545209353523524,-0.660805836667103,0.416,0,0.27768
0.548550265575702,-0.639967356460381,0.416,0,0.27872
0.550848192784155,-0.620077216287876,0.416,0,0.27976
0.55278446877968,-0.599643242431481,0.416,0,0.2808
0.559301129011543,-0.580124988264172,0.416,0,0.28184
0.560842791702399,-0.560168121531813,0.416,0,0.28288
0.562672732061823,-0.540141525257043,0.416,0,0.28392
0.571361212615166,-0.518867490645695,0.416,0,0.28496
0.579032885100666,-0.499046497668095,0.416,0,0.286
0.595592376372945,-0.479773143922389,0.416,0,0.28704
0.610994680065953,-0.459922909599847,0.416,0,0.28808
0.621458724354764,-0.439563094304127,0.416,0,0.28912
0.629771173506316,-0.419147159810493,0.416,0,0.29016
0.642809101771305,-0.39914357528988,0.416,0,0.2912
0.652274354651448,-0.37890325304086,0.416,0,0.29224
0.660969597145911,-0.35895537940366,0.416,0,0.29328
0.668959610516842,-0.339146486454692,0.416,0,0.29432
0.677780928849999,-0.319830632816478,0.416,0,0.29536
0.685441347574875,-0.300424427290962,0.416,0,0.2964
0.691637905060401,-0.280678052577577,0.416,0,0.29744
0.697098031731289,-0.260534836517711,0.416,0,0.29848
0.701398679539071,-0.241153140687109,0.416,0,0.29952
0.706383891759278,-0.222038859801038,0.416,0,0.30056
0.714873567013051,-0.200842222316715,0.416,0,0.3016
0.723055490117452,-0.179781122574965,0.416,0,0.30264
0.731314241298846,-0.159500674747491,0.416,0,0.30368
0.735949373955937,-0.140012500149846,0.416,0,0.30472
0.737801076889619,-0.119912209153413,0.416,0,0.30576
0.742106407060953,-0.0990606512673118,0.416,0,0.3068
0.749080850045993,-0.0776142544853187,0.416,0,0.30784
0.757274170659588,-0.0555722883719971,0.416,0,0.30888
0.755738797471718,-0.0368832070675653,0.416,0,0.30992
0.755111751675348,-0.0173101301631906,0.416,0,0.31096
0.753356029860622,0.00274801877118058,0.416,0,0.312
0.748884091719347,0.02380236195392,0.416,0,0.31304
0.739480349293533,0.04219092193153,0.416,0,0.31408
0.729496161947409,0.0600777812554041,0.416,0,0.31512
0.719252161549992,0.0803638073669601,0.416,0,0.31616
0.70872676609274,0.102491033588644,0.416,0,0.3172
0.709077325890897,0.12270796648297,0.416,0,0.31824
0.728980797349794,0.14206891482911,0.416,0,0.31928
0.759603336213478,0.161871528495913,0.416,0,0.32032
0.799644681361789,0.182319059817623,0.416,0,0.32136
0.850084514310727,0.203517376382217,0.416,0,0.3224
0.918532262108937,0.223865572716154,0.416,0,0.32344
0.992147896660943,0.242604128051079,0.416,0,0.32448
1.0615540553636,0.260925319974443,0.416,0,0.32552
1.13081133175722,0.279266844689429,0.416,0,0.32656
1.20447714360411,0.301764997459874,0.416,0,0.3276
1.28082177132182,0.32428769621785,0.416,0,0.32864
1.33365123862486,0.344504931326041,0.416,0,0.32968
1.36117578394449,0.362837241965492,0.416,0,0.33072
1.38364027648855,0.380043733103194,0.416,0,0.33176
1.40351081311793,0.396575602780125,0.416,0,0.3328
1.4275744540542,0.479617338086858,0.416,0,0.33696
1.42709907428575,0.499490075147505,0.416,0,0.338
1.42658340918314,0.51955002410446,0.416,0,0.33904
1.42592343002075,0.539999611256706,0.416,0,0.34008
1.42522324974817,0.560559775211498,0.416,0,0.34112
1.42447654781572,0.580921177276315,0.416,0,0.34216
1.42272164165215,0.600377054444679,0.416,0,0.3432
1.42132352176012,0.619925725648232,0.416,0,0.34424
1.42042247249576,0.639830245502663,0.416,0,0.34528
1.41985721852031,0.660787766556731,0.416,0,0.34632
1.41933448218684,0.682250486292048,0.416,0,0.34736
1.41848432932257,0.740159811218908,0.416,0,0.35048
1.41776288259793,0.759076056970928,0.416,0,0.35152
1.41669413084469,0.77978609393302,0.416,0,0.35256
1.41473667546613,0.798890586006545,0.416,0,0.3536
1.41263583292545,0.817587099672926,0.416,0,0.35464
1.41058436685221,0.836564066901992,0.416,0,0.35568
1.39519176125426,0.858637674971395,0.416,0,0.35672
1.36831940258721,0.881492815751744,0.416,0,0.35776
1.29789229988238,0.900575088484521,0.416,0,0.3588
1.18600914843285,0.918500638745566,0.416,0,0.35984
0.998089036936257,0.937526757370181,0.416,0,0.36088
0.716565921955713,0.959152551708676,0.416,0,0.36192
0.405961057420688,0.978277012381557,0.416,0,0.36296
