"Velocity[i] (m/s)","Normalized Radius","X (m)","Y (m)","Z (m)"
1.36167470101174,0.416531151842273,0.416,0,0.33384
1.37113176437495,0.437454419516126,0.416,0,0.33488
1.37883259985909,0.459002393829808,0.416,0,0.33592
1.39698537337025,0.703055078114597,0.416,0,0.3484
1.39669916266468,0.721466281430321,0.416,0,0.34944
0.0213767327376565,-0.976745940424564,0.416,0,0.26104
0.0517639211184187,-0.958301228919823,0.416,0,0.26208
0.0905102070128494,-0.938184647183877,0.416,0,0.26312
0.131185406799757,-0.91914247775776,0.416,0,0.26416
0.169457660229269,-0.902143710637373,0.416,0,0.2652
0.210671678511209,-0.883523687894555,0.416,0,0.26624
0.2599198657675,-0.860530510033713,0.416,0,0.26728
0.307272098803309,-0.840070991938256,0.416,0,0.26832
0.353627064563275,-0.819154397592166,0.416,0,0.26936
0.396030681412849,-0.798266642301956,0.416,0,0.2704
0.430316570373859,-0.778174068477797,0.416,0,0.27144
0.4530242171017,-0.758238479055113,0.416,0,0.27248
0.470028887148868,-0.738029687169057,0.416,0,0.27352
0.484900556235584,-0.717992644541379,0.416,0,0.27456
0.494420236464378,-0.699140680102379,0.416,0,0.2756
0.500421658916925,-0.680210255468247,0.416,0,0.27664
0.506660308053736,-0.660805836667103,0.416,0,0.27768
0.508462811320001,-0.639967356460381,0.416,0,0.27872
0.510059037468006,-0.620077216287876,0.416,0,0.27976
0.51214305363551,-0.599643242431481,0.416,0,0.2808
0.518243996198595,-0.580124988264172,0.416,0,0.28184
0.520656440046747,-0.560168121531813,0.416,0,0.28288
0.524853841892279,-0.540141525257043,0.416,0,0.28392
0.535732734189018,-0.518867490645695,0.416,0,0.28496
0.546868454329649,-0.499046497668095,0.416,0,0.286
0.566111020132802,-0.479773143922389,0.416,0,0.28704
0.584634558310668,-0.459922909599847,0.416,0,0.28808
0.59917642884124,-0.439563094304127,0.416,0,0.28912
0.611723703959882,-0.419147159810493,0.416,0,0.29016
0.627474867024504,-0.39914357528988,0.416,0,0.2912
0.639450136632585,-0.37890325304086,0.416,0,0.29224
0.650709666248874,-0.35895537940366,0.416,0,0.29328
0.660876391965424,-0.339146486454692,0.416,0,0.29432
0.671088272983662,-0.319830632816478,0.416,0,0.29536
0.679915686731646,-0.300424427290962,0.416,0,0.2964
0.68722589811829,-0.280678052577577,0.416,0,0.29744
0.692886153891744,-0.260534836517711,0.416,0,0.29848
0.6935053004897,-0.241153140687109,0.416,0,0.29952
0.694929496267691,-0.222038859801038,0.416,0,0.30056
0.700504109781402,-0.200842222316715,0.416,0,0.3016
0.706092032798982,-0.179781122574965,0.416,0,0.30264
0.711164320287497,-0.159500674747491,0.416,0,0.30368
0.718019028759447,-0.140012500149846,0.416,0,0.30472
0.728001892250012,-0.119912209153413,0.416,0,0.30576
0.740300325000064,-0.0990606512673118,0.416,0,0.3068
0.754918307415224,-0.0776142544853187,0.416,0,0.30784
0.771555697409776,-0.0555722883719971,0.416,0,0.30888
0.783133709552428,-0.0368832070675653,0.416,0,0.30992
0.794727591425329,-0.0173101301631906,0.416,0,0.31096
0.805398170459824,0.00274801877118058,0.416,0,0.312
0.814608840420901,0.02380236195392,0.416,0,0.31304
0.81487420909587,0.04219092193153,0.416,0,0.31408
0.812403420192546,0.0600777812554041,0.416,0,0.31512
0.804774164132719,0.0803638073669601,0.416,0,0.31616
0.793640277824867,0.102491033588644,0.416,0,0.3172
0.788130606202856,0.12270796648297,0.416,0,0.31824
0.787068031975108,0.14206891482911,0.416,0,0.31928
0.791494888388369,0.161871528495913,0.416,0,0.32032
0.802302592947559,0.182319059817623,0.416,0,0.32136
0.820349816206662,0.203517376382217,0.416,0,0.3224
0.858353648785192,0.223865572716154,0.416,0,0.32344
0.915983632693251,0.242604128051079,0.416,0,0.32448
0.980267445655877,0.260925319974443,0.416,0,0.32552
1.04945937108334,0.279266844689429,0.416,0,0.32656
1.12891588705449,0.301764997459874,0.416,0,0.3276
1.21627853128999,0.32428769621785,0.416,0,0.32864
1.28023127222416,0.344504931326041,0.416,0,0.32968
1.30714929533932,0.362837241965492,0.416,0,0.33072
1.33068319042141,0.380043733103194,0.416,0,0.33176
1.35274038030111,0.396575602780125,0.416,0,0.3328
1.38316853668069,0.479617338086858,0.416,0,0.33696
1.38471543445091,0.499490075147505,0.416,0,0.338
1.38627859565966,0.51955002410446,0.416,0,0.33904
1.38800268187395,0.539999611256706,0.416,0,0.34008
1.38993534473375,0.560559775211498,0.416,0,0.34112
1.39189888143836,0.580921177276315,0.416,0,0.34216
1.39343009642102,0.600377054444679,0.416,0,0.3432
1.39480252642997,0.619925725648232,0.416,0,0.34424
1.39578461639353,0.639830245502663,0.416,0,0.34528
1.39635204048091,0.660787766556731,0.416,0,0.34632
1.39674300934926,0.682250486292048,0.416,0,0.34736
1.39569408275603,0.740159811218908,0.416,0,0.35048
1.39425347707003,0.759076056970928,0.416,0,0.35152
1.39282996288909,0.77978609393302,0.416,0,0.35256
1.39110356368904,0.798890586006545,0.416,0,0.3536
1.389669185211,0.817587099672926,0.416,0,0.35464
1.38852559369925,0.836564066901992,0.416,0,0.35568
1.37575312856872,0.858637674971395,0.416,0,0.35672
1.3525221072337,0.881492815751744,0.416,0,0.35776
1.28562511498915,0.900575088484521,0.416,0,0.3588
1.17622744001721,0.918500638745566,0.416,0,0.35984
0.989069973387301,0.937526757370181,0.416,0,0.36088
0.706937775417761,0.959152551708676,0.416,0,0.36192
0.396584019649841,0.978277012381557,0.416,0,0.36296
