"Velocity[i] (m/s)","Normalized Radius","X (m)","Y (m)","Z (m)"
1.38615795932828,0.416531151842273,0.416,0,0.33384
1.38776764043962,0.437454419516126,0.416,0,0.33488
1.38938403123216,0.459002393829808,0.416,0,0.33592
1.39671738307783,0.703055078114597,0.416,0,0.3484
1.39578171106844,0.721466281430321,0.416,0,0.34944
0.0570391064437347,-0.976745940424564,0.416,0,0.26104
0.0871923462673152,-0.958301228919823,0.416,0,0.26208
0.119337515331895,-0.938184647183877,0.416,0,0.26312
0.152009123308901,-0.91914247775776,0.416,0,0.26416
0.182514957345956,-0.902143710637373,0.416,0,0.2652
0.216838756430518,-0.883523687894555,0.416,0,0.26624
0.261933076795065,-0.860530510033713,0.416,0,0.26728
0.309588250809167,-0.840070991938256,0.416,0,0.26832
0.361173608577554,-0.819154397592166,0.416,0,0.26936
0.413657729630533,-0.798266642301956,0.416,0,0.2704
0.462772838357109,-0.778174068477797,0.416,0,0.27144
0.500498107971747,-0.758238479055113,0.416,0,0.27248
0.532798732027671,-0.738029687169057,0.416,0,0.27352
0.562466970464194,-0.717992644541379,0.416,0,0.27456
0.582698752252246,-0.699140680102379,0.416,0,0.2756
0.597747605328429,-0.680210255468247,0.416,0,0.27664
0.610106011143393,-0.660805836667103,0.416,0,0.27768
0.616685791625599,-0.639967356460381,0.416,0,0.27872
0.623316752827077,-0.620077216287876,0.416,0,0.27976
0.629809749376694,-0.599643242431481,0.416,0,0.2808
0.634302148226632,-0.580124988264172,0.416,0,0.28184
0.641212169087433,-0.560168121531813,0.416,0,0.28288
0.646602131822478,-0.540141525257043,0.416,0,0.28392
0.653135745921642,-0.518867490645695,0.416,0,0.28496
0.660241546655634,-0.499046497668095,0.416,0,0.286
0.673173760551763,-0.479773143922389,0.416,0,0.28704
0.685985894333817,-0.459922909599847,0.416,0,0.28808
0.696786454661048,-0.439563094304127,0.416,0,0.28912
0.706584893243544,-0.419147159810493,0.416,0,0.29016
0.716616785534898,-0.39914357528988,0.416,0,0.2912
0.722133009581977,-0.37890325304086,0.416,0,0.29224
0.727800031465716,-0.35895537940366,0.416,0,0.29328
0.732435584235634,-0.339146486454692,0.416,0,0.29432
0.73543876805503,-0.319830632816478,0.416,0,0.29536
0.738215219046389,-0.300424427290962,0.416,0,0.2964
0.739930214076169,-0.280678052577577,0.416,0,0.29744
0.740606105444651,-0.260534836517711,0.416,0,0.29848
0.739091993278308,-0.241153140687109,0.416,0,0.29952
0.736713447472686,-0.222038859801038,0.416,0,0.30056
0.73185231072475,-0.200842222316715,0.416,0,0.3016
0.726353950575272,-0.179781122574965,0.416,0,0.30264
0.720318394894086,-0.159500674747491,0.416,0,0.30368
0.714976737019273,-0.140012500149846,0.416,0,0.30472
0.710800205435172,-0.119912209153413,0.416,0,0.30576
0.706260809096807,-0.0990606512673118,0.416,0,0.3068
0.701447716320246,-0.0776142544853187,0.416,0,0.30784
0.697697297224433,-0.0555722883719971,0.416,0,0.30888
0.711250520195514,-0.0368832070675653,0.416,0,0.30992
0.726267333150392,-0.0173101301631906,0.416,0,0.31096
0.745499781318653,0.00274801877118058,0.416,0,0.312
0.771943779809507,0.02380236195392,0.416,0,0.31304
0.802936229549705,0.04219092193153,0.416,0,0.31408
0.838583097562959,0.0600777812554041,0.416,0,0.31512
0.884947008981614,0.0803638073669601,0.416,0,0.31616
0.938122789472013,0.102491033588644,0.416,0,0.3172
0.988010181740193,0.12270796648297,0.416,0,0.31824
1.0315865761729,0.14206891482911,0.416,0,0.31928
1.07549127997916,0.161871528495913,0.416,0,0.32032
1.12142624897747,0.182319059817623,0.416,0,0.32136
1.17014248020009,0.203517376382217,0.416,0,0.3224
1.21431466014856,0.223865572716154,0.416,0,0.32344
1.25373962968145,0.242604128051079,0.416,0,0.32448
1.2872146943785,0.260925319974443,0.416,0,0.32552
1.31840195316558,0.279266844689429,0.416,0,0.32656
1.34212579422381,0.301764997459874,0.416,0,0.3276
1.36284208217127,0.32428769621785,0.416,0,0.32864
1.37750336607848,0.344504931326041,0.416,0,0.32968
1.38012808974931,0.362837241965492,0.416,0,0.33072
1.38236894469955,0.380043733103194,0.416,0,0.33176
1.38433912427386,0.396575602780125,0.416,0,0.3328
1.3914441552387,0.479617338086858,0.416,0,0.33696
1.39429396342464,0.499490075147505,0.416,0,0.338
1.39676036759752,0.51955002410446,0.416,0,0.33904
1.39866025205657,0.539999611256706,0.416,0,0.34008
1.40005306273979,0.560559775211498,0.416,0,0.34112
1.4011039135753,0.580921177276315,0.416,0,0.34216
1.40176327916018,0.600377054444679,0.416,0,0.3432
1.40187688972858,0.619925725648232,0.416,0,0.34424
1.40095361536056,0.639830245502663,0.416,0,0.34528
1.39950701147317,0.660787766556731,0.416,0,0.34632
1.39801656112026,0.682250486292048,0.416,0,0.34736
1.39492303471171,0.740159811218908,0.416,0,0.35048
1.39417534155542,0.759076056970928,0.416,0,0.35152
1.39341952268891,0.77978609393302,0.416,0,0.35256
1.39244489474147,0.798890586006545,0.416,0,0.3536
1.39141706206539,0.817587099672926,0.416,0,0.35464
1.39042179115548,0.836564066901992,0.416,0,0.35568
1.38102310155162,0.858637674971395,0.416,0,0.35672
1.36542253687156,0.881492815751744,0.416,0,0.35776
1.31015481827762,0.900575088484521,0.416,0,0.3588
1.21750286064282,0.918500638745566,0.416,0,0.35984
1.04793995546524,0.937526757370181,0.416,0,0.36088
0.771763920595197,0.959152551708676,0.416,0,0.36192
0.448803016026028,0.978277012381557,0.416,0,0.36296
