"Velocity[i] (m/s)","Normalized Radius","X (m)","Y (m)","Z (m)"
1.38460966677564,0.416531151842273,0.416,0,0.33384
1.38807928928874,0.437454419516126,0.416,0,0.33488
1.3915046382151,0.459002393829808,0.416,0,0.33592
1.40590194173174,0.703055078114597,0.416,0,0.3484
1.40586647515271,0.721466281430321,0.416,0,0.34944
0.0529140273602618,-0.976745940424564,0.416,0,0.26104
0.0868206126182476,-0.958301228919823,0.416,0,0.26208
0.123815202664591,-0.938184647183877,0.416,0,0.26312
0.16069662172145,-0.91914247775776,0.416,0,0.26416
0.195589186322705,-0.902143710637373,0.416,0,0.2652
0.234969702501562,-0.883523687894555,0.416,0,0.26624
0.285725198752972,-0.860530510033713,0.416,0,0.26728
0.338781288205391,-0.840070991938256,0.416,0,0.26832
0.39718999940486,-0.819154397592166,0.416,0,0.26936
0.454906004091647,-0.798266642301956,0.416,0,0.2704
0.507551259102486,-0.778174068477797,0.416,0,0.27144
0.543205870859575,-0.758238479055113,0.416,0,0.27248
0.571619182727697,-0.738029687169057,0.416,0,0.27352
0.596221437364581,-0.717992644541379,0.416,0,0.27456
0.610707908051013,-0.699140680102379,0.416,0,0.2756
0.620058483861362,-0.680210255468247,0.416,0,0.27664
0.628931140316531,-0.660805836667103,0.416,0,0.27768
0.633241708345006,-0.639967356460381,0.416,0,0.27872
0.638913527819377,-0.620077216287876,0.416,0,0.27976
0.64641282103101,-0.599643242431481,0.416,0,0.2808
0.652009524032339,-0.580124988264172,0.416,0,0.28184
0.658621865736845,-0.560168121531813,0.416,0,0.28288
0.665127644365792,-0.540141525257043,0.416,0,0.28392
0.671892580779829,-0.518867490645695,0.416,0,0.28496
0.678077278034075,-0.499046497668095,0.416,0,0.286
0.685488251164154,-0.479773143922389,0.416,0,0.28704
0.693425774663609,-0.459922909599847,0.416,0,0.28808
0.7010691835442,-0.439563094304127,0.416,0,0.28912
0.707903632555313,-0.419147159810493,0.416,0,0.29016
0.712104507218115,-0.39914357528988,0.416,0,0.2912
0.711019370979511,-0.37890325304086,0.416,0,0.29224
0.710493305568438,-0.35895537940366,0.416,0,0.29328
0.710345593573285,-0.339146486454692,0.416,0,0.29432
0.707753970913515,-0.319830632816478,0.416,0,0.29536
0.705312744144503,-0.300424427290962,0.416,0,0.2964
0.703558673433429,-0.280678052577577,0.416,0,0.29744
0.701216732712635,-0.260534836517711,0.416,0,0.29848
0.695897143726946,-0.241153140687109,0.416,0,0.29952
0.69115978046698,-0.222038859801038,0.416,0,0.30056
0.687957712760904,-0.200842222316715,0.416,0,0.3016
0.683497388899137,-0.179781122574965,0.416,0,0.30264
0.678299172732744,-0.159500674747491,0.416,0,0.30368
0.672805094061374,-0.140012500149846,0.416,0,0.30472
0.667882324307489,-0.119912209153413,0.416,0,0.30576
0.663321190237012,-0.0990606512673118,0.416,0,0.3068
0.658609728128822,-0.0776142544853187,0.416,0,0.30784
0.654961689612282,-0.0555722883719971,0.416,0,0.30888
0.664858051702252,-0.0368832070675653,0.416,0,0.30992
0.676491753012845,-0.0173101301631906,0.416,0,0.31096
0.691653944796754,0.00274801877118058,0.416,0,0.312
0.712299904650766,0.02380236195392,0.416,0,0.31304
0.740217882382459,0.04219092193153,0.416,0,0.31408
0.7711520765713,0.0600777812554041,0.416,0,0.31512
0.813794403900185,0.0803638073669601,0.416,0,0.31616
0.863994489312132,0.102491033588644,0.416,0,0.3172
0.91393658861042,0.12270796648297,0.416,0,0.31824
0.964315830884565,0.14206891482911,0.416,0,0.31928
1.01706600174722,0.161871528495913,0.416,0,0.32032
1.07321408156136,0.182319059817623,0.416,0,0.32136
1.13261987138454,0.203517376382217,0.416,0,0.3224
1.18526893565766,0.223865572716154,0.416,0,0.32344
1.23251560016339,0.242604128051079,0.416,0,0.32448
1.27192489221689,0.260925319974443,0.416,0,0.32552
1.30774474672607,0.279266844689429,0.416,0,0.32656
1.33464961290975,0.301764997459874,0.416,0,0.3276
1.35660720029963,0.32428769621785,0.416,0,0.32864
1.36992306600287,0.344504931326041,0.416,0,0.32968
1.3737853426866,0.362837241965492,0.416,0,0.33072
1.37743325540734,0.380043733103194,0.416,0,0.33176
1.38090572506598,0.396575602780125,0.416,0,0.3328
1.39492361453121,0.479617338086858,0.416,0,0.33696
1.39818246949438,0.499490075147505,0.416,0,0.338
1.40098767857762,0.51955002410446,0.416,0,0.33904
1.40314125663871,0.539999611256706,0.416,0,0.34008
1.40473522279259,0.560559775211498,0.416,0,0.34112
1.40598266734082,0.580921177276315,0.416,0,0.34216
1.40666371020719,0.600377054444679,0.416,0,0.3432
1.40701327679729,0.619925725648232,0.416,0,0.34424
1.40681901658435,0.639830245502663,0.416,0,0.34528
1.40644117507705,0.660787766556731,0.416,0,0.34632
1.40612952819605,0.682250486292048,0.416,0,0.34736
1.40572904716415,0.740159811218908,0.416,0,0.35048
1.40523828750981,0.759076056970928,0.416,0,0.35152
1.40454215349712,0.77978609393302,0.416,0,0.35256
1.40323584704552,0.798890586006545,0.416,0,0.3536
1.4017583175376,0.817587099672926,0.416,0,0.35464
1.40033023545497,0.836564066901992,0.416,0,0.35568
1.38980594860604,0.858637674971395,0.416,0,0.35672
1.37183811339059,0.881492815751744,0.416,0,0.35776
1.31269495676857,0.900575088484521,0.416,0,0.3588
1.21378449038732,0.918500638745566,0.416,0,0.35984
1.03673973680259,0.937526757370181,0.416,0,0.36088
0.75681137620693,0.959152551708676,0.416,0,0.36192
0.434641060500962,0.978277012381557,0.416,0,0.36296
