"Velocity[i] (m/s)","Normalized Radius","X (m)","Y (m)","Z (m)"
1.36066372274856,0.416531151842273,0.416,0,0.33384
1.36472807226996,0.437454419516126,0.416,0,0.33488
1.36865573546145,0.459002393829808,0.416,0,0.33592
1.40062114251911,0.703055078114597,0.416,0,0.3484
1.40051621174457,0.721466281430321,0.416,0,0.34944
0.0760323587613323,-0.976745940424564,0.416,0,0.26104
0.116308903496375,-0.958301228919823,0.416,0,0.26208
0.158729385638014,-0.938184647183877,0.416,0,0.26312
0.197780666836995,-0.91914247775776,0.416,0,0.26416
0.231706700058393,-0.902143710637373,0.416,0,0.2652
0.26732496315094,-0.883523687894555,0.416,0,0.26624
0.309112510270324,-0.860530510033713,0.416,0,0.26728
0.34508947572641,-0.840070991938256,0.416,0,0.26832
0.380792607388925,-0.819154397592166,0.416,0,0.26936
0.412894066749252,-0.798266642301956,0.416,0,0.2704
0.441835272392019,-0.778174068477797,0.416,0,0.27144
0.466292254826996,-0.758238479055113,0.416,0,0.27248
0.48862154226046,-0.738029687169057,0.416,0,0.27352
0.509816119412147,-0.717992644541379,0.416,0,0.27456
0.527245388708321,-0.699140680102379,0.416,0,0.2756
0.542863885358787,-0.680210255468247,0.416,0,0.27664
0.55847767111307,-0.660805836667103,0.416,0,0.27768
0.571758655038106,-0.639967356460381,0.416,0,0.27872
0.584457731421471,-0.620077216287876,0.416,0,0.27976
0.596739370548087,-0.599643242431481,0.416,0,0.2808
0.607511786012604,-0.580124988264172,0.416,0,0.28184
0.618264903413506,-0.560168121531813,0.416,0,0.28288
0.628725793286671,-0.540141525257043,0.416,0,0.28392
0.639585894460252,-0.518867490645695,0.416,0,0.28496
0.64937468600035,-0.499046497668095,0.416,0,0.286
0.658879589819434,-0.479773143922389,0.416,0,0.28704
0.6682091397562,-0.459922909599847,0.416,0,0.28808
0.67700540180077,-0.439563094304127,0.416,0,0.28912
0.6852698927599,-0.419147159810493,0.416,0,0.29016
0.691985921503805,-0.39914357528988,0.416,0,0.2912
0.699606925938453,-0.37890325304086,0.416,0,0.29224
0.706745353174346,-0.35895537940366,0.416,0,0.29328
0.712089592256223,-0.339146486454692,0.416,0,0.29432
0.716661452473775,-0.319830632816478,0.416,0,0.29536
0.721042740491377,-0.300424427290962,0.416,0,0.2964
0.724600237440752,-0.280678052577577,0.416,0,0.29744
0.727567732334151,-0.260534836517711,0.416,0,0.29848
0.729692641398342,-0.241153140687109,0.416,0,0.29952
0.73184439620005,-0.222038859801038,0.416,0,0.30056
0.734382413935296,-0.200842222316715,0.416,0,0.3016
0.736529742710865,-0.179781122574965,0.416,0,0.30264
0.738096939058712,-0.159500674747491,0.416,0,0.30368
0.742242274744636,-0.140012500149846,0.416,0,0.30472
0.749196066845881,-0.119912209153413,0.416,0,0.30576
0.756755714664819,-0.0990606512673118,0.416,0,0.3068
0.76491866709477,-0.0776142544853187,0.416,0,0.30784
0.774350433595899,-0.0555722883719971,0.416,0,0.30888
0.793287980069439,-0.0368832070675653,0.416,0,0.30992
0.813053054228363,-0.0173101301631906,0.416,0,0.31096
0.835585439767153,0.00274801877118058,0.416,0,0.312
0.863001802609113,0.02380236195392,0.416,0,0.31304
0.890496690338211,0.04219092193153,0.416,0,0.31408
0.918160572072679,0.0600777812554041,0.416,0,0.31512
0.95202772310027,0.0803638073669601,0.416,0,0.31616
0.989794469061858,0.102491033588644,0.416,0,0.3172
1.02362710081532,0.12270796648297,0.416,0,0.31824
1.05470528201932,0.14206891482911,0.416,0,0.31928
1.08618166032332,0.161871528495913,0.416,0,0.32032
1.11874812184908,0.182319059817623,0.416,0,0.32136
1.15278480200241,0.203517376382217,0.416,0,0.3224
1.18470392923856,0.223865572716154,0.416,0,0.32344
1.21234897252999,0.242604128051079,0.416,0,0.32448
1.23740718633918,0.260925319974443,0.416,0,0.32552
1.26181379607515,0.279266844689429,0.416,0,0.32656
1.28686441673171,0.301764997459874,0.416,0,0.3276
1.31101342309843,0.32428769621785,0.416,0,0.32864
1.33176645685459,0.344504931326041,0.416,0,0.32968
1.34142698270687,0.362837241965492,0.416,0,0.33072
1.34944622490762,0.380043733103194,0.416,0,0.33176
1.35633916163018,0.396575602780125,0.416,0,0.3328
1.37255046146466,0.479617338086858,0.416,0,0.33696
1.37667015765349,0.499490075147505,0.416,0,0.338
1.38060379001478,0.51955002410446,0.416,0,0.33904
1.38423346310039,0.539999611256706,0.416,0,0.34008
1.38757431865477,0.560559775211498,0.416,0,0.34112
1.39068194767637,0.580921177276315,0.416,0,0.34216
1.39364644190335,0.600377054444679,0.416,0,0.3432
1.39617461460679,0.619925725648232,0.416,0,0.34424
1.39794072027701,0.639830245502663,0.416,0,0.34528
1.39907276466822,0.660787766556731,0.416,0,0.34632
1.39991421865111,0.682250486292048,0.416,0,0.34736
1.39937072905128,0.740159811218908,0.416,0,0.35048
1.3971980434317,0.759076056970928,0.416,0,0.35152
1.39478278065345,0.77978609393302,0.416,0,0.35256
1.39091043306542,0.798890586006545,0.416,0,0.3536
1.38494101466885,0.817587099672926,0.416,0,0.35464
1.37719607982598,0.836564066901992,0.416,0,0.35568
1.35418341096136,0.858637674971395,0.416,0,0.35672
1.31960239852056,0.881492815751744,0.416,0,0.35776
1.25591882073246,0.900575088484521,0.416,0,0.3588
1.1677910715335,0.918500638745566,0.416,0,0.35984
1.02605360028283,0.937526757370181,0.416,0,0.36088
0.799895851743265,0.959152551708676,0.416,0,0.36192
0.519710685587153,0.978277012381557,0.416,0,0.36296
