"Velocity[i] (m/s)","Normalized Radius","X (m)","Y (m)","Z (m)"
1.40808213878527,0.416531151842273,0.416,0,0.33384
1.41371831708092,0.437454419516126,0.416,0,0.33488
1.41858236632287,0.459002393829808,0.416,0,0.33592
1.40818351305856,0.703055078114597,0.416,0,0.3484
1.40759098433245,0.721466281430321,0.416,0,0.34944
0.0370622322976505,-0.976745940424564,0.416,0,0.26104
0.0672656666319172,-0.958301228919823,0.416,0,0.26208
0.10578601295069,-0.938184647183877,0.416,0,0.26312
0.146524596169661,-0.91914247775776,0.416,0,0.26416
0.186020221334073,-0.902143710637373,0.416,0,0.2652
0.230039128554173,-0.883523687894555,0.416,0,0.26624
0.283815016797117,-0.860530510033713,0.416,0,0.26728
0.33499632337758,-0.840070991938256,0.416,0,0.26832
0.386716742220528,-0.819154397592166,0.416,0,0.26936
0.433339513695117,-0.798266642301956,0.416,0,0.2704
0.471624937067795,-0.778174068477797,0.416,0,0.27144
0.495764169014414,-0.758238479055113,0.416,0,0.27248
0.51316241882411,-0.738029687169057,0.416,0,0.27352
0.527809516137008,-0.717992644541379,0.416,0,0.27456
0.537014796757376,-0.699140680102379,0.416,0,0.2756
0.543350731558076,-0.680210255468247,0.416,0,0.27664
0.548791567220996,-0.660805836667103,0.416,0,0.27768
0.554025049921294,-0.639967356460381,0.416,0,0.27872
0.558207317822248,-0.620077216287876,0.416,0,0.27976
0.561985485153295,-0.599643242431481,0.416,0,0.2808
0.570382868766517,-0.580124988264172,0.416,0,0.28184
0.574618726665737,-0.560168121531813,0.416,0,0.28288
0.578162585039158,-0.540141525257043,0.416,0,0.28392
0.586378366359121,-0.518867490645695,0.416,0,0.28496
0.59229416196553,-0.499046497668095,0.416,0,0.286
0.606543333852388,-0.479773143922389,0.416,0,0.28704
0.619225216051313,-0.459922909599847,0.416,0,0.28808
0.626444747795266,-0.439563094304127,0.416,0,0.28912
0.63119905815542,-0.419147159810493,0.416,0,0.29016
0.640280349260522,-0.39914357528988,0.416,0,0.2912
0.645627308474112,-0.37890325304086,0.416,0,0.29224
0.650395006765495,-0.35895537940366,0.416,0,0.29328
0.654981968994727,-0.339146486454692,0.416,0,0.29432
0.660872582233131,-0.319830632816478,0.416,0,0.29536
0.665770693841777,-0.300424427290962,0.416,0,0.2964
0.669615645896376,-0.280678052577577,0.416,0,0.29744
0.672846765553702,-0.260534836517711,0.416,0,0.29848
0.673355253524882,-0.241153140687109,0.416,0,0.29952
0.672273225115158,-0.222038859801038,0.416,0,0.30056
0.665363789887356,-0.200842222316715,0.416,0,0.3016
0.658234843968082,-0.179781122574965,0.416,0,0.30264
0.651439814103902,-0.159500674747491,0.416,0,0.30368
0.642363590899578,-0.140012500149846,0.416,0,0.30472
0.630782152469009,-0.119912209153413,0.416,0,0.30576
0.620015210722897,-0.0990606512673118,0.416,0,0.3068
0.610261958583729,-0.0776142544853187,0.416,0,0.30784
0.602513297820595,-0.0555722883719971,0.416,0,0.30888
0.598400097959347,-0.0368832070675653,0.416,0,0.30992
0.596817025352634,-0.0173101301631906,0.416,0,0.31096
0.59682526156463,0.00274801877118058,0.416,0,0.312
0.598249248699387,0.02380236195392,0.416,0,0.31304
0.614063613039203,0.04219092193153,0.416,0,0.31408
0.638798698477988,0.0600777812554041,0.416,0,0.31512
0.682672347849807,0.0803638073669601,0.416,0,0.31616
0.738434923043326,0.102491033588644,0.416,0,0.3172
0.793969548764363,0.12270796648297,0.416,0,0.31824
0.855237118802712,0.14206891482911,0.416,0,0.31928
0.918285474256227,0.161871528495913,0.416,0,0.32032
0.984369260399367,0.182319059817623,0.416,0,0.32136
1.05433918178199,0.203517376382217,0.416,0,0.3224
1.11838245935624,0.223865572716154,0.416,0,0.32344
1.17185402095535,0.242604128051079,0.416,0,0.32448
1.21546641454788,0.260925319974443,0.416,0,0.32552
1.25616448509377,0.279266844689429,0.416,0,0.32656
1.29637210496399,0.301764997459874,0.416,0,0.3276
1.33623315512873,0.32428769621785,0.416,0,0.32864
1.36303986118098,0.344504931326041,0.416,0,0.32968
1.37865849736147,0.362837241965492,0.416,0,0.33072
1.39135036292484,0.380043733103194,0.416,0,0.33176
1.40190996840147,0.396575602780125,0.416,0,0.3328
1.42173145200752,0.479617338086858,0.416,0,0.33696
1.42181039150908,0.499490075147505,0.416,0,0.338
1.42126941867985,0.51955002410446,0.416,0,0.33904
1.41999548514237,0.539999611256706,0.416,0,0.34008
1.4182298320692,0.560559775211498,0.416,0,0.34112
1.41621819453014,0.580921177276315,0.416,0,0.34216
1.41424269379505,0.600377054444679,0.416,0,0.3432
1.41221183298877,0.619925725648232,0.416,0,0.34424
1.41063932118492,0.639830245502663,0.416,0,0.34528
1.40965248067177,0.660787766556731,0.416,0,0.34632
1.40893004990396,0.682250486292048,0.416,0,0.34736
1.40697558218752,0.740159811218908,0.416,0,0.35048
1.406141428867,0.759076056970928,0.416,0,0.35152
1.40507494038063,0.77978609393302,0.416,0,0.35256
1.4033768283978,0.798890586006545,0.416,0,0.3536
1.40130891813559,0.817587099672926,0.416,0,0.35464
1.39909427442789,0.836564066901992,0.416,0,0.35568
1.38358090674763,0.858637674971395,0.416,0,0.35672
1.3571581600444,0.881492815751744,0.416,0,0.35776
1.28665053391129,0.900575088484521,0.416,0,0.3588
1.17504910569474,0.918500638745566,0.416,0,0.35984
0.988133869746778,0.937526757370181,0.416,0,0.36088
0.707982972129427,0.959152551708676,0.416,0,0.36192
0.400725580740873,0.978277012381557,0.416,0,0.36296
