"Velocity[i] (m/s)","Normalized Radius","X (m)","Y (m)","Z (m)"
1.39381486422989,0.416531151842273,0.416,0,0.33384
1.3975172142554,0.437454419516126,0.416,0,0.33488
1.40053686049405,0.459002393829808,0.416,0,0.33592
1.40051398013798,0.703055078114597,0.416,0,0.3484
1.39889448117618,0.721466281430321,0.416,0,0.34944
0.035328321508862,-0.976745940424564,0.416,0,0.26104
0.0655363305793693,-0.958301228919823,0.416,0,0.26208
0.101238331923753,-0.938184647183877,0.416,0,0.26312
0.138332880511529,-0.91914247775776,0.416,0,0.26416
0.173884148923303,-0.902143710637373,0.416,0,0.2652
0.214776608994994,-0.883523687894555,0.416,0,0.26624
0.268012113165779,-0.860530510033713,0.416,0,0.26728
0.324007553886627,-0.840070991938256,0.416,0,0.26832
0.383711224361058,-0.819154397592166,0.416,0,0.26936
0.441473960006388,-0.798266642301956,0.416,0,0.2704
0.493396921189734,-0.778174068477797,0.416,0,0.27144
0.525273535983415,-0.758238479055113,0.416,0,0.27248
0.548634504893132,-0.738029687169057,0.416,0,0.27352
0.567734871277404,-0.717992644541379,0.416,0,0.27456
0.57746846909053,-0.699140680102379,0.416,0,0.2756
0.582683138433952,-0.680210255468247,0.416,0,0.27664
0.587054953725742,-0.660805836667103,0.416,0,0.27768
0.587928978043777,-0.639967356460381,0.416,0,0.27872
0.589217655764623,-0.620077216287876,0.416,0,0.27976
0.590895779859744,-0.599643242431481,0.416,0,0.2808
0.592100246661217,-0.580124988264172,0.416,0,0.28184
0.594954909760583,-0.560168121531813,0.416,0,0.28288
0.59887499584707,-0.540141525257043,0.416,0,0.28392
0.604697481651283,-0.518867490645695,0.416,0,0.28496
0.611284967293924,-0.499046497668095,0.416,0,0.286
0.623044515990352,-0.479773143922389,0.416,0,0.28704
0.636793364940286,-0.459922909599847,0.416,0,0.28808
0.650448881972765,-0.439563094304127,0.416,0,0.28912
0.663972876430067,-0.419147159810493,0.416,0,0.29016
0.678165785266335,-0.39914357528988,0.416,0,0.2912
0.687563665953464,-0.37890325304086,0.416,0,0.29224
0.696981173129284,-0.35895537940366,0.416,0,0.29328
0.705534898015379,-0.339146486454692,0.416,0,0.29432
0.712511678838005,-0.319830632816478,0.416,0,0.29536
0.719025001241194,-0.300424427290962,0.416,0,0.2964
0.72508626104914,-0.280678052577577,0.416,0,0.29744
0.730376848726227,-0.260534836517711,0.416,0,0.29848
0.732530888647264,-0.241153140687109,0.416,0,0.29952
0.734511174972592,-0.222038859801038,0.416,0,0.30056
0.736294409198722,-0.200842222316715,0.416,0,0.3016
0.737575378258017,-0.179781122574965,0.416,0,0.30264
0.73848495773888,-0.159500674747491,0.416,0,0.30368
0.739459913940801,-0.140012500149846,0.416,0,0.30472
0.740836716298244,-0.119912209153413,0.416,0,0.30576
0.742438684433739,-0.0990606512673118,0.416,0,0.3068
0.744398767009653,-0.0776142544853187,0.416,0,0.30784
0.74716083291106,-0.0555722883719971,0.416,0,0.30888
0.750853791230355,-0.0368832070675653,0.416,0,0.30992
0.755302781670888,-0.0173101301631906,0.416,0,0.31096
0.760084479229132,0.00274801877118058,0.416,0,0.312
0.765744825345719,0.02380236195392,0.416,0,0.31304
0.771195760493147,0.04219092193153,0.416,0,0.31408
0.777496580356168,0.0600777812554041,0.416,0,0.31512
0.785928183839209,0.0803638073669601,0.416,0,0.31616
0.794280725706633,0.102491033588644,0.416,0,0.3172
0.809126912697151,0.12270796648297,0.416,0,0.31824
0.831221347121068,0.14206891482911,0.416,0,0.31928
0.857071171683152,0.161871528495913,0.416,0,0.32032
0.887492501629469,0.182319059817623,0.416,0,0.32136
0.922206860622973,0.203517376382217,0.416,0,0.3224
0.970341203503577,0.223865572716154,0.416,0,0.32344
1.03395416448281,0.242604128051079,0.416,0,0.32448
1.09430903309049,0.260925319974443,0.416,0,0.32552
1.15523486341947,0.279266844689429,0.416,0,0.32656
1.22283860967199,0.301764997459874,0.416,0,0.3276
1.28958863426575,0.32428769621785,0.416,0,0.32864
1.34200655108301,0.344504931326041,0.416,0,0.32968
1.36014931841158,0.362837241965492,0.416,0,0.33072
1.37583416152691,0.380043733103194,0.416,0,0.33176
1.38951850143962,0.396575602780125,0.416,0,0.3328
1.40247600198721,0.479617338086858,0.416,0,0.33696
1.40304111174941,0.499490075147505,0.416,0,0.338
1.40355854415904,0.51955002410446,0.416,0,0.33904
1.40401173787236,0.539999611256706,0.416,0,0.34008
1.40441941707317,0.560559775211498,0.416,0,0.34112
1.40480217235989,0.580921177276315,0.416,0,0.34216
1.40503343517525,0.600377054444679,0.416,0,0.3432
1.40504104669236,0.619925725648232,0.416,0,0.34424
1.40446420885372,0.639830245502663,0.416,0,0.34528
1.40327955633401,0.660787766556731,0.416,0,0.34632
1.40190821535284,0.682250486292048,0.416,0,0.34736
1.39698577127939,0.740159811218908,0.416,0,0.35048
1.39526554489665,0.759076056970928,0.416,0,0.35152
1.39331426991394,0.77978609393302,0.416,0,0.35256
1.39142314022788,0.798890586006545,0.416,0,0.3536
1.3898124563062,0.817587099672926,0.416,0,0.35464
1.38836384285681,0.836564066901992,0.416,0,0.35568
1.37853046108849,0.858637674971395,0.416,0,0.35672
1.36286542614653,0.881492815751744,0.416,0,0.35776
1.30607618203824,0.900575088484521,0.416,0,0.3588
1.2114903939286,0.918500638745566,0.416,0,0.35984
1.04095505272969,0.937526757370181,0.416,0,0.36088
0.75993442584408,0.959152551708676,0.416,0,0.36192
0.432982978292882,0.978277012381557,0.416,0,0.36296
