"Velocity[i] (m/s)","Normalized Radius","X (m)","Y (m)","Z (m)"
1.39101378543889,0.416531151842273,0.416,0,0.33384
1.3940123376335,0.437454419516126,0.416,0,0.33488
1.39647923964847,0.459002393829808,0.416,0,0.33592
1.38055744263118,0.703055078114597,0.416,0,0.3484
1.38093304316546,0.721466281430321,0.416,0,0.34944
0.0138986920617902,-0.976745940424564,0.416,0,0.26104
0.0411589564893412,-0.958301228919823,0.416,0,0.26208
0.0734084642491825,-0.938184647183877,0.416,0,0.26312
0.106472977831157,-0.91914247775776,0.416,0,0.26416
0.137796641532804,-0.902143710637373,0.416,0,0.2652
0.174699894833223,-0.883523687894555,0.416,0,0.26624
0.224121469525359,-0.860530510033713,0.416,0,0.26728
0.276030070234626,-0.840070991938256,0.416,0,0.26832
0.333752345189019,-0.819154397592166,0.416,0,0.26936
0.390714727419393,-0.798266642301956,0.416,0,0.2704
0.441103197775162,-0.778174068477797,0.416,0,0.27144
0.475952535067358,-0.758238479055113,0.416,0,0.27248
0.503109658242971,-0.738029687169057,0.416,0,0.27352
0.525963229171299,-0.717992644541379,0.416,0,0.27456
0.539504313420569,-0.699140680102379,0.416,0,0.2756
0.548353912620049,-0.680210255468247,0.416,0,0.27664
0.557675356632892,-0.660805836667103,0.416,0,0.27768
0.563680111446803,-0.639967356460381,0.416,0,0.27872
0.569994356156131,-0.620077216287876,0.416,0,0.27976
0.578503997513025,-0.599643242431481,0.416,0,0.2808
0.587966570225779,-0.580124988264172,0.416,0,0.28184
0.595107629129804,-0.560168121531813,0.416,0,0.28288
0.600634877141258,-0.540141525257043,0.416,0,0.28392
0.607822361411447,-0.518867490645695,0.416,0,0.28496
0.615162803131253,-0.499046497668095,0.416,0,0.286
0.625314795736906,-0.479773143922389,0.416,0,0.28704
0.634851115906342,-0.459922909599847,0.416,0,0.28808
0.642853222565698,-0.439563094304127,0.416,0,0.28912
0.650084062244904,-0.419147159810493,0.416,0,0.29016
0.658362427213998,-0.39914357528988,0.416,0,0.2912
0.660728716964719,-0.37890325304086,0.416,0,0.29224
0.663449636764239,-0.35895537940366,0.416,0,0.29328
0.666829379220362,-0.339146486454692,0.416,0,0.29432
0.669767458944844,-0.319830632816478,0.416,0,0.29536
0.67233721498168,-0.300424427290962,0.416,0,0.2964
0.674792865374578,-0.280678052577577,0.416,0,0.29744
0.67718688028824,-0.260534836517711,0.416,0,0.29848
0.679479634328329,-0.241153140687109,0.416,0,0.29952
0.681652075597229,-0.222038859801038,0.416,0,0.30056
0.683738134372168,-0.200842222316715,0.416,0,0.3016
0.686300035628181,-0.179781122574965,0.416,0,0.30264
0.689078925071323,-0.159500674747491,0.416,0,0.30368
0.689368220418059,-0.140012500149846,0.416,0,0.30472
0.686657035727695,-0.119912209153413,0.416,0,0.30576
0.684590812587268,-0.0990606512673118,0.416,0,0.3068
0.683845786403685,-0.0776142544853187,0.416,0,0.30784
0.684011722680906,-0.0555722883719971,0.416,0,0.30888
0.67465328379356,-0.0368832070675653,0.416,0,0.30992
0.667562099884952,-0.0173101301631906,0.416,0,0.31096
0.660506382945981,0.00274801877118058,0.416,0,0.312
0.652377318553756,0.02380236195392,0.416,0,0.31304
0.645318476075783,0.04219092193153,0.416,0,0.31408
0.641084032249257,0.0600777812554041,0.416,0,0.31512
0.644689297412002,0.0803638073669601,0.416,0,0.31616
0.652777028837651,0.102491033588644,0.416,0,0.3172
0.673313715862621,0.12270796648297,0.416,0,0.31824
0.714165444867483,0.14206891482911,0.416,0,0.31928
0.764570895339652,0.161871528495913,0.416,0,0.32032
0.824392316112298,0.182319059817623,0.416,0,0.32136
0.895135521991451,0.203517376382217,0.416,0,0.3224
0.976682077213654,0.223865572716154,0.416,0,0.32344
1.05773873470274,0.242604128051079,0.416,0,0.32448
1.12632619234326,0.260925319974443,0.416,0,0.32552
1.1906501701981,0.279266844689429,0.416,0,0.32656
1.25000408038827,0.301764997459874,0.416,0,0.3276
1.3092481913854,0.32428769621785,0.416,0,0.32864
1.34903955503724,0.344504931326041,0.416,0,0.32968
1.36500420850607,0.362837241965492,0.416,0,0.33072
1.37741029638331,0.380043733103194,0.416,0,0.33176
1.38720053308043,0.396575602780125,0.416,0,0.3328
1.39781873727738,0.479617338086858,0.416,0,0.33696
1.39658167035955,0.499490075147505,0.416,0,0.338
1.39497952833537,0.51955002410446,0.416,0,0.33904
1.39285867477475,0.539999611256706,0.416,0,0.34008
1.3904332344267,0.560559775211498,0.416,0,0.34112
1.38785920237551,0.580921177276315,0.416,0,0.34216
1.38530751455246,0.600377054444679,0.416,0,0.3432
1.38295202727215,0.619925725648232,0.416,0,0.34424
1.38133852592286,0.639830245502663,0.416,0,0.34528
1.38063239592651,0.660787766556731,0.416,0,0.34632
1.38053641603326,0.682250486292048,0.416,0,0.34736
1.38119143950402,0.740159811218908,0.416,0,0.35048
1.3810401110198,0.759076056970928,0.416,0,0.35152
1.38083544845956,0.77978609393302,0.416,0,0.35256
1.38002411704082,0.798890586006545,0.416,0,0.3536
1.37900280986018,0.817587099672926,0.416,0,0.35464
1.3779639495868,0.836564066901992,0.416,0,0.35568
1.36638495248713,0.858637674971395,0.416,0,0.35672
1.34635086770708,0.881492815751744,0.416,0,0.35776
1.28378912536318,0.900575088484521,0.416,0,0.3588
1.1823565998419,0.918500638745566,0.416,0,0.35984
1.00617908908017,0.937526757370181,0.416,0,0.36088
0.72621614794865,0.959152551708676,0.416,0,0.36192
0.405392662587757,0.978277012381557,0.416,0,0.36296
