"Velocity[i] (m/s)","Normalized Radius","X (m)","Y (m)","Z (m)"
1.37603477617723,0.416531151842273,0.416,0,0.33384
1.38589668396746,0.437454419516126,0.416,0,0.33488
1.39492331190714,0.459002393829808,0.416,0,0.33592
1.41735159321929,0.703055078114597,0.416,0,0.3484
1.41684949737474,0.721466281430321,0.416,0,0.34944
0.0341156158637669,-0.976745940424564,0.416,0,0.26104
0.065264273590699,-0.958301228919823,0.416,0,0.26208
0.101516837277631,-0.938184647183877,0.416,0,0.26312
0.139026087410074,-0.91914247775776,0.416,0,0.26416
0.174259485866931,-0.902143710637373,0.416,0,0.2652
0.214983419100336,-0.883523687894555,0.416,0,0.26624
0.268798907445519,-0.860530510033713,0.416,0,0.26728
0.32432424869595,-0.840070991938256,0.416,0,0.26832
0.383535602292867,-0.819154397592166,0.416,0,0.26936
0.441364861533731,-0.798266642301956,0.416,0,0.2704
0.491261520384312,-0.778174068477797,0.416,0,0.27144
0.520954199975458,-0.758238479055113,0.416,0,0.27248
0.541587250030285,-0.738029687169057,0.416,0,0.27352
0.558063304399537,-0.717992644541379,0.416,0,0.27456
0.56685121320205,-0.699140680102379,0.416,0,0.2756
0.571801073993339,-0.680210255468247,0.416,0,0.27664
0.576655828672727,-0.660805836667103,0.416,0,0.27768
0.579713713079602,-0.639967356460381,0.416,0,0.27872
0.583828900139113,-0.620077216287876,0.416,0,0.27976
0.589069411215988,-0.599643242431481,0.416,0,0.2808
0.595370237491305,-0.580124988264172,0.416,0,0.28184
0.600355782304875,-0.560168121531813,0.416,0,0.28288
0.603427663156655,-0.540141525257043,0.416,0,0.28392
0.607972160903131,-0.518867490645695,0.416,0,0.28496
0.612731373105017,-0.499046497668095,0.416,0,0.286
0.623173157595532,-0.479773143922389,0.416,0,0.28704
0.632521785312455,-0.459922909599847,0.416,0,0.28808
0.637661874182768,-0.439563094304127,0.416,0,0.28912
0.640178695499584,-0.419147159810493,0.416,0,0.29016
0.645619522816412,-0.39914357528988,0.416,0,0.2912
0.647735586841081,-0.37890325304086,0.416,0,0.29224
0.649532287633573,-0.35895537940366,0.416,0,0.29328
0.652017425468478,-0.339146486454692,0.416,0,0.29432
0.655646389961232,-0.319830632816478,0.416,0,0.29536
0.65829261397595,-0.300424427290962,0.416,0,0.2964
0.659593521840741,-0.280678052577577,0.416,0,0.29744
0.660811248148676,-0.260534836517711,0.416,0,0.29848
0.662163588598026,-0.241153140687109,0.416,0,0.29952
0.665152738552123,-0.222038859801038,0.416,0,0.30056
0.674521339151527,-0.200842222316715,0.416,0,0.3016
0.682714233156877,-0.179781122574965,0.416,0,0.30264
0.689879332374224,-0.159500674747491,0.416,0,0.30368
0.696475012288134,-0.140012500149846,0.416,0,0.30472
0.702943624163205,-0.119912209153413,0.416,0,0.30576
0.70952627737494,-0.0990606512673118,0.416,0,0.3068
0.716231530982467,-0.0776142544853187,0.416,0,0.30784
0.722386491698495,-0.0555722883719971,0.416,0,0.30888
0.722027431737372,-0.0368832070675653,0.416,0,0.30992
0.720718155111247,-0.0173101301631906,0.416,0,0.31096
0.717727262034659,0.00274801877118058,0.416,0,0.312
0.712481318358805,0.02380236195392,0.416,0,0.31304
0.712171124925433,0.04219092193153,0.416,0,0.31408
0.710583426021112,0.0600777812554041,0.416,0,0.31512
0.717446565538329,0.0803638073669601,0.416,0,0.31616
0.729620917299892,0.102491033588644,0.416,0,0.3172
0.75005601158867,0.12270796648297,0.416,0,0.31824
0.789136418670039,0.14206891482911,0.416,0,0.31928
0.837124335667396,0.161871528495913,0.416,0,0.32032
0.89300325765584,0.182319059817623,0.416,0,0.32136
0.958095587794306,0.203517376382217,0.416,0,0.3224
1.0267216194379,0.223865572716154,0.416,0,0.32344
1.08954875542698,0.242604128051079,0.416,0,0.32448
1.14406584391929,0.260925319974443,0.416,0,0.32552
1.19480137948236,0.279266844689429,0.416,0,0.32656
1.24156542733263,0.301764997459874,0.416,0,0.3276
1.28615852975766,0.32428769621785,0.416,0,0.32864
1.31609735864115,0.344504931326041,0.416,0,0.32968
1.33367880447524,0.362837241965492,0.416,0,0.33072
1.34995370022776,0.380043733103194,0.416,0,0.33176
1.36573447342394,0.396575602780125,0.416,0,0.3328
1.40199865317465,0.479617338086858,0.416,0,0.33696
1.40598286844675,0.499490075147505,0.416,0,0.338
1.40946725557954,0.51955002410446,0.416,0,0.33904
1.41237163504388,0.539999611256706,0.416,0,0.34008
1.41486884954316,0.560559775211498,0.416,0,0.34112
1.41701503295957,0.580921177276315,0.416,0,0.34216
1.4178439806008,0.600377054444679,0.416,0,0.3432
1.41838013003089,0.619925725648232,0.416,0,0.34424
1.41839040113617,0.639830245502663,0.416,0,0.34528
1.41807579210325,0.660787766556731,0.416,0,0.34632
1.41772666216777,0.682250486292048,0.416,0,0.34736
1.41599842343698,0.740159811218908,0.416,0,0.35048
1.41484515893189,0.759076056970928,0.416,0,0.35152
1.41353529274565,0.77978609393302,0.416,0,0.35256
1.41178413134858,0.798890586006545,0.416,0,0.3536
1.41011270168267,0.817587099672926,0.416,0,0.35464
1.40862922464421,0.836564066901992,0.416,0,0.35568
1.39682990060862,0.858637674971395,0.416,0,0.35672
1.37630655580362,0.881492815751744,0.416,0,0.35776
1.31392693918274,0.900575088484521,0.416,0,0.3588
1.21140526065748,0.918500638745566,0.416,0,0.35984
1.03074874773566,0.937526757370181,0.416,0,0.36088
0.746721275954568,0.959152551708676,0.416,0,0.36192
0.424290717357802,0.978277012381557,0.416,0,0.36296
