"Velocity[i] (m/s)","Normalized Radius","X (m)","Y (m)","Z (m)"
1.35050149515881,0.416531151842273,0.416,0,0.33384
1.35827734572216,0.437454419516126,0.416,0,0.33488
1.36570727014157,0.459002393829808,0.416,0,0.33592
1.39743158787688,0.703055078114597,0.416,0,0.3484
1.39685105698879,0.721466281430321,0.416,0,0.34944
0.074869754020038,-0.976745940424564,0.416,0,0.26104
0.118382371761771,-0.958301228919823,0.416,0,0.26208
0.161840370626064,-0.938184647183877,0.416,0,0.26312
0.200063838834756,-0.91914247775776,0.416,0,0.26416
0.232945656079006,-0.902143710637373,0.416,0,0.2652
0.267111639571622,-0.883523687894555,0.416,0,0.26624
0.306998711647841,-0.860530510033713,0.416,0,0.26728
0.340935370407761,-0.840070991938256,0.416,0,0.26832
0.374561668705181,-0.819154397592166,0.416,0,0.26936
0.405332504343781,-0.798266642301956,0.416,0,0.2704
0.433014492480595,-0.778174068477797,0.416,0,0.27144
0.456702446407663,-0.758238479055113,0.416,0,0.27248
0.47856230472225,-0.738029687169057,0.416,0,0.27352
0.49925201837056,-0.717992644541379,0.416,0,0.27456
0.516437658261143,-0.699140680102379,0.416,0,0.2756
0.531990168378982,-0.680210255468247,0.416,0,0.27664
0.547484352824164,-0.660805836667103,0.416,0,0.27768
0.56141348229959,-0.639967356460381,0.416,0,0.27872
0.574478029369805,-0.620077216287876,0.416,0,0.27976
0.587047797918156,-0.599643242431481,0.416,0,0.2808
0.598061983918697,-0.580124988264172,0.416,0,0.28184
0.608522121164207,-0.560168121531813,0.416,0,0.28288
0.618818128540754,-0.540141525257043,0.416,0,0.28392
0.629017187547011,-0.518867490645695,0.416,0,0.28496
0.637831061482444,-0.499046497668095,0.416,0,0.286
0.646077019417972,-0.479773143922389,0.416,0,0.28704
0.653962437648259,-0.459922909599847,0.416,0,0.28808
0.661185981733692,-0.439563094304127,0.416,0,0.28912
0.667765211769548,-0.419147159810493,0.416,0,0.29016
0.67302632863235,-0.39914357528988,0.416,0,0.2912
0.679086874700409,-0.37890325304086,0.416,0,0.29224
0.684723534529616,-0.35895537940366,0.416,0,0.29328
0.688722299536189,-0.339146486454692,0.416,0,0.29432
0.692065211574156,-0.319830632816478,0.416,0,0.29536
0.695125986797316,-0.300424427290962,0.416,0,0.2964
0.697117056245777,-0.280678052577577,0.416,0,0.29744
0.698404672803551,-0.260534836517711,0.416,0,0.29848
0.699425759223722,-0.241153140687109,0.416,0,0.29952
0.700655977555798,-0.222038859801038,0.416,0,0.30056
0.702486945737758,-0.200842222316715,0.416,0,0.3016
0.703604838080757,-0.179781122574965,0.416,0,0.30264
0.70366180840124,-0.159500674747491,0.416,0,0.30368
0.706148950300499,-0.140012500149846,0.416,0,0.30472
0.711487992592202,-0.119912209153413,0.416,0,0.30576
0.71678122533091,-0.0990606512673118,0.416,0,0.3068
0.722105124682722,-0.0776142544853187,0.416,0,0.30784
0.728096664699811,-0.0555722883719971,0.416,0,0.30888
0.745909536767439,-0.0368832070675653,0.416,0,0.30992
0.763906770628229,-0.0173101301631906,0.416,0,0.31096
0.784916261030676,0.00274801877118058,0.416,0,0.312
0.811770862763031,0.02380236195392,0.416,0,0.31304
0.838794233371486,0.04219092193153,0.416,0,0.31408
0.867400575736477,0.0600777812554041,0.416,0,0.31512
0.903451515777323,0.0803638073669601,0.416,0,0.31616
0.944589220342616,0.102491033588644,0.416,0,0.3172
0.981796068697989,0.12270796648297,0.416,0,0.31824
1.01607861812863,0.14206891482911,0.416,0,0.31928
1.05078743864985,0.161871528495913,0.416,0,0.32032
1.08639303685671,0.182319059817623,0.416,0,0.32136
1.12294594286548,0.203517376382217,0.416,0,0.3224
1.15752418553258,0.223865572716154,0.416,0,0.32344
1.18668840784415,0.242604128051079,0.416,0,0.32448
1.21177819066967,0.260925319974443,0.416,0,0.32552
1.2360862960078,0.279266844689429,0.416,0,0.32656
1.26223037971104,0.301764997459874,0.416,0,0.3276
1.28751653780701,0.32428769621785,0.416,0,0.32864
1.30685174571202,0.344504931326041,0.416,0,0.32968
1.32109836643962,0.362837241965492,0.416,0,0.33072
1.33256491901513,0.380043733103194,0.416,0,0.33176
1.34230710932617,0.396575602780125,0.416,0,0.3328
1.37234011106911,0.479617338086858,0.416,0,0.33696
1.37746404264808,0.499490075147505,0.416,0,0.338
1.38213762962058,0.51955002410446,0.416,0,0.33904
1.3862049806349,0.539999611256706,0.416,0,0.34008
1.38977394187864,0.560559775211498,0.416,0,0.34112
1.39296243150542,0.580921177276315,0.416,0,0.34216
1.39507100041412,0.600377054444679,0.416,0,0.3432
1.39676802958907,0.619925725648232,0.416,0,0.34424
1.39754920976452,0.639830245502663,0.416,0,0.34528
1.39767560030928,0.660787766556731,0.416,0,0.34632
1.39759970087666,0.682250486292048,0.416,0,0.34736
1.39543622427048,0.740159811218908,0.416,0,0.35048
1.3927799579747,0.759076056970928,0.416,0,0.35152
1.3893152340157,0.77978609393302,0.416,0,0.35256
1.38416331195114,0.798890586006545,0.416,0,0.3536
1.37701199641707,0.817587099672926,0.416,0,0.35464
1.36811795524587,0.836564066901992,0.416,0,0.35568
1.34313770990179,0.858637674971395,0.416,0,0.35672
1.30598816870565,0.881492815751744,0.416,0,0.35776
1.24091626861825,0.900575088484521,0.416,0,0.3588
1.15281978614561,0.918500638745566,0.416,0,0.35984
1.01390303890101,0.937526757370181,0.416,0,0.36088
0.790372793576117,0.959152551708676,0.416,0,0.36192
0.50701280179336,0.978277012381557,0.416,0,0.36296
