"Velocity[i] (m/s)","Normalized Radius","X (m)","Y (m)","Z (m)"
1.36386166214233,0.416531151842273,0.416,0,0.33384
1.3780473061971,0.437454419516126,0.416,0,0.33488
1.38997929737356,0.459002393829808,0.416,0,0.33592
1.39036159153145,0.703055078114597,0.416,0,0.3484
1.39155611245023,0.721466281430321,0.416,0,0.34944
0.0456042191361768,-0.976745940424564,0.416,0,0.26104
0.08085275339609,-0.958301228919823,0.416,0,0.26208
0.11906328571625,-0.938184647183877,0.416,0,0.26312
0.15582994962838,-0.91914247775776,0.416,0,0.26416
0.189326030494797,-0.902143710637373,0.416,0,0.2652
0.226746618920612,-0.883523687894555,0.416,0,0.26624
0.274078828565076,-0.860530510033713,0.416,0,0.26728
0.318299011883462,-0.840070991938256,0.416,0,0.26832
0.364064429349589,-0.819154397592166,0.416,0,0.26936
0.407518695896932,-0.798266642301956,0.416,0,0.2704
0.445509530081561,-0.778174068477797,0.416,0,0.27144
0.473488992374611,-0.758238479055113,0.416,0,0.27248
0.496542711148649,-0.738029687169057,0.416,0,0.27352
0.516770337027233,-0.717992644541379,0.416,0,0.27456
0.53118177073281,-0.699140680102379,0.416,0,0.2756
0.5425285395341,-0.680210255468247,0.416,0,0.27664
0.553447659280747,-0.660805836667103,0.416,0,0.27768
0.561690451073333,-0.639967356460381,0.416,0,0.27872
0.569995100930232,-0.620077216287876,0.416,0,0.27976
0.57821042724735,-0.599643242431481,0.416,0,0.2808
0.585960726958602,-0.580124988264172,0.416,0,0.28184
0.594037983337549,-0.560168121531813,0.416,0,0.28288
0.60261779512666,-0.540141525257043,0.416,0,0.28392
0.612609662534703,-0.518867490645695,0.416,0,0.28496
0.622738791188243,-0.499046497668095,0.416,0,0.286
0.633474508882799,-0.479773143922389,0.416,0,0.28704
0.644216641418899,-0.459922909599847,0.416,0,0.28808
0.654398418677961,-0.439563094304127,0.416,0,0.28912
0.663960700823735,-0.419147159810493,0.416,0,0.29016
0.673821561907194,-0.39914357528988,0.416,0,0.2912
0.685104009466688,-0.37890325304086,0.416,0,0.29224
0.695673445241715,-0.35895537940366,0.416,0,0.29328
0.704913722313601,-0.339146486454692,0.416,0,0.29432
0.713327613037763,-0.319830632816478,0.416,0,0.29536
0.721072906052952,-0.300424427290962,0.416,0,0.2964
0.727513115336158,-0.280678052577577,0.416,0,0.29744
0.733466982125994,-0.260534836517711,0.416,0,0.29848
0.739409175017357,-0.241153140687109,0.416,0,0.29952
0.745256210899143,-0.222038859801038,0.416,0,0.30056
0.751288940867185,-0.200842222316715,0.416,0,0.3016
0.757640053193844,-0.179781122574965,0.416,0,0.30264
0.763973373720245,-0.159500674747491,0.416,0,0.30368
0.771137245407594,-0.140012500149846,0.416,0,0.30472
0.779731860926744,-0.119912209153413,0.416,0,0.30576
0.790057091560318,-0.0990606512673118,0.416,0,0.3068
0.802049764027785,-0.0776142544853187,0.416,0,0.30784
0.815443149773641,-0.0555722883719971,0.416,0,0.30888
0.827523933118352,-0.0368832070675653,0.416,0,0.30992
0.840803864876564,-0.0173101301631906,0.416,0,0.31096
0.854662290357241,0.00274801877118058,0.416,0,0.312
0.869022352632797,0.02380236195392,0.416,0,0.31304
0.881124540084905,0.04219092193153,0.416,0,0.31408
0.889588661597378,0.0600777812554041,0.416,0,0.31512
0.895657622966137,0.0803638073669601,0.416,0,0.31616
0.899961487452688,0.102491033588644,0.416,0,0.3172
0.901272816064311,0.12270796648297,0.416,0,0.31824
0.90175155090986,0.14206891482911,0.416,0,0.31928
0.903470143963127,0.161871528495913,0.416,0,0.32032
0.906555688478051,0.182319059817623,0.416,0,0.32136
0.909594230148096,0.203517376382217,0.416,0,0.3224
0.918667939394487,0.223865572716154,0.416,0,0.32344
0.943090403015613,0.242604128051079,0.416,0,0.32448
0.980496398925415,0.260925319974443,0.416,0,0.32552
1.02385977658536,0.279266844689429,0.416,0,0.32656
1.09527922498842,0.301764997459874,0.416,0,0.3276
1.17582438665431,0.32428769621785,0.416,0,0.32864
1.24327291376528,0.344504931326041,0.416,0,0.32968
1.28329488294224,0.362837241965492,0.416,0,0.33072
1.31774342541053,0.380043733103194,0.416,0,0.33176
1.34919040450703,0.396575602780125,0.416,0,0.3328
1.39667176569192,0.479617338086858,0.416,0,0.33696
1.39565510375168,0.499490075147505,0.416,0,0.338
1.3944544811073,0.51955002410446,0.416,0,0.33904
1.39318425196566,0.539999611256706,0.416,0,0.34008
1.39202371462003,0.560559775211498,0.416,0,0.34112
1.39099862074345,0.580921177276315,0.416,0,0.34216
1.38938021444765,0.600377054444679,0.416,0,0.3432
1.38834395085459,0.619925725648232,0.416,0,0.34424
1.38828167103879,0.639830245502663,0.416,0,0.34528
1.38892450395194,0.660787766556731,0.416,0,0.34632
1.38958065823626,0.682250486292048,0.416,0,0.34736
1.39272186342228,0.740159811218908,0.416,0,0.35048
1.39308098477696,0.759076056970928,0.416,0,0.35152
1.3929353109963,0.77978609393302,0.416,0,0.35256
1.39171286435939,0.798890586006545,0.416,0,0.3536
1.3894200613571,0.817587099672926,0.416,0,0.35464
1.38626602183987,0.836564066901992,0.416,0,0.35568
1.37354234329126,0.858637674971395,0.416,0,0.35672
1.3536087048303,0.881492815751744,0.416,0,0.35776
1.29657624886042,0.900575088484521,0.416,0,0.3588
1.20430911666203,0.918500638745566,0.416,0,0.35984
1.03916753669488,0.937526757370181,0.416,0,0.36088
0.773649917949174,0.959152551708676,0.416,0,0.36192
0.468286988649982,0.978277012381557,0.416,0,0.36296
