"Velocity[i] (m/s)","Normalized Radius","X (m)","Y (m)","Z (m)"
1.41933122284339,0.416531151842273,0.416,0,0.33384
1.43449064317517,0.437454419516126,0.416,0,0.33488
1.44782366246827,0.459002393829808,0.416,0,0.33592
1.43633762151878,0.703055078114597,0.416,0,0.3484
1.43421229489696,0.721466281430321,0.416,0,0.34944
0.060973250018428,-0.976745940424564,0.416,0,0.26104
0.0929038863385387,-0.958301228919823,0.416,0,0.26208
0.126763820671058,-0.938184647183877,0.416,0,0.26312
0.161445379818161,-0.91914247775776,0.416,0,0.26416
0.194263555709172,-0.902143710637373,0.416,0,0.2652
0.231471766667773,-0.883523687894555,0.416,0,0.26624
0.279673606277154,-0.860530510033713,0.416,0,0.26728
0.33103957848472,-0.840070991938256,0.416,0,0.26832
0.387416904310765,-0.819154397592166,0.416,0,0.26936
0.444600892390208,-0.798266642301956,0.416,0,0.2704
0.496035026688137,-0.778174068477797,0.416,0,0.27144
0.529519662591834,-0.758238479055113,0.416,0,0.27248
0.554174941862409,-0.738029687169057,0.416,0,0.27352
0.574099341705746,-0.717992644541379,0.416,0,0.27456
0.584358442813494,-0.699140680102379,0.416,0,0.2756
0.589507272133067,-0.680210255468247,0.416,0,0.27664
0.593828392864832,-0.660805836667103,0.416,0,0.27768
0.594703308003869,-0.639967356460381,0.416,0,0.27872
0.596251123906441,-0.620077216287876,0.416,0,0.27976
0.598092677141858,-0.599643242431481,0.416,0,0.2808
0.599572996993916,-0.580124988264172,0.416,0,0.28184
0.601654778782241,-0.560168121531813,0.416,0,0.28288
0.604437839033171,-0.540141525257043,0.416,0,0.28392
0.608696562880229,-0.518867490645695,0.416,0,0.28496
0.614546317280184,-0.499046497668095,0.416,0,0.286
0.62427246897246,-0.479773143922389,0.416,0,0.28704
0.634927898131543,-0.459922909599847,0.416,0,0.28808
0.64481990206879,-0.439563094304127,0.416,0,0.28912
0.653818830609406,-0.419147159810493,0.416,0,0.29016
0.664653668126603,-0.39914357528988,0.416,0,0.2912
0.674855564246015,-0.37890325304086,0.416,0,0.29224
0.684306460959753,-0.35895537940366,0.416,0,0.29328
0.692911809935253,-0.339146486454692,0.416,0,0.29432
0.701762770298574,-0.319830632816478,0.416,0,0.29536
0.70959990551942,-0.300424427290962,0.416,0,0.2964
0.715562742074815,-0.280678052577577,0.416,0,0.29744
0.720597953989316,-0.260534836517711,0.416,0,0.29848
0.725114842459304,-0.241153140687109,0.416,0,0.29952
0.729575273828617,-0.222038859801038,0.416,0,0.30056
0.733637388842451,-0.200842222316715,0.416,0,0.3016
0.737726444404066,-0.179781122574965,0.416,0,0.30264
0.741842679411448,-0.159500674747491,0.416,0,0.30368
0.744556716597281,-0.140012500149846,0.416,0,0.30472
0.745799424500336,-0.119912209153413,0.416,0,0.30576
0.748064789073538,-0.0990606512673118,0.416,0,0.3068
0.751373595790875,-0.0776142544853187,0.416,0,0.30784
0.755334037444575,-0.0555722883719971,0.416,0,0.30888
0.750702526220602,-0.0368832070675653,0.416,0,0.30992
0.747564986344405,-0.0173101301631906,0.416,0,0.31096
0.743255382996759,0.00274801877118058,0.416,0,0.312
0.737013134643863,0.02380236195392,0.416,0,0.31304
0.731204816421952,0.04219092193153,0.416,0,0.31408
0.726896475537626,0.0600777812554041,0.416,0,0.31512
0.721911444756325,0.0803638073669601,0.416,0,0.31616
0.716221643451133,0.102491033588644,0.416,0,0.3172
0.719559307025817,0.12270796648297,0.416,0,0.31824
0.734299102756983,0.14206891482911,0.416,0,0.31928
0.755303045127935,0.161871528495913,0.416,0,0.32032
0.782761989856512,0.182319059817623,0.416,0,0.32136
0.815593725829421,0.203517376382217,0.416,0,0.3224
0.865028864402576,0.223865572716154,0.416,0,0.32344
0.931374633883634,0.242604128051079,0.416,0,0.32448
0.997251977877099,0.260925319974443,0.416,0,0.32552
1.06506410901461,0.279266844689429,0.416,0,0.32656
1.14780129982116,0.301764997459874,0.416,0,0.3276
1.23506354558957,0.32428769621785,0.416,0,0.32864
1.29905993232927,0.344504931326041,0.416,0,0.32968
1.34008408912463,0.362837241965492,0.416,0,0.33072
1.3734698569143,0.380043733103194,0.416,0,0.33176
1.40195204829966,0.396575602780125,0.416,0,0.3328
1.45730907073967,0.479617338086858,0.416,0,0.33696
1.45903033060341,0.499490075147505,0.416,0,0.338
1.45983822741444,0.51955002410446,0.416,0,0.33904
1.45960121804665,0.539999611256706,0.416,0,0.34008
1.45867182069539,0.560559775211498,0.416,0,0.34112
1.45736113595631,0.580921177276315,0.416,0,0.34216
1.45429017661974,0.600377054444679,0.416,0,0.3432
1.45104114062009,0.619925725648232,0.416,0,0.34424
1.44725729803201,0.639830245502663,0.416,0,0.34528
1.44331884514886,0.660787766556731,0.416,0,0.34632
1.43974088323942,0.682250486292048,0.416,0,0.34736
1.43284195097543,0.740159811218908,0.416,0,0.35048
1.43189896172336,0.759076056970928,0.416,0,0.35152
1.43075177519103,0.77978609393302,0.416,0,0.35256
1.42962946324685,0.798890586006545,0.416,0,0.3536
1.42854931748558,0.817587099672926,0.416,0,0.35464
1.42735039795465,0.836564066901992,0.416,0,0.35568
1.41920337093564,0.858637674971395,0.416,0,0.35672
1.40534091284485,0.881492815751744,0.416,0,0.35776
1.35153616003976,0.900575088484521,0.416,0,0.3588
1.25733266513109,0.918500638745566,0.416,0,0.35984
1.08212841184114,0.937526757370181,0.416,0,0.36088
0.796091188830328,0.959152551708676,0.416,0,0.36192
0.463434486436563,0.978277012381557,0.416,0,0.36296
