"Velocity[i] (m/s)","Normalized Radius","X (m)","Y (m)","Z (m)"
1.37688514251053,0.416531151842273,0.416,0,0.33384
1.37971490429738,0.437454419516126,0.416,0,0.33488
1.38254378747147,0.459002393829808,0.416,0,0.33592
1.40034604940059,0.703055078114597,0.416,0,0.3484
1.40016178997077,0.721466281430321,0.416,0,0.34944
0.0499910478185585,-0.976745940424564,0.416,0,0.26104
0.0819463472687015,-0.958301228919823,0.416,0,0.26208
0.118100870498501,-0.938184647183877,0.416,0,0.26312
0.154955557405486,-0.91914247775776,0.416,0,0.26416
0.189820151728526,-0.902143710637373,0.416,0,0.2652
0.229006025743174,-0.883523687894555,0.416,0,0.26624
0.279345310092819,-0.860530510033713,0.416,0,0.26728
0.332161679783559,-0.840070991938256,0.416,0,0.26832
0.390136031629027,-0.819154397592166,0.416,0,0.26936
0.447258393433092,-0.798266642301956,0.416,0,0.2704
0.499592101567346,-0.778174068477797,0.416,0,0.27144
0.535469437605421,-0.758238479055113,0.416,0,0.27248
0.56451609430557,-0.738029687169057,0.416,0,0.27352
0.590093308332569,-0.717992644541379,0.416,0,0.27456
0.605733529834463,-0.699140680102379,0.416,0,0.2756
0.616295213087557,-0.680210255468247,0.416,0,0.27664
0.626486991379908,-0.660805836667103,0.416,0,0.27768
0.630971590302628,-0.639967356460381,0.416,0,0.27872
0.636963908042256,-0.620077216287876,0.416,0,0.27976
0.644755113223112,-0.599643242431481,0.416,0,0.2808
0.650081716141578,-0.580124988264172,0.416,0,0.28184
0.657092578204515,-0.560168121531813,0.416,0,0.28288
0.663908771601692,-0.540141525257043,0.416,0,0.28392
0.671140153857299,-0.518867490645695,0.416,0,0.28496
0.677866198053713,-0.499046497668095,0.416,0,0.286
0.685796368189522,-0.479773143922389,0.416,0,0.28704
0.694258518042431,-0.459922909599847,0.416,0,0.28808
0.702554803704157,-0.439563094304127,0.416,0,0.28912
0.710213765499799,-0.419147159810493,0.416,0,0.29016
0.714474826429583,-0.39914357528988,0.416,0,0.2912
0.713421105731557,-0.37890325304086,0.416,0,0.29224
0.71295392723891,-0.35895537940366,0.416,0,0.29328
0.712545623642028,-0.339146486454692,0.416,0,0.29432
0.709512656496846,-0.319830632816478,0.416,0,0.29536
0.706637965754577,-0.300424427290962,0.416,0,0.2964
0.70456414830481,-0.280678052577577,0.416,0,0.29744
0.701925007349876,-0.260534836517711,0.416,0,0.29848
0.696279826767391,-0.241153140687109,0.416,0,0.29952
0.69131748894272,-0.222038859801038,0.416,0,0.30056
0.688196323078656,-0.200842222316715,0.416,0,0.3016
0.683951997251954,-0.179781122574965,0.416,0,0.30264
0.678967454866708,-0.159500674747491,0.416,0,0.30368
0.674378986843159,-0.140012500149846,0.416,0,0.30472
0.671067441312016,-0.119912209153413,0.416,0,0.30576
0.668412163717578,-0.0990606512673118,0.416,0,0.3068
0.665898244566674,-0.0776142544853187,0.416,0,0.30784
0.66475862430597,-0.0555722883719971,0.416,0,0.30888
0.676971827224653,-0.0368832070675653,0.416,0,0.30992
0.690888946562269,-0.0173101301631906,0.416,0,0.31096
0.708199532542213,0.00274801877118058,0.416,0,0.312
0.731032312883851,0.02380236195392,0.416,0,0.31304
0.758972922063281,0.04219092193153,0.416,0,0.31408
0.788722305544105,0.0600777812554041,0.416,0,0.31512
0.828312107976907,0.0803638073669601,0.416,0,0.31616
0.874181595364876,0.102491033588644,0.416,0,0.3172
0.920304855192763,0.12270796648297,0.416,0,0.31824
0.967001820816264,0.14206891482911,0.416,0,0.31928
1.01628819589906,0.161871528495913,0.416,0,0.32032
1.06937708431057,0.182319059817623,0.416,0,0.32136
1.12650997555746,0.203517376382217,0.416,0,0.3224
1.17810546849604,0.223865572716154,0.416,0,0.32344
1.22538151843314,0.242604128051079,0.416,0,0.32448
1.26554923304302,0.260925319974443,0.416,0,0.32552
1.30226183964051,0.279266844689429,0.416,0,0.32656
1.32910497335817,0.301764997459874,0.416,0,0.3276
1.35205468387193,0.32428769621785,0.416,0,0.32864
1.36648922851918,0.344504931326041,0.416,0,0.32968
1.36887928494274,0.362837241965492,0.416,0,0.33072
1.37135592172376,0.380043733103194,0.416,0,0.33176
1.37380258758725,0.396575602780125,0.416,0,0.3328
1.38562780901543,0.479617338086858,0.416,0,0.33696
1.38918259919845,0.499490075147505,0.416,0,0.338
1.39238009897493,0.51955002410446,0.416,0,0.33904
1.39501409785187,0.539999611256706,0.416,0,0.34008
1.39715171625343,0.560559775211498,0.416,0,0.34112
1.3989687581135,0.580921177276315,0.416,0,0.34216
1.40035479060175,0.600377054444679,0.416,0,0.3432
1.40122439037469,0.619925725648232,0.416,0,0.34424
1.40127244999669,0.639830245502663,0.416,0,0.34528
1.40091218673213,0.660787766556731,0.416,0,0.34632
1.40059918058396,0.682250486292048,0.416,0,0.34736
1.39976951498831,0.740159811218908,0.416,0,0.35048
1.3992042061543,0.759076056970928,0.416,0,0.35152
1.39873076671,0.77978609393302,0.416,0,0.35256
1.39780897341123,0.798890586006545,0.416,0,0.3536
1.39672526851651,0.817587099672926,0.416,0,0.35464
1.39565842017765,0.836564066901992,0.416,0,0.35568
1.3853473142735,0.858637674971395,0.416,0,0.35672
1.36741233698908,0.881492815751744,0.416,0,0.35776
1.30812898634616,0.900575088484521,0.416,0,0.3588
1.20901287390835,0.918500638745566,0.416,0,0.35984
1.03184112836911,0.937526757370181,0.416,0,0.36088
0.752380101656252,0.959152551708676,0.416,0,0.36192
0.43330390204964,0.978277012381557,0.416,0,0.36296
