"Velocity[i] (m/s)","Normalized Radius","X (m)","Y (m)","Z (m)"
1.37267855956992,0.416531151842273,0.416,0,0.33384
1.38231713513169,0.437454419516126,0.416,0,0.33488
1.39020015845334,0.459002393829808,0.416,0,0.33592
1.40635861090822,0.703055078114597,0.416,0,0.3484
1.40607864613152,0.721466281430321,0.416,0,0.34944
0.0306821470213454,-0.976745940424564,0.416,0,0.26104
0.0618685674898151,-0.958301228919823,0.416,0,0.26208
0.10071885770551,-0.938184647183877,0.416,0,0.26312
0.141428366740856,-0.91914247775776,0.416,0,0.26416
0.179783120461036,-0.902143710637373,0.416,0,0.2652
0.221154345694969,-0.883523687894555,0.416,0,0.26624
0.270636115891035,-0.860530510033713,0.416,0,0.26728
0.318091161970031,-0.840070991938256,0.416,0,0.26832
0.364627256367142,-0.819154397592166,0.416,0,0.26936
0.407127154161914,-0.798266642301956,0.416,0,0.2704
0.441485303680374,-0.778174068477797,0.416,0,0.27144
0.464271043312009,-0.758238479055113,0.416,0,0.27248
0.481351076895393,-0.738029687169057,0.416,0,0.27352
0.49629295978075,-0.717992644541379,0.416,0,0.27456
0.505855063765341,-0.699140680102379,0.416,0,0.2756
0.51184966551431,-0.680210255468247,0.416,0,0.27664
0.517973505031774,-0.660805836667103,0.416,0,0.27768
0.519837448579228,-0.639967356460381,0.416,0,0.27872
0.521402739357222,-0.620077216287876,0.416,0,0.27976
0.523364691833469,-0.599643242431481,0.416,0,0.2808
0.529577999099512,-0.580124988264172,0.416,0,0.28184
0.531652054032071,-0.560168121531813,0.416,0,0.28288
0.535395254550769,-0.540141525257043,0.416,0,0.28392
0.546090459135635,-0.518867490645695,0.416,0,0.28496
0.556903237783292,-0.499046497668095,0.416,0,0.286
0.576058717838576,-0.479773143922389,0.416,0,0.28704
0.594437646606897,-0.459922909599847,0.416,0,0.28808
0.608671470635419,-0.439563094304127,0.416,0,0.28912
0.620884946494422,-0.419147159810493,0.416,0,0.29016
0.636392657391836,-0.39914357528988,0.416,0,0.2912
0.648210576751992,-0.37890325304086,0.416,0,0.29224
0.659294816500025,-0.35895537940366,0.416,0,0.29328
0.669312495941529,-0.339146486454692,0.416,0,0.29432
0.679469091541011,-0.319830632816478,0.416,0,0.29536
0.688230045001953,-0.300424427290962,0.416,0,0.2964
0.69545313810919,-0.280678052577577,0.416,0,0.29744
0.701108300760327,-0.260534836517711,0.416,0,0.29848
0.702012534978257,-0.241153140687109,0.416,0,0.29952
0.703844445101023,-0.222038859801038,0.416,0,0.30056
0.710306135620894,-0.200842222316715,0.416,0,0.3016
0.716811731036031,-0.179781122574965,0.416,0,0.30264
0.722853718323849,-0.159500674747491,0.416,0,0.30368
0.73031040806023,-0.140012500149846,0.416,0,0.30472
0.740533802538952,-0.119912209153413,0.416,0,0.30576
0.753256000201024,-0.0990606512673118,0.416,0,0.3068
0.768512884100697,-0.0776142544853187,0.416,0,0.30784
0.785743517354121,-0.0555722883719971,0.416,0,0.30888
0.796637905150892,-0.0368832070675653,0.416,0,0.30992
0.807650905603772,-0.0173101301631906,0.416,0,0.31096
0.817671814768577,0.00274801877118058,0.416,0,0.312
0.825918975114954,0.02380236195392,0.416,0,0.31304
0.824987530930184,0.04219092193153,0.416,0,0.31408
0.8210638999195,0.0600777812554041,0.416,0,0.31512
0.811700979889221,0.0803638073669601,0.416,0,0.31616
0.798632648413419,0.102491033588644,0.416,0,0.3172
0.791626095464583,0.12270796648297,0.416,0,0.31824
0.790098505811987,0.14206891482911,0.416,0,0.31928
0.794683452031087,0.161871528495913,0.416,0,0.32032
0.806017465131355,0.182319059817623,0.416,0,0.32136
0.824831479359159,0.203517376382217,0.416,0,0.3224
0.864095077494151,0.223865572716154,0.416,0,0.32344
0.922619685029189,0.242604128051079,0.416,0,0.32448
0.987486747517765,0.260925319974443,0.416,0,0.32552
1.05708168318856,0.279266844689429,0.416,0,0.32656
1.13701430629544,0.301764997459874,0.416,0,0.3276
1.22496565072456,0.32428769621785,0.416,0,0.32864
1.28913519220803,0.344504931326041,0.416,0,0.32968
1.31706183451846,0.362837241965492,0.416,0,0.33072
1.34113072350681,0.380043733103194,0.416,0,0.33176
1.36348449586659,0.396575602780125,0.416,0,0.3328
1.39463911665664,0.479617338086858,0.416,0,0.33696
1.39597678832708,0.499490075147505,0.416,0,0.338
1.39730054058255,0.51955002410446,0.416,0,0.33904
1.39873327373095,0.539999611256706,0.416,0,0.34008
1.40033907796476,0.560559775211498,0.416,0,0.34112
1.40196264468475,0.580921177276315,0.416,0,0.34216
1.40315644835441,0.600377054444679,0.416,0,0.3432
1.40427401143615,0.619925725648232,0.416,0,0.34424
1.40515758653846,0.639830245502663,0.416,0,0.34528
1.40572454538125,0.660787766556731,0.416,0,0.34632
1.40610868590648,0.682250486292048,0.416,0,0.34736
1.40507460852533,0.740159811218908,0.416,0,0.35048
1.40367203269473,0.759076056970928,0.416,0,0.35152
1.40224400302754,0.77978609393302,0.416,0,0.35256
1.40045528333261,0.798890586006545,0.416,0,0.3536
1.39893022449836,0.817587099672926,0.416,0,0.35464
1.39767453848851,0.836564066901992,0.416,0,0.35568
1.3843963434958,0.858637674971395,0.416,0,0.35672
1.36052994456304,0.881492815751744,0.416,0,0.35776
1.29295596068024,0.900575088484521,0.416,0,0.3588
1.18331534906671,0.918500638745566,0.416,0,0.35984
0.996250698209468,0.937526757370181,0.416,0,0.36088
0.714111613064297,0.959152551708676,0.416,0,0.36192
0.403879938205778,0.978277012381557,0.416,0,0.36296
