"Velocity[i] (m/s)","Normalized Radius","X (m)","Y (m)","Z (m)"
1.3469968920136,0.416531151842273,0.416,0,0.33384
1.3638383429521,0.437454419516126,0.416,0,0.33488
1.37816878128937,0.459002393829808,0.416,0,0.33592
1.3710609971921,0.703055078114597,0.416,0,0.3484
1.37163028413992,0.721466281430321,0.416,0,0.34944
0.0153547923244395,-0.976745940424564,0.416,0,0.26104
0.0431617370548601,-0.958301228919823,0.416,0,0.26208
0.0788548082056452,-0.938184647183877,0.416,0,0.26312
0.116044354901479,-0.91914247775776,0.416,0,0.26416
0.150324485105282,-0.902143710637373,0.416,0,0.2652
0.188779295485517,-0.883523687894555,0.416,0,0.26624
0.237627955913663,-0.860530510033713,0.416,0,0.26728
0.285137532088211,-0.840070991938256,0.416,0,0.26832
0.335116026636467,-0.819154397592166,0.416,0,0.26936
0.383146934816203,-0.798266642301956,0.416,0,0.2704
0.42539207529312,-0.778174068477797,0.416,0,0.27144
0.455228607085588,-0.758238479055113,0.416,0,0.27248
0.478808232673096,-0.738029687169057,0.416,0,0.27352
0.499029472819102,-0.717992644541379,0.416,0,0.27456
0.512457565569842,-0.699140680102379,0.416,0,0.2756
0.522339080113692,-0.680210255468247,0.416,0,0.27664
0.531660760944002,-0.660805836667103,0.416,0,0.27768
0.537630746353277,-0.639967356460381,0.416,0,0.27872
0.543797464472443,-0.620077216287876,0.416,0,0.27976
0.549807621561602,-0.599643242431481,0.416,0,0.2808
0.555279678984689,-0.580124988264172,0.416,0,0.28184
0.561571859383566,-0.560168121531813,0.416,0,0.28288
0.568241710421792,-0.540141525257043,0.416,0,0.28392
0.576521588993416,-0.518867490645695,0.416,0,0.28496
0.58561649642882,-0.499046497668095,0.416,0,0.286
0.596002953708419,-0.479773143922389,0.416,0,0.28704
0.606439359295662,-0.459922909599847,0.416,0,0.28808
0.616222724893211,-0.439563094304127,0.416,0,0.28912
0.625307035513179,-0.419147159810493,0.416,0,0.29016
0.635383565427191,-0.39914357528988,0.416,0,0.2912
0.646239486243784,-0.37890325304086,0.416,0,0.29224
0.65635001237297,-0.35895537940366,0.416,0,0.29328
0.665416105427471,-0.339146486454692,0.416,0,0.29432
0.674190892109376,-0.319830632816478,0.416,0,0.29536
0.682021381883743,-0.300424427290962,0.416,0,0.2964
0.688380806111581,-0.280678052577577,0.416,0,0.29744
0.694249130241227,-0.260534836517711,0.416,0,0.29848
0.700023560229227,-0.241153140687109,0.416,0,0.29952
0.70559301563676,-0.222038859801038,0.416,0,0.30056
0.710755024940215,-0.200842222316715,0.416,0,0.3016
0.7162763134357,-0.179781122574965,0.416,0,0.30264
0.721920410948082,-0.159500674747491,0.416,0,0.30368
0.728054067598281,-0.140012500149846,0.416,0,0.30472
0.735128671907177,-0.119912209153413,0.416,0,0.30576
0.744016750112131,-0.0990606512673118,0.416,0,0.3068
0.754712786435095,-0.0776142544853187,0.416,0,0.30784
0.7668138547353,-0.0555722883719971,0.416,0,0.30888
0.774888801365698,-0.0368832070675653,0.416,0,0.30992
0.784417973907887,-0.0173101301631906,0.416,0,0.31096
0.793927287433345,0.00274801877118058,0.416,0,0.312
0.803125307829855,0.02380236195392,0.416,0,0.31304
0.809705024004597,0.04219092193153,0.416,0,0.31408
0.813418062834205,0.0600777812554041,0.416,0,0.31512
0.813802034192782,0.0803638073669601,0.416,0,0.31616
0.811761798949424,0.102491033588644,0.416,0,0.3172
0.809337024695514,0.12270796648297,0.416,0,0.31824
0.808800235065661,0.14206891482911,0.416,0,0.31928
0.810705115064101,0.161871528495913,0.416,0,0.32032
0.815190820252047,0.182319059817623,0.416,0,0.32136
0.820586625152664,0.203517376382217,0.416,0,0.3224
0.836053273832754,0.223865572716154,0.416,0,0.32344
0.870047302705291,0.242604128051079,0.416,0,0.32448
0.916229455410653,0.260925319974443,0.416,0,0.32552
0.968302988448745,0.279266844689429,0.416,0,0.32656
1.04830334659631,0.301764997459874,0.416,0,0.3276
1.13880888541778,0.32428769621785,0.416,0,0.32864
1.21162811862877,0.344504931326041,0.416,0,0.32968
1.25674190310449,0.362837241965492,0.416,0,0.33072
1.2948481551317,0.380043733103194,0.416,0,0.33176
1.32893655727308,0.396575602780125,0.416,0,0.3328
1.38679989505713,0.479617338086858,0.416,0,0.33696
1.38600978103219,0.499490075147505,0.416,0,0.338
1.38484054820505,0.51955002410446,0.416,0,0.33904
1.38318158572365,0.539999611256706,0.416,0,0.34008
1.38131631187321,0.560559775211498,0.416,0,0.34112
1.37940834610495,0.580921177276315,0.416,0,0.34216
1.37659231661718,0.600377054444679,0.416,0,0.3432
1.37420640746733,0.619925725648232,0.416,0,0.34424
1.37270281790784,0.639830245502663,0.416,0,0.34528
1.37191289087817,0.660787766556731,0.416,0,0.34632
1.37138205127906,0.682250486292048,0.416,0,0.34736
1.37252558149853,0.740159811218908,0.416,0,0.35048
1.37314845517828,0.759076056970928,0.416,0,0.35152
1.3739208888831,0.77978609393302,0.416,0,0.35256
1.3741162844049,0.798890586006545,0.416,0,0.3536
1.37361864106068,0.817587099672926,0.416,0,0.35464
1.37255864682127,0.836564066901992,0.416,0,0.35568
1.36284519681887,0.858637674971395,0.416,0,0.35672
1.34604687150878,0.881492815751744,0.416,0,0.35776
1.29058849499725,0.900575088484521,0.416,0,0.3588
1.19717729558053,0.918500638745566,0.416,0,0.35984
1.0274656724393,0.937526757370181,0.416,0,0.36088
0.752111953791352,0.959152551708676,0.416,0,0.36192
0.434544796712336,0.978277012381557,0.416,0,0.36296
