"Velocity[i] (m/s)","Normalized Radius","X (m)","Y (m)","Z (m)"
1.36586213974535,0.416531151842273,0.416,0,0.33384
1.36923534009604,0.437454419516126,0.416,0,0.33488
1.37206792204313,0.459002393829808,0.416,0,0.33592
1.37577626411704,0.703055078114597,0.416,0,0.3484
1.37438914026818,0.721466281430321,0.416,0,0.34944
0.0100215777990994,-0.976745940424564,0.416,0,0.26104
0.0380826124962093,-0.958301228919823,0.416,0,0.26208
0.073808612330293,-0.938184647183877,0.416,0,0.26312
0.111422379136576,-0.91914247775776,0.416,0,0.26416
0.147540521477208,-0.902143710637373,0.416,0,0.2652
0.188885362403648,-0.883523687894555,0.416,0,0.26624
0.242356045976793,-0.860530510033713,0.416,0,0.26728
0.298552777597613,-0.840070991938256,0.416,0,0.26832
0.358361128242939,-0.819154397592166,0.416,0,0.26936
0.416447826894714,-0.798266642301956,0.416,0,0.2704
0.468342994429412,-0.778174068477797,0.416,0,0.27144
0.50031299275453,-0.758238479055113,0.416,0,0.27248
0.523536324102279,-0.738029687169057,0.416,0,0.27352
0.542346162781919,-0.717992644541379,0.416,0,0.27456
0.551871982354077,-0.699140680102379,0.416,0,0.2756
0.556943394400349,-0.680210255468247,0.416,0,0.27664
0.56107894994296,-0.660805836667103,0.416,0,0.27768
0.562007255559568,-0.639967356460381,0.416,0,0.27872
0.563262073959052,-0.620077216287876,0.416,0,0.27976
0.564953708614251,-0.599643242431481,0.416,0,0.2808
0.566020854863776,-0.580124988264172,0.416,0,0.28184
0.568594438457195,-0.560168121531813,0.416,0,0.28288
0.572135813195444,-0.540141525257043,0.416,0,0.28392
0.577578153323067,-0.518867490645695,0.416,0,0.28496
0.583775543490881,-0.499046497668095,0.416,0,0.286
0.595320033330038,-0.479773143922389,0.416,0,0.28704
0.608998310276664,-0.459922909599847,0.416,0,0.28808
0.62268734200563,-0.439563094304127,0.416,0,0.28912
0.636310739898936,-0.419147159810493,0.416,0,0.29016
0.650567422492643,-0.39914357528988,0.416,0,0.2912
0.659953857344435,-0.37890325304086,0.416,0,0.29224
0.669343608442708,-0.35895537940366,0.416,0,0.29328
0.677752958405355,-0.339146486454692,0.416,0,0.29432
0.684547890417148,-0.319830632816478,0.416,0,0.29536
0.690983277205539,-0.300424427290962,0.416,0,0.2964
0.696979349970311,-0.280678052577577,0.416,0,0.29744
0.702080773494786,-0.260534836517711,0.416,0,0.29848
0.703896204911416,-0.241153140687109,0.416,0,0.29952
0.70545900726689,-0.222038859801038,0.416,0,0.30056
0.706480375768954,-0.200842222316715,0.416,0,0.3016
0.706879224170695,-0.179781122574965,0.416,0,0.30264
0.706925553134681,-0.159500674747491,0.416,0,0.30368
0.706851607456044,-0.140012500149846,0.416,0,0.30472
0.706868626540931,-0.119912209153413,0.416,0,0.30576
0.706885420332674,-0.0990606512673118,0.416,0,0.3068
0.707074159743032,-0.0776142544853187,0.416,0,0.30784
0.708018141231472,-0.0555722883719971,0.416,0,0.30888
0.711016270409312,-0.0368832070675653,0.416,0,0.30992
0.714824927857916,-0.0173101301631906,0.416,0,0.31096
0.71919997656446,0.00274801877118058,0.416,0,0.312
0.725000511957957,0.02380236195392,0.416,0,0.31304
0.731583350632064,0.04219092193153,0.416,0,0.31408
0.739853737807418,0.0600777812554041,0.416,0,0.31512
0.751912191077911,0.0803638073669601,0.416,0,0.31616
0.7648808216153,0.102491033588644,0.416,0,0.3172
0.784328436149299,0.12270796648297,0.416,0,0.31824
0.811726957484401,0.14206891482911,0.416,0,0.31928
0.842758938309289,0.161871528495913,0.416,0,0.32032
0.878126139340863,0.182319059817623,0.416,0,0.32136
0.917180437948514,0.203517376382217,0.416,0,0.3224
0.968146942239973,0.223865572716154,0.416,0,0.32344
1.03250742378852,0.242604128051079,0.416,0,0.32448
1.09150874984021,0.260925319974443,0.416,0,0.32552
1.15033682538922,0.279266844689429,0.416,0,0.32656
1.21327124875607,0.301764997459874,0.416,0,0.3276
1.27431389277076,0.32428769621785,0.416,0,0.32864
1.32145731406009,0.344504931326041,0.416,0,0.32968
1.33694752907882,0.362837241965492,0.416,0,0.33072
1.35033260136448,0.380043733103194,0.416,0,0.33176
1.36198388167514,0.396575602780125,0.416,0,0.3328
1.37413363392008,0.479617338086858,0.416,0,0.33696
1.37521929048644,0.499490075147505,0.416,0,0.338
1.37627436883595,0.51955002410446,0.416,0,0.33904
1.37724131906647,0.539999611256706,0.416,0,0.34008
1.37813161851531,0.560559775211498,0.416,0,0.34112
1.37896865861304,0.580921177276315,0.416,0,0.34216
1.37945007460627,0.600377054444679,0.416,0,0.3432
1.37971144149707,0.619925725648232,0.416,0,0.34424
1.37929843811424,0.639830245502663,0.416,0,0.34528
1.37821185194166,0.660787766556731,0.416,0,0.34632
1.37699654927543,0.682250486292048,0.416,0,0.34736
1.37267503052596,0.740159811218908,0.416,0,0.35048
1.37099596036713,0.759076056970928,0.416,0,0.35152
1.36915659697127,0.77978609393302,0.416,0,0.35256
1.36746754442044,0.798890586006545,0.416,0,0.3536
1.36612236142325,0.817587099672926,0.416,0,0.35464
1.36501949289853,0.836564066901992,0.416,0,0.35568
1.35607606681965,0.858637674971395,0.416,0,0.35672
1.34113670844569,0.881492815751744,0.416,0,0.35776
1.28504679559328,0.900575088484521,0.416,0,0.3588
1.18993458211368,0.918500638745566,0.416,0,0.35984
1.01878935743914,0.937526757370181,0.416,0,0.36088
0.73792222037686,0.959152551708676,0.416,0,0.36192
0.411053005635484,0.978277012381557,0.416,0,0.36296
