"Velocity[i] (m/s)","Normalized Radius","X (m)","Y (m)","Z (m)"
1.39922838493336,0.416531151842273,0.416,0,0.33384
1.40588541559726,0.437454419516126,0.416,0,0.33488
1.41178464456321,0.459002393829808,0.416,0,0.33592
1.40450515665482,0.703055078114597,0.416,0,0.3484
1.40434814956905,0.721466281430321,0.416,0,0.34944
0.0396335790903093,-0.976745940424564,0.416,0,0.26104
0.0699833190563937,-0.958301228919823,0.416,0,0.26208
0.108387994883304,-0.938184647183877,0.416,0,0.26312
0.148773038542483,-0.91914247775776,0.416,0,0.26416
0.18799672777125,-0.902143710637373,0.416,0,0.2652
0.232058540562409,-0.883523687894555,0.416,0,0.26624
0.286336849515,-0.860530510033713,0.416,0,0.26728
0.337918496374075,-0.840070991938256,0.416,0,0.26832
0.390167344181141,-0.819154397592166,0.416,0,0.26936
0.437343027426182,-0.798266642301956,0.416,0,0.2704
0.476078277140318,-0.778174068477797,0.416,0,0.27144
0.50028637343002,-0.758238479055113,0.416,0,0.27248
0.517550003815772,-0.738029687169057,0.416,0,0.27352
0.531736699777645,-0.717992644541379,0.416,0,0.27456
0.540580102346288,-0.699140680102379,0.416,0,0.2756
0.546709544619201,-0.680210255468247,0.416,0,0.27664
0.551998585130096,-0.660805836667103,0.416,0,0.27768
0.557656859373755,-0.639967356460381,0.416,0,0.27872
0.562174446546002,-0.620077216287876,0.416,0,0.27976
0.566483314580687,-0.599643242431481,0.416,0,0.2808
0.575823683138901,-0.580124988264172,0.416,0,0.28184
0.581027856000964,-0.560168121531813,0.416,0,0.28288
0.585635910355624,-0.540141525257043,0.416,0,0.28392
0.59495250625207,-0.518867490645695,0.416,0,0.28496
0.601620220703283,-0.499046497668095,0.416,0,0.286
0.616002952353028,-0.479773143922389,0.416,0,0.28704
0.628731874517965,-0.459922909599847,0.416,0,0.28808
0.636086320649603,-0.439563094304127,0.416,0,0.28912
0.640964301881493,-0.419147159810493,0.416,0,0.29016
0.649253928550625,-0.39914357528988,0.416,0,0.2912
0.654293720206142,-0.37890325304086,0.416,0,0.29224
0.658799229935554,-0.35895537940366,0.416,0,0.29328
0.662880489248922,-0.339146486454692,0.416,0,0.29432
0.667952891173165,-0.319830632816478,0.416,0,0.29536
0.672203560717762,-0.300424427290962,0.416,0,0.2964
0.675492809216093,-0.280678052577577,0.416,0,0.29744
0.677883405423493,-0.260534836517711,0.416,0,0.29848
0.676036578903513,-0.241153140687109,0.416,0,0.29952
0.672429624111452,-0.222038859801038,0.416,0,0.30056
0.662654998098677,-0.200842222316715,0.416,0,0.3016
0.653092947605671,-0.179781122574965,0.416,0,0.30264
0.643819558569744,-0.159500674747491,0.416,0,0.30368
0.634450685279817,-0.140012500149846,0.416,0,0.30472
0.625118765742933,-0.119912209153413,0.416,0,0.30576
0.61687472222574,-0.0990606512673118,0.416,0,0.3068
0.609718538897024,-0.0776142544853187,0.416,0,0.30784
0.605223613989109,-0.0555722883719971,0.416,0,0.30888
0.609877417390099,-0.0368832070675653,0.416,0,0.30992
0.617591736366496,-0.0173101301631906,0.416,0,0.31096
0.628201041432244,0.00274801877118058,0.416,0,0.312
0.642747003614788,0.02380236195392,0.416,0,0.31304
0.668342999934231,0.04219092193153,0.416,0,0.31408
0.699932517468032,0.0600777812554041,0.416,0,0.31512
0.74776068846697,0.0803638073669601,0.416,0,0.31616
0.805352123280093,0.102491033588644,0.416,0,0.3172
0.861937410675224,0.12270796648297,0.416,0,0.31824
0.920844169031917,0.14206891482911,0.416,0,0.31928
0.98052740149976,0.161871528495913,0.416,0,0.32032
1.04219599230065,0.182319059817623,0.416,0,0.32136
1.10589708573077,0.203517376382217,0.416,0,0.3224
1.16208288368483,0.223865572716154,0.416,0,0.32344
1.20811132708452,0.242604128051079,0.416,0,0.32448
1.24366094904838,0.260925319974443,0.416,0,0.32552
1.27571027369031,0.279266844689429,0.416,0,0.32656
1.30711083349785,0.301764997459874,0.416,0,0.3276
1.33698793204727,0.32428769621785,0.416,0,0.32864
1.35646076534977,0.344504931326041,0.416,0,0.32968
1.37082393268007,0.362837241965492,0.416,0,0.33072
1.38244478540054,0.380043733103194,0.416,0,0.33176
1.39205628279462,0.396575602780125,0.416,0,0.3328
1.41590232703878,0.479617338086858,0.416,0,0.33696
1.41657365098492,0.499490075147505,0.416,0,0.338
1.41634955047957,0.51955002410446,0.416,0,0.33904
1.41516071363784,0.539999611256706,0.416,0,0.34008
1.41328455078876,0.560559775211498,0.416,0,0.34112
1.41104228003856,0.580921177276315,0.416,0,0.34216
1.40909274041127,0.600377054444679,0.416,0,0.3432
1.40706517842533,0.619925725648232,0.416,0,0.34424
1.40569781146985,0.639830245502663,0.416,0,0.34528
1.40512419979332,0.660787766556731,0.416,0,0.34632
1.40481461929878,0.682250486292048,0.416,0,0.34736
1.40417074229704,0.740159811218908,0.416,0,0.35048
1.40354530781765,0.759076056970928,0.416,0,0.35152
1.40265212642508,0.77978609393302,0.416,0,0.35256
1.40117136374127,0.798890586006545,0.416,0,0.3536
1.3991313807491,0.817587099672926,0.416,0,0.35464
1.39674799057464,0.836564066901992,0.416,0,0.35568
1.38173656075349,0.858637674971395,0.416,0,0.35672
1.35668430308151,0.881492815751744,0.416,0,0.35776
1.28712936741569,0.900575088484521,0.416,0,0.3588
1.17647770962228,0.918500638745566,0.416,0,0.35984
0.99011097255539,0.937526757370181,0.416,0,0.36088
0.710413489064386,0.959152551708676,0.416,0,0.36192
0.403039664685198,0.978277012381557,0.416,0,0.36296
