"Velocity[i] (m/s)","Normalized Radius","X (m)","Y (m)","Z (m)"
1.36539767948712,0.416531151842273,0.416,0,0.33384
1.37425984337459,0.437454419516126,0.416,0,0.33488
1.38133720190547,0.459002393829808,0.416,0,0.33592
1.37037330181511,0.703055078114597,0.416,0,0.3484
1.37099560629763,0.721466281430321,0.416,0,0.34944
0.0172703663805946,-0.976745940424564,0.416,0,0.26104
0.0466272969208707,-0.958301228919823,0.416,0,0.26208
0.082954250282779,-0.938184647183877,0.416,0,0.26312
0.119895516627458,-0.91914247775776,0.416,0,0.26416
0.154252605332097,-0.902143710637373,0.416,0,0.2652
0.191624622423044,-0.883523687894555,0.416,0,0.26624
0.238221619038546,-0.860530510033713,0.416,0,0.26728
0.286587892775615,-0.840070991938256,0.416,0,0.26832
0.336962488135625,-0.819154397592166,0.416,0,0.26936
0.386160974298265,-0.798266642301956,0.416,0,0.2704
0.430974524473431,-0.778174068477797,0.416,0,0.27144
0.46234022555486,-0.758238479055113,0.416,0,0.27248
0.488302004882684,-0.738029687169057,0.416,0,0.27352
0.51238913380866,-0.717992644541379,0.416,0,0.27456
0.529346259339098,-0.699140680102379,0.416,0,0.2756
0.543026094789238,-0.680210255468247,0.416,0,0.27664
0.55537409122071,-0.660805836667103,0.416,0,0.27768
0.560935944771234,-0.639967356460381,0.416,0,0.27872
0.56678019163855,-0.620077216287876,0.416,0,0.27976
0.572110695743899,-0.599643242431481,0.416,0,0.2808
0.572650066064043,-0.580124988264172,0.416,0,0.28184
0.578658143537162,-0.560168121531813,0.416,0,0.28288
0.585475177606558,-0.540141525257043,0.416,0,0.28392
0.591774635542681,-0.518867490645695,0.416,0,0.28496
0.59934251346277,-0.499046497668095,0.416,0,0.286
0.61147518736121,-0.479773143922389,0.416,0,0.28704
0.625957269126141,-0.459922909599847,0.416,0,0.28808
0.641429112391165,-0.439563094304127,0.416,0,0.28912
0.657101580138785,-0.419147159810493,0.416,0,0.29016
0.66990284011367,-0.39914357528988,0.416,0,0.2912
0.678326348312719,-0.37890325304086,0.416,0,0.29224
0.686873928827955,-0.35895537940366,0.416,0,0.29328
0.692957772376899,-0.339146486454692,0.416,0,0.29432
0.69580998502809,-0.319830632816478,0.416,0,0.29536
0.698875374094015,-0.300424427290962,0.416,0,0.2964
0.701924467202773,-0.280678052577577,0.416,0,0.29744
0.704547875020053,-0.260534836517711,0.416,0,0.29848
0.705384916912483,-0.241153140687109,0.416,0,0.29952
0.706790368021052,-0.222038859801038,0.416,0,0.30056
0.711830450364811,-0.200842222316715,0.416,0,0.3016
0.717117346548879,-0.179781122574965,0.416,0,0.30264
0.723335084012806,-0.159500674747491,0.416,0,0.30368
0.727481748266318,-0.140012500149846,0.416,0,0.30472
0.729963412708411,-0.119912209153413,0.416,0,0.30576
0.734465807903308,-0.0990606512673118,0.416,0,0.3068
0.740608588338096,-0.0776142544853187,0.416,0,0.30784
0.747096913063188,-0.0555722883719971,0.416,0,0.30888
0.751476785048877,-0.0368832070675653,0.416,0,0.30992
0.755489903300576,-0.0173101301631906,0.416,0,0.31096
0.758979292487422,0.00274801877118058,0.416,0,0.312
0.760785813945305,0.02380236195392,0.416,0,0.31304
0.76262688525277,0.04219092193153,0.416,0,0.31408
0.763169888422632,0.0600777812554041,0.416,0,0.31512
0.763901853318215,0.0803638073669601,0.416,0,0.31616
0.764388807799432,0.102491033588644,0.416,0,0.3172
0.76782515862998,0.12270796648297,0.416,0,0.31824
0.778737554156207,0.14206891482911,0.416,0,0.31928
0.796912853692633,0.161871528495913,0.416,0,0.32032
0.821642221674012,0.182319059817623,0.416,0,0.32136
0.851769123032067,0.203517376382217,0.416,0,0.3224
0.895850625567083,0.223865572716154,0.416,0,0.32344
0.955587588812654,0.242604128051079,0.416,0,0.32448
1.01894279621527,0.260925319974443,0.416,0,0.32552
1.08553011348127,0.279266844689429,0.416,0,0.32656
1.15958107344675,0.301764997459874,0.416,0,0.3276
1.2353186744808,0.32428769621785,0.416,0,0.32864
1.28860141590077,0.344504931326041,0.416,0,0.32968
1.31372527966761,0.362837241965492,0.416,0,0.33072
1.33575856568969,0.380043733103194,0.416,0,0.33176
1.35654614270877,0.396575602780125,0.416,0,0.3328
1.38453738304606,0.479617338086858,0.416,0,0.33696
1.38312584345865,0.499490075147505,0.416,0,0.338
1.38157119009972,0.51955002410446,0.416,0,0.33904
1.37977086937698,0.539999611256706,0.416,0,0.34008
1.3778502308908,0.560559775211498,0.416,0,0.34112
1.37592367965101,0.580921177276315,0.416,0,0.34216
1.37351896419142,0.600377054444679,0.416,0,0.3432
1.37171138930972,0.619925725648232,0.416,0,0.34424
1.37071409862875,0.639830245502663,0.416,0,0.34528
1.37032058491715,0.660787766556731,0.416,0,0.34632
1.37026771595624,0.682250486292048,0.416,0,0.34736
1.37179171959588,0.740159811218908,0.416,0,0.35048
1.37246814399463,0.759076056970928,0.416,0,0.35152
1.37298165819199,0.77978609393302,0.416,0,0.35256
1.37274750693177,0.798890586006545,0.416,0,0.3536
1.37200991877462,0.817587099672926,0.416,0,0.35464
1.3709370847104,0.836564066901992,0.416,0,0.35568
1.36039159983938,0.858637674971395,0.416,0,0.35672
1.34203613690596,0.881492815751744,0.416,0,0.35776
1.28096935816224,0.900575088484521,0.416,0,0.3588
1.1778529641916,0.918500638745566,0.416,0,0.35984
0.995416189461173,0.937526757370181,0.416,0,0.36088
0.714563936776799,0.959152551708676,0.416,0,0.36192
0.399793590783271,0.978277012381557,0.416,0,0.36296
