"Velocity[i] (m/s)","Normalized Radius","X (m)","Y (m)","Z (m)"
1.42887386195471,0.416531151842273,0.416,0,0.33384
1.44509773279661,0.437454419516126,0.416,0,0.33488
1.45919771781779,0.459002393829808,0.416,0,0.33592
1.44275745180514,0.703055078114597,0.416,0,0.3484
1.44143841678322,0.721466281430321,0.416,0,0.34944
0.0746867593101437,-0.976745940424564,0.416,0,0.26104
0.107047127891882,-0.958301228919823,0.416,0,0.26208
0.141483361521938,-0.938184647183877,0.416,0,0.26312
0.177085298734598,-0.91914247775776,0.416,0,0.26416
0.21046991827548,-0.902143710637373,0.416,0,0.2652
0.248240878409783,-0.883523687894555,0.416,0,0.26624
0.296869679578724,-0.860530510033713,0.416,0,0.26728
0.347263755464254,-0.840070991938256,0.416,0,0.26832
0.402094919545431,-0.819154397592166,0.416,0,0.26936
0.456650702942942,-0.798266642301956,0.416,0,0.2704
0.505485984500633,-0.778174068477797,0.416,0,0.27144
0.537904443602607,-0.758238479055113,0.416,0,0.27248
0.562049184149226,-0.738029687169057,0.416,0,0.27352
0.581845889456734,-0.717992644541379,0.416,0,0.27456
0.593075411969826,-0.699140680102379,0.416,0,0.2756
0.59974945343407,-0.680210255468247,0.416,0,0.27664
0.605821526404226,-0.660805836667103,0.416,0,0.27768
0.607948506606495,-0.639967356460381,0.416,0,0.27872
0.610745808761676,-0.620077216287876,0.416,0,0.27976
0.613685047200443,-0.599643242431481,0.416,0,0.2808
0.616167113221893,-0.580124988264172,0.416,0,0.28184
0.61976113665707,-0.560168121531813,0.416,0,0.28288
0.623953683769028,-0.540141525257043,0.416,0,0.28392
0.629729892950925,-0.518867490645695,0.416,0,0.28496
0.63694549242608,-0.499046497668095,0.416,0,0.286
0.646971951386875,-0.479773143922389,0.416,0,0.28704
0.657583596840216,-0.459922909599847,0.416,0,0.28808
0.667540259214904,-0.439563094304127,0.416,0,0.28912
0.676784159883252,-0.419147159810493,0.416,0,0.29016
0.687878279619137,-0.39914357528988,0.416,0,0.2912
0.6986199680561,-0.37890325304086,0.416,0,0.29224
0.708552900682805,-0.35895537940366,0.416,0,0.29328
0.717422237774651,-0.339146486454692,0.416,0,0.29432
0.726286904869817,-0.319830632816478,0.416,0,0.29536
0.734061737498851,-0.300424427290962,0.416,0,0.2964
0.740054120107295,-0.280678052577577,0.416,0,0.29744
0.745232613189435,-0.260534836517711,0.416,0,0.29848
0.750429693485051,-0.241153140687109,0.416,0,0.29952
0.755586344594915,-0.222038859801038,0.416,0,0.30056
0.760392565845014,-0.200842222316715,0.416,0,0.3016
0.765301308350818,-0.179781122574965,0.416,0,0.30264
0.770212003367388,-0.159500674747491,0.416,0,0.30368
0.774619561931106,-0.140012500149846,0.416,0,0.30472
0.7786922144266,-0.119912209153413,0.416,0,0.30576
0.784254719397634,-0.0990606512673118,0.416,0,0.3068
0.791333445407169,-0.0776142544853187,0.416,0,0.30784
0.799560920256988,-0.0555722883719971,0.416,0,0.30888
0.800303970990173,-0.0368832070675653,0.416,0,0.30992
0.802606204887645,-0.0173101301631906,0.416,0,0.31096
0.803903601350458,0.00274801877118058,0.416,0,0.312
0.803394729714332,0.02380236195392,0.416,0,0.31304
0.801604379645822,0.04219092193153,0.416,0,0.31408
0.798796776734403,0.0600777812554041,0.416,0,0.31512
0.793021877176201,0.0803638073669601,0.416,0,0.31616
0.785018409100596,0.102491033588644,0.416,0,0.3172
0.782842234636079,0.12270796648297,0.416,0,0.31824
0.788474568067144,0.14206891482911,0.416,0,0.31928
0.798895965368535,0.161871528495913,0.416,0,0.32032
0.814073004424107,0.182319059817623,0.416,0,0.32136
0.832546330362126,0.203517376382217,0.416,0,0.3224
0.867240816196778,0.223865572716154,0.416,0,0.32344
0.922123791257584,0.242604128051079,0.416,0,0.32448
0.98262182676259,0.260925319974443,0.416,0,0.32552
1.04704124832968,0.279266844689429,0.416,0,0.32656
1.13317996119337,0.301764997459874,0.416,0,0.3276
1.22687381603708,0.32428769621785,0.416,0,0.32864
1.29775911134249,0.344504931326041,0.416,0,0.32968
1.34195138720792,0.362837241965492,0.416,0,0.33072
1.37862758069166,0.380043733103194,0.416,0,0.33176
1.41052443052884,0.396575602780125,0.416,0,0.3328
1.46863523101944,0.479617338086858,0.416,0,0.33696
1.46897612589061,0.499490075147505,0.416,0,0.338
1.46854267963628,0.51955002410446,0.416,0,0.33904
1.46709445323333,0.539999611256706,0.416,0,0.34008
1.46500227565923,0.560559775211498,0.416,0,0.34112
1.46261100428586,0.580921177276315,0.416,0,0.34216
1.45884316772928,0.600377054444679,0.416,0,0.3432
1.45512644949072,0.619925725648232,0.416,0,0.34424
1.45154935784896,0.639830245502663,0.416,0,0.34528
1.44827827383819,0.660787766556731,0.416,0,0.34632
1.44538476888648,0.682250486292048,0.416,0,0.34736
1.44081068741229,0.740159811218908,0.416,0,0.35048
1.4405908057873,0.759076056970928,0.416,0,0.35152
1.44061013259716,0.77978609393302,0.416,0,0.35256
1.4403892789959,0.798890586006545,0.416,0,0.3536
1.43968521004039,0.817587099672926,0.416,0,0.35464
1.43854285027725,0.836564066901992,0.416,0,0.35568
1.42943647523518,0.858637674971395,0.416,0,0.35672
1.41432039232411,0.881492815751744,0.416,0,0.35776
1.36032335539627,0.900575088484521,0.416,0,0.3588
1.26749402125704,0.918500638745566,0.416,0,0.35984
1.09436759712804,0.937526757370181,0.416,0,0.36088
0.809443065212388,0.959152551708676,0.416,0,0.36192
0.47890912869364,0.978277012381557,0.416,0,0.36296
