"Velocity[i] (m/s)","Normalized Radius","X (m)","Y (m)","Z (m)"
1.38729740195794,0.416531151842273,0.416,0,0.33384
1.39078600062736,0.437454419516126,0.416,0,0.33488
1.39387303141581,0.459002393829808,0.416,0,0.33592
1.40803980643871,0.703055078114597,0.416,0,0.3484
1.40822067835242,0.721466281430321,0.416,0,0.34944
0.0316008363689789,-0.976745940424564,0.416,0,0.26104
0.0601308515220785,-0.958301228919823,0.416,0,0.26208
0.0930969950825263,-0.938184647183877,0.416,0,0.26312
0.126796507783423,-0.91914247775776,0.416,0,0.26416
0.158720864985196,-0.902143710637373,0.416,0,0.2652
0.196180604097854,-0.883523687894555,0.416,0,0.26624
0.245447898363567,-0.860530510033713,0.416,0,0.26728
0.294574184553661,-0.840070991938256,0.416,0,0.26832
0.347210539723422,-0.819154397592166,0.416,0,0.26936
0.397804150004407,-0.798266642301956,0.416,0,0.2704
0.44130600843732,-0.778174068477797,0.416,0,0.27144
0.469964944021333,-0.758238479055113,0.416,0,0.27248
0.491295875786285,-0.738029687169057,0.416,0,0.27352
0.508431580435666,-0.717992644541379,0.416,0,0.27456
0.518659952113824,-0.699140680102379,0.416,0,0.2756
0.525547546308049,-0.680210255468247,0.416,0,0.27664
0.531998307381374,-0.660805836667103,0.416,0,0.27768
0.536163040627843,-0.639967356460381,0.416,0,0.27872
0.540352159004645,-0.620077216287876,0.416,0,0.27976
0.546023050109242,-0.599643242431481,0.416,0,0.2808
0.554210019657709,-0.580124988264172,0.416,0,0.28184
0.561280188112701,-0.560168121531813,0.416,0,0.28288
0.567914768430646,-0.540141525257043,0.416,0,0.28392
0.576282379324117,-0.518867490645695,0.416,0,0.28496
0.584920785367914,-0.499046497668095,0.416,0,0.286
0.598379535984821,-0.479773143922389,0.416,0,0.28704
0.611304627032548,-0.459922909599847,0.416,0,0.28808
0.62168536112755,-0.439563094304127,0.416,0,0.28912
0.630286918758762,-0.419147159810493,0.416,0,0.29016
0.643177495910463,-0.39914357528988,0.416,0,0.2912
0.652732955294077,-0.37890325304086,0.416,0,0.29224
0.662007515875481,-0.35895537940366,0.416,0,0.29328
0.671349943405576,-0.339146486454692,0.416,0,0.29432
0.680427378695888,-0.319830632816478,0.416,0,0.29536
0.688703549728086,-0.300424427290962,0.416,0,0.2964
0.695024388213356,-0.280678052577577,0.416,0,0.29744
0.699641073527924,-0.260534836517711,0.416,0,0.29848
0.699971619832222,-0.241153140687109,0.416,0,0.29952
0.700315703309885,-0.222038859801038,0.416,0,0.30056
0.701757353412436,-0.200842222316715,0.416,0,0.3016
0.702358412885984,-0.179781122574965,0.416,0,0.30264
0.701892218583494,-0.159500674747491,0.416,0,0.30368
0.703118847647627,-0.140012500149846,0.416,0,0.30472
0.706355502831681,-0.119912209153413,0.416,0,0.30576
0.709785740763974,-0.0990606512673118,0.416,0,0.3068
0.713747393787334,-0.0776142544853187,0.416,0,0.30784
0.718988995850489,-0.0555722883719971,0.416,0,0.30888
0.72397897608155,-0.0368832070675653,0.416,0,0.30992
0.729688979178111,-0.0173101301631906,0.416,0,0.31096
0.735511271188984,0.00274801877118058,0.416,0,0.312
0.741683307860374,0.02380236195392,0.416,0,0.31304
0.746131394733942,0.04219092193153,0.416,0,0.31408
0.750678329665738,0.0600777812554041,0.416,0,0.31512
0.757344136149052,0.0803638073669601,0.416,0,0.31616
0.764199677160621,0.102491033588644,0.416,0,0.3172
0.77848536075219,0.12270796648297,0.416,0,0.31824
0.802582082786782,0.14206891482911,0.416,0,0.31928
0.832508800673477,0.161871528495913,0.416,0,0.32032
0.869646165267633,0.182319059817623,0.416,0,0.32136
0.914294657660569,0.203517376382217,0.416,0,0.3224
0.972244314065831,0.223865572716154,0.416,0,0.32344
1.04455939368986,0.242604128051079,0.416,0,0.32448
1.11062650949052,0.260925319974443,0.416,0,0.32552
1.1755617673971,0.279266844689429,0.416,0,0.32656
1.23904100029778,0.301764997459874,0.416,0,0.3276
1.30305045567963,0.32428769621785,0.416,0,0.32864
1.34977119924151,0.344504931326041,0.416,0,0.32968
1.36233168605958,0.362837241965492,0.416,0,0.33072
1.37355351779971,0.380043733103194,0.416,0,0.33176
1.38347407955465,0.396575602780125,0.416,0,0.3328
1.3964710815427,0.479617338086858,0.416,0,0.33696
1.39845556850245,0.499490075147505,0.416,0,0.338
1.40031318137691,0.51955002410446,0.416,0,0.33904
1.4020288096692,0.539999611256706,0.416,0,0.34008
1.40365108368189,0.560559775211498,0.416,0,0.34112
1.40516752847767,0.580921177276315,0.416,0,0.34216
1.40628331373213,0.600377054444679,0.416,0,0.3432
1.40719496802589,0.619925725648232,0.416,0,0.34424
1.40754972367297,0.639830245502663,0.416,0,0.34528
1.4076678816867,0.660787766556731,0.416,0,0.34632
1.40781980284069,0.682250486292048,0.416,0,0.34736
1.40809816189247,0.740159811218908,0.416,0,0.35048
1.40761844201654,0.759076056970928,0.416,0,0.35152
1.4068648178113,0.77978609393302,0.416,0,0.35256
1.40552651361711,0.798890586006545,0.416,0,0.3536
1.40409010077896,0.817587099672926,0.416,0,0.35464
1.40266001635303,0.836564066901992,0.416,0,0.35568
1.39089467941841,0.858637674971395,0.416,0,0.35672
1.37110040837263,0.881492815751744,0.416,0,0.35776
1.30757593300529,0.900575088484521,0.416,0,0.3588
1.20433352095321,0.918500638745566,0.416,0,0.35984
1.02591130576415,0.937526757370181,0.416,0,0.36088
0.743680202677906,0.959152551708676,0.416,0,0.36192
0.421823112851544,0.978277012381557,0.416,0,0.36296
