"Velocity[i] (m/s)","Normalized Radius","X (m)","Y (m)","Z (m)"
1.35715744977733,0.416531151842273,0.416,0,0.33384
1.3661617077156,0.437454419516126,0.416,0,0.33488
1.37470684903208,0.459002393829808,0.416,0,0.33592
1.40428053997079,0.703055078114597,0.416,0,0.3484
1.40345090453145,0.721466281430321,0.416,0,0.34944
0.0835804016813963,-0.976745940424564,0.416,0,0.26104
0.1282149601063,-0.958301228919823,0.416,0,0.26208
0.171907805024497,-0.938184647183877,0.416,0,0.26312
0.209906384090856,-0.91914247775776,0.416,0,0.26416
0.242488410203228,-0.902143710637373,0.416,0,0.2652
0.276244577491753,-0.883523687894555,0.416,0,0.26624
0.315530762421777,-0.860530510033713,0.416,0,0.26728
0.34886739002528,-0.840070991938256,0.416,0,0.26832
0.381898762381848,-0.819154397592166,0.416,0,0.26936
0.412164273953858,-0.798266642301956,0.416,0,0.2704
0.439431706262934,-0.778174068477797,0.416,0,0.27144
0.462883550994121,-0.758238479055113,0.416,0,0.27248
0.484616674223803,-0.738029687169057,0.416,0,0.27352
0.505220133581218,-0.717992644541379,0.416,0,0.27456
0.522372856014512,-0.699140680102379,0.416,0,0.2756
0.537932143148938,-0.680210255468247,0.416,0,0.27664
0.553418647950235,-0.660805836667103,0.416,0,0.27768
0.567463789218172,-0.639967356460381,0.416,0,0.27872
0.580568049191332,-0.620077216287876,0.416,0,0.27976
0.593149752458253,-0.599643242431481,0.416,0,0.2808
0.604161433037445,-0.580124988264172,0.416,0,0.28184
0.614546778996685,-0.560168121531813,0.416,0,0.28288
0.624742639458989,-0.540141525257043,0.416,0,0.28392
0.634714599624907,-0.518867490645695,0.416,0,0.28496
0.64326949180771,-0.499046497668095,0.416,0,0.286
0.651222828077274,-0.479773143922389,0.416,0,0.28704
0.658792540897937,-0.459922909599847,0.416,0,0.28808
0.665690075298655,-0.439563094304127,0.416,0,0.28912
0.671956096551651,-0.419147159810493,0.416,0,0.29016
0.677002477373359,-0.39914357528988,0.416,0,0.2912
0.682671848495533,-0.37890325304086,0.416,0,0.29224
0.687948104294631,-0.35895537940366,0.416,0,0.29328
0.691681713712853,-0.339146486454692,0.416,0,0.29432
0.694840886635655,-0.319830632816478,0.416,0,0.29536
0.697667035571667,-0.300424427290962,0.416,0,0.2964
0.699375222562374,-0.280678052577577,0.416,0,0.29744
0.700366090445539,-0.260534836517711,0.416,0,0.29848
0.701180083547716,-0.241153140687109,0.416,0,0.29952
0.702224690063538,-0.222038859801038,0.416,0,0.30056
0.703774894106988,-0.200842222316715,0.416,0,0.3016
0.704487826977973,-0.179781122574965,0.416,0,0.30264
0.703978625693355,-0.159500674747491,0.416,0,0.30368
0.705792444790373,-0.140012500149846,0.416,0,0.30472
0.710294214360121,-0.119912209153413,0.416,0,0.30576
0.714379316624323,-0.0990606512673118,0.416,0,0.3068
0.718110288473035,-0.0776142544853187,0.416,0,0.30784
0.722130158188672,-0.0555722883719971,0.416,0,0.30888
0.737832454822154,-0.0368832070675653,0.416,0,0.30992
0.753435393626167,-0.0173101301631906,0.416,0,0.31096
0.771755582834636,0.00274801877118058,0.416,0,0.312
0.795610844090087,0.02380236195392,0.416,0,0.31304
0.820231396950982,0.04219092193153,0.416,0,0.31408
0.847186427631735,0.0600777812554041,0.416,0,0.31512
0.882156868237307,0.0803638073669601,0.416,0,0.31616
0.92254920471993,0.102491033588644,0.416,0,0.3172
0.95980901110175,0.12270796648297,0.416,0,0.31824
0.994861835513729,0.14206891482911,0.416,0,0.31928
1.03047218830516,0.161871528495913,0.416,0,0.32032
1.06713169084551,0.182319059817623,0.416,0,0.32136
1.10499522685095,0.203517376382217,0.416,0,0.3224
1.14161348951383,0.223865572716154,0.416,0,0.32344
1.17295383943439,0.242604128051079,0.416,0,0.32448
1.20017467857073,0.260925319974443,0.416,0,0.32552
1.22672716491618,0.279266844689429,0.416,0,0.32656
1.2559122777086,0.301764997459874,0.416,0,0.3276
1.28461096592219,0.32428769621785,0.416,0,0.32864
1.3062377192985,0.344504931326041,0.416,0,0.32968
1.32283485490806,0.362837241965492,0.416,0,0.33072
1.33623590379032,0.380043733103194,0.416,0,0.33176
1.34763940361401,0.396575602780125,0.416,0,0.3328
1.38215664969391,0.479617338086858,0.416,0,0.33696
1.38733200804253,0.499490075147505,0.416,0,0.338
1.39193568828699,0.51955002410446,0.416,0,0.33904
1.39579736879947,0.539999611256706,0.416,0,0.34008
1.39906964771387,0.560559775211498,0.416,0,0.34112
1.40191551774739,0.580921177276315,0.416,0,0.34216
1.40362210262563,0.600377054444679,0.416,0,0.3432
1.40490792403548,0.619925725648232,0.416,0,0.34424
1.40532242483495,0.639830245502663,0.416,0,0.34528
1.40513225784295,0.660787766556731,0.416,0,0.34632
1.40474856117368,0.682250486292048,0.416,0,0.34736
1.40181183009788,0.740159811218908,0.416,0,0.35048
1.39893361067985,0.759076056970928,0.416,0,0.35152
1.39513992938734,0.77978609393302,0.416,0,0.35256
1.38964070587326,0.798890586006545,0.416,0,0.3536
1.38207845169038,0.817587099672926,0.416,0,0.35464
1.37262787849362,0.836564066901992,0.416,0,0.35568
1.3470397399741,0.858637674971395,0.416,0,0.35672
1.30923033627207,0.881492815751744,0.416,0,0.35776
1.24398958879964,0.900575088484521,0.416,0,0.3588
1.15607199677264,0.918500638745566,0.416,0,0.35984
1.01794238909864,0.937526757370181,0.416,0,0.36088
0.794589014781937,0.959152551708676,0.416,0,0.36192
0.510614752940094,0.978277012381557,0.416,0,0.36296
