"Velocity[i] (m/s)","Normalized Radius","X (m)","Y (m)","Z (m)"
1.35263882289104,0.416531151842273,0.416,0,0.33384
1.36750113535922,0.437454419516126,0.416,0,0.33488
1.3796077609429,0.459002393829808,0.416,0,0.33592
1.36309053400185,0.703055078114597,0.416,0,0.3484
1.36422558260323,0.721466281430321,0.416,0,0.34944
0.0102892237529981,-0.976745940424564,0.416,0,0.26104
0.0362582459479376,-0.958301228919823,0.416,0,0.26208
0.0694396868215795,-0.938184647183877,0.416,0,0.26312
0.105199013826677,-0.91914247775776,0.416,0,0.26416
0.138478172035809,-0.902143710637373,0.416,0,0.2652
0.176220246474753,-0.883523687894555,0.416,0,0.26624
0.225865972742017,-0.860530510033713,0.416,0,0.26728
0.276842649552001,-0.840070991938256,0.416,0,0.26832
0.32824088614885,-0.819154397592166,0.416,0,0.26936
0.377027729150586,-0.798266642301956,0.416,0,0.2704
0.41871102905014,-0.778174068477797,0.416,0,0.27144
0.444679045028814,-0.758238479055113,0.416,0,0.27248
0.463975640704259,-0.738029687169057,0.416,0,0.27352
0.481255169900552,-0.717992644541379,0.416,0,0.27456
0.493222043219137,-0.699140680102379,0.416,0,0.2756
0.501910006597067,-0.680210255468247,0.416,0,0.27664
0.509402721690008,-0.660805836667103,0.416,0,0.27768
0.514404160932472,-0.639967356460381,0.416,0,0.27872
0.519681587325011,-0.620077216287876,0.416,0,0.27976
0.526414987478246,-0.599643242431481,0.416,0,0.2808
0.535575479941109,-0.580124988264172,0.416,0,0.28184
0.546267153697509,-0.560168121531813,0.416,0,0.28288
0.557204283446308,-0.540141525257043,0.416,0,0.28392
0.569833996378296,-0.518867490645695,0.416,0,0.28496
0.582362496930577,-0.499046497668095,0.416,0,0.286
0.599045374538333,-0.479773143922389,0.416,0,0.28704
0.6163993937053,-0.459922909599847,0.416,0,0.28808
0.633100125979886,-0.439563094304127,0.416,0,0.28912
0.649301247983694,-0.419147159810493,0.416,0,0.29016
0.666563975235597,-0.39914357528988,0.416,0,0.2912
0.674207187570059,-0.37890325304086,0.416,0,0.29224
0.682130704241931,-0.35895537940366,0.416,0,0.29328
0.690285138122697,-0.339146486454692,0.416,0,0.29432
0.696521635128847,-0.319830632816478,0.416,0,0.29536
0.703027592874079,-0.300424427290962,0.416,0,0.2964
0.710283592072844,-0.280678052577577,0.416,0,0.29744
0.716446966476232,-0.260534836517711,0.416,0,0.29848
0.720598600311627,-0.241153140687109,0.416,0,0.29952
0.72473858817399,-0.222038859801038,0.416,0,0.30056
0.729381121252196,-0.200842222316715,0.416,0,0.3016
0.734777179162458,-0.179781122574965,0.416,0,0.30264
0.740781058455172,-0.159500674747491,0.416,0,0.30368
0.745586654564069,-0.140012500149846,0.416,0,0.30472
0.7493563751491,-0.119912209153413,0.416,0,0.30576
0.754971957279702,-0.0990606512673118,0.416,0,0.3068
0.762675896599203,-0.0776142544853187,0.416,0,0.30784
0.772129830226039,-0.0555722883719971,0.416,0,0.30888
0.77995227444379,-0.0368832070675653,0.416,0,0.30992
0.789158244934893,-0.0173101301631906,0.416,0,0.31096
0.799418802083066,0.00274801877118058,0.416,0,0.312
0.810281890962349,0.02380236195392,0.416,0,0.31304
0.817525975002981,0.04219092193153,0.416,0,0.31408
0.822123627606184,0.0600777812554041,0.416,0,0.31512
0.824467155834811,0.0803638073669601,0.416,0,0.31616
0.825401791811978,0.102491033588644,0.416,0,0.3172
0.823204273144859,0.12270796648297,0.416,0,0.31824
0.818616479112128,0.14206891482911,0.416,0,0.31928
0.816686142170768,0.161871528495913,0.416,0,0.32032
0.817204797448752,0.182319059817623,0.416,0,0.32136
0.819589910713981,0.203517376382217,0.416,0,0.3224
0.836230872447994,0.223865572716154,0.416,0,0.32344
0.871439183330928,0.242604128051079,0.416,0,0.32448
0.9209765710715,0.260925319974443,0.416,0,0.32552
0.9785114063167,0.279266844689429,0.416,0,0.32656
1.06172212377152,0.301764997459874,0.416,0,0.3276
1.15228000025665,0.32428769621785,0.416,0,0.32864
1.22342445677765,0.344504931326041,0.416,0,0.32968
1.26559120736024,0.362837241965492,0.416,0,0.33072
1.30278501530656,0.380043733103194,0.416,0,0.33176
1.33744067299954,0.396575602780125,0.416,0,0.3328
1.38570170213514,0.479617338086858,0.416,0,0.33696
1.38373797519154,0.499490075147505,0.416,0,0.338
1.38116311766122,0.51955002410446,0.416,0,0.33904
1.37801339389264,0.539999611256706,0.416,0,0.34008
1.37460464175306,0.560559775211498,0.416,0,0.34112
1.37111762622582,0.580921177276315,0.416,0,0.34216
1.36765212332197,0.600377054444679,0.416,0,0.3432
1.36457313893646,0.619925725648232,0.416,0,0.34424
1.36292022610715,0.639830245502663,0.416,0,0.34528
1.36259922066536,0.660787766556731,0.416,0,0.34632
1.36277234969686,0.682250486292048,0.416,0,0.34736
1.36565499953485,0.740159811218908,0.416,0,0.35048
1.3667220829965,0.759076056970928,0.416,0,0.35152
1.36828477675727,0.77978609393302,0.416,0,0.35256
1.36933896422726,0.798890586006545,0.416,0,0.3536
1.3698798851569,0.817587099672926,0.416,0,0.35464
1.3700443393435,0.836564066901992,0.416,0,0.35568
1.36241226738183,0.858637674971395,0.416,0,0.35672
1.34848818929206,0.881492815751744,0.416,0,0.35776
1.29428425157692,0.900575088484521,0.416,0,0.3588
1.20019383268912,0.918500638745566,0.416,0,0.35984
1.02540288256831,0.937526757370181,0.416,0,0.36088
0.744029934740198,0.959152551708676,0.416,0,0.36192
0.420926027591725,0.978277012381557,0.416,0,0.36296
