"Velocity[i] (m/s)","Normalized Radius","X (m)","Y (m)","Z (m)"
1.37041259653234,0.416531151842273,0.416,0,0.33384
1.38367380935466,0.437454419516126,0.416,0,0.33488
1.3947856040905,0.459002393829808,0.416,0,0.33592
1.39717348259739,0.703055078114597,0.416,0,0.3484
1.39840080320002,0.721466281430321,0.416,0,0.34944
0.0548798145944051,-0.976745940424564,0.416,0,0.26104
0.0912106008693045,-0.958301228919823,0.416,0,0.26208
0.129861540846726,-0.938184647183877,0.416,0,0.26312
0.16675548804099,-0.91914247775776,0.416,0,0.26416
0.200263711710876,-0.902143710637373,0.416,0,0.2652
0.237573753930404,-0.883523687894555,0.416,0,0.26624
0.284532275498874,-0.860530510033713,0.416,0,0.26728
0.328030454499737,-0.840070991938256,0.416,0,0.26832
0.372867743239651,-0.819154397592166,0.416,0,0.26936
0.415185403982369,-0.798266642301956,0.416,0,0.2704
0.452253402344943,-0.778174068477797,0.416,0,0.27144
0.479883734668471,-0.758238479055113,0.416,0,0.27248
0.502883254300959,-0.738029687169057,0.416,0,0.27352
0.523227944231021,-0.717992644541379,0.416,0,0.27456
0.537950098037944,-0.699140680102379,0.416,0,0.2756
0.549698688520166,-0.680210255468247,0.416,0,0.27664
0.561057208117461,-0.660805836667103,0.416,0,0.27768
0.56975757527142,-0.639967356460381,0.416,0,0.27872
0.578498964535519,-0.620077216287876,0.416,0,0.27976
0.58715752569793,-0.599643242431481,0.416,0,0.2808
0.595316457173269,-0.580124988264172,0.416,0,0.28184
0.603790045145922,-0.560168121531813,0.416,0,0.28288
0.612710576435146,-0.540141525257043,0.416,0,0.28392
0.622967486352685,-0.518867490645695,0.416,0,0.28496
0.633264463295178,-0.499046497668095,0.416,0,0.286
0.644066046685862,-0.479773143922389,0.416,0,0.28704
0.654885156221416,-0.459922909599847,0.416,0,0.28808
0.665174988650721,-0.439563094304127,0.416,0,0.28912
0.674878947121371,-0.419147159810493,0.416,0,0.29016
0.684736225487841,-0.39914357528988,0.416,0,0.2912
0.696023832162534,-0.37890325304086,0.416,0,0.29224
0.70660831437782,-0.35895537940366,0.416,0,0.29328
0.715807998187301,-0.339146486454692,0.416,0,0.29432
0.724123259859042,-0.319830632816478,0.416,0,0.29536
0.731823802863565,-0.300424427290962,0.416,0,0.2964
0.738289511172095,-0.280678052577577,0.416,0,0.29744
0.744272627431756,-0.260534836517711,0.416,0,0.29848
0.750189876805907,-0.241153140687109,0.416,0,0.29952
0.756038998097525,-0.222038859801038,0.416,0,0.30056
0.76219406814444,-0.200842222316715,0.416,0,0.3016
0.768653815074772,-0.179781122574965,0.416,0,0.30264
0.775089573844573,-0.159500674747491,0.416,0,0.30368
0.782471254499355,-0.140012500149846,0.416,0,0.30472
0.791376544360491,-0.119912209153413,0.416,0,0.30576
0.801985957087219,-0.0990606512673118,0.416,0,0.3068
0.814220764797672,-0.0776142544853187,0.416,0,0.30784
0.827894075506597,-0.0555722883719971,0.416,0,0.30888
0.8406429506747,-0.0368832070675653,0.416,0,0.30992
0.854628509314953,-0.0173101301631906,0.416,0,0.31096
0.869344229334488,0.00274801877118058,0.416,0,0.312
0.884712111428963,0.02380236195392,0.416,0,0.31304
0.897882186020918,0.04219092193153,0.416,0,0.31408
0.907423157849782,0.0600777812554041,0.416,0,0.31512
0.91493506912386,0.0803638073669601,0.416,0,0.31616
0.920880570340426,0.102491033588644,0.416,0,0.3172
0.923533283036084,0.12270796648297,0.416,0,0.31824
0.924877765732696,0.14206891482911,0.416,0,0.31928
0.92719996879785,0.161871528495913,0.416,0,0.32032
0.930685133207422,0.182319059817623,0.416,0,0.32136
0.934121865186624,0.203517376382217,0.416,0,0.3224
0.942976545642777,0.223865572716154,0.416,0,0.32344
0.96619857266582,0.242604128051079,0.416,0,0.32448
1.00206298438571,0.260925319974443,0.416,0,0.32552
1.04373237198883,0.279266844689429,0.416,0,0.32656
1.11272943623344,0.301764997459874,0.416,0,0.3276
1.19025265176533,0.32428769621785,0.416,0,0.32864
1.25581370585882,0.344504931326041,0.416,0,0.32968
1.29375783438862,0.362837241965492,0.416,0,0.33072
1.32664364815778,0.380043733103194,0.416,0,0.33176
1.35680098914715,0.396575602780125,0.416,0,0.3328
1.40091385367477,0.479617338086858,0.416,0,0.33696
1.39996220793389,0.499490075147505,0.416,0,0.338
1.3988561154658,0.51955002410446,0.416,0,0.33904
1.39773589078934,0.539999611256706,0.416,0,0.34008
1.39675218669398,0.560559775211498,0.416,0,0.34112
1.39591739306446,0.580921177276315,0.416,0,0.34216
1.39471865288375,0.600377054444679,0.416,0,0.3432
1.39405752639111,0.619925725648232,0.416,0,0.34424
1.39433193365291,0.639830245502663,0.416,0,0.34528
1.39527904822368,0.660787766556731,0.416,0,0.34632
1.39617982293811,0.682250486292048,0.416,0,0.34736
1.39948164821821,0.740159811218908,0.416,0,0.35048
1.39973498311654,0.759076056970928,0.416,0,0.35152
1.39945767696028,0.77978609393302,0.416,0,0.35256
1.39800789526515,0.798890586006545,0.416,0,0.3536
1.3953537043424,0.817587099672926,0.416,0,0.35464
1.39171743786562,0.836564066901992,0.416,0,0.35568
1.37812097106033,0.858637674971395,0.416,0,0.35672
1.35711353970842,0.881492815751744,0.416,0,0.35776
1.2995099292247,0.900575088484521,0.416,0,0.3588
1.20745995445966,0.918500638745566,0.416,0,0.35984
1.04381827315913,0.937526757370181,0.416,0,0.36088
0.781431273272052,0.959152551708676,0.416,0,0.36192
0.479403803965925,0.978277012381557,0.416,0,0.36296
