"Velocity[i] (m/s)","Normalized Radius","X (m)","Y (m)","Z (m)"
1.37741254951442,0.416531151842273,0.416,0,0.33384
1.38321991325526,0.437454419516126,0.416,0,0.33488
1.387795323216,0.459002393829808,0.416,0,0.33592
1.40228283266178,0.703055078114597,0.416,0,0.3484
1.40328785219969,0.721466281430321,0.416,0,0.34944
0.0720848379423878,-0.976745940424564,0.416,0,0.26104
0.11021459689417,-0.958301228919823,0.416,0,0.26208
0.150805594491627,-0.938184647183877,0.416,0,0.26312
0.189154390463163,-0.91914247775776,0.416,0,0.26416
0.22341380364124,-0.902143710637373,0.416,0,0.2652
0.260568624948534,-0.883523687894555,0.416,0,0.26624
0.305598535530233,-0.860530510033713,0.416,0,0.26728
0.345267960891836,-0.840070991938256,0.416,0,0.26832
0.385090840703587,-0.819154397592166,0.416,0,0.26936
0.421597386022355,-0.798266642301956,0.416,0,0.2704
0.454061150277261,-0.778174068477797,0.416,0,0.27144
0.480072892245406,-0.758238479055113,0.416,0,0.27248
0.50295833655906,-0.738029687169057,0.416,0,0.27352
0.524032428214307,-0.717992644541379,0.416,0,0.27456
0.540397612459837,-0.699140680102379,0.416,0,0.2756
0.55436315107411,-0.680210255468247,0.416,0,0.27664
0.568120684002141,-0.660805836667103,0.416,0,0.27768
0.579441661678928,-0.639967356460381,0.416,0,0.27872
0.590516297614072,-0.620077216287876,0.416,0,0.27976
0.60137000365104,-0.599643242431481,0.416,0,0.2808
0.611367105017983,-0.580124988264172,0.416,0,0.28184
0.621554135362543,-0.560168121531813,0.416,0,0.28288
0.6318275021631,-0.540141525257043,0.416,0,0.28392
0.643124383689897,-0.518867490645695,0.416,0,0.28496
0.65387835580726,-0.499046497668095,0.416,0,0.286
0.664728424804926,-0.479773143922389,0.416,0,0.28704
0.675575644531805,-0.459922909599847,0.416,0,0.28808
0.685952828069664,-0.439563094304127,0.416,0,0.28912
0.695811510852465,-0.419147159810493,0.416,0,0.29016
0.705045811926932,-0.39914357528988,0.416,0,0.2912
0.715507662389653,-0.37890325304086,0.416,0,0.29224
0.7253840009469,-0.35895537940366,0.416,0,0.29328
0.733657428168302,-0.339146486454692,0.416,0,0.29432
0.740951823450174,-0.319830632816478,0.416,0,0.29536
0.747956508724601,-0.300424427290962,0.416,0,0.2964
0.754057356547641,-0.280678052577577,0.416,0,0.29744
0.759655611937064,-0.260534836517711,0.416,0,0.29848
0.764659276508353,-0.241153140687109,0.416,0,0.29952
0.769657343691255,-0.222038859801038,0.416,0,0.30056
0.775328478489081,-0.200842222316715,0.416,0,0.3016
0.781072229587129,-0.179781122574965,0.416,0,0.30264
0.786559138598147,-0.159500674747491,0.416,0,0.30368
0.793900136759243,-0.140012500149846,0.416,0,0.30472
0.803556115096017,-0.119912209153413,0.416,0,0.30576
0.814461742814384,-0.0990606512673118,0.416,0,0.3068
0.826565295302428,-0.0776142544853187,0.416,0,0.30784
0.840122772578141,-0.0555722883719971,0.416,0,0.30888
0.855430892687066,-0.0368832070675653,0.416,0,0.30992
0.871779637864086,-0.0173101301631906,0.416,0,0.31096
0.889399059489461,0.00274801877118058,0.416,0,0.312
0.908755422593509,0.02380236195392,0.416,0,0.31304
0.926143999200707,0.04219092193153,0.416,0,0.31408
0.942061441446928,0.0600777812554041,0.416,0,0.31512
0.959396299449486,0.0803638073669601,0.416,0,0.31616
0.977193400484223,0.102491033588644,0.416,0,0.3172
0.99336491818845,0.12270796648297,0.416,0,0.31824
1.00732260125879,0.14206891482911,0.416,0,0.31928
1.02088998432505,0.161871528495913,0.416,0,0.32032
1.03488409358346,0.182319059817623,0.416,0,0.32136
1.05029857508746,0.203517376382217,0.416,0,0.3224
1.06917852192424,0.223865572716154,0.416,0,0.32344
1.09366982211181,0.242604128051079,0.416,0,0.32448
1.12510589985069,0.260925319974443,0.416,0,0.32552
1.16001984773734,0.279266844689429,0.416,0,0.32656
1.21062992763031,0.301764997459874,0.416,0,0.3276
1.26443576036648,0.32428769621785,0.416,0,0.32864
1.31255593647732,0.344504931326041,0.416,0,0.32968
1.33385465957156,0.362837241965492,0.416,0,0.33072
1.35347376638212,0.380043733103194,0.416,0,0.33176
1.37174781404794,0.396575602780125,0.416,0,0.3328
1.38997130664871,0.479617338086858,0.416,0,0.33696
1.389974819424,0.499490075147505,0.416,0,0.338
1.39013643160204,0.51955002410446,0.416,0,0.33904
1.39061189237681,0.539999611256706,0.416,0,0.34008
1.39136526132451,0.560559775211498,0.416,0,0.34112
1.39229790069598,0.580921177276315,0.416,0,0.34216
1.39382010919315,0.600377054444679,0.416,0,0.3432
1.39540294046316,0.619925725648232,0.416,0,0.34424
1.3971975731682,0.639830245502663,0.416,0,0.34528
1.3990963994908,0.660787766556731,0.416,0,0.34632
1.40072053853994,0.682250486292048,0.416,0,0.34736
1.40363849141227,0.740159811218908,0.416,0,0.35048
1.40314740440332,0.759076056970928,0.416,0,0.35152
1.40224542838844,0.77978609393302,0.416,0,0.35256
1.39989499594652,0.798890586006545,0.416,0,0.3536
1.39590443386238,0.817587099672926,0.416,0,0.35464
1.3906287115982,0.836564066901992,0.416,0,0.35568
1.37227805443133,0.858637674971395,0.416,0,0.35672
1.34401517028828,0.881492815751744,0.416,0,0.35776
1.28324797402536,0.900575088484521,0.416,0,0.3588
1.19306912856797,0.918500638745566,0.416,0,0.35984
1.04051094777352,0.937526757370181,0.416,0,0.36088
0.798763771785087,0.959152551708676,0.416,0,0.36192
0.512285006680716,0.978277012381557,0.416,0,0.36296
