"Velocity[i] (m/s)","Normalized Radius","X (m)","Y (m)","Z (m)"
1.39965002266691,0.416531151842273,0.416,0,0.33384
1.40290115118051,0.437454419516126,0.416,0,0.33488
1.40559718965491,0.459002393829808,0.416,0,0.33592
1.41333474735933,0.703055078114597,0.416,0,0.3484
1.41381739292072,0.721466281430321,0.416,0,0.34944
0.038949786934262,-0.976745940424564,0.416,0,0.26104
0.0690562234851079,-0.958301228919823,0.416,0,0.26208
0.102266755356034,-0.938184647183877,0.416,0,0.26312
0.135462008240966,-0.91914247775776,0.416,0,0.26416
0.166964947435563,-0.902143710637373,0.416,0,0.2652
0.204155190039124,-0.883523687894555,0.416,0,0.26624
0.253484019876174,-0.860530510033713,0.416,0,0.26728
0.303048988969754,-0.840070991938256,0.416,0,0.26832
0.356428901207767,-0.819154397592166,0.416,0,0.26936
0.408669072864146,-0.798266642301956,0.416,0,0.2704
0.45335663136508,-0.778174068477797,0.416,0,0.27144
0.48297182329057,-0.758238479055113,0.416,0,0.27248
0.505065108816943,-0.738029687169057,0.416,0,0.27352
0.522833591583218,-0.717992644541379,0.416,0,0.27456
0.533490212551902,-0.699140680102379,0.416,0,0.2756
0.540778309683261,-0.680210255468247,0.416,0,0.27664
0.54767593821541,-0.660805836667103,0.416,0,0.27768
0.553177349760009,-0.639967356460381,0.416,0,0.27872
0.558392339689442,-0.620077216287876,0.416,0,0.27976
0.565144248291071,-0.599643242431481,0.416,0,0.2808
0.573903194631643,-0.580124988264172,0.416,0,0.28184
0.580779546317441,-0.560168121531813,0.416,0,0.28288
0.587046124480149,-0.540141525257043,0.416,0,0.28392
0.594777046650751,-0.518867490645695,0.416,0,0.28496
0.602915354058582,-0.499046497668095,0.416,0,0.286
0.615087236842665,-0.479773143922389,0.416,0,0.28704
0.626849887748578,-0.459922909599847,0.416,0,0.28808
0.63660394055004,-0.439563094304127,0.416,0,0.28912
0.645019610309316,-0.419147159810493,0.416,0,0.29016
0.657383000278089,-0.39914357528988,0.416,0,0.2912
0.665415609903848,-0.37890325304086,0.416,0,0.29224
0.673401229084574,-0.35895537940366,0.416,0,0.29328
0.68198300222192,-0.339146486454692,0.416,0,0.29432
0.690213977248957,-0.319830632816478,0.416,0,0.29536
0.697631455982492,-0.300424427290962,0.416,0,0.2964
0.703457633034027,-0.280678052577577,0.416,0,0.29744
0.707817677073634,-0.260534836517711,0.416,0,0.29848
0.708878416632422,-0.241153140687109,0.416,0,0.29952
0.710182287634896,-0.222038859801038,0.416,0,0.30056
0.713458841089958,-0.200842222316715,0.416,0,0.3016
0.716511520673402,-0.179781122574965,0.416,0,0.30264
0.719076648740185,-0.159500674747491,0.416,0,0.30368
0.722886682080403,-0.140012500149846,0.416,0,0.30472
0.728224484678684,-0.119912209153413,0.416,0,0.30576
0.734752247022238,-0.0990606512673118,0.416,0,0.3068
0.742742217632579,-0.0776142544853187,0.416,0,0.30784
0.752405492197332,-0.0555722883719971,0.416,0,0.30888
0.756886288955009,-0.0368832070675653,0.416,0,0.30992
0.762521029948026,-0.0173101301631906,0.416,0,0.31096
0.767769712867339,0.00274801877118058,0.416,0,0.312
0.772080128795881,0.02380236195392,0.416,0,0.31304
0.77227280801629,0.04219092193153,0.416,0,0.31408
0.771383226417179,0.0600777812554041,0.416,0,0.31512
0.76977060974688,0.0803638073669601,0.416,0,0.31616
0.766553053790478,0.102491033588644,0.416,0,0.3172
0.771970157150508,0.12270796648297,0.416,0,0.31824
0.78800516554428,0.14206891482911,0.416,0,0.31928
0.811084930318157,0.161871528495913,0.416,0,0.32032
0.84217286300112,0.182319059817623,0.416,0,0.32136
0.881751683201601,0.203517376382217,0.416,0,0.3224
0.938365781598306,0.223865572716154,0.416,0,0.32344
1.01128054586377,0.242604128051079,0.416,0,0.32448
1.08112301892706,0.260925319974443,0.416,0,0.32552
1.15111121666697,0.279266844689429,0.416,0,0.32656
1.22239147200315,0.301764997459874,0.416,0,0.3276
1.29801330287993,0.32428769621785,0.416,0,0.32864
1.35231489625458,0.344504931326041,0.416,0,0.32968
1.36995762586637,0.362837241965492,0.416,0,0.33072
1.38420886545393,0.380043733103194,0.416,0,0.33176
1.39601838863271,0.396575602780125,0.416,0,0.3328
1.4072462333823,0.479617338086858,0.416,0,0.33696
1.40755292594738,0.499490075147505,0.416,0,0.338
1.40789883666735,0.51955002410446,0.416,0,0.33904
1.40842566480409,0.539999611256706,0.416,0,0.34008
1.40915317615306,0.560559775211498,0.416,0,0.34112
1.40992647699802,0.580921177276315,0.416,0,0.34216
1.41044833798522,0.600377054444679,0.416,0,0.3432
1.41104918503116,0.619925725648232,0.416,0,0.34424
1.4116099840255,0.639830245502663,0.416,0,0.34528
1.41218322816978,0.660787766556731,0.416,0,0.34632
1.41275305609771,0.682250486292048,0.416,0,0.34736
1.41390083100548,0.740159811218908,0.416,0,0.35048
1.41332091520997,0.759076056970928,0.416,0,0.35152
1.41225506654657,0.77978609393302,0.416,0,0.35256
1.41043357797436,0.798890586006545,0.416,0,0.3536
1.40845942774072,0.817587099672926,0.416,0,0.35464
1.40650715654524,0.836564066901992,0.416,0,0.35568
1.3942606345406,0.858637674971395,0.416,0,0.35672
1.37381301105803,0.881492815751744,0.416,0,0.35776
1.31010594518988,0.900575088484521,0.416,0,0.3588
1.20681123725016,0.918500638745566,0.416,0,0.35984
1.02869390800303,0.937526757370181,0.416,0,0.36088
0.74682167098552,0.959152551708676,0.416,0,0.36192
0.424524021660568,0.978277012381557,0.416,0,0.36296
