"Velocity[i] (m/s)","Normalized Radius","X (m)","Y (m)","Z (m)"
1.41553091007234,0.416531151842273,0.416,0,0.33384
1.42115475697272,0.437454419516126,0.416,0,0.33488
1.42585562528771,0.459002393829808,0.416,0,0.33592
1.41547619771249,0.703055078114597,0.416,0,0.3484
1.41502168528,0.721466281430321,0.416,0,0.34944
0.038405538011391,-0.976745940424564,0.416,0,0.26104
0.070259590890535,-0.958301228919823,0.416,0,0.26208
0.109528660550675,-0.938184647183877,0.416,0,0.26312
0.150582693789951,-0.91914247775776,0.416,0,0.26416
0.189908750698581,-0.902143710637373,0.416,0,0.2652
0.233063611829162,-0.883523687894555,0.416,0,0.26624
0.285220542418843,-0.860530510033713,0.416,0,0.26728
0.334947232779742,-0.840070991938256,0.416,0,0.26832
0.384742290238023,-0.819154397592166,0.416,0,0.26936
0.429794439286328,-0.798266642301956,0.416,0,0.2704
0.466535296670153,-0.778174068477797,0.416,0,0.27144
0.490345216865488,-0.758238479055113,0.416,0,0.27248
0.507963949612182,-0.738029687169057,0.416,0,0.27352
0.523494608186101,-0.717992644541379,0.416,0,0.27456
0.533310900505307,-0.699140680102379,0.416,0,0.2756
0.539749437857406,-0.680210255468247,0.416,0,0.27664
0.545316737651169,-0.660805836667103,0.416,0,0.27768
0.549222855519076,-0.639967356460381,0.416,0,0.27872
0.552015122103692,-0.620077216287876,0.416,0,0.27976
0.554220862383674,-0.599643242431481,0.416,0,0.2808
0.560821543771844,-0.580124988264172,0.416,0,0.28184
0.562712596602264,-0.560168121531813,0.416,0,0.28288
0.564410168440406,-0.540141525257043,0.416,0,0.28392
0.572509368949942,-0.518867490645695,0.416,0,0.28496
0.579243363385791,-0.499046497668095,0.416,0,0.286
0.594866599528974,-0.479773143922389,0.416,0,0.28704
0.609228670792828,-0.459922909599847,0.416,0,0.28808
0.618426939462991,-0.439563094304127,0.416,0,0.28912
0.625372771930503,-0.419147159810493,0.416,0,0.29016
0.637004659852128,-0.39914357528988,0.416,0,0.2912
0.644997107561686,-0.37890325304086,0.416,0,0.29224
0.652264250999964,-0.35895537940366,0.416,0,0.29328
0.659247317138767,-0.339146486454692,0.416,0,0.29432
0.667558253204536,-0.319830632816478,0.416,0,0.29536
0.674829222561605,-0.300424427290962,0.416,0,0.2964
0.680922789920233,-0.280678052577577,0.416,0,0.29744
0.686566934387802,-0.260534836517711,0.416,0,0.29848
0.691137275611056,-0.241153140687109,0.416,0,0.29952
0.695693339059049,-0.222038859801038,0.416,0,0.30056
0.700988291599478,-0.200842222316715,0.416,0,0.3016
0.706093114487968,-0.179781122574965,0.416,0,0.30264
0.711471041150426,-0.159500674747491,0.416,0,0.30368
0.712431250749866,-0.140012500149846,0.416,0,0.30472
0.709464844676939,-0.119912209153413,0.416,0,0.30576
0.708719441009699,-0.0990606512673118,0.416,0,0.3068
0.710680639246536,-0.0776142544853187,0.416,0,0.30784
0.713853249999761,-0.0555722883719971,0.416,0,0.30888
0.706743810759392,-0.0368832070675653,0.416,0,0.30992
0.700549953776599,-0.0173101301631906,0.416,0,0.31096
0.69318366613725,0.00274801877118058,0.416,0,0.312
0.682723339461837,0.02380236195392,0.416,0,0.31304
0.673094961450293,0.04219092193153,0.416,0,0.31408
0.66559467196742,0.0600777812554041,0.416,0,0.31512
0.664317972212005,0.0803638073669601,0.416,0,0.31616
0.667297369707651,0.102491033588644,0.416,0,0.3172
0.68164775249008,0.12270796648297,0.416,0,0.31824
0.717521104409211,0.14206891482911,0.416,0,0.31928
0.763691138255068,0.161871528495913,0.416,0,0.32032
0.818805529538852,0.182319059817623,0.416,0,0.32136
0.88413263115637,0.203517376382217,0.416,0,0.3224
0.962522447137903,0.223865572716154,0.416,0,0.32344
1.03941393373026,0.242604128051079,0.416,0,0.32448
1.10713965748321,0.260925319974443,0.416,0,0.32552
1.17241482856625,0.279266844689429,0.416,0,0.32656
1.23849572743021,0.301764997459874,0.416,0,0.3276
1.30448601759345,0.32428769621785,0.416,0,0.32864
1.34954628289477,0.344504931326041,0.416,0,0.32968
1.37302207244984,0.362837241965492,0.416,0,0.33072
1.39227188520959,0.380043733103194,0.416,0,0.33176
1.40908944763338,0.396575602780125,0.416,0,0.3328
1.4286691903491,0.479617338086858,0.416,0,0.33696
1.42822890514701,0.499490075147505,0.416,0,0.338
1.42762965985539,0.51955002410446,0.416,0,0.33904
1.42666792046663,0.539999611256706,0.416,0,0.34008
1.42548158951264,0.560559775211498,0.416,0,0.34112
1.4241993305995,0.580921177276315,0.416,0,0.34216
1.42212565761554,0.600377054444679,0.416,0,0.3432
1.4202626501581,0.619925725648232,0.416,0,0.34424
1.41869248520312,0.639830245502663,0.416,0,0.34528
1.41744799676676,0.660787766556731,0.416,0,0.34632
1.4164149635053,0.682250486292048,0.416,0,0.34736
1.4145462133181,0.740159811218908,0.416,0,0.35048
1.41381247529764,0.759076056970928,0.416,0,0.35152
1.41288016136619,0.77978609393302,0.416,0,0.35256
1.41113959144637,0.798890586006545,0.416,0,0.3536
1.40917220018348,0.817587099672926,0.416,0,0.35464
1.40718495195469,0.836564066901992,0.416,0,0.35568
1.39150228562909,0.858637674971395,0.416,0,0.35672
1.36416427766473,0.881492815751744,0.416,0,0.35776
1.29303587876995,0.900575088484521,0.416,0,0.3588
1.180755380867,0.918500638745566,0.416,0,0.35984
0.992878956234696,0.937526757370181,0.416,0,0.36088
0.711973829369316,0.959152551708676,0.416,0,0.36192
0.403081389737723,0.978277012381557,0.416,0,0.36296
