"Velocity[i] (m/s)","Normalized Radius","X (m)","Y (m)","Z (m)"
1.37570904180786,0.416531151842273,0.416,0,0.33384
1.37883561122473,0.437454419516126,0.416,0,0.33488
1.38193876932558,0.459002393829808,0.416,0,0.33592
1.39864244566728,0.703055078114597,0.416,0,0.3484
1.39852325926558,0.721466281430321,0.416,0,0.34944
0.0471222221336941,-0.976745940424564,0.416,0,0.26104
0.0792051206380958,-0.958301228919823,0.416,0,0.26208
0.115503280184271,-0.938184647183877,0.416,0,0.26312
0.152422731045315,-0.91914247775776,0.416,0,0.26416
0.187350301515819,-0.902143710637373,0.416,0,0.2652
0.226667856631497,-0.883523687894555,0.416,0,0.26624
0.277224555105793,-0.860530510033713,0.416,0,0.26728
0.330224977092261,-0.840070991938256,0.416,0,0.26832
0.388453884989513,-0.819154397592166,0.416,0,0.26936
0.445806547317136,-0.798266642301956,0.416,0,0.2704
0.498277202416648,-0.778174068477797,0.416,0,0.27144
0.534126665226049,-0.758238479055113,0.416,0,0.27248
0.562973545956375,-0.738029687169057,0.416,0,0.27352
0.588224720639675,-0.717992644541379,0.416,0,0.27456
0.603474777267385,-0.699140680102379,0.416,0,0.2756
0.61362316078669,-0.680210255468247,0.416,0,0.27664
0.623364629814624,-0.660805836667103,0.416,0,0.27768
0.627745404663336,-0.639967356460381,0.416,0,0.27872
0.633601834475947,-0.620077216287876,0.416,0,0.27976
0.641272704641308,-0.599643242431481,0.416,0,0.2808
0.646672422109732,-0.580124988264172,0.416,0,0.28184
0.653544739801951,-0.560168121531813,0.416,0,0.28288
0.66019898182341,-0.540141525257043,0.416,0,0.28392
0.66721032033834,-0.518867490645695,0.416,0,0.28496
0.673711303245946,-0.499046497668095,0.416,0,0.286
0.681422902896239,-0.479773143922389,0.416,0,0.28704
0.689669037082773,-0.459922909599847,0.416,0,0.28808
0.697710241171918,-0.439563094304127,0.416,0,0.28912
0.705060472664512,-0.419147159810493,0.416,0,0.29016
0.709278829461034,-0.39914357528988,0.416,0,0.2912
0.708153061561972,-0.37890325304086,0.416,0,0.29224
0.707603251679026,-0.35895537940366,0.416,0,0.29328
0.707245882354674,-0.339146486454692,0.416,0,0.29432
0.704348523247288,-0.319830632816478,0.416,0,0.29536
0.701600145289609,-0.300424427290962,0.416,0,0.2964
0.699625704925406,-0.280678052577577,0.416,0,0.29744
0.697085236984161,-0.260534836517711,0.416,0,0.29848
0.691527120672479,-0.241153140687109,0.416,0,0.29952
0.686607697234295,-0.222038859801038,0.416,0,0.30056
0.683364985451938,-0.200842222316715,0.416,0,0.3016
0.678929817939217,-0.179781122574965,0.416,0,0.30264
0.673757370486612,-0.159500674747491,0.416,0,0.30368
0.66874242708791,-0.140012500149846,0.416,0,0.30472
0.664751952347625,-0.119912209153413,0.416,0,0.30576
0.661305251560947,-0.0990606512673118,0.416,0,0.3068
0.657889115153477,-0.0776142544853187,0.416,0,0.30784
0.655745913299417,-0.0555722883719971,0.416,0,0.30888
0.667098643454492,-0.0368832070675653,0.416,0,0.30992
0.680201584343732,-0.0173101301631906,0.416,0,0.31096
0.696790485998092,0.00274801877118058,0.416,0,0.312
0.718963685135577,0.02380236195392,0.416,0,0.31304
0.747016700984091,0.04219092193153,0.416,0,0.31408
0.777377527968553,0.0600777812554041,0.416,0,0.31512
0.818361857151734,0.0803638073669601,0.416,0,0.31616
0.866151403549289,0.102491033588644,0.416,0,0.3172
0.913944707492752,0.12270796648297,0.416,0,0.31824
0.962230650397241,0.14206891482911,0.416,0,0.31928
1.01303132460651,0.161871528495913,0.416,0,0.32032
1.0674993791881,0.182319059817623,0.416,0,0.32136
1.12572480842844,0.203517376382217,0.416,0,0.3224
1.17781645925681,0.223865572716154,0.416,0,0.32344
1.2250499756862,0.242604128051079,0.416,0,0.32448
1.26481096028673,0.260925319974443,0.416,0,0.32552
1.30103515915318,0.279266844689429,0.416,0,0.32656
1.3276859162807,0.301764997459874,0.416,0,0.3276
1.34996392381226,0.32428769621785,0.416,0,0.32864
1.36379828772448,0.344504931326041,0.416,0,0.32968
1.36668733702081,0.362837241965492,0.416,0,0.33072
1.36954883384421,0.380043733103194,0.416,0,0.33176
1.37232713494372,0.396575602780125,0.416,0,0.3328
1.38520561720305,0.479617338086858,0.416,0,0.33696
1.38872040584418,0.499490075147505,0.416,0,0.338
1.39182334447888,0.51955002410446,0.416,0,0.33904
1.39429721260176,0.539999611256706,0.416,0,0.34008
1.39622380853632,0.560559775211498,0.416,0,0.34112
1.39780342891398,0.580921177276315,0.416,0,0.34216
1.3989373077047,0.600377054444679,0.416,0,0.3432
1.39960346581941,0.619925725648232,0.416,0,0.34424
1.39954812028186,0.639830245502663,0.416,0,0.34528
1.39917529595232,0.660787766556731,0.416,0,0.34632
1.39887379382397,0.682250486292048,0.416,0,0.34736
1.39821828581195,0.740159811218908,0.416,0,0.35048
1.39767939133259,0.759076056970928,0.416,0,0.35152
1.39719405450238,0.77978609393302,0.416,0,0.35256
1.39624519754046,0.798890586006545,0.416,0,0.3536
1.3951243326966,0.817587099672926,0.416,0,0.35464
1.39401474041284,0.836564066901992,0.416,0,0.35568
1.383739175813,0.858637674971395,0.416,0,0.35672
1.36590085982267,0.881492815751744,0.416,0,0.35776
1.30667995560677,0.900575088484521,0.416,0,0.3588
1.20757413042619,0.918500638745566,0.416,0,0.35984
1.03037834339435,0.937526757370181,0.416,0,0.36088
0.750836916236821,0.959152551708676,0.416,0,0.36192
0.431078628385872,0.978277012381557,0.416,0,0.36296
