"Velocity[i] (m/s)","Normalized Radius","X (m)","Y (m)","Z (m)"
1.35467134788147,0.416531151842273,0.416,0,0.33384
1.37005037148331,0.437454419516126,0.416,0,0.33488
1.38302296212916,0.459002393829808,0.416,0,0.33592
1.38020523595325,0.703055078114597,0.416,0,0.3484
1.38127463881334,0.721466281430321,0.416,0,0.34944
0.0315272307001252,-0.976745940424564,0.416,0,0.26104
0.0645943150168681,-0.958301228919823,0.416,0,0.26208
0.102038500818211,-0.938184647183877,0.416,0,0.26312
0.138753871589309,-0.91914247775776,0.416,0,0.26416
0.172372304701932,-0.902143710637373,0.416,0,0.2652
0.21006259583754,-0.883523687894555,0.416,0,0.26624
0.257990815869234,-0.860530510033713,0.416,0,0.26728
0.303372349489495,-0.840070991938256,0.416,0,0.26832
0.350598195027182,-0.819154397592166,0.416,0,0.26936
0.395783679455046,-0.798266642301956,0.416,0,0.2704
0.435255435960606,-0.778174068477797,0.416,0,0.27144
0.463849925049714,-0.758238479055113,0.416,0,0.27248
0.487035064321591,-0.738029687169057,0.416,0,0.27352
0.507132067063966,-0.717992644541379,0.416,0,0.27456
0.521093369447981,-0.699140680102379,0.416,0,0.2756
0.531837951443455,-0.680210255468247,0.416,0,0.27664
0.542076499820774,-0.660805836667103,0.416,0,0.27768
0.549600552285642,-0.639967356460381,0.416,0,0.27872
0.557197154715958,-0.620077216287876,0.416,0,0.27976
0.564678911448295,-0.599643242431481,0.416,0,0.2808
0.571729527922614,-0.580124988264172,0.416,0,0.28184
0.579175228447884,-0.560168121531813,0.416,0,0.28288
0.587156659284399,-0.540141525257043,0.416,0,0.28392
0.59662952551465,-0.518867490645695,0.416,0,0.28496
0.606434341111254,-0.499046497668095,0.416,0,0.286
0.617045525879883,-0.479773143922389,0.416,0,0.28704
0.627654832752028,-0.459922909599847,0.416,0,0.28808
0.637653588190483,-0.439563094304127,0.416,0,0.28912
0.646974447726782,-0.419147159810493,0.416,0,0.29016
0.656868955136693,-0.39914357528988,0.416,0,0.2912
0.668067021105194,-0.37890325304086,0.416,0,0.29224
0.678541368655697,-0.35895537940366,0.416,0,0.29328
0.68778874611624,-0.339146486454692,0.416,0,0.29432
0.696352745192539,-0.319830632816478,0.416,0,0.29536
0.704155268228358,-0.300424427290962,0.416,0,0.2964
0.710546165021406,-0.280678052577577,0.416,0,0.29744
0.716438279330368,-0.260534836517711,0.416,0,0.29848
0.722355633800887,-0.241153140687109,0.416,0,0.29952
0.728136707068216,-0.222038859801038,0.416,0,0.30056
0.733906852250525,-0.200842222316715,0.416,0,0.3016
0.74000819401034,-0.179781122574965,0.416,0,0.30264
0.746111592859637,-0.159500674747491,0.416,0,0.30368
0.752893784545796,-0.140012500149846,0.416,0,0.30472
0.760974095400478,-0.119912209153413,0.416,0,0.30576
0.770807333294271,-0.0990606512673118,0.416,0,0.3068
0.782350446723139,-0.0776142544853187,0.416,0,0.30784
0.795247687071016,-0.0555722883719971,0.416,0,0.30888
0.806171024735739,-0.0368832070675653,0.416,0,0.30992
0.818263141706504,-0.0173101301631906,0.416,0,0.31096
0.830679050045349,0.00274801877118058,0.416,0,0.312
0.843325493485937,0.02380236195392,0.416,0,0.31304
0.853639338764386,0.04219092193153,0.416,0,0.31408
0.860452737040345,0.0600777812554041,0.416,0,0.31512
0.864408226431318,0.0803638073669601,0.416,0,0.31616
0.866335327936683,0.102491033588644,0.416,0,0.3172
0.865916855590471,0.12270796648297,0.416,0,0.31824
0.865511472641567,0.14206891482911,0.416,0,0.31928
0.866747677954772,0.161871528495913,0.416,0,0.32032
0.869723168099746,0.182319059817623,0.416,0,0.32136
0.872801813910273,0.203517376382217,0.416,0,0.3224
0.883052264898506,0.223865572716154,0.416,0,0.32344
0.910104441004794,0.242604128051079,0.416,0,0.32448
0.950313863047008,0.260925319974443,0.416,0,0.32552
0.996578030835091,0.279266844689429,0.416,0,0.32656
1.07151251588461,0.301764997459874,0.416,0,0.3276
1.15651774274807,0.32428769621785,0.416,0,0.32864
1.22656264313841,0.344504931326041,0.416,0,0.32968
1.2692051685866,0.362837241965492,0.416,0,0.33072
1.30559085427356,0.380043733103194,0.416,0,0.33176
1.33856036020001,0.396575602780125,0.416,0,0.3328
1.39044904918353,0.479617338086858,0.416,0,0.33696
1.38934961371724,0.499490075147505,0.416,0,0.338
1.38803799763667,0.51955002410446,0.416,0,0.33904
1.38656121618707,0.539999611256706,0.416,0,0.34008
1.38513028603765,0.560559775211498,0.416,0,0.34112
1.3838020477559,0.580921177276315,0.416,0,0.34216
1.38163740883538,0.600377054444679,0.416,0,0.3432
1.38006204680561,0.619925725648232,0.416,0,0.34424
1.37944991918072,0.639830245502663,0.416,0,0.34528
1.3795710954415,0.660787766556731,0.416,0,0.34632
1.37980118743501,0.682250486292048,0.416,0,0.34736
1.38250142124289,0.740159811218908,0.416,0,0.35048
1.38301962627245,0.759076056970928,0.416,0,0.35152
1.38314278020995,0.77978609393302,0.416,0,0.35256
1.38233022205696,0.798890586006545,0.416,0,0.3536
1.38063785510228,0.817587099672926,0.416,0,0.35464
1.37826094975272,0.836564066901992,0.416,0,0.35568
1.36684112763088,0.858637674971395,0.416,0,0.35672
1.3483999248571,0.881492815751744,0.416,0,0.35776
1.29211318079208,0.900575088484521,0.416,0,0.3588
1.19943625118119,0.918500638745566,0.416,0,0.35984
1.03243029199778,0.937526757370181,0.416,0,0.36088
0.762681531511446,0.959152551708676,0.416,0,0.36192
0.451932184877696,0.978277012381557,0.416,0,0.36296
