"Velocity[i] (m/s)","Normalized Radius","X (m)","Y (m)","Z (m)"
1.37714433061952,0.416531151842273,0.416,0,0.33384
1.38035060265652,0.437454419516126,0.416,0,0.33488
1.38317489036471,0.459002393829808,0.416,0,0.33592
1.38766068060067,0.703055078114597,0.416,0,0.3484
1.38648180072129,0.721466281430321,0.416,0,0.34944
0.0239257339755006,-0.976745940424564,0.416,0,0.26104
0.0546171596329742,-0.958301228919823,0.416,0,0.26208
0.0911671160090081,-0.938184647183877,0.416,0,0.26312
0.128490980537301,-0.91914247775776,0.416,0,0.26416
0.164395988465234,-0.902143710637373,0.416,0,0.2652
0.205463111771997,-0.883523687894555,0.416,0,0.26624
0.258560798266723,-0.860530510033713,0.416,0,0.26728
0.313955972272431,-0.840070991938256,0.416,0,0.26832
0.372917813716749,-0.819154397592166,0.416,0,0.26936
0.4309716529662,-0.798266642301956,0.416,0,0.2704
0.482476713654177,-0.778174068477797,0.416,0,0.27144
0.514436593813646,-0.758238479055113,0.416,0,0.27248
0.537634980454841,-0.738029687169057,0.416,0,0.27352
0.55624100634326,-0.717992644541379,0.416,0,0.27456
0.565536397798839,-0.699140680102379,0.416,0,0.2756
0.570372499828334,-0.680210255468247,0.416,0,0.27664
0.57422766128381,-0.660805836667103,0.416,0,0.27768
0.575291267167933,-0.639967356460381,0.416,0,0.27872
0.576630365797474,-0.620077216287876,0.416,0,0.27976
0.57853218550006,-0.599643242431481,0.416,0,0.2808
0.579903980548353,-0.580124988264172,0.416,0,0.28184
0.582327728648067,-0.560168121531813,0.416,0,0.28288
0.585936861496183,-0.540141525257043,0.416,0,0.28392
0.591374775471387,-0.518867490645695,0.416,0,0.28496
0.597353195843509,-0.499046497668095,0.416,0,0.286
0.608662473075921,-0.479773143922389,0.416,0,0.28704
0.622211290158677,-0.459922909599847,0.416,0,0.28808
0.635820715612914,-0.439563094304127,0.416,0,0.28912
0.649361912105078,-0.419147159810493,0.416,0,0.29016
0.663489795829328,-0.39914357528988,0.416,0,0.2912
0.67302995779371,-0.37890325304086,0.416,0,0.29224
0.68257433830659,-0.35895537940366,0.416,0,0.29328
0.690924856357728,-0.339146486454692,0.416,0,0.29432
0.697344193453225,-0.319830632816478,0.416,0,0.29536
0.703543782248454,-0.300424427290962,0.416,0,0.2964
0.709181399712968,-0.280678052577577,0.416,0,0.29744
0.713734375969865,-0.260534836517711,0.416,0,0.29848
0.714988198488175,-0.241153140687109,0.416,0,0.29952
0.716063790729644,-0.222038859801038,0.416,0,0.30056
0.716919767105457,-0.200842222316715,0.416,0,0.3016
0.717050615682951,-0.179781122574965,0.416,0,0.30264
0.716817329347649,-0.159500674747491,0.416,0,0.30368
0.716098638975605,-0.140012500149846,0.416,0,0.30472
0.715131293969311,-0.119912209153413,0.416,0,0.30576
0.713960180193156,-0.0990606512673118,0.416,0,0.3068
0.712750883210611,-0.0776142544853187,0.416,0,0.30784
0.712071087129794,-0.0555722883719971,0.416,0,0.30888
0.714375493428057,-0.0368832070675653,0.416,0,0.30992
0.717332472753857,-0.0173101301631906,0.416,0,0.31096
0.720967114179798,0.00274801877118058,0.416,0,0.312
0.726283909932507,0.02380236195392,0.416,0,0.31304
0.733452558688039,0.04219092193153,0.416,0,0.31408
0.742766688006051,0.0600777812554041,0.416,0,0.31512
0.757057711408931,0.0803638073669601,0.416,0,0.31616
0.773019686225382,0.102491033588644,0.416,0,0.3172
0.795182464689388,0.12270796648297,0.416,0,0.31824
0.826099502500395,0.14206891482911,0.416,0,0.31928
0.860612658079216,0.161871528495913,0.416,0,0.32032
0.899238718907686,0.182319059817623,0.416,0,0.32136
0.940977401684963,0.203517376382217,0.416,0,0.3224
0.993790618665591,0.223865572716154,0.416,0,0.32344
1.05879003553994,0.242604128051079,0.416,0,0.32448
1.11701328220828,0.260925319974443,0.416,0,0.32552
1.17448952376489,0.279266844689429,0.416,0,0.32656
1.23481079028306,0.301764997459874,0.416,0,0.3276
1.29284678561512,0.32428769621785,0.416,0,0.32864
1.33676570793471,0.344504931326041,0.416,0,0.32968
1.35087979511361,0.362837241965492,0.416,0,0.33072
1.36300785153807,0.380043733103194,0.416,0,0.33176
1.37353935286373,0.396575602780125,0.416,0,0.3328
1.38532044059378,0.479617338086858,0.416,0,0.33696
1.38650989034122,0.499490075147505,0.416,0,0.338
1.3876879007525,0.51955002410446,0.416,0,0.33904
1.3888279635732,0.539999611256706,0.416,0,0.34008
1.38993727955867,0.560559775211498,0.416,0,0.34112
1.39098512831254,0.580921177276315,0.416,0,0.34216
1.39126562468539,0.600377054444679,0.416,0,0.3432
1.39143360934285,0.619925725648232,0.416,0,0.34424
1.39101280136415,0.639830245502663,0.416,0,0.34528
1.39000112347715,0.660787766556731,0.416,0,0.34632
1.38882829269102,0.682250486292048,0.416,0,0.34736
1.385078730751,0.740159811218908,0.416,0,0.35048
1.38342759780421,0.759076056970928,0.416,0,0.35152
1.38113612401393,0.77978609393302,0.416,0,0.35256
1.37878743229369,0.798890586006545,0.416,0,0.3536
1.37673917557101,0.817587099672926,0.416,0,0.35464
1.37490673827127,0.836564066901992,0.416,0,0.35568
1.36553721266832,0.858637674971395,0.416,0,0.35672
1.35049891239593,0.881492815751744,0.416,0,0.35776
1.29485283826656,0.900575088484521,0.416,0,0.3588
1.20040012905792,0.918500638745566,0.416,0,0.35984
1.02949171506707,0.937526757370181,0.416,0,0.36088
0.748087622388966,0.959152551708676,0.416,0,0.36192
0.418722406136457,0.978277012381557,0.416,0,0.36296
