"Velocity[i] (m/s)","Normalized Radius","X (m)","Y (m)","Z (m)"
1.37881725717996,0.416531151842273,0.416,0,0.33384
1.39104418758138,0.437454419516126,0.416,0,0.33488
1.40220361711418,0.459002393829808,0.416,0,0.33592
1.42567358690718,0.703055078114597,0.416,0,0.3484
1.42501075804922,0.721466281430321,0.416,0,0.34944
0.0415256798352915,-0.976745940424564,0.416,0,0.26104
0.0737038440859174,-0.958301228919823,0.416,0,0.26208
0.109992861859994,-0.938184647183877,0.416,0,0.26312
0.147177083178894,-0.91914247775776,0.416,0,0.26416
0.18204945756861,-0.902143710637373,0.416,0,0.2652
0.222488076239455,-0.883523687894555,0.416,0,0.26624
0.276236649833283,-0.860530510033713,0.416,0,0.26728
0.331650316775538,-0.840070991938256,0.416,0,0.26832
0.390264386980799,-0.819154397592166,0.416,0,0.26936
0.447072830598172,-0.798266642301956,0.416,0,0.2704
0.49555929752087,-0.778174068477797,0.416,0,0.27144
0.523726253519302,-0.758238479055113,0.416,0,0.27248
0.543061251847851,-0.738029687169057,0.416,0,0.27352
0.558387262205109,-0.717992644541379,0.416,0,0.27456
0.566669974431575,-0.699140680102379,0.416,0,0.2756
0.571466199219533,-0.680210255468247,0.416,0,0.27664
0.576348045505226,-0.660805836667103,0.416,0,0.27768
0.579540894337321,-0.639967356460381,0.416,0,0.27872
0.583817580296645,-0.620077216287876,0.416,0,0.27976
0.589279957494251,-0.599643242431481,0.416,0,0.2808
0.596264508532172,-0.580124988264172,0.416,0,0.28184
0.601387727395437,-0.560168121531813,0.416,0,0.28288
0.604696213800809,-0.540141525257043,0.416,0,0.28392
0.609793452447583,-0.518867490645695,0.416,0,0.28496
0.614995021156241,-0.499046497668095,0.416,0,0.286
0.626433632253508,-0.479773143922389,0.416,0,0.28704
0.636636474463139,-0.459922909599847,0.416,0,0.28808
0.642157031720747,-0.439563094304127,0.416,0,0.28912
0.644866887366295,-0.419147159810493,0.416,0,0.29016
0.651614552150483,-0.39914357528988,0.416,0,0.2912
0.654782707462954,-0.37890325304086,0.416,0,0.29224
0.657671535138813,-0.35895537940366,0.416,0,0.29328
0.66123254378453,-0.339146486454692,0.416,0,0.29432
0.665671057734588,-0.319830632816478,0.416,0,0.29536
0.668957765983573,-0.300424427290962,0.416,0,0.2964
0.670689462808882,-0.280678052577577,0.416,0,0.29744
0.672071314519289,-0.260534836517711,0.416,0,0.29848
0.672834055239765,-0.241153140687109,0.416,0,0.29952
0.675024758216286,-0.222038859801038,0.416,0,0.30056
0.682853627792692,-0.200842222316715,0.416,0,0.3016
0.689892185388804,-0.179781122574965,0.416,0,0.30264
0.695858175232818,-0.159500674747491,0.416,0,0.30368
0.701858387840545,-0.140012500149846,0.416,0,0.30472
0.708514483759284,-0.119912209153413,0.416,0,0.30576
0.715160394710496,-0.0990606512673118,0.416,0,0.3068
0.721726533234647,-0.0776142544853187,0.416,0,0.30784
0.727948458608185,-0.0555722883719971,0.416,0,0.30888
0.729329074746047,-0.0368832070675653,0.416,0,0.30992
0.729688292728551,-0.0173101301631906,0.416,0,0.31096
0.728483445268415,0.00274801877118058,0.416,0,0.312
0.725099883421588,0.02380236195392,0.416,0,0.31304
0.724459458695212,0.04219092193153,0.416,0,0.31408
0.72207205060926,0.0600777812554041,0.416,0,0.31512
0.724517693555377,0.0803638073669601,0.416,0,0.31616
0.729789729467704,0.102491033588644,0.416,0,0.3172
0.745755435789708,0.12270796648297,0.416,0,0.31824
0.778702063130059,0.14206891482911,0.416,0,0.31928
0.82033661723639,0.161871528495913,0.416,0,0.32032
0.870012064172231,0.182319059817623,0.416,0,0.32136
0.929693246345156,0.203517376382217,0.416,0,0.3224
0.996760343114637,0.223865572716154,0.416,0,0.32344
1.06033930290375,0.242604128051079,0.416,0,0.32448
1.11693371762641,0.260925319974443,0.416,0,0.32552
1.17046746378342,0.279266844689429,0.416,0,0.32656
1.22191207061295,0.301764997459874,0.416,0,0.3276
1.27191224943297,0.32428769621785,0.416,0,0.32864
1.30616804287064,0.344504931326041,0.416,0,0.32968
1.32767993396281,0.362837241965492,0.416,0,0.33072
1.34729189439474,0.380043733103194,0.416,0,0.33176
1.36613581375194,0.396575602780125,0.416,0,0.3328
1.41086896232093,0.479617338086858,0.416,0,0.33696
1.41543304988979,0.499490075147505,0.416,0,0.338
1.41931068305398,0.51955002410446,0.416,0,0.33904
1.42243147232838,0.539999611256706,0.416,0,0.34008
1.4249998184733,0.560559775211498,0.416,0,0.34112
1.42714550300749,0.580921177276315,0.416,0,0.34216
1.42767198874439,0.600377054444679,0.416,0,0.3432
1.42796960919388,0.619925725648232,0.416,0,0.34424
1.4276992746829,0.639830245502663,0.416,0,0.34528
1.42706285911541,0.660787766556731,0.416,0,0.34632
1.42637214339959,0.682250486292048,0.416,0,0.34736
1.42415475343398,0.740159811218908,0.416,0,0.35048
1.42296295268461,0.759076056970928,0.416,0,0.35152
1.42142082250407,0.77978609393302,0.416,0,0.35256
1.41945578199606,0.798890586006545,0.416,0,0.3536
1.41760447216621,0.817587099672926,0.416,0,0.35464
1.41595464372076,0.836564066901992,0.416,0,0.35568
1.40461295934158,0.858637674971395,0.416,0,0.35672
1.38506253993047,0.881492815751744,0.416,0,0.35776
1.32347209129965,0.900575088484521,0.416,0,0.3588
1.22116117245579,0.918500638745566,0.416,0,0.35984
1.03983874428391,0.937526757370181,0.416,0,0.36088
0.754963782158101,0.959152551708676,0.416,0,0.36192
0.430509866281517,0.978277012381557,0.416,0,0.36296
