"Velocity[i] (m/s)","Normalized Radius","X (m)","Y (m)","Z (m)"
1.41379744451336,0.416531151842273,0.416,0,0.33384
1.41792902549521,0.437454419516126,0.416,0,0.33488
1.42162974542523,0.459002393829808,0.416,0,0.33592
1.40992978535864,0.703055078114597,0.416,0,0.3484
1.40955111795982,0.721466281430321,0.416,0,0.34944
0.0656793298175066,-0.976745940424564,0.416,0,0.26104
0.099584534547783,-0.958301228919823,0.416,0,0.26208
0.132844274226551,-0.938184647183877,0.416,0,0.26312
0.164815446905877,-0.91914247775776,0.416,0,0.26416
0.194736280195739,-0.902143710637373,0.416,0,0.2652
0.228866439177509,-0.883523687894555,0.416,0,0.26624
0.274374565006887,-0.860530510033713,0.416,0,0.26728
0.322976228119714,-0.840070991938256,0.416,0,0.26832
0.377139138190011,-0.819154397592166,0.416,0,0.26936
0.432753682498088,-0.798266642301956,0.416,0,0.2704
0.484586401432113,-0.778174068477797,0.416,0,0.27144
0.524113364147416,-0.758238479055113,0.416,0,0.27248
0.557425404781361,-0.738029687169057,0.416,0,0.27352
0.586846756284462,-0.717992644541379,0.416,0,0.27456
0.605678376704658,-0.699140680102379,0.416,0,0.2756
0.618571974361361,-0.680210255468247,0.416,0,0.27664
0.629433125657967,-0.660805836667103,0.416,0,0.27768
0.634478413825813,-0.639967356460381,0.416,0,0.27872
0.639789570996383,-0.620077216287876,0.416,0,0.27976
0.645743608867303,-0.599643242431481,0.416,0,0.2808
0.650548414307573,-0.580124988264172,0.416,0,0.28184
0.6560345575516,-0.560168121531813,0.416,0,0.28288
0.660429981254331,-0.540141525257043,0.416,0,0.28392
0.666988836063721,-0.518867490645695,0.416,0,0.28496
0.673774126720581,-0.499046497668095,0.416,0,0.286
0.6863461610195,-0.479773143922389,0.416,0,0.28704
0.698307774017292,-0.459922909599847,0.416,0,0.28808
0.70751082383173,-0.439563094304127,0.416,0,0.28912
0.715202881341041,-0.419147159810493,0.416,0,0.29016
0.723038094841695,-0.39914357528988,0.416,0,0.2912
0.726930221997266,-0.37890325304086,0.416,0,0.29224
0.731010562534673,-0.35895537940366,0.416,0,0.29328
0.734252984602344,-0.339146486454692,0.416,0,0.29432
0.736272773385019,-0.319830632816478,0.416,0,0.29536
0.738383046573888,-0.300424427290962,0.416,0,0.2964
0.739782070572331,-0.280678052577577,0.416,0,0.29744
0.740723393791813,-0.260534836517711,0.416,0,0.29848
0.740904017758486,-0.241153140687109,0.416,0,0.29952
0.739957089856022,-0.222038859801038,0.416,0,0.30056
0.735121617951677,-0.200842222316715,0.416,0,0.3016
0.729328321621933,-0.179781122574965,0.416,0,0.30264
0.723498498583279,-0.159500674747491,0.416,0,0.30368
0.715358118525885,-0.140012500149846,0.416,0,0.30472
0.705134884397605,-0.119912209153413,0.416,0,0.30576
0.694540008979457,-0.0990606512673118,0.416,0,0.3068
0.684078298913431,-0.0776142544853187,0.416,0,0.30784
0.674704672435484,-0.0555722883719971,0.416,0,0.30888
0.675444033277861,-0.0368832070675653,0.416,0,0.30992
0.678111510342238,-0.0173101301631906,0.416,0,0.31096
0.684461264961661,0.00274801877118058,0.416,0,0.312
0.695594002915149,0.02380236195392,0.416,0,0.31304
0.718637592310919,0.04219092193153,0.416,0,0.31408
0.751138302441493,0.0600777812554041,0.416,0,0.31512
0.802306333301592,0.0803638073669601,0.416,0,0.31616
0.865658543318421,0.102491033588644,0.416,0,0.3172
0.926259176474436,0.12270796648297,0.416,0,0.31824
0.981377273062462,0.14206891482911,0.416,0,0.31928
1.03613081688335,0.161871528495913,0.416,0,0.32032
1.0921317109181,0.182319059817623,0.416,0,0.32136
1.14965862194246,0.203517376382217,0.416,0,0.3224
1.20154720226997,0.223865572716154,0.416,0,0.32344
1.24623387392585,0.242604128051079,0.416,0,0.32448
1.28238771825854,0.260925319974443,0.416,0,0.32552
1.315707853761,0.279266844689429,0.416,0,0.32656
1.34484832822165,0.301764997459874,0.416,0,0.3276
1.37076388658898,0.32428769621785,0.416,0,0.32864
1.38674046316545,0.344504931326041,0.416,0,0.32968
1.39567629241506,0.362837241965492,0.416,0,0.33072
1.40303925204656,0.380043733103194,0.416,0,0.33176
1.40925019840249,0.396575602780125,0.416,0,0.3328
1.42462676543365,0.479617338086858,0.416,0,0.33696
1.42551367556036,0.499490075147505,0.416,0,0.338
1.42561470198529,0.51955002410446,0.416,0,0.33904
1.42482329346381,0.539999611256706,0.416,0,0.34008
1.42336708066165,0.560559775211498,0.416,0,0.34112
1.42150682312503,0.580921177276315,0.416,0,0.34216
1.41927384112614,0.600377054444679,0.416,0,0.3432
1.41694241675219,0.619925725648232,0.416,0,0.34424
1.41466766281217,0.639830245502663,0.416,0,0.34528
1.41279189480311,0.660787766556731,0.416,0,0.34632
1.41123631910168,0.682250486292048,0.416,0,0.34736
1.40972758820828,0.740159811218908,0.416,0,0.35048
1.40963706356711,0.759076056970928,0.416,0,0.35152
1.40906185147391,0.77978609393302,0.416,0,0.35256
1.40784306587343,0.798890586006545,0.416,0,0.3536
1.4062962676438,0.817587099672926,0.416,0,0.35464
1.40465622238674,0.836564066901992,0.416,0,0.35568
1.39392656908271,0.858637674971395,0.416,0,0.35672
1.3766906361156,0.881492815751744,0.416,0,0.35776
1.31896163919469,0.900575088484521,0.416,0,0.3588
1.2238509685154,0.918500638745566,0.416,0,0.35984
1.05301872134005,0.937526757370181,0.416,0,0.36088
0.775651643551366,0.959152551708676,0.416,0,0.36192
0.448156916997422,0.978277012381557,0.416,0,0.36296
