"Velocity[i] (m/s)","Normalized Radius","X (m)","Y (m)","Z (m)"
1.39024226203585,0.416531151842273,0.416,0,0.33384
1.39380381486271,0.437454419516126,0.416,0,0.33488
1.39701945199098,0.459002393829808,0.416,0,0.33592
1.41160947153095,0.703055078114597,0.416,0,0.3484
1.4117051846482,0.721466281430321,0.416,0,0.34944
0.0351592433551608,-0.976745940424564,0.416,0,0.26104
0.0643528161646385,-0.958301228919823,0.416,0,0.26208
0.0975639687455741,-0.938184647183877,0.416,0,0.26312
0.131278909454777,-0.91914247775776,0.416,0,0.26416
0.163201437845762,-0.902143710637373,0.416,0,0.2652
0.20063106950368,-0.883523687894555,0.416,0,0.26624
0.249832089498343,-0.860530510033713,0.416,0,0.26728
0.298802470948496,-0.840070991938256,0.416,0,0.26832
0.351292485202762,-0.819154397592166,0.416,0,0.26936
0.401682902893517,-0.798266642301956,0.416,0,0.2704
0.445085446484426,-0.778174068477797,0.416,0,0.27144
0.473619868971975,-0.758238479055113,0.416,0,0.27248
0.494870493899054,-0.738029687169057,0.416,0,0.27352
0.511908530939879,-0.717992644541379,0.416,0,0.27456
0.522009914537293,-0.699140680102379,0.416,0,0.2756
0.528746752419392,-0.680210255468247,0.416,0,0.27664
0.535042214570908,-0.660805836667103,0.416,0,0.27768
0.538960943698774,-0.639967356460381,0.416,0,0.27872
0.542988908051949,-0.620077216287876,0.416,0,0.27976
0.548516811075289,-0.599643242431481,0.416,0,0.2808
0.556670193822043,-0.580124988264172,0.416,0,0.28184
0.563784401177722,-0.560168121531813,0.416,0,0.28288
0.570556067593992,-0.540141525257043,0.416,0,0.28392
0.579097006116833,-0.518867490645695,0.416,0,0.28496
0.58777758900309,-0.499046497668095,0.416,0,0.286
0.601404178326752,-0.479773143922389,0.416,0,0.28704
0.614479798202697,-0.459922909599847,0.416,0,0.28808
0.624909482918424,-0.439563094304127,0.416,0,0.28912
0.633464125113837,-0.419147159810493,0.416,0,0.29016
0.646359669176298,-0.39914357528988,0.416,0,0.2912
0.656144633160855,-0.37890325304086,0.416,0,0.29224
0.665596349657397,-0.35895537940366,0.416,0,0.29328
0.675010582056012,-0.339146486454692,0.416,0,0.29432
0.684136299150746,-0.319830632816478,0.416,0,0.29536
0.692486786215726,-0.300424427290962,0.416,0,0.2964
0.698828977459224,-0.280678052577577,0.416,0,0.29744
0.703435694520488,-0.260534836517711,0.416,0,0.29848
0.703676352272469,-0.241153140687109,0.416,0,0.29952
0.70386220580487,-0.222038859801038,0.416,0,0.30056
0.7048788171661,-0.200842222316715,0.416,0,0.3016
0.704927878111909,-0.179781122574965,0.416,0,0.30264
0.703784919471148,-0.159500674747491,0.416,0,0.30368
0.70420002227743,-0.140012500149846,0.416,0,0.30472
0.706554747172997,-0.119912209153413,0.416,0,0.30576
0.708890936452945,-0.0990606512673118,0.416,0,0.3068
0.711581702347028,-0.0776142544853187,0.416,0,0.30784
0.715460100105813,-0.0555722883719971,0.416,0,0.30888
0.720224356651409,-0.0368832070675653,0.416,0,0.30992
0.72565395655312,-0.0173101301631906,0.416,0,0.31096
0.7313555177858,0.00274801877118058,0.416,0,0.312
0.737772864673665,0.02380236195392,0.416,0,0.31304
0.742858869573859,0.04219092193153,0.416,0,0.31408
0.74821528522946,0.0600777812554041,0.416,0,0.31512
0.75638180318313,0.0803638073669601,0.416,0,0.31616
0.765202859290425,0.102491033588644,0.416,0,0.3172
0.781472677479937,0.12270796648297,0.416,0,0.31824
0.807965267402896,0.14206891482911,0.416,0,0.31928
0.84021647032918,0.161871528495913,0.416,0,0.32032
0.879545634882971,0.182319059817623,0.416,0,0.32136
0.926062510146353,0.203517376382217,0.416,0,0.3224
0.985052987608856,0.223865572716154,0.416,0,0.32344
1.05768563794001,0.242604128051079,0.416,0,0.32448
1.12298823937997,0.260925319974443,0.416,0,0.32552
1.18672983911602,0.279266844689429,0.416,0,0.32656
1.24842380816918,0.301764997459874,0.416,0,0.3276
1.30962747378472,0.32428769621785,0.416,0,0.32864
1.35415920839481,0.344504931326041,0.416,0,0.32968
1.36596247886419,0.362837241965492,0.416,0,0.33072
1.3767118608145,0.380043733103194,0.416,0,0.33176
1.38631961105157,0.396575602780125,0.416,0,0.3328
1.3998468873683,0.479617338086858,0.416,0,0.33696
1.40214702041154,0.499490075147505,0.416,0,0.338
1.40426300893457,0.51955002410446,0.416,0,0.33904
1.40615883457978,0.539999611256706,0.416,0,0.34008
1.40789249920749,0.560559775211498,0.416,0,0.34112
1.40947457192038,0.580921177276315,0.416,0,0.34216
1.41054638969273,0.600377054444679,0.416,0,0.3432
1.41138816295918,0.619925725648232,0.416,0,0.34424
1.41160265477586,0.639830245502663,0.416,0,0.34528
1.4115536527034,0.660787766556731,0.416,0,0.34632
1.41153968835978,0.682250486292048,0.416,0,0.34736
1.41156742503161,0.740159811218908,0.416,0,0.35048
1.41111315622664,0.759076056970928,0.416,0,0.35152
1.41031027357261,0.77978609393302,0.416,0,0.35256
1.40890860754255,0.798890586006545,0.416,0,0.3536
1.40740182869418,0.817587099672926,0.416,0,0.35464
1.40589365480582,0.836564066901992,0.416,0,0.35568
1.39417347388543,0.858637674971395,0.416,0,0.35672
1.37451701239871,0.881492815751744,0.416,0,0.35776
1.31123494177354,0.900575088484521,0.416,0,0.3588
1.20806845952303,0.918500638745566,0.416,0,0.35984
1.02951500378964,0.937526757370181,0.416,0,0.36088
0.747024293945151,0.959152551708676,0.416,0,0.36192
0.424320880761916,0.978277012381557,0.416,0,0.36296
