"Velocity[i] (m/s)","Normalized Radius","X (m)","Y (m)","Z (m)"
1.4198443768296,0.416531151842273,0.416,0,0.33384
1.42289599160791,0.437454419516126,0.416,0,0.33488
1.42538435182723,0.459002393829808,0.416,0,0.33592
1.40579372761497,0.703055078114597,0.416,0,0.3484
1.40591008832513,0.721466281430321,0.416,0,0.34944
0.0478252137281043,-0.976745940424564,0.416,0,0.26104
0.0785612587195662,-0.958301228919823,0.416,0,0.26208
0.111041827971105,-0.938184647183877,0.416,0,0.26312
0.143509220707594,-0.91914247775776,0.416,0,0.26416
0.174146340000398,-0.902143710637373,0.416,0,0.2652
0.209909993841714,-0.883523687894555,0.416,0,0.26624
0.257982218916499,-0.860530510033713,0.416,0,0.26728
0.309037019432124,-0.840070991938256,0.416,0,0.26832
0.366547889316193,-0.819154397592166,0.416,0,0.26936
0.424024482007454,-0.798266642301956,0.416,0,0.2704
0.476254686020023,-0.778174068477797,0.416,0,0.27144
0.513779080348865,-0.758238479055113,0.416,0,0.27248
0.543957958536059,-0.738029687169057,0.416,0,0.27352
0.569684825400743,-0.717992644541379,0.416,0,0.27456
0.584849632515631,-0.699140680102379,0.416,0,0.2756
0.594197265197971,-0.680210255468247,0.416,0,0.27664
0.603317664781647,-0.660805836667103,0.416,0,0.27768
0.608377791500319,-0.639967356460381,0.416,0,0.27872
0.613823527039393,-0.620077216287876,0.416,0,0.27976
0.621385967807989,-0.599643242431481,0.416,0,0.2808
0.630027343567248,-0.580124988264172,0.416,0,0.28184
0.63684399166075,-0.560168121531813,0.416,0,0.28288
0.642580879747244,-0.540141525257043,0.416,0,0.28392
0.650279523887236,-0.518867490645695,0.416,0,0.28496
0.65764369583394,-0.499046497668095,0.416,0,0.286
0.668561792460355,-0.479773143922389,0.416,0,0.28704
0.678835302483235,-0.459922909599847,0.416,0,0.28808
0.68712432231309,-0.439563094304127,0.416,0,0.28912
0.694333243888182,-0.419147159810493,0.416,0,0.29016
0.701242607867177,-0.39914357528988,0.416,0,0.2912
0.703049883778488,-0.37890325304086,0.416,0,0.29224
0.705123333939347,-0.35895537940366,0.416,0,0.29328
0.707122032287209,-0.339146486454692,0.416,0,0.29432
0.708423501669409,-0.319830632816478,0.416,0,0.29536
0.709804770006169,-0.300424427290962,0.416,0,0.2964
0.711268503813372,-0.280678052577577,0.416,0,0.29744
0.712796259318135,-0.260534836517711,0.416,0,0.29848
0.71444529222171,-0.241153140687109,0.416,0,0.29952
0.715589173330731,-0.222038859801038,0.416,0,0.30056
0.715069426948818,-0.200842222316715,0.416,0,0.3016
0.714507842498644,-0.179781122574965,0.416,0,0.30264
0.714216547681519,-0.159500674747491,0.416,0,0.30368
0.710445405104076,-0.140012500149846,0.416,0,0.30472
0.702628825637142,-0.119912209153413,0.416,0,0.30576
0.69455307617295,-0.0990606512673118,0.416,0,0.3068
0.686768322598094,-0.0776142544853187,0.416,0,0.30784
0.679667576501754,-0.0555722883719971,0.416,0,0.30888
0.668987736519416,-0.0368832070675653,0.416,0,0.30992
0.661093408562539,-0.0173101301631906,0.416,0,0.31096
0.654806806874232,0.00274801877118058,0.416,0,0.312
0.649578261761006,0.02380236195392,0.416,0,0.31304
0.650834004754357,0.04219092193153,0.416,0,0.31408
0.657456329009008,0.0600777812554041,0.416,0,0.31512
0.681626707331714,0.0803638073669601,0.416,0,0.31616
0.716990763204235,0.102491033588644,0.416,0,0.3172
0.754530053490795,0.12270796648297,0.416,0,0.31824
0.809472543367422,0.14206891482911,0.416,0,0.31928
0.870845919592926,0.161871528495913,0.416,0,0.32032
0.93866837991818,0.182319059817623,0.416,0,0.32136
1.01429160727983,0.203517376382217,0.416,0,0.3224
1.09052218832685,0.223865572716154,0.416,0,0.32344
1.15808828562167,0.242604128051079,0.416,0,0.32448
1.21334716980106,0.260925319974443,0.416,0,0.32552
1.26444972024553,0.279266844689429,0.416,0,0.32656
1.31057835220272,0.301764997459874,0.416,0,0.3276
1.3556835939674,0.32428769621785,0.416,0,0.32864
1.38555681776378,0.344504931326041,0.416,0,0.32968
1.39813575646472,0.362837241965492,0.416,0,0.33072
1.40816284236006,0.380043733103194,0.416,0,0.33176
1.41611829763161,0.396575602780125,0.416,0,0.3328
1.42682499884179,0.479617338086858,0.416,0,0.33696
1.42572065858399,0.499490075147505,0.416,0,0.338
1.42402937130337,0.51955002410446,0.416,0,0.33904
1.42158621200877,0.539999611256706,0.416,0,0.34008
1.41867678186526,0.560559775211498,0.416,0,0.34112
1.41555252511217,0.580921177276315,0.416,0,0.34216
1.41266984031996,0.600377054444679,0.416,0,0.3432
1.4098785300677,0.619925725648232,0.416,0,0.34424
1.40780800732583,0.639830245502663,0.416,0,0.34528
1.40670235678034,0.660787766556731,0.416,0,0.34632
1.40616539579705,0.682250486292048,0.416,0,0.34736
1.40604106419698,0.740159811218908,0.416,0,0.35048
1.40581692264794,0.759076056970928,0.416,0,0.35152
1.40541250630453,0.77978609393302,0.416,0,0.35256
1.40443323418758,0.798890586006545,0.416,0,0.3536
1.40304132778786,0.817587099672926,0.416,0,0.35464
1.40139313729013,0.836564066901992,0.416,0,0.35568
1.38947871964307,0.858637674971395,0.416,0,0.35672
1.36997807348004,0.881492815751744,0.416,0,0.35776
1.30850271549224,0.900575088484521,0.416,0,0.3588
1.20926656192514,0.918500638745566,0.416,0,0.35984
1.03508336594403,0.937526757370181,0.416,0,0.36088
0.755504926427863,0.959152551708676,0.416,0,0.36192
0.432813358082651,0.978277012381557,0.416,0,0.36296
