"Velocity[i] (m/s)","Normalized Radius","X (m)","Y (m)","Z (m)"
1.38616610517733,0.416531151842273,0.416,0,0.33384
1.3943124209767,0.437454419516126,0.416,0,0.33488
1.40131211268124,0.459002393829808,0.416,0,0.33592
1.40413951827622,0.703055078114597,0.416,0,0.3484
1.40297160058432,0.721466281430321,0.416,0,0.34944
0.0392021788678878,-0.976745940424564,0.416,0,0.26104
0.0726708525168136,-0.958301228919823,0.416,0,0.26208
0.110765539071196,-0.938184647183877,0.416,0,0.26312
0.148535904948132,-0.91914247775776,0.416,0,0.26416
0.183680430054927,-0.902143710637373,0.416,0,0.2652
0.221474212488513,-0.883523687894555,0.416,0,0.26624
0.267579295076819,-0.860530510033713,0.416,0,0.26728
0.313612901097305,-0.840070991938256,0.416,0,0.26832
0.359722646596795,-0.819154397592166,0.416,0,0.26936
0.4035468979271,-0.798266642301956,0.416,0,0.2704
0.441355997208926,-0.778174068477797,0.416,0,0.27144
0.466647286629051,-0.758238479055113,0.416,0,0.27248
0.486342317616809,-0.738029687169057,0.416,0,0.27352
0.503845760692777,-0.717992644541379,0.416,0,0.27456
0.516317521299377,-0.699140680102379,0.416,0,0.2756
0.526249388994109,-0.680210255468247,0.416,0,0.27664
0.536326088752398,-0.660805836667103,0.416,0,0.27768
0.540230874607761,-0.639967356460381,0.416,0,0.27872
0.544722190201913,-0.620077216287876,0.416,0,0.27976
0.548857351019566,-0.599643242431481,0.416,0,0.2808
0.551438798178023,-0.580124988264172,0.416,0,0.28184
0.556639520179818,-0.560168121531813,0.416,0,0.28288
0.564874860106704,-0.540141525257043,0.416,0,0.28392
0.574649116281558,-0.518867490645695,0.416,0,0.28496
0.585158988238393,-0.499046497668095,0.416,0,0.286
0.600979700239278,-0.479773143922389,0.416,0,0.28704
0.618007958169327,-0.459922909599847,0.416,0,0.28808
0.634674136426826,-0.439563094304127,0.416,0,0.28912
0.650639011014797,-0.419147159810493,0.416,0,0.29016
0.666566608035393,-0.39914357528988,0.416,0,0.2912
0.67776826938221,-0.37890325304086,0.416,0,0.29224
0.688838223020637,-0.35895537940366,0.416,0,0.29328
0.698131234176299,-0.339146486454692,0.416,0,0.29432
0.705228932314471,-0.319830632816478,0.416,0,0.29536
0.711944482733668,-0.300424427290962,0.416,0,0.2964
0.717836408098319,-0.280678052577577,0.416,0,0.29744
0.722250565618168,-0.260534836517711,0.416,0,0.29848
0.721635884742059,-0.241153140687109,0.416,0,0.29952
0.720171780325749,-0.222038859801038,0.416,0,0.30056
0.71697337063827,-0.200842222316715,0.416,0,0.3016
0.713464066019834,-0.179781122574965,0.416,0,0.30264
0.710342777051703,-0.159500674747491,0.416,0,0.30368
0.704942361974228,-0.140012500149846,0.416,0,0.30472
0.696860083502172,-0.119912209153413,0.416,0,0.30576
0.688842612321015,-0.0990606512673118,0.416,0,0.3068
0.680569976914461,-0.0776142544853187,0.416,0,0.30784
0.672759472505808,-0.0555722883719971,0.416,0,0.30888
0.669051230786561,-0.0368832070675653,0.416,0,0.30992
0.666299840817063,-0.0173101301631906,0.416,0,0.31096
0.664233857538315,0.00274801877118058,0.416,0,0.312
0.6624408880269,0.02380236195392,0.416,0,0.31304
0.667666231620558,0.04219092193153,0.416,0,0.31408
0.676161942001623,0.0600777812554041,0.416,0,0.31512
0.690861533428478,0.0803638073669601,0.416,0,0.31616
0.708983610654397,0.102491033588644,0.416,0,0.3172
0.732840669395075,0.12270796648297,0.416,0,0.31824
0.764424035076311,0.14206891482911,0.416,0,0.31928
0.801752737788939,0.161871528495913,0.416,0,0.32032
0.845699119168339,0.182319059817623,0.416,0,0.32136
0.897168632718667,0.203517376382217,0.416,0,0.3224
0.957602376815317,0.223865572716154,0.416,0,0.32344
1.02570218798235,0.242604128051079,0.416,0,0.32448
1.09093376555882,0.260925319974443,0.416,0,0.32552
1.15615579407124,0.279266844689429,0.416,0,0.32656
1.22014789985275,0.301764997459874,0.416,0,0.3276
1.28316283857334,0.32428769621785,0.416,0,0.32864
1.32662942451896,0.344504931326041,0.416,0,0.32968
1.34537199165732,0.362837241965492,0.416,0,0.33072
1.36194979994691,0.380043733103194,0.416,0,0.33176
1.37777387182496,0.396575602780125,0.416,0,0.3328
1.40641692562231,0.479617338086858,0.416,0,0.33696
1.40869085854958,0.499490075147505,0.416,0,0.338
1.41038323733424,0.51955002410446,0.416,0,0.33904
1.41136547476895,0.539999611256706,0.416,0,0.34008
1.41183062079325,0.560559775211498,0.416,0,0.34112
1.41203596628112,0.580921177276315,0.416,0,0.34216
1.41152811944538,0.600377054444679,0.416,0,0.3432
1.41070359573785,0.619925725648232,0.416,0,0.34424
1.40924352234203,0.639830245502663,0.416,0,0.34528
1.40745567266999,0.660787766556731,0.416,0,0.34632
1.40580206447708,0.682250486292048,0.416,0,0.34736
1.40207301922355,0.740159811218908,0.416,0,0.35048
1.40130300059422,0.759076056970928,0.416,0,0.35152
1.40026351035199,0.77978609393302,0.416,0,0.35256
1.39887888163211,0.798890586006545,0.416,0,0.3536
1.3975075901284,0.817587099672926,0.416,0,0.35464
1.39618383279952,0.836564066901992,0.416,0,0.35568
1.38560178119339,0.858637674971395,0.416,0,0.35672
1.3667669479092,0.881492815751744,0.416,0,0.35776
1.3048647359583,0.900575088484521,0.416,0,0.3588
1.2004190402568,0.918500638745566,0.416,0,0.35984
1.01665108862122,0.937526757370181,0.416,0,0.36088
0.73461337249969,0.959152551708676,0.416,0,0.36192
0.416516956495354,0.978277012381557,0.416,0,0.36296
