"Velocity[i] (m/s)","Normalized Radius","X (m)","Y (m)","Z (m)"
1.38516748610469,0.416531151842273,0.416,0,0.33384
1.38953521440374,0.437454419516126,0.416,0,0.33488
1.39381482966416,0.459002393829808,0.416,0,0.33592
1.41693911467106,0.703055078114597,0.416,0,0.3484
1.41690397085669,0.721466281430321,0.416,0,0.34944
0.0345485158084935,-0.976745940424564,0.416,0,0.26104
0.0647667996201306,-0.958301228919823,0.416,0,0.26208
0.100282070677966,-0.938184647183877,0.416,0,0.26312
0.137829179200259,-0.91914247775776,0.416,0,0.26416
0.173836599908348,-0.902143710637373,0.416,0,0.2652
0.214241212676735,-0.883523687894555,0.416,0,0.26624
0.264963947529709,-0.860530510033713,0.416,0,0.26728
0.317216625623137,-0.840070991938256,0.416,0,0.26832
0.373153421506825,-0.819154397592166,0.416,0,0.26936
0.428308632719894,-0.798266642301956,0.416,0,0.2704
0.477273479810288,-0.778174068477797,0.416,0,0.27144
0.509386666116131,-0.758238479055113,0.416,0,0.27248
0.533099973455197,-0.738029687169057,0.416,0,0.27352
0.552819477166093,-0.717992644541379,0.416,0,0.27456
0.563440624955161,-0.699140680102379,0.416,0,0.2756
0.569633309193497,-0.680210255468247,0.416,0,0.27664
0.575378933376873,-0.660805836667103,0.416,0,0.27768
0.576902766550451,-0.639967356460381,0.416,0,0.27872
0.579330134644632,-0.620077216287876,0.416,0,0.27976
0.583121737519818,-0.599643242431481,0.416,0,0.2808
0.585522134717206,-0.580124988264172,0.416,0,0.28184
0.589970605291653,-0.560168121531813,0.416,0,0.28288
0.595287827091266,-0.540141525257043,0.416,0,0.28392
0.601979047141297,-0.518867490645695,0.416,0,0.28496
0.608932228706639,-0.499046497668095,0.416,0,0.286
0.619800844962509,-0.479773143922389,0.416,0,0.28704
0.632731609847652,-0.459922909599847,0.416,0,0.28808
0.645606686657639,-0.439563094304127,0.416,0,0.28912
0.658082008099967,-0.419147159810493,0.416,0,0.29016
0.669247986817408,-0.39914357528988,0.416,0,0.2912
0.675953121158615,-0.37890325304086,0.416,0,0.29224
0.682667797242907,-0.35895537940366,0.416,0,0.29328
0.688395111311549,-0.339146486454692,0.416,0,0.29432
0.692772502731787,-0.319830632816478,0.416,0,0.29536
0.69687534078098,-0.300424427290962,0.416,0,0.2964
0.700854562268959,-0.280678052577577,0.416,0,0.29744
0.704437416268188,-0.260534836517711,0.416,0,0.29848
0.705573247873324,-0.241153140687109,0.416,0,0.29952
0.706653171166243,-0.222038859801038,0.416,0,0.30056
0.707719947360359,-0.200842222316715,0.416,0,0.3016
0.708738803304006,-0.179781122574965,0.416,0,0.30264
0.709833373268018,-0.159500674747491,0.416,0,0.30368
0.709862882366206,-0.140012500149846,0.416,0,0.30472
0.709113711205486,-0.119912209153413,0.416,0,0.30576
0.708747089270221,-0.0990606512673118,0.416,0,0.3068
0.708790773829339,-0.0776142544853187,0.416,0,0.30784
0.709161821677592,-0.0555722883719971,0.416,0,0.30888
0.70769811463999,-0.0368832070675653,0.416,0,0.30992
0.706731117157447,-0.0173101301631906,0.416,0,0.31096
0.705929115690979,0.00274801877118058,0.416,0,0.312
0.705614593716837,0.02380236195392,0.416,0,0.31304
0.706811450669469,0.04219092193153,0.416,0,0.31408
0.711136398974403,0.0600777812554041,0.416,0,0.31512
0.722670717236972,0.0803638073669601,0.416,0,0.31616
0.736763066789547,0.102491033588644,0.416,0,0.3172
0.76057284178909,0.12270796648297,0.416,0,0.31824
0.799026848731894,0.14206891482911,0.416,0,0.31928
0.843599867607477,0.161871528495913,0.416,0,0.32032
0.895142380246858,0.182319059817623,0.416,0,0.32136
0.953380360575356,0.203517376382217,0.416,0,0.3224
1.02039887881887,0.223865572716154,0.416,0,0.32344
1.093404228905,0.242604128051079,0.416,0,0.32448
1.15391049691322,0.260925319974443,0.416,0,0.32552
1.21072828754031,0.279266844689429,0.416,0,0.32656
1.26391513783681,0.301764997459874,0.416,0,0.3276
1.31385399794904,0.32428769621785,0.416,0,0.32864
1.34989557480545,0.344504931326041,0.416,0,0.32968
1.36174124092292,0.362837241965492,0.416,0,0.33072
1.37168616282171,0.380043733103194,0.416,0,0.33176
1.38003704594144,0.396575602780125,0.416,0,0.3328
1.39781308669199,0.479617338086858,0.416,0,0.33696
1.4014207586128,0.499490075147505,0.416,0,0.338
1.40475472845572,0.51955002410446,0.416,0,0.33904
1.40773078314431,0.539999611256706,0.416,0,0.34008
1.41039158226504,0.560559775211498,0.416,0,0.34112
1.41276567526762,0.580921177276315,0.416,0,0.34216
1.41428875939207,0.600377054444679,0.416,0,0.3432
1.41560208927479,0.619925725648232,0.416,0,0.34424
1.41629457662488,0.639830245502663,0.416,0,0.34528
1.41654288614757,0.660787766556731,0.416,0,0.34632
1.41673249813245,0.682250486292048,0.416,0,0.34736
1.41635511971616,0.740159811218908,0.416,0,0.35048
1.41539850023171,0.759076056970928,0.416,0,0.35152
1.4142815484605,0.77978609393302,0.416,0,0.35256
1.41251772198539,0.798890586006545,0.416,0,0.3536
1.41071615064724,0.817587099672926,0.416,0,0.35464
1.40902476583894,0.836564066901992,0.416,0,0.35568
1.39672380012049,0.858637674971395,0.416,0,0.35672
1.37656376106023,0.881492815751744,0.416,0,0.35776
1.31443520934757,0.900575088484521,0.416,0,0.3588
1.21545827107806,0.918500638745566,0.416,0,0.35984
1.04253729524497,0.937526757370181,0.416,0,0.36088
0.760440513023469,0.959152551708676,0.416,0,0.36192
0.432426161443574,0.978277012381557,0.416,0,0.36296
