"Velocity[i] (m/s)","Normalized Radius","X (m)","Y (m)","Z (m)"
1.40537619444766,0.416531151842273,0.416,0,0.33384
1.40939758531367,0.437454419516126,0.416,0,0.33488
1.41266758274986,0.459002393829808,0.416,0,0.33592
1.4107730109869,0.703055078114597,0.416,0,0.3484
1.40913329773425,0.721466281430321,0.416,0,0.34944
0.0461173556982526,-0.976745940424564,0.416,0,0.26104
0.0776165419960551,-0.958301228919823,0.416,0,0.26208
0.113410170943484,-0.938184647183877,0.416,0,0.26312
0.150193618739127,-0.91914247775776,0.416,0,0.26416
0.185403643657021,-0.902143710637373,0.416,0,0.2652
0.225940693140139,-0.883523687894555,0.416,0,0.26624
0.278890883584727,-0.860530510033713,0.416,0,0.26728
0.334604877219131,-0.840070991938256,0.416,0,0.26832
0.394092177732454,-0.819154397592166,0.416,0,0.26936
0.451686865344041,-0.798266642301956,0.416,0,0.2704
0.50349137717156,-0.778174068477797,0.416,0,0.27144
0.535458267720848,-0.758238479055113,0.416,0,0.27248
0.559009584618264,-0.738029687169057,0.416,0,0.27352
0.578315892356625,-0.717992644541379,0.416,0,0.27456
0.588231811019815,-0.699140680102379,0.416,0,0.2756
0.593576573115965,-0.680210255468247,0.416,0,0.27664
0.598075703760249,-0.660805836667103,0.416,0,0.27768
0.598845631291656,-0.639967356460381,0.416,0,0.27872
0.600108187974811,-0.620077216287876,0.416,0,0.27976
0.601806478181744,-0.599643242431481,0.416,0,0.2808
0.603128162574221,-0.580124988264172,0.416,0,0.28184
0.60610582375642,-0.560168121531813,0.416,0,0.28288
0.610205392412999,-0.540141525257043,0.416,0,0.28392
0.616246848346053,-0.518867490645695,0.416,0,0.28496
0.623035876358125,-0.499046497668095,0.416,0,0.286
0.634915564442209,-0.479773143922389,0.416,0,0.28704
0.648718414032175,-0.459922909599847,0.416,0,0.28808
0.662369590697375,-0.439563094304127,0.416,0,0.28912
0.675841436482407,-0.419147159810493,0.416,0,0.29016
0.689905133105554,-0.39914357528988,0.416,0,0.2912
0.699288775495271,-0.37890325304086,0.416,0,0.29224
0.708699568190296,-0.35895537940366,0.416,0,0.29328
0.717261960046156,-0.339146486454692,0.416,0,0.29432
0.724208628676143,-0.319830632816478,0.416,0,0.29536
0.730694502744929,-0.300424427290962,0.416,0,0.2964
0.736694274756292,-0.280678052577577,0.416,0,0.29744
0.741940600238043,-0.260534836517711,0.416,0,0.29848
0.744142923845901,-0.241153140687109,0.416,0,0.29952
0.746230974763687,-0.222038859801038,0.416,0,0.30056
0.748363232739115,-0.200842222316715,0.416,0,0.3016
0.750003306847721,-0.179781122574965,0.416,0,0.30264
0.751272663215953,-0.159500674747491,0.416,0,0.30368
0.752616032047693,-0.140012500149846,0.416,0,0.30472
0.754422650692273,-0.119912209153413,0.416,0,0.30576
0.756520645037871,-0.0990606512673118,0.416,0,0.3068
0.759031293219621,-0.0776142544853187,0.416,0,0.30784
0.762301792433192,-0.0555722883719971,0.416,0,0.30888
0.766142680547841,-0.0368832070675653,0.416,0,0.30992
0.770662595072579,-0.0173101301631906,0.416,0,0.31096
0.775409705187517,0.00274801877118058,0.416,0,0.312
0.780848083721712,0.02380236195392,0.416,0,0.31304
0.785770370545311,0.04219092193153,0.416,0,0.31408
0.791307642458757,0.0600777812554041,0.416,0,0.31512
0.798427536420403,0.0803638073669601,0.416,0,0.31616
0.8051559058032,0.102491033588644,0.416,0,0.3172
0.818377959619711,0.12270796648297,0.416,0,0.31824
0.838692536151633,0.14206891482911,0.416,0,0.31928
0.862825893839232,0.161871528495913,0.416,0,0.32032
0.89158584169706,0.182319059817623,0.416,0,0.32136
0.924703068190325,0.203517376382217,0.416,0,0.3224
0.97172318079693,0.223865572716154,0.416,0,0.32344
1.03505841653914,0.242604128051079,0.416,0,0.32448
1.09583136721908,0.260925319974443,0.416,0,0.32552
1.15740566201301,0.279266844689429,0.416,0,0.32656
1.226867153178,0.301764997459874,0.416,0,0.3276
1.29606714367199,0.32428769621785,0.416,0,0.32864
1.35035799968699,0.344504931326041,0.416,0,0.32968
1.36968703091277,0.362837241965492,0.416,0,0.33072
1.38628866167941,0.380043733103194,0.416,0,0.33176
1.40071966448706,0.396575602780125,0.416,0,0.3328
1.41466327268662,0.479617338086858,0.416,0,0.33696
1.41499649882698,0.499490075147505,0.416,0,0.338
1.41528768105826,0.51955002410446,0.416,0,0.33904
1.41552405705785,0.539999611256706,0.416,0,0.34008
1.41573098855275,0.560559775211498,0.416,0,0.34112
1.41592228537968,0.580921177276315,0.416,0,0.34216
1.41588226316429,0.600377054444679,0.416,0,0.3432
1.41567161621054,0.619925725648232,0.416,0,0.34424
1.41496346364792,0.639830245502663,0.416,0,0.34528
1.41370470627489,0.660787766556731,0.416,0,0.34632
1.41224991335504,0.682250486292048,0.416,0,0.34736
1.40722076801617,0.740159811218908,0.416,0,0.35048
1.40538562208551,0.759076056970928,0.416,0,0.35152
1.4032432326003,0.77978609393302,0.416,0,0.35256
1.4011631966984,0.798890586006545,0.416,0,0.3536
1.39924092535236,0.817587099672926,0.416,0,0.35464
1.39733393746156,0.836564066901992,0.416,0,0.35568
1.38737098582265,0.858637674971395,0.416,0,0.35672
1.37194859054956,0.881492815751744,0.416,0,0.35776
1.31529210621391,0.900575088484521,0.416,0,0.3588
1.2210125043099,0.918500638745566,0.416,0,0.35984
1.05042709910458,0.937526757370181,0.416,0,0.36088
0.769086118321598,0.959152551708676,0.416,0,0.36192
0.441652538467992,0.978277012381557,0.416,0,0.36296
