"Velocity[i] (m/s)","Normalized Radius","X (m)","Y (m)","Z (m)"
1.38568355901024,0.416531151842273,0.416,0,0.33384
1.39559657299037,0.437454419516126,0.416,0,0.33488
1.4051602304133,0.459002393829808,0.416,0,0.33592
1.4248109788177,0.703055078114597,0.416,0,0.3484
1.42359474288135,0.721466281430321,0.416,0,0.34944
0.0413516916042177,-0.976745940424564,0.416,0,0.26104
0.0711484548974477,-0.958301228919823,0.416,0,0.26208
0.105490442513274,-0.938184647183877,0.416,0,0.26312
0.141217698455898,-0.91914247775776,0.416,0,0.26416
0.175133469630782,-0.902143710637373,0.416,0,0.2652
0.213435612718328,-0.883523687894555,0.416,0,0.26624
0.262464857480941,-0.860530510033713,0.416,0,0.26728
0.3135283655408,-0.840070991938256,0.416,0,0.26832
0.368996257363711,-0.819154397592166,0.416,0,0.26936
0.424631844655183,-0.798266642301956,0.416,0,0.2704
0.474232523483124,-0.778174068477797,0.416,0,0.27144
0.506471715072851,-0.758238479055113,0.416,0,0.27248
0.530347440669262,-0.738029687169057,0.416,0,0.27352
0.549984909833814,-0.717992644541379,0.416,0,0.27456
0.560466893223384,-0.699140680102379,0.416,0,0.2756
0.565945803479276,-0.680210255468247,0.416,0,0.27664
0.570475995702108,-0.660805836667103,0.416,0,0.27768
0.571098810010172,-0.639967356460381,0.416,0,0.27872
0.5726031800415,-0.620077216287876,0.416,0,0.27976
0.575287546514166,-0.599643242431481,0.416,0,0.2808
0.577414178987693,-0.580124988264172,0.416,0,0.28184
0.579978260388442,-0.560168121531813,0.416,0,0.28288
0.583936765134806,-0.540141525257043,0.416,0,0.28392
0.589117893528049,-0.518867490645695,0.416,0,0.28496
0.594917196859962,-0.499046497668095,0.416,0,0.286
0.605083706264065,-0.479773143922389,0.416,0,0.28704
0.616706119910933,-0.459922909599847,0.416,0,0.28808
0.62771890447937,-0.439563094304127,0.416,0,0.28912
0.637973445401401,-0.419147159810493,0.416,0,0.29016
0.648659498684741,-0.39914357528988,0.416,0,0.2912
0.656779642550508,-0.37890325304086,0.416,0,0.29224
0.664600143288984,-0.35895537940366,0.416,0,0.29328
0.671671417571541,-0.339146486454692,0.416,0,0.29432
0.678257463092471,-0.319830632816478,0.416,0,0.29536
0.684244657884596,-0.300424427290962,0.416,0,0.2964
0.689097005171183,-0.280678052577577,0.416,0,0.29744
0.693064142407832,-0.260534836517711,0.416,0,0.29848
0.694689166939414,-0.241153140687109,0.416,0,0.29952
0.696218432763797,-0.222038859801038,0.416,0,0.30056
0.69731589618387,-0.200842222316715,0.416,0,0.3016
0.697963567856762,-0.179781122574965,0.416,0,0.30264
0.698468536585135,-0.159500674747491,0.416,0,0.30368
0.697900420479835,-0.140012500149846,0.416,0,0.30472
0.696131488583964,-0.119912209153413,0.416,0,0.30576
0.694288922666771,-0.0990606512673118,0.416,0,0.3068
0.692436157683652,-0.0776142544853187,0.416,0,0.30784
0.690768535623407,-0.0555722883719971,0.416,0,0.30888
0.685736550938415,-0.0368832070675653,0.416,0,0.30992
0.68176244520025,-0.0173101301631906,0.416,0,0.31096
0.677919923692441,0.00274801877118058,0.416,0,0.312
0.674309753328072,0.02380236195392,0.416,0,0.31304
0.672503999177973,0.04219092193153,0.416,0,0.31408
0.674093776562937,0.0600777812554041,0.416,0,0.31512
0.681539834355628,0.0803638073669601,0.416,0,0.31616
0.690916193141167,0.102491033588644,0.416,0,0.3172
0.711188920470778,0.12270796648297,0.416,0,0.31824
0.746895141315473,0.14206891482911,0.416,0,0.31928
0.789340871265846,0.161871528495913,0.416,0,0.32032
0.839360093273705,0.182319059817623,0.416,0,0.32136
0.896764400784454,0.203517376382217,0.416,0,0.3224
0.964152486104342,0.223865572716154,0.416,0,0.32344
1.03781888327879,0.242604128051079,0.416,0,0.32448
1.09998810958904,0.260925319974443,0.416,0,0.32552
1.1591014104597,0.279266844689429,0.416,0,0.32656
1.21909223352226,0.301764997459874,0.416,0,0.3276
1.27702754187558,0.32428769621785,0.416,0,0.32864
1.31833448350579,0.344504931326041,0.416,0,0.32968
1.34071516917349,0.362837241965492,0.416,0,0.33072
1.35899957950549,0.380043733103194,0.416,0,0.33176
1.37435988357647,0.396575602780125,0.416,0,0.3328
1.41369079028489,0.479617338086858,0.416,0,0.33696
1.41915797048707,0.499490075147505,0.416,0,0.338
1.42360113572369,0.51955002410446,0.416,0,0.33904
1.4268941976822,0.539999611256706,0.416,0,0.34008
1.42924959777463,0.560559775211498,0.416,0,0.34112
1.43090372173285,0.580921177276315,0.416,0,0.34216
1.43088004952878,0.600377054444679,0.416,0,0.3432
1.4305395297934,0.619925725648232,0.416,0,0.34424
1.42933781192139,0.639830245502663,0.416,0,0.34528
1.42771263087703,0.660787766556731,0.416,0,0.34632
1.4262188943068,0.682250486292048,0.416,0,0.34736
1.4223909578766,0.740159811218908,0.416,0,0.35048
1.42126931554384,0.759076056970928,0.416,0,0.35152
1.41953229176084,0.77978609393302,0.416,0,0.35256
1.41742034044991,0.798890586006545,0.416,0,0.3536
1.41550543786758,0.817587099672926,0.416,0,0.35464
1.41374049159926,0.836564066901992,0.416,0,0.35568
1.4028431574702,0.858637674971395,0.416,0,0.35672
1.38481677938375,0.881492815751744,0.416,0,0.35776
1.32464614648848,0.900575088484521,0.416,0,0.3588
1.2242495815196,0.918500638745566,0.416,0,0.35984
1.04653235208358,0.937526757370181,0.416,0,0.36088
0.760758798283929,0.959152551708676,0.416,0,0.36192
0.433571750118597,0.978277012381557,0.416,0,0.36296
