"Velocity[i] (m/s)","Normalized Radius","X (m)","Y (m)","Z (m)"
1.38974789115245,0.416531151842273,0.416,0,0.33384
1.39243769974066,0.437454419516126,0.416,0,0.33488
1.3949440058319,0.459002393829808,0.416,0,0.33592
1.42094143106131,0.703055078114597,0.416,0,0.3484
1.42121210698045,0.721466281430321,0.416,0,0.34944
0.0964145868665604,-0.976745940424564,0.416,0,0.26104
0.140637299677636,-0.958301228919823,0.416,0,0.26208
0.183663551647728,-0.938184647183877,0.416,0,0.26312
0.221914928187738,-0.91914247775776,0.416,0,0.26416
0.255397748791624,-0.902143710637373,0.416,0,0.2652
0.290946785440444,-0.883523687894555,0.416,0,0.26624
0.333278431340759,-0.860530510033713,0.416,0,0.26728
0.369660624148466,-0.840070991938256,0.416,0,0.26832
0.405867455484113,-0.819154397592166,0.416,0,0.26936
0.439231906286576,-0.798266642301956,0.416,0,0.2704
0.468985103264803,-0.778174068477797,0.416,0,0.27144
0.493818527315165,-0.758238479055113,0.416,0,0.27248
0.516253171017065,-0.738029687169057,0.416,0,0.27352
0.537148811801907,-0.717992644541379,0.416,0,0.27456
0.554020040569478,-0.699140680102379,0.416,0,0.2756
0.568915944472749,-0.680210255468247,0.416,0,0.27664
0.583718239008386,-0.660805836667103,0.416,0,0.27768
0.596755668546256,-0.639967356460381,0.416,0,0.27872
0.609269550880053,-0.620077216287876,0.416,0,0.27976
0.621502998672289,-0.599643242431481,0.416,0,0.2808
0.632653369095149,-0.580124988264172,0.416,0,0.28184
0.643469663964519,-0.560168121531813,0.416,0,0.28288
0.654418355313061,-0.540141525257043,0.416,0,0.28392
0.665958085454284,-0.518867490645695,0.416,0,0.28496
0.676301708492637,-0.499046497668095,0.416,0,0.286
0.68633428171535,-0.479773143922389,0.416,0,0.28704
0.696259908987447,-0.459922909599847,0.416,0,0.28808
0.705695875008868,-0.439563094304127,0.416,0,0.28912
0.714590872204691,-0.419147159810493,0.416,0,0.29016
0.722171288837913,-0.39914357528988,0.416,0,0.2912
0.73114406238814,-0.37890325304086,0.416,0,0.29224
0.739611827541181,-0.35895537940366,0.416,0,0.29328
0.746209362557803,-0.339146486454692,0.416,0,0.29432
0.751688142033395,-0.319830632816478,0.416,0,0.29536
0.757022806686599,-0.300424427290962,0.416,0,0.2964
0.761406585108913,-0.280678052577577,0.416,0,0.29744
0.765128847097625,-0.260534836517711,0.416,0,0.29848
0.768157253415999,-0.241153140687109,0.416,0,0.29952
0.771245487611561,-0.222038859801038,0.416,0,0.30056
0.77503539936576,-0.200842222316715,0.416,0,0.3016
0.77849985142652,-0.179781122574965,0.416,0,0.30264
0.781343429123958,-0.159500674747491,0.416,0,0.30368
0.786422697196493,-0.140012500149846,0.416,0,0.30472
0.794123890646014,-0.119912209153413,0.416,0,0.30576
0.802461250863236,-0.0990606512673118,0.416,0,0.3068
0.81146380268281,-0.0776142544853187,0.416,0,0.30784
0.821708721963792,-0.0555722883719971,0.416,0,0.30888
0.839615828975404,-0.0368832070675653,0.416,0,0.30992
0.85811518466266,-0.0173101301631906,0.416,0,0.31096
0.878709522051494,0.00274801877118058,0.416,0,0.312
0.903087952362305,0.02380236195392,0.416,0,0.31304
0.9278292038313,0.04219092193153,0.416,0,0.31408
0.9520585400309,0.0600777812554041,0.416,0,0.31512
0.981459812120684,0.0803638073669601,0.416,0,0.31616
1.01401356758213,0.102491033588644,0.416,0,0.3172
1.04380839760232,0.12270796648297,0.416,0,0.31824
1.07152424220688,0.14206891482911,0.416,0,0.31928
1.09944122921629,0.161871528495913,0.416,0,0.32032
1.12816618968074,0.182319059817623,0.416,0,0.32136
1.15832071528531,0.203517376382217,0.416,0,0.3224
1.18813291054088,0.223865572716154,0.416,0,0.32344
1.21595529087372,0.242604128051079,0.416,0,0.32448
1.24346889210429,0.260925319974443,0.416,0,0.32552
1.27123965369341,0.279266844689429,0.416,0,0.32656
1.30191317530448,0.301764997459874,0.416,0,0.3276
1.33234433108109,0.32428769621785,0.416,0,0.32864
1.35894022891967,0.344504931326041,0.416,0,0.32968
1.36960921519873,0.362837241965492,0.416,0,0.33072
1.3788650164963,0.380043733103194,0.416,0,0.33176
1.38695397078558,0.396575602780125,0.416,0,0.3328
1.39723911255161,0.479617338086858,0.416,0,0.33696
1.39976771287563,0.499490075147505,0.416,0,0.338
1.40238468533459,0.51955002410446,0.416,0,0.33904
1.40510057633958,0.539999611256706,0.416,0,0.34008
1.40785809406571,0.560559775211498,0.416,0,0.34112
1.41059104139066,0.580921177276315,0.416,0,0.34216
1.41314533599519,0.600377054444679,0.416,0,0.3432
1.41552820160257,0.619925725648232,0.416,0,0.34424
1.41744614448436,0.639830245502663,0.416,0,0.34528
1.41891187066373,0.660787766556731,0.416,0,0.34632
1.41998162840085,0.682250486292048,0.416,0,0.34736
1.42067320147928,0.740159811218908,0.416,0,0.35048
1.4189481237145,0.759076056970928,0.416,0,0.35152
1.41637714781355,0.77978609393302,0.416,0,0.35256
1.4121120421386,0.798890586006545,0.416,0,0.3536
1.40588590704637,0.817587099672926,0.416,0,0.35464
1.39803310419136,0.836564066901992,0.416,0,0.35568
1.3760555759074,0.858637674971395,0.416,0,0.35672
1.34364123176534,0.881492815751744,0.416,0,0.35776
1.2814744679961,0.900575088484521,0.416,0,0.3588
1.19362477207849,0.918500638745566,0.416,0,0.35984
1.04976390772402,0.937526757370181,0.416,0,0.36088
0.819475641320978,0.959152551708676,0.416,0,0.36192
0.534482473172807,0.978277012381557,0.416,0,0.36296
