"Velocity[i] (m/s)","Normalized Radius","X (m)","Y (m)","Z (m)"
1.38361041880929,0.416531151842273,0.416,0,0.33384
1.39013608830984,0.437454419516126,0.416,0,0.33488
1.39611257653919,0.459002393829808,0.416,0,0.33592
1.40192539036353,0.703055078114597,0.416,0,0.3484
1.40103234923803,0.721466281430321,0.416,0,0.34944
0.0270142969998481,-0.976745940424564,0.416,0,0.26104
0.0539164257757705,-0.958301228919823,0.416,0,0.26208
0.0868344880254242,-0.938184647183877,0.416,0,0.26312
0.121379619851063,-0.91914247775776,0.416,0,0.26416
0.154048649077831,-0.902143710637373,0.416,0,0.2652
0.192160190424354,-0.883523687894555,0.416,0,0.26624
0.242170313681186,-0.860530510033713,0.416,0,0.26728
0.292550904952303,-0.840070991938256,0.416,0,0.26832
0.346896467506036,-0.819154397592166,0.416,0,0.26936
0.3984962670021,-0.798266642301956,0.416,0,0.2704
0.444383967406267,-0.778174068477797,0.416,0,0.27144
0.473812864440009,-0.758238479055113,0.416,0,0.27248
0.495950870887854,-0.738029687169057,0.416,0,0.27352
0.514263146279542,-0.717992644541379,0.416,0,0.27456
0.524617825501626,-0.699140680102379,0.416,0,0.2756
0.531210084777056,-0.680210255468247,0.416,0,0.27664
0.537820595510579,-0.660805836667103,0.416,0,0.27768
0.539205781838877,-0.639967356460381,0.416,0,0.27872
0.541768020134277,-0.620077216287876,0.416,0,0.27976
0.5458200141779,-0.599643242431481,0.416,0,0.2808
0.551872126356043,-0.580124988264172,0.416,0,0.28184
0.559109430370862,-0.560168121531813,0.416,0,0.28288
0.566186772825298,-0.540141525257043,0.416,0,0.28392
0.574994499358313,-0.518867490645695,0.416,0,0.28496
0.583768406021036,-0.499046497668095,0.416,0,0.286
0.597544423460214,-0.479773143922389,0.416,0,0.28704
0.610924626699601,-0.459922909599847,0.416,0,0.28808
0.621588838364579,-0.439563094304127,0.416,0,0.28912
0.630182929388117,-0.419147159810493,0.416,0,0.29016
0.641981764293913,-0.39914357528988,0.416,0,0.2912
0.651224961802036,-0.37890325304086,0.416,0,0.29224
0.660040371715859,-0.35895537940366,0.416,0,0.29328
0.668740392981351,-0.339146486454692,0.416,0,0.29432
0.677514364861207,-0.319830632816478,0.416,0,0.29536
0.685656072842601,-0.300424427290962,0.416,0,0.2964
0.692235641954474,-0.280678052577577,0.416,0,0.29744
0.697816826304296,-0.260534836517711,0.416,0,0.29848
0.700026566275214,-0.241153140687109,0.416,0,0.29952
0.701582229966801,-0.222038859801038,0.416,0,0.30056
0.701584643926489,-0.200842222316715,0.416,0,0.3016
0.70028880256514,-0.179781122574965,0.416,0,0.30264
0.698051647012286,-0.159500674747491,0.416,0,0.30368
0.694588269510666,-0.140012500149846,0.416,0,0.30472
0.690120071573727,-0.119912209153413,0.416,0,0.30576
0.685179087741323,-0.0990606512673118,0.416,0,0.3068
0.680191020916205,-0.0776142544853187,0.416,0,0.30784
0.675777025501412,-0.0555722883719971,0.416,0,0.30888
0.673345002973209,-0.0368832070675653,0.416,0,0.30992
0.671726990098695,-0.0173101301631906,0.416,0,0.31096
0.670491029726871,0.00274801877118058,0.416,0,0.312
0.66968020325545,0.02380236195392,0.416,0,0.31304
0.672494923660148,0.04219092193153,0.416,0,0.31408
0.678829806528928,0.0600777812554041,0.416,0,0.31512
0.692063352233594,0.0803638073669601,0.416,0,0.31616
0.708391750807844,0.102491033588644,0.416,0,0.3172
0.732162262548126,0.12270796648297,0.416,0,0.31824
0.768730722292472,0.14206891482911,0.416,0,0.31928
0.811213980349593,0.161871528495913,0.416,0,0.32032
0.860312576200532,0.182319059817623,0.416,0,0.32136
0.915239136953925,0.203517376382217,0.416,0,0.3224
0.980149664103662,0.223865572716154,0.416,0,0.32344
1.05493681389711,0.242604128051079,0.416,0,0.32448
1.11862276578298,0.260925319974443,0.416,0,0.32552
1.1793164355732,0.279266844689429,0.416,0,0.32656
1.23938067324328,0.301764997459874,0.416,0,0.3276
1.29585499715291,0.32428769621785,0.416,0,0.32864
1.33529306983552,0.344504931326041,0.416,0,0.32968
1.35033698113593,0.362837241965492,0.416,0,0.33072
1.36380704484778,0.380043733103194,0.416,0,0.33176
1.37576537143961,0.396575602780125,0.416,0,0.3328
1.40101601937649,0.479617338086858,0.416,0,0.33696
1.40351240002037,0.499490075147505,0.416,0,0.338
1.40545022926208,0.51955002410446,0.416,0,0.33904
1.40669659955921,0.539999611256706,0.416,0,0.34008
1.40741497805338,0.560559775211498,0.416,0,0.34112
1.40780103893462,0.580921177276315,0.416,0,0.34216
1.4073509398622,0.600377054444679,0.416,0,0.3432
1.40669835894659,0.619925725648232,0.416,0,0.34424
1.40558034137456,0.639830245502663,0.416,0,0.34528
1.40423750007122,0.660787766556731,0.416,0,0.34632
1.40303651297588,0.682250486292048,0.416,0,0.34736
1.40019616253091,0.740159811218908,0.416,0,0.35048
1.39975821769802,0.759076056970928,0.416,0,0.35152
1.39927696815996,0.77978609393302,0.416,0,0.35256
1.3986435051573,0.798890586006545,0.416,0,0.3536
1.39802077325495,0.817587099672926,0.416,0,0.35464
1.39741310629218,0.836564066901992,0.416,0,0.35568
1.38732288566854,0.858637674971395,0.416,0,0.35672
1.37009666532453,0.881492815751744,0.416,0,0.35776
1.30892210669753,0.900575088484521,0.416,0,0.3588
1.20677939192316,0.918500638745566,0.416,0,0.35984
1.02774877666268,0.937526757370181,0.416,0,0.36088
0.744266217641727,0.959152551708676,0.416,0,0.36192
0.421808795681781,0.978277012381557,0.416,0,0.36296
