"Velocity[i] (m/s)","Normalized Radius","X (m)","Y (m)","Z (m)"
1.37311925167396,0.416531151842273,0.416,0,0.33384
1.380159272168,0.437454419516126,0.416,0,0.33488
1.38656839930833,0.459002393829808,0.416,0,0.33592
1.38437267653443,0.703055078114597,0.416,0,0.3484
1.38452022960987,0.721466281430321,0.416,0,0.34944
0.0242622457447047,-0.976745940424564,0.416,0,0.26104
0.0535892889706728,-0.958301228919823,0.416,0,0.26208
0.09186297069287,-0.938184647183877,0.416,0,0.26312
0.13207438879577,-0.91914247775776,0.416,0,0.26416
0.171252848306352,-0.902143710637373,0.416,0,0.2652
0.215462621356378,-0.883523687894555,0.416,0,0.26624
0.270053917854931,-0.860530510033713,0.416,0,0.26728
0.322052851457492,-0.840070991938256,0.416,0,0.26832
0.374793541507832,-0.819154397592166,0.416,0,0.26936
0.422675713616093,-0.798266642301956,0.416,0,0.2704
0.461914738262263,-0.778174068477797,0.416,0,0.27144
0.48615278865312,-0.758238479055113,0.416,0,0.27248
0.503281330278111,-0.738029687169057,0.416,0,0.27352
0.517112273573292,-0.717992644541379,0.416,0,0.27456
0.525624797922028,-0.699140680102379,0.416,0,0.2756
0.5316363771304,-0.680210255468247,0.416,0,0.27664
0.536893630858463,-0.660805836667103,0.416,0,0.27768
0.543044830459154,-0.639967356460381,0.416,0,0.27872
0.547919706022572,-0.620077216287876,0.416,0,0.27976
0.552695623745152,-0.599643242431481,0.416,0,0.2808
0.562619381241654,-0.580124988264172,0.416,0,0.28184
0.568484882314636,-0.560168121531813,0.416,0,0.28288
0.573770527297851,-0.540141525257043,0.416,0,0.28392
0.583648290160631,-0.518867490645695,0.416,0,0.28496
0.590804264458417,-0.499046497668095,0.416,0,0.286
0.605256949097497,-0.479773143922389,0.416,0,0.28704
0.618061491633251,-0.459922909599847,0.416,0,0.28808
0.625590500683904,-0.439563094304127,0.416,0,0.28912
0.630595099115649,-0.419147159810493,0.416,0,0.29016
0.638892983523354,-0.39914357528988,0.416,0,0.2912
0.644051930865579,-0.37890325304086,0.416,0,0.29224
0.648720780831515,-0.35895537940366,0.416,0,0.29328
0.652817284276954,-0.339146486454692,0.416,0,0.29432
0.657577455037495,-0.319830632816478,0.416,0,0.29536
0.661565255796808,-0.300424427290962,0.416,0,0.2964
0.664549799268885,-0.280678052577577,0.416,0,0.29744
0.666432006358321,-0.260534836517711,0.416,0,0.29848
0.663619597746175,-0.241153140687109,0.416,0,0.29952
0.659251359527528,-0.222038859801038,0.416,0,0.30056
0.649516229340355,-0.200842222316715,0.416,0,0.3016
0.640145334034192,-0.179781122574965,0.416,0,0.30264
0.631044046948207,-0.159500674747491,0.416,0,0.30368
0.623243992682732,-0.140012500149846,0.416,0,0.30472
0.616891109268961,-0.119912209153413,0.416,0,0.30576
0.611585157965815,-0.0990606512673118,0.416,0,0.3068
0.607179739813151,-0.0776142544853187,0.416,0,0.30784
0.605896619553268,-0.0555722883719971,0.416,0,0.30888
0.616650984610717,-0.0368832070675653,0.416,0,0.30992
0.630669249137071,-0.0173101301631906,0.416,0,0.31096
0.647668110849705,0.00274801877118058,0.416,0,0.312
0.669362758205575,0.02380236195392,0.416,0,0.31304
0.699922240996091,0.04219092193153,0.416,0,0.31408
0.733670507108441,0.0600777812554041,0.416,0,0.31512
0.780207807790108,0.0803638073669601,0.416,0,0.31616
0.833996822362424,0.102491033588644,0.416,0,0.3172
0.887510005654538,0.12270796648297,0.416,0,0.31824
0.943408093959369,0.14206891482911,0.416,0,0.31928
1.00025065591961,0.161871528495913,0.416,0,0.32032
1.05914233542008,0.182319059817623,0.416,0,0.32136
1.11970346396177,0.203517376382217,0.416,0,0.3224
1.17192557752625,0.223865572716154,0.416,0,0.32344
1.21435709170122,0.242604128051079,0.416,0,0.32448
1.24583074092537,0.260925319974443,0.416,0,0.32552
1.27326658043825,0.279266844689429,0.416,0,0.32656
1.29865372607731,0.301764997459874,0.416,0,0.3276
1.32088892300233,0.32428769621785,0.416,0,0.32864
1.33467495047681,0.344504931326041,0.416,0,0.32968
1.34718274345137,0.362837241965492,0.416,0,0.33072
1.35722845509468,0.380043733103194,0.416,0,0.33176
1.36559805983164,0.396575602780125,0.416,0,0.3328
1.39151939994777,0.479617338086858,0.416,0,0.33696
1.39337291401313,0.499490075147505,0.416,0,0.338
1.39417274479494,0.51955002410446,0.416,0,0.33904
1.39373748738611,0.539999611256706,0.416,0,0.34008
1.3923743143789,0.560559775211498,0.416,0,0.34112
1.39054207707698,0.580921177276315,0.416,0,0.34216
1.38873931145528,0.600377054444679,0.416,0,0.3432
1.38686490069802,0.619925725648232,0.416,0,0.34424
1.38550927793707,0.639830245502663,0.416,0,0.34528
1.38489864859443,0.660787766556731,0.416,0,0.34632
1.38460569924896,0.682250486292048,0.416,0,0.34736
1.38481048759362,0.740159811218908,0.416,0,0.35048
1.38448110540428,0.759076056970928,0.416,0,0.35152
1.38382643497409,0.77978609393302,0.416,0,0.35256
1.38260842393805,0.798890586006545,0.416,0,0.3536
1.38090123598255,0.817587099672926,0.416,0,0.35464
1.37899335165987,0.836564066901992,0.416,0,0.35568
1.36487181214996,0.858637674971395,0.416,0,0.35672
1.34069817632329,0.881492815751744,0.416,0,0.35776
1.27229062468392,0.900575088484521,0.416,0,0.3588
1.16214442729192,0.918500638745566,0.416,0,0.35984
0.976290833878698,0.937526757370181,0.416,0,0.36088
0.697650702009286,0.959152551708676,0.416,0,0.36192
0.390088832873714,0.978277012381557,0.416,0,0.36296
