"Velocity[i] (m/s)","Normalized Radius","X (m)","Y (m)","Z (m)"
1.36404176625021,0.416531151842273,0.416,0,0.33384
1.37656153509879,0.437454419516126,0.416,0,0.33488
1.38812761814831,0.459002393829808,0.416,0,0.33592
1.40617723622026,0.703055078114597,0.416,0,0.3484
1.40433784922076,0.721466281430321,0.416,0,0.34944
0.0965765579021795,-0.976745940424564,0.416,0,0.26104
0.142739244141674,-0.958301228919823,0.416,0,0.26208
0.186855677703655,-0.938184647183877,0.416,0,0.26312
0.224658159339331,-0.91914247775776,0.416,0,0.26416
0.256744265065852,-0.902143710637373,0.416,0,0.2652
0.2896487913716,-0.883523687894555,0.416,0,0.26624
0.327573323457697,-0.860530510033713,0.416,0,0.26728
0.359630630421977,-0.840070991938256,0.416,0,0.26832
0.391415103937401,-0.819154397592166,0.416,0,0.26936
0.420346110820971,-0.798266642301956,0.416,0,0.2704
0.446581896712762,-0.778174068477797,0.416,0,0.27144
0.469458202872622,-0.758238479055113,0.416,0,0.27248
0.490871519330388,-0.738029687169057,0.416,0,0.27352
0.511376379649448,-0.717992644541379,0.416,0,0.27456
0.528681127142022,-0.699140680102379,0.416,0,0.2756
0.544537368360256,-0.680210255468247,0.416,0,0.27664
0.560324417269219,-0.660805836667103,0.416,0,0.27768
0.574780951057739,-0.639967356460381,0.416,0,0.27872
0.588131033826837,-0.620077216287876,0.416,0,0.27976
0.600925275280904,-0.599643242431481,0.416,0,0.2808
0.612049827603501,-0.580124988264172,0.416,0,0.28184
0.622664682350285,-0.560168121531813,0.416,0,0.28288
0.632805186768388,-0.540141525257043,0.416,0,0.28392
0.642594294416398,-0.518867490645695,0.416,0,0.28496
0.651148682326841,-0.499046497668095,0.416,0,0.286
0.659073246209547,-0.479773143922389,0.416,0,0.28704
0.666546631164242,-0.459922909599847,0.416,0,0.28808
0.673334381164769,-0.439563094304127,0.416,0,0.28912
0.679551850518236,-0.419147159810493,0.416,0,0.29016
0.684668332023114,-0.39914357528988,0.416,0,0.2912
0.689974000899322,-0.37890325304086,0.416,0,0.29224
0.694933267976097,-0.35895537940366,0.416,0,0.29328
0.698712020855807,-0.339146486454692,0.416,0,0.29432
0.702223142124958,-0.319830632816478,0.416,0,0.29536
0.705227718643859,-0.300424427290962,0.416,0,0.2964
0.707124433804575,-0.280678052577577,0.416,0,0.29744
0.708362271994855,-0.260534836517711,0.416,0,0.29848
0.709345623424449,-0.241153140687109,0.416,0,0.29952
0.710549372883235,-0.222038859801038,0.416,0,0.30056
0.711926630918474,-0.200842222316715,0.416,0,0.3016
0.712216552233688,-0.179781122574965,0.416,0,0.30264
0.711036430833558,-0.159500674747491,0.416,0,0.30368
0.71133926698763,-0.140012500149846,0.416,0,0.30472
0.71347367466707,-0.119912209153413,0.416,0,0.30576
0.714409599580814,-0.0990606512673118,0.416,0,0.3068
0.714025191523386,-0.0776142544853187,0.416,0,0.30784
0.712484252727099,-0.0555722883719971,0.416,0,0.30888
0.719686870441148,-0.0368832070675653,0.416,0,0.30992
0.72544319679203,-0.0173101301631906,0.416,0,0.31096
0.732003426565186,0.00274801877118058,0.416,0,0.312
0.741746497740848,0.02380236195392,0.416,0,0.31304
0.753926642533315,0.04219092193153,0.416,0,0.31408
0.770401073072871,0.0600777812554041,0.416,0,0.31512
0.795493624041229,0.0803638073669601,0.416,0,0.31616
0.826233517542314,0.102491033588644,0.416,0,0.3172
0.857953931988045,0.12270796648297,0.416,0,0.31824
0.892779986549512,0.14206891482911,0.416,0,0.31928
0.9295966838716,0.161871528495913,0.416,0,0.32032
0.968784350408459,0.182319059817623,0.416,0,0.32136
1.01078808154139,0.203517376382217,0.416,0,0.3224
1.05525798332872,0.223865572716154,0.416,0,0.32344
1.09693304871721,0.242604128051079,0.416,0,0.32448
1.13452038956236,0.260925319974443,0.416,0,0.32552
1.17166799822798,0.279266844689429,0.416,0,0.32656
1.21409087059053,0.301764997459874,0.416,0,0.3276
1.25692180566473,0.32428769621785,0.416,0,0.32864
1.28943513499554,0.344504931326041,0.416,0,0.32968
1.31370271141562,0.362837241965492,0.416,0,0.33072
1.33356970528919,0.380043733103194,0.416,0,0.33176
1.35067717091673,0.396575602780125,0.416,0,0.3328
1.39755068114905,0.479617338086858,0.416,0,0.33696
1.40211273244189,0.499490075147505,0.416,0,0.338
1.40578185942034,0.51955002410446,0.416,0,0.33904
1.40833925377784,0.539999611256706,0.416,0,0.34008
1.41006621665803,0.560559775211498,0.416,0,0.34112
1.41130434720783,0.580921177276315,0.416,0,0.34216
1.41138888617022,0.600377054444679,0.416,0,0.3432
1.41121158880125,0.619925725648232,0.416,0,0.34424
1.41042400726378,0.639830245502663,0.416,0,0.34528
1.40914896679358,0.660787766556731,0.416,0,0.34632
1.40771589317473,0.682250486292048,0.416,0,0.34736
1.40156053129984,0.740159811218908,0.416,0,0.35048
1.39759064025132,0.759076056970928,0.416,0,0.35152
1.39269167748634,0.77978609393302,0.416,0,0.35256
1.38634377817555,0.798890586006545,0.416,0,0.3536
1.37806961527665,0.817587099672926,0.416,0,0.35464
1.36784133984744,0.836564066901992,0.416,0,0.35568
1.34181874880435,0.858637674971395,0.416,0,0.35672
1.30395235953281,0.881492815751744,0.416,0,0.35776
1.23938753285627,0.900575088484521,0.416,0,0.3588
1.1532314295194,0.918500638745566,0.416,0,0.35984
1.01815130831002,0.937526757370181,0.416,0,0.36088
0.79691601088374,0.959152551708676,0.416,0,0.36192
0.512912114333259,0.978277012381557,0.416,0,0.36296
