"Velocity[i] (m/s)","Normalized Radius","X (m)","Y (m)","Z (m)"
1.41335410198798,0.416531151842273,0.416,0,0.33384
1.41919310447486,0.437454419516126,0.416,0,0.33488
1.42408498075175,0.459002393829808,0.416,0,0.33592
1.41424625326394,0.703055078114597,0.416,0,0.3484
1.41384903133737,0.721466281430321,0.416,0,0.34944
0.0372030699432793,-0.976745940424564,0.416,0,0.26104
0.0689301081475725,-0.958301228919823,0.416,0,0.26208
0.108159840789219,-0.938184647183877,0.416,0,0.26312
0.149222322508227,-0.91914247775776,0.416,0,0.26416
0.188531463443199,-0.902143710637373,0.416,0,0.2652
0.231641299962523,-0.883523687894555,0.416,0,0.26624
0.283726327197128,-0.860530510033713,0.416,0,0.26728
0.333375965008711,-0.840070991938256,0.416,0,0.26832
0.383057545967653,-0.819154397592166,0.416,0,0.26936
0.428011068605573,-0.798266642301956,0.416,0,0.2704
0.464653592715705,-0.778174068477797,0.416,0,0.27144
0.488455737172385,-0.758238479055113,0.416,0,0.27248
0.506092105289662,-0.738029687169057,0.416,0,0.27352
0.521648714590935,-0.717992644541379,0.416,0,0.27456
0.531475519351122,-0.699140680102379,0.416,0,0.2756
0.537902069169544,-0.680210255468247,0.416,0,0.27664
0.543473870837196,-0.660805836667103,0.416,0,0.27768
0.547287396158608,-0.639967356460381,0.416,0,0.27872
0.549984871593804,-0.620077216287876,0.416,0,0.27976
0.552115309914412,-0.599643242431481,0.416,0,0.2808
0.55866707783646,-0.580124988264172,0.416,0,0.28184
0.560495887540811,-0.560168121531813,0.416,0,0.28288
0.562158986856971,-0.540141525257043,0.416,0,0.28392
0.570329056781089,-0.518867490645695,0.416,0,0.28496
0.577200656453131,-0.499046497668095,0.416,0,0.286
0.592965611777232,-0.479773143922389,0.416,0,0.28704
0.607479679452585,-0.459922909599847,0.416,0,0.28808
0.616861599078467,-0.439563094304127,0.416,0,0.28912
0.62401331763716,-0.419147159810493,0.416,0,0.29016
0.635810013928598,-0.39914357528988,0.416,0,0.2912
0.643983862168052,-0.37890325304086,0.416,0,0.29224
0.651423498902693,-0.35895537940366,0.416,0,0.29328
0.658528773852688,-0.339146486454692,0.416,0,0.29432
0.666925435817663,-0.319830632816478,0.416,0,0.29536
0.674273765920006,-0.300424427290962,0.416,0,0.2964
0.680423864771071,-0.280678052577577,0.416,0,0.29744
0.686096026424015,-0.260534836517711,0.416,0,0.29848
0.690688538022158,-0.241153140687109,0.416,0,0.29952
0.695367057314977,-0.222038859801038,0.416,0,0.30056
0.701179525109562,-0.200842222316715,0.416,0,0.3016
0.70677528595568,-0.179781122574965,0.416,0,0.30264
0.712608201393534,-0.159500674747491,0.416,0,0.30368
0.714132716492276,-0.140012500149846,0.416,0,0.30472
0.711900465027417,-0.119912209153413,0.416,0,0.30576
0.711941900222729,-0.0990606512673118,0.416,0,0.3068
0.714736010229323,-0.0776142544853187,0.416,0,0.30784
0.718758730748343,-0.0555722883719971,0.416,0,0.30888
0.7123999146681,-0.0368832070675653,0.416,0,0.30992
0.706925992244674,-0.0173101301631906,0.416,0,0.31096
0.700256157743507,0.00274801877118058,0.416,0,0.312
0.69048836030887,0.02380236195392,0.416,0,0.31304
0.680544145791888,0.04219092193153,0.416,0,0.31408
0.672175465731917,0.0600777812554041,0.416,0,0.31512
0.669021363573496,0.0803638073669601,0.416,0,0.31616
0.669456791499556,0.102491033588644,0.416,0,0.3172
0.681541956007448,0.12270796648297,0.416,0,0.31824
0.715183197769728,0.14206891482911,0.416,0,0.31928
0.759301060843791,0.161871528495913,0.416,0,0.32032
0.812482096264426,0.182319059817623,0.416,0,0.32136
0.875940632489171,0.203517376382217,0.416,0,0.3224
0.95346134561039,0.223865572716154,0.416,0,0.32344
1.03043285014404,0.242604128051079,0.416,0,0.32448
1.09872469019281,0.260925319974443,0.416,0,0.32552
1.16479250844259,0.279266844689429,0.416,0,0.32656
1.23202593867966,0.301764997459874,0.416,0,0.3276
1.29947496261206,0.32428769621785,0.416,0,0.32864
1.34561632941297,0.344504931326041,0.416,0,0.32968
1.36970908311472,0.362837241965492,0.416,0,0.33072
1.38944927260861,0.380043733103194,0.416,0,0.33176
1.40672930337992,0.396575602780125,0.416,0,0.3328
1.42699000325702,0.479617338086858,0.416,0,0.33696
1.42653368835028,0.499490075147505,0.416,0,0.338
1.42592987868683,0.51955002410446,0.416,0,0.33904
1.42498268765846,0.539999611256706,0.416,0,0.34008
1.42382834514513,0.560559775211498,0.416,0,0.34112
1.42258148303155,0.580921177276315,0.416,0,0.34216
1.42052239333556,0.600377054444679,0.416,0,0.3432
1.41869702335912,0.619925725648232,0.416,0,0.34424
1.41721044046111,0.639830245502663,0.416,0,0.34528
1.4160615256907,0.660787766556731,0.416,0,0.34632
1.41510673310801,0.682250486292048,0.416,0,0.34736
1.41340190445577,0.740159811218908,0.416,0,0.35048
1.41268285230891,0.759076056970928,0.416,0,0.35152
1.41178986370429,0.77978609393302,0.416,0,0.35256
1.41008337964935,0.798890586006545,0.416,0,0.3536
1.4081524875498,0.817587099672926,0.416,0,0.35464
1.40620228910966,0.836564066901992,0.416,0,0.35568
1.39059041196469,0.858637674971395,0.416,0,0.35672
1.36332817100555,0.881492815751744,0.416,0,0.35776
1.29224858426962,0.900575088484521,0.416,0,0.3588
1.17996637295843,0.918500638745566,0.416,0,0.35984
0.9920236498005,0.937526757370181,0.416,0,0.36088
0.711047693778038,0.959152551708676,0.416,0,0.36192
0.402192692378325,0.978277012381557,0.416,0,0.36296
