"Velocity[i] (m/s)","Normalized Radius","X (m)","Y (m)","Z (m)"
1.39753769276757,0.416531151842273,0.416,0,0.33384
1.40322520124487,0.437454419516126,0.416,0,0.33488
1.40852313208997,0.459002393829808,0.416,0,0.33592
1.41759478331153,0.703055078114597,0.416,0,0.3484
1.41689056858789,0.721466281430321,0.416,0,0.34944
0.042567902996926,-0.976745940424564,0.416,0,0.26104
0.071775439371542,-0.958301228919823,0.416,0,0.26208
0.105127753178233,-0.938184647183877,0.416,0,0.26312
0.139258779443229,-0.91914247775776,0.416,0,0.26416
0.171532267406141,-0.902143710637373,0.416,0,0.2652
0.209272524449662,-0.883523687894555,0.416,0,0.26624
0.258910794028287,-0.860530510033713,0.416,0,0.26728
0.30847007453517,-0.840070991938256,0.416,0,0.26832
0.361850032610128,-0.819154397592166,0.416,0,0.26936
0.412737322523154,-0.798266642301956,0.416,0,0.2704
0.457619309836079,-0.778174068477797,0.416,0,0.27144
0.486654751754135,-0.758238479055113,0.416,0,0.27248
0.508445758311355,-0.738029687169057,0.416,0,0.27352
0.526203830905859,-0.717992644541379,0.416,0,0.27456
0.536305376130268,-0.699140680102379,0.416,0,0.2756
0.542752422701309,-0.680210255468247,0.416,0,0.27664
0.549121514386283,-0.660805836667103,0.416,0,0.27768
0.551070048841919,-0.639967356460381,0.416,0,0.27872
0.553934594771643,-0.620077216287876,0.416,0,0.27976
0.558294361028855,-0.599643242431481,0.416,0,0.2808
0.565168019097238,-0.580124988264172,0.416,0,0.28184
0.572433267442685,-0.560168121531813,0.416,0,0.28288
0.57964123217079,-0.540141525257043,0.416,0,0.28392
0.58869534555334,-0.518867490645695,0.416,0,0.28496
0.597529412372072,-0.499046497668095,0.416,0,0.286
0.611407576416045,-0.479773143922389,0.416,0,0.28704
0.624754421798497,-0.459922909599847,0.416,0,0.28808
0.635267367529439,-0.439563094304127,0.416,0,0.28912
0.643653806039744,-0.419147159810493,0.416,0,0.29016
0.655783146490315,-0.39914357528988,0.416,0,0.2912
0.665452334674522,-0.37890325304086,0.416,0,0.29224
0.674682125392901,-0.35895537940366,0.416,0,0.29328
0.68376341781151,-0.339146486454692,0.416,0,0.29432
0.692735285701567,-0.319830632816478,0.416,0,0.29536
0.700978012121757,-0.300424427290962,0.416,0,0.2964
0.707423670112866,-0.280678052577577,0.416,0,0.29744
0.712557998601282,-0.260534836517711,0.416,0,0.29848
0.713797863299451,-0.241153140687109,0.416,0,0.29952
0.714466985439875,-0.222038859801038,0.416,0,0.30056
0.713884384179356,-0.200842222316715,0.416,0,0.3016
0.711995441653262,-0.179781122574965,0.416,0,0.30264
0.708882623263577,-0.159500674747491,0.416,0,0.30368
0.70527228028938,-0.140012500149846,0.416,0,0.30472
0.701517851797551,-0.119912209153413,0.416,0,0.30576
0.697093876746961,-0.0990606512673118,0.416,0,0.3068
0.692448283600005,-0.0776142544853187,0.416,0,0.30784
0.688380666896127,-0.0555722883719971,0.416,0,0.30888
0.687941543567866,-0.0368832070675653,0.416,0,0.30992
0.688130186384039,-0.0173101301631906,0.416,0,0.31096
0.688943051327573,0.00274801877118058,0.416,0,0.312
0.690706334177597,0.02380236195392,0.416,0,0.31304
0.695527397884164,0.04219092193153,0.416,0,0.31408
0.703209791548896,0.0600777812554041,0.416,0,0.31512
0.717648741244255,0.0803638073669601,0.416,0,0.31616
0.735124613419609,0.102491033588644,0.416,0,0.3172
0.759700706635222,0.12270796648297,0.416,0,0.31824
0.79654401223667,0.14206891482911,0.416,0,0.31928
0.838986589986327,0.161871528495913,0.416,0,0.32032
0.887877686519585,0.182319059817623,0.416,0,0.32136
0.942392794419862,0.203517376382217,0.416,0,0.3224
1.00648903623572,0.223865572716154,0.416,0,0.32344
1.08062170322423,0.242604128051079,0.416,0,0.32448
1.14361807040501,0.260925319974443,0.416,0,0.32552
1.20360038015854,0.279266844689429,0.416,0,0.32656
1.26201084717337,0.301764997459874,0.416,0,0.3276
1.31675954589087,0.32428769621785,0.416,0,0.32864
1.35481461518699,0.344504931326041,0.416,0,0.32968
1.36798942483323,0.362837241965492,0.416,0,0.33072
1.37999703112436,0.380043733103194,0.416,0,0.33176
1.39073707324054,0.396575602780125,0.416,0,0.3328
1.41317131441373,0.479617338086858,0.416,0,0.33696
1.41601700748814,0.499490075147505,0.416,0,0.338
1.41829909855457,0.51955002410446,0.416,0,0.33904
1.41991863937261,0.539999611256706,0.416,0,0.34008
1.42101214304265,0.560559775211498,0.416,0,0.34112
1.42174696314673,0.580921177276315,0.416,0,0.34216
1.42166648282355,0.600377054444679,0.416,0,0.3432
1.42138812577688,0.619925725648232,0.416,0,0.34424
1.42057235237931,0.639830245502663,0.416,0,0.34528
1.41949309868676,0.660787766556731,0.416,0,0.34632
1.41850062783513,0.682250486292048,0.416,0,0.34736
1.41622177308677,0.740159811218908,0.416,0,0.35048
1.41571669823195,0.759076056970928,0.416,0,0.35152
1.41492348660526,0.77978609393302,0.416,0,0.35256
1.41378926247235,0.798890586006545,0.416,0,0.3536
1.41254672564954,0.817587099672926,0.416,0,0.35464
1.41122459540051,0.836564066901992,0.416,0,0.35568
1.40046323114906,0.858637674971395,0.416,0,0.35672
1.38271653652248,0.881492815751744,0.416,0,0.35776
1.32101784595982,0.900575088484521,0.416,0,0.3588
1.21873989780162,0.918500638745566,0.416,0,0.35984
1.0396846695171,0.937526757370181,0.416,0,0.36088
0.755813184769858,0.959152551708676,0.416,0,0.36192
0.432123496768154,0.978277012381557,0.416,0,0.36296
