"Velocity[i] (m/s)","Normalized Radius","X (m)","Y (m)","Z (m)"
1.32965097797601,0.416531151842273,0.416,0,0.33384
1.3381341232875,0.437454419516126,0.416,0,0.33488
1.34583641145635,0.459002393829808,0.416,0,0.33592
1.37087585193763,0.703055078114597,0.416,0,0.3484
1.37003962642067,0.721466281430321,0.416,0,0.34944
0.0926061966495528,-0.976745940424564,0.416,0,0.26104
0.143332143104305,-0.958301228919823,0.416,0,0.26208
0.19028775812722,-0.938184647183877,0.416,0,0.26312
0.228492562634617,-0.91914247775776,0.416,0,0.26416
0.259785701932887,-0.902143710637373,0.416,0,0.2652
0.290743781103707,-0.883523687894555,0.416,0,0.26624
0.325125065146749,-0.860530510033713,0.416,0,0.26728
0.353945276207429,-0.840070991938256,0.416,0,0.26832
0.382326287421785,-0.819154397592166,0.416,0,0.26936
0.408349177502829,-0.798266642301956,0.416,0,0.2704
0.432153760889352,-0.778174068477797,0.416,0,0.27144
0.453369595731871,-0.758238479055113,0.416,0,0.27248
0.473566949612519,-0.738029687169057,0.416,0,0.27352
0.493219675024511,-0.717992644541379,0.416,0,0.27456
0.510318287802477,-0.699140680102379,0.416,0,0.2756
0.526428593766585,-0.680210255468247,0.416,0,0.27664
0.542411797852837,-0.660805836667103,0.416,0,0.27768
0.558182935439689,-0.639967356460381,0.416,0,0.27872
0.572529460032036,-0.620077216287876,0.416,0,0.27976
0.586373498907244,-0.599643242431481,0.416,0,0.2808
0.598780423010356,-0.580124988264172,0.416,0,0.28184
0.61072941448802,-0.560168121531813,0.416,0,0.28288
0.621996759096981,-0.540141525257043,0.416,0,0.28392
0.633234813828044,-0.518867490645695,0.416,0,0.28496
0.643187590195481,-0.499046497668095,0.416,0,0.286
0.652686886812892,-0.479773143922389,0.416,0,0.28704
0.661652264922602,-0.459922909599847,0.416,0,0.28808
0.669826859364295,-0.439563094304127,0.416,0,0.28912
0.677385859243827,-0.419147159810493,0.416,0,0.29016
0.684201644960659,-0.39914357528988,0.416,0,0.2912
0.690923381244125,-0.37890325304086,0.416,0,0.29224
0.697372107789666,-0.35895537940366,0.416,0,0.29328
0.70314162125912,-0.339146486454692,0.416,0,0.29432
0.708976684441173,-0.319830632816478,0.416,0,0.29536
0.714556871892525,-0.300424427290962,0.416,0,0.2964
0.719468320612361,-0.280678052577577,0.416,0,0.29744
0.723982154170489,-0.260534836517711,0.416,0,0.29848
0.728330576941568,-0.241153140687109,0.416,0,0.29952
0.73311095701825,-0.222038859801038,0.416,0,0.30056
0.739878419053642,-0.200842222316715,0.416,0,0.3016
0.746000001562453,-0.179781122574965,0.416,0,0.30264
0.751109342879307,-0.159500674747491,0.416,0,0.30368
0.757294423693976,-0.140012500149846,0.416,0,0.30472
0.76519486464331,-0.119912209153413,0.416,0,0.30576
0.773210593641805,-0.0990606512673118,0.416,0,0.3068
0.781136425535921,-0.0776142544853187,0.416,0,0.30784
0.788818281257507,-0.0555722883719971,0.416,0,0.30888
0.800393709049865,-0.0368832070675653,0.416,0,0.30992
0.811624973082485,-0.0173101301631906,0.416,0,0.31096
0.823741123651457,0.00274801877118058,0.416,0,0.312
0.838167479440303,0.02380236195392,0.416,0,0.31304
0.853295602437129,0.04219092193153,0.416,0,0.31408
0.868886634808095,0.0600777812554041,0.416,0,0.31512
0.890338607832494,0.0803638073669601,0.416,0,0.31616
0.915228013615971,0.102491033588644,0.416,0,0.3172
0.939908007031013,0.12270796648297,0.416,0,0.31824
0.966666104132995,0.14206891482911,0.416,0,0.31928
0.994883275690485,0.161871528495913,0.416,0,0.32032
1.02510418857653,0.182319059817623,0.416,0,0.32136
1.05715412631695,0.203517376382217,0.416,0,0.3224
1.08937507265372,0.223865572716154,0.416,0,0.32344
1.12075810848054,0.242604128051079,0.416,0,0.32448
1.150669275849,0.260925319974443,0.416,0,0.32552
1.1804236407826,0.279266844689429,0.416,0,0.32656
1.21397953153241,0.301764997459874,0.416,0,0.3276
1.24922740584616,0.32428769621785,0.416,0,0.32864
1.27778686772946,0.344504931326041,0.416,0,0.32968
1.29380516038104,0.362837241965492,0.416,0,0.33072
1.30807323555183,0.380043733103194,0.416,0,0.33176
1.32102096318667,0.396575602780125,0.416,0,0.3328
1.35185948736866,0.479617338086858,0.416,0,0.33696
1.35562667723033,0.499490075147505,0.416,0,0.338
1.3590904598067,0.51955002410446,0.416,0,0.33904
1.36209758839056,0.539999611256706,0.416,0,0.34008
1.3647698258874,0.560559775211498,0.416,0,0.34112
1.36722313360761,0.580921177276315,0.416,0,0.34216
1.36874545717235,0.600377054444679,0.416,0,0.3432
1.37005555515535,0.619925725648232,0.416,0,0.34424
1.37084305093471,0.639830245502663,0.416,0,0.34528
1.37113531216502,0.660787766556731,0.416,0,0.34632
1.3710608798553,0.682250486292048,0.416,0,0.34736
1.36770526713763,0.740159811218908,0.416,0,0.35048
1.36319750980752,0.759076056970928,0.416,0,0.35152
1.35787458601235,0.77978609393302,0.416,0,0.35256
1.35053872389852,0.798890586006545,0.416,0,0.3536
1.34079158535215,0.817587099672926,0.416,0,0.35464
1.32902179662317,0.836564066901992,0.416,0,0.35568
1.30106095486559,0.858637674971395,0.416,0,0.35672
1.26119563215106,0.881492815751744,0.416,0,0.35776
1.19596757875313,0.900575088484521,0.416,0,0.3588
1.11109759046867,0.918500638745566,0.416,0,0.35984
0.979663026601154,0.937526757370181,0.416,0,0.36088
0.762288778205666,0.959152551708676,0.416,0,0.36192
0.480728454721874,0.978277012381557,0.416,0,0.36296
