"Velocity[i] (m/s)","Normalized Radius","X (m)","Y (m)","Z (m)"
1.36410826755686,0.416531151842273,0.416,0,0.33384
1.37619622912725,0.437454419516126,0.416,0,0.33488
1.38741588450246,0.459002393829808,0.416,0,0.33592
1.40716799552261,0.703055078114597,0.416,0,0.3484
1.40550567164831,0.721466281430321,0.416,0,0.34944
0.0956254184743805,-0.976745940424564,0.416,0,0.26104
0.142085234028287,-0.958301228919823,0.416,0,0.26208
0.186321779278437,-0.938184647183877,0.416,0,0.26312
0.224050630968913,-0.91914247775776,0.416,0,0.26416
0.256123337465955,-0.902143710637373,0.416,0,0.2652
0.289050995646318,-0.883523687894555,0.416,0,0.26624
0.32706650621895,-0.860530510033713,0.416,0,0.26728
0.359187826790082,-0.840070991938256,0.416,0,0.26832
0.391036068576148,-0.819154397592166,0.416,0,0.26936
0.42019417449184,-0.798266642301956,0.416,0,0.2704
0.446566977788673,-0.778174068477797,0.416,0,0.27144
0.469488298182848,-0.758238479055113,0.416,0,0.27248
0.490909684546906,-0.738029687169057,0.416,0,0.27352
0.511353438580903,-0.717992644541379,0.416,0,0.27456
0.528544965025403,-0.699140680102379,0.416,0,0.2756
0.544269944680678,-0.680210255468247,0.416,0,0.27664
0.559908232915579,-0.660805836667103,0.416,0,0.27768
0.574351640785101,-0.639967356460381,0.416,0,0.27872
0.587670437102828,-0.620077216287876,0.416,0,0.27976
0.600430110783175,-0.599643242431481,0.416,0,0.2808
0.611572821117435,-0.580124988264172,0.416,0,0.28184
0.622092737655399,-0.560168121531813,0.416,0,0.28288
0.632254062304248,-0.540141525257043,0.416,0,0.28392
0.642059754139832,-0.518867490645695,0.416,0,0.28496
0.650542695687689,-0.499046497668095,0.416,0,0.286
0.658385423387434,-0.479773143922389,0.416,0,0.28704
0.665775901463691,-0.459922909599847,0.416,0,0.28808
0.67246447705702,-0.439563094304127,0.416,0,0.28912
0.678546571496543,-0.419147159810493,0.416,0,0.29016
0.683584924087218,-0.39914357528988,0.416,0,0.2912
0.688904458807202,-0.37890325304086,0.416,0,0.29224
0.693873043359847,-0.35895537940366,0.416,0,0.29328
0.697600083218318,-0.339146486454692,0.416,0,0.29432
0.7009866419531,-0.319830632816478,0.416,0,0.29536
0.703901246697398,-0.300424427290962,0.416,0,0.2964
0.705656029560323,-0.280678052577577,0.416,0,0.29744
0.706705609138142,-0.260534836517711,0.416,0,0.29848
0.707537446604192,-0.241153140687109,0.416,0,0.29952
0.708586692432658,-0.222038859801038,0.416,0,0.30056
0.709837077988047,-0.200842222316715,0.416,0,0.3016
0.710020854718522,-0.179781122574965,0.416,0,0.30264
0.708709276986565,-0.159500674747491,0.416,0,0.30368
0.709041520086743,-0.140012500149846,0.416,0,0.30472
0.711392827612045,-0.119912209153413,0.416,0,0.30576
0.712555814195164,-0.0990606512673118,0.416,0,0.3068
0.712416996917294,-0.0776142544853187,0.416,0,0.30784
0.711199197404272,-0.0555722883719971,0.416,0,0.30888
0.719448755003231,-0.0368832070675653,0.416,0,0.30992
0.726321304521577,-0.0173101301631906,0.416,0,0.31096
0.734265983879211,0.00274801877118058,0.416,0,0.312
0.745816382133014,0.02380236195392,0.416,0,0.31304
0.759724703606094,0.04219092193153,0.416,0,0.31408
0.777837718039685,0.0600777812554041,0.416,0,0.31512
0.804698073469091,0.0803638073669601,0.416,0,0.31616
0.837321005036143,0.102491033588644,0.416,0,0.3172
0.870345526589828,0.12270796648297,0.416,0,0.31824
0.905677171425915,0.14206891482911,0.416,0,0.31928
0.942757554288064,0.161871528495913,0.416,0,0.32032
0.981971657086705,0.182319059817623,0.416,0,0.32136
1.02373066450626,0.203517376382217,0.416,0,0.3224
1.06738984146948,0.223865572716154,0.416,0,0.32344
1.10774639656667,0.242604128051079,0.416,0,0.32448
1.1439733993496,0.260925319974443,0.416,0,0.32552
1.17973463934926,0.279266844689429,0.416,0,0.32656
1.22043062712841,0.301764997459874,0.416,0,0.3276
1.26137194375207,0.32428769621785,0.416,0,0.32864
1.29232675812394,0.344504931326041,0.416,0,0.32968
1.31572732860308,0.362837241965492,0.416,0,0.33072
1.33482115741348,0.380043733103194,0.416,0,0.33176
1.35122091812715,0.396575602780125,0.416,0,0.3328
1.39664635099366,0.479617338086858,0.416,0,0.33696
1.4013218462709,0.499490075147505,0.416,0,0.338
1.40513785826636,0.51955002410446,0.416,0,0.33904
1.40789920235276,0.539999611256706,0.416,0,0.34008
1.40986562267478,0.560559775211498,0.416,0,0.34112
1.41134814402958,0.580921177276315,0.416,0,0.34216
1.41160766879148,0.600377054444679,0.416,0,0.3432
1.41161013005094,0.619925725648232,0.416,0,0.34424
1.41097629260285,0.639830245502663,0.416,0,0.34528
1.4098535398017,0.660787766556731,0.416,0,0.34632
1.40856112903462,0.682250486292048,0.416,0,0.34736
1.40295247815921,0.740159811218908,0.416,0,0.35048
1.39914777582608,0.759076056970928,0.416,0,0.35152
1.39429612088949,0.77978609393302,0.416,0,0.35256
1.38790854929775,0.798890586006545,0.416,0,0.3536
1.37962211034852,0.817587099672926,0.416,0,0.35464
1.36944791467248,0.836564066901992,0.416,0,0.35568
1.34336980802123,0.858637674971395,0.416,0,0.35672
1.30532937690442,0.881492815751744,0.416,0,0.35776
1.24070295677528,0.900575088484521,0.416,0,0.3588
1.15429416569225,0.918500638745566,0.416,0,0.35984
1.0187902763847,0.937526757370181,0.416,0,0.36088
0.797235089014086,0.959152551708676,0.416,0,0.36192
0.512507339516773,0.978277012381557,0.416,0,0.36296
