"Velocity[i] (m/s)","Normalized Radius","X (m)","Y (m)","Z (m)"
1.38784236595609,0.416531151842273,0.416,0,0.33384
1.39231692457309,0.437454419516126,0.416,0,0.33488
1.39651575929621,0.459002393829808,0.416,0,0.33592
1.40675377390811,0.703055078114597,0.416,0,0.3484
1.40688278550971,0.721466281430321,0.416,0,0.34944
0.0443641081116375,-0.976745940424564,0.416,0,0.26104
0.0770255835082429,-0.958301228919823,0.416,0,0.26208
0.113869935291329,-0.938184647183877,0.416,0,0.26312
0.151435483859194,-0.91914247775776,0.416,0,0.26416
0.186897530032985,-0.902143710637373,0.416,0,0.2652
0.227215336377602,-0.883523687894555,0.416,0,0.26624
0.279448401017417,-0.860530510033713,0.416,0,0.26728
0.33393600545202,-0.840070991938256,0.416,0,0.26832
0.393896583937051,-0.819154397592166,0.416,0,0.26936
0.452764515752357,-0.798266642301956,0.416,0,0.2704
0.506361285206636,-0.778174068477797,0.416,0,0.27144
0.5414580131887,-0.758238479055113,0.416,0,0.27248
0.568313080027291,-0.738029687169057,0.416,0,0.27352
0.591148243149573,-0.717992644541379,0.416,0,0.27456
0.603754041524934,-0.699140680102379,0.416,0,0.2756
0.611196570513254,-0.680210255468247,0.416,0,0.27664
0.618266694669591,-0.660805836667103,0.416,0,0.27768
0.62137923563036,-0.639967356460381,0.416,0,0.27872
0.62589774337754,-0.620077216287876,0.416,0,0.27976
0.632188693751991,-0.599643242431481,0.416,0,0.2808
0.63690600491153,-0.580124988264172,0.416,0,0.28184
0.64223313933233,-0.560168121531813,0.416,0,0.28288
0.647207443470337,-0.540141525257043,0.416,0,0.28392
0.652749927931948,-0.518867490645695,0.416,0,0.28496
0.658138291152613,-0.499046497668095,0.416,0,0.286
0.66540587565331,-0.479773143922389,0.416,0,0.28704
0.673142598672286,-0.459922909599847,0.416,0,0.28808
0.680164752875515,-0.439563094304127,0.416,0,0.28912
0.686151004289087,-0.419147159810493,0.416,0,0.29016
0.690430108436407,-0.39914357528988,0.416,0,0.2912
0.68951614825186,-0.37890325304086,0.416,0,0.29224
0.689034451527993,-0.35895537940366,0.416,0,0.29328
0.689483166013556,-0.339146486454692,0.416,0,0.29432
0.688338489364309,-0.319830632816478,0.416,0,0.29536
0.687131815671383,-0.300424427290962,0.416,0,0.2964
0.686495336780046,-0.280678052577577,0.416,0,0.29744
0.685515051564015,-0.260534836517711,0.416,0,0.29848
0.682074649787249,-0.241153140687109,0.416,0,0.29952
0.679184164911814,-0.222038859801038,0.416,0,0.30056
0.677621743523716,-0.200842222316715,0.416,0,0.3016
0.67451059514123,-0.179781122574965,0.416,0,0.30264
0.670918768841941,-0.159500674747491,0.416,0,0.30368
0.665837497013654,-0.140012500149846,0.416,0,0.30472
0.659742039326531,-0.119912209153413,0.416,0,0.30576
0.653802452006432,-0.0990606512673118,0.416,0,0.3068
0.647668323609957,-0.0776142544853187,0.416,0,0.30784
0.641941270116951,-0.0555722883719971,0.416,0,0.30888
0.644950380214761,-0.0368832070675653,0.416,0,0.30992
0.649304941626297,-0.0173101301631906,0.416,0,0.31096
0.656321887058483,0.00274801877118058,0.416,0,0.312
0.667173568533826,0.02380236195392,0.416,0,0.31304
0.689723511566887,0.04219092193153,0.416,0,0.31408
0.717645587648608,0.0600777812554041,0.416,0,0.31512
0.762114075737711,0.0803638073669601,0.416,0,0.31616
0.817559630708333,0.102491033588644,0.416,0,0.3172
0.872389870161048,0.12270796648297,0.416,0,0.31824
0.928683800684301,0.14206891482911,0.416,0,0.31928
0.987097148252748,0.161871528495913,0.416,0,0.32032
1.04844545108582,0.182319059817623,0.416,0,0.32136
1.11240153464168,0.203517376382217,0.416,0,0.3224
1.16874449444676,0.223865572716154,0.416,0,0.32344
1.21817394122588,0.242604128051079,0.416,0,0.32448
1.25881722459746,0.260925319974443,0.416,0,0.32552
1.29573512116475,0.279266844689429,0.416,0,0.32656
1.3254753096448,0.301764997459874,0.416,0,0.3276
1.35033886976756,0.32428769621785,0.416,0,0.32864
1.36514641714116,0.344504931326041,0.416,0,0.32968
1.37157096422449,0.362837241965492,0.416,0,0.33072
1.37753036176879,0.380043733103194,0.416,0,0.33176
1.3831080576612,0.396575602780125,0.416,0,0.3328
1.40006626710003,0.479617338086858,0.416,0,0.33696
1.40237050778909,0.499490075147505,0.416,0,0.338
1.40419654413017,0.51955002410446,0.416,0,0.33904
1.40541898816269,0.539999611256706,0.416,0,0.34008
1.40617393160254,0.560559775211498,0.416,0,0.34112
1.40665133764747,0.580921177276315,0.416,0,0.34216
1.40669977017932,0.600377054444679,0.416,0,0.3432
1.40664125741753,0.619925725648232,0.416,0,0.34424
1.40649653632855,0.639830245502663,0.416,0,0.34528
1.40646399001205,0.660787766556731,0.416,0,0.34632
1.40657508421053,0.682250486292048,0.416,0,0.34736
1.40666536928441,0.740159811218908,0.416,0,0.35048
1.40600537932339,0.759076056970928,0.416,0,0.35152
1.40547310573708,0.77978609393302,0.416,0,0.35256
1.40459274086459,0.798890586006545,0.416,0,0.3536
1.40345286797853,0.817587099672926,0.416,0,0.35464
1.40224976729977,0.836564066901992,0.416,0,0.35568
1.39117066708959,0.858637674971395,0.416,0,0.35672
1.37250550557406,0.881492815751744,0.416,0,0.35776
1.3118462121233,0.900575088484521,0.416,0,0.3588
1.21249311042303,0.918500638745566,0.416,0,0.35984
1.03532184947004,0.937526757370181,0.416,0,0.36088
0.754310397162139,0.959152551708676,0.416,0,0.36192
0.432475292263869,0.978277012381557,0.416,0,0.36296
