"Velocity[i] (m/s)","Normalized Radius","X (m)","Y (m)","Z (m)"
1.40036543026958,0.416531151842273,0.416,0,0.33384
1.40348370735288,0.437454419516126,0.416,0,0.33488
1.40640834041854,0.459002393829808,0.416,0,0.33592
1.41601127679411,0.703055078114597,0.416,0,0.3484
1.41571461507154,0.721466281430321,0.416,0,0.34944
0.0486815746883642,-0.976745940424564,0.416,0,0.26104
0.0795962895895558,-0.958301228919823,0.416,0,0.26208
0.115718221704729,-0.938184647183877,0.416,0,0.26312
0.15342429009784,-0.91914247775776,0.416,0,0.26416
0.189966845694422,-0.902143710637373,0.416,0,0.2652
0.231202072027234,-0.883523687894555,0.416,0,0.26624
0.28332899032022,-0.860530510033713,0.416,0,0.26728
0.33689020688372,-0.840070991938256,0.416,0,0.26832
0.393732783199249,-0.819154397592166,0.416,0,0.26936
0.450244759180187,-0.798266642301956,0.416,0,0.2704
0.500163643143959,-0.778174068477797,0.416,0,0.27144
0.532445582211587,-0.758238479055113,0.416,0,0.27248
0.556151263814225,-0.738029687169057,0.416,0,0.27352
0.575481202882493,-0.717992644541379,0.416,0,0.27456
0.58529136516459,-0.699140680102379,0.416,0,0.2756
0.590600658227306,-0.680210255468247,0.416,0,0.27664
0.59541208464462,-0.660805836667103,0.416,0,0.27768
0.596504931229882,-0.639967356460381,0.416,0,0.27872
0.598413337165405,-0.620077216287876,0.416,0,0.27976
0.60136211608999,-0.599643242431481,0.416,0,0.2808
0.602985984527826,-0.580124988264172,0.416,0,0.28184
0.606021689824247,-0.560168121531813,0.416,0,0.28288
0.609981510778151,-0.540141525257043,0.416,0,0.28392
0.615605229511225,-0.518867490645695,0.416,0,0.28496
0.621616087371593,-0.499046497668095,0.416,0,0.286
0.632648061932467,-0.479773143922389,0.416,0,0.28704
0.646250373161628,-0.459922909599847,0.416,0,0.28808
0.660132416023515,-0.439563094304127,0.416,0,0.28912
0.67399525042764,-0.419147159810493,0.416,0,0.29016
0.687563484651896,-0.39914357528988,0.416,0,0.2912
0.696182958803455,-0.37890325304086,0.416,0,0.29224
0.704907425162962,-0.35895537940366,0.416,0,0.29328
0.711850072967613,-0.339146486454692,0.416,0,0.29432
0.716222510576166,-0.319830632816478,0.416,0,0.29536
0.720468227604767,-0.300424427290962,0.416,0,0.2964
0.724199224811768,-0.280678052577577,0.416,0,0.29744
0.726919449326149,-0.260534836517711,0.416,0,0.29848
0.726804453790307,-0.241153140687109,0.416,0,0.29952
0.726648444660141,-0.222038859801038,0.416,0,0.30056
0.72654568552414,-0.200842222316715,0.416,0,0.3016
0.726119190573381,-0.179781122574965,0.416,0,0.30264
0.725830417606806,-0.159500674747491,0.416,0,0.30368
0.724519872133542,-0.140012500149846,0.416,0,0.30472
0.722457895380002,-0.119912209153413,0.416,0,0.30576
0.720477330590719,-0.0990606512673118,0.416,0,0.3068
0.718655999243309,-0.0776142544853187,0.416,0,0.30784
0.717112202555042,-0.0555722883719971,0.416,0,0.30888
0.716363483518091,-0.0368832070675653,0.416,0,0.30992
0.715965174242547,-0.0173101301631906,0.416,0,0.31096
0.715774175669048,0.00274801877118058,0.416,0,0.312
0.716156473068521,0.02380236195392,0.416,0,0.31304
0.719675507310868,0.04219092193153,0.416,0,0.31408
0.72694191469558,0.0600777812554041,0.416,0,0.31512
0.743581473872932,0.0803638073669601,0.416,0,0.31616
0.764462755737208,0.102491033588644,0.416,0,0.3172
0.791386791337545,0.12270796648297,0.416,0,0.31824
0.831348982435552,0.14206891482911,0.416,0,0.31928
0.875784301237425,0.161871528495913,0.416,0,0.32032
0.925157192096287,0.182319059817623,0.416,0,0.32136
0.978692486635419,0.203517376382217,0.416,0,0.3224
1.04067626868965,0.223865572716154,0.416,0,0.32344
1.11011209550493,0.242604128051079,0.416,0,0.32448
1.16872105565583,0.260925319974443,0.416,0,0.32552
1.22456125286142,0.279266844689429,0.416,0,0.32656
1.27901485155524,0.301764997459874,0.416,0,0.3276
1.33033559786084,0.32428769621785,0.416,0,0.32864
1.36796705417386,0.344504931326041,0.416,0,0.32968
1.37908315461072,0.362837241965492,0.416,0,0.33072
1.3885663930393,0.380043733103194,0.416,0,0.33176
1.39664281806817,0.396575602780125,0.416,0,0.3328
1.40877118439065,0.479617338086858,0.416,0,0.33696
1.4102809664651,0.499490075147505,0.416,0,0.338
1.41167905335201,0.51955002410446,0.416,0,0.33904
1.41293021704121,0.539999611256706,0.416,0,0.34008
1.41404691667004,0.560559775211498,0.416,0,0.34112
1.41503870307579,0.580921177276315,0.416,0,0.34216
1.41559076108202,0.600377054444679,0.416,0,0.3432
1.41606229714559,0.619925725648232,0.416,0,0.34424
1.41625973987471,0.639830245502663,0.416,0,0.34528
1.41624695746694,0.660787766556731,0.416,0,0.34632
1.41612909814712,0.682250486292048,0.416,0,0.34736
1.41492202270919,0.740159811218908,0.416,0,0.35048
1.41356439683191,0.759076056970928,0.416,0,0.35152
1.41188631257034,0.77978609393302,0.416,0,0.35256
1.40981419587013,0.798890586006545,0.416,0,0.3536
1.40767075356244,0.817587099672926,0.416,0,0.35464
1.4055358750286,0.836564066901992,0.416,0,0.35568
1.39458945338889,0.858637674971395,0.416,0,0.35672
1.37767633697194,0.881492815751744,0.416,0,0.35776
1.31916552085567,0.900575088484521,0.416,0,0.3588
1.22325424428992,0.918500638745566,0.416,0,0.35984
1.05183355921602,0.937526757370181,0.416,0,0.36088
0.770154526547872,0.959152551708676,0.416,0,0.36192
0.442163141584099,0.978277012381557,0.416,0,0.36296
