"Velocity[i] (m/s)","Normalized Radius","X (m)","Y (m)","Z (m)"
1.38588414645289,0.416531151842273,0.416,0,0.33384
1.38645378968548,0.437454419516126,0.416,0,0.33488
1.38711472443498,0.459002393829808,0.416,0,0.33592
1.39777941316663,0.703055078114597,0.416,0,0.3484
1.39691993334369,0.721466281430321,0.416,0,0.34944
0.059233738766969,-0.976745940424564,0.416,0,0.26104
0.089932516674055,-0.958301228919823,0.416,0,0.26208
0.122352399622532,-0.938184647183877,0.416,0,0.26312
0.15504593989431,-0.91914247775776,0.416,0,0.26416
0.185573046774564,-0.902143710637373,0.416,0,0.2652
0.219904877571036,-0.883523687894555,0.416,0,0.26624
0.26494448943121,-0.860530510033713,0.416,0,0.26728
0.312232409878194,-0.840070991938256,0.416,0,0.26832
0.363002465592243,-0.819154397592166,0.416,0,0.26936
0.414652786333837,-0.798266642301956,0.416,0,0.2704
0.462748615813631,-0.778174068477797,0.416,0,0.27144
0.49950377774894,-0.758238479055113,0.416,0,0.27248
0.530935653518139,-0.738029687169057,0.416,0,0.27352
0.559806384822026,-0.717992644541379,0.416,0,0.27456
0.579672745776539,-0.699140680102379,0.416,0,0.2756
0.594644268682259,-0.680210255468247,0.416,0,0.27664
0.606867045547652,-0.660805836667103,0.416,0,0.27768
0.614003533567598,-0.639967356460381,0.416,0,0.27872
0.621091633456275,-0.620077216287876,0.416,0,0.27976
0.627959659007904,-0.599643242431481,0.416,0,0.2808
0.633086345300718,-0.580124988264172,0.416,0,0.28184
0.640765771641145,-0.560168121531813,0.416,0,0.28288
0.647103276424,-0.540141525257043,0.416,0,0.28392
0.654253043448882,-0.518867490645695,0.416,0,0.28496
0.661777705383349,-0.499046497668095,0.416,0,0.286
0.674751547074555,-0.479773143922389,0.416,0,0.28704
0.687739372538088,-0.459922909599847,0.416,0,0.28808
0.699022820691316,-0.439563094304127,0.416,0,0.28912
0.709407996866265,-0.419147159810493,0.416,0,0.29016
0.720052342706201,-0.39914357528988,0.416,0,0.2912
0.725919563124244,-0.37890325304086,0.416,0,0.29224
0.731965336838644,-0.35895537940366,0.416,0,0.29328
0.736962853550241,-0.339146486454692,0.416,0,0.29432
0.740158303573857,-0.319830632816478,0.416,0,0.29536
0.743172140482226,-0.300424427290962,0.416,0,0.2964
0.745048199673364,-0.280678052577577,0.416,0,0.29744
0.745741332598923,-0.260534836517711,0.416,0,0.29848
0.744238593778248,-0.241153140687109,0.416,0,0.29952
0.742015827891693,-0.222038859801038,0.416,0,0.30056
0.738043147479055,-0.200842222316715,0.416,0,0.3016
0.733582664674572,-0.179781122574965,0.416,0,0.30264
0.728505435215853,-0.159500674747491,0.416,0,0.30368
0.724694562802761,-0.140012500149846,0.416,0,0.30472
0.722632013046555,-0.119912209153413,0.416,0,0.30576
0.720316264884215,-0.0990606512673118,0.416,0,0.3068
0.717822571915922,-0.0776142544853187,0.416,0,0.30784
0.716398515760512,-0.0555722883719971,0.416,0,0.30888
0.732035513773847,-0.0368832070675653,0.416,0,0.30992
0.748648277580354,-0.0173101301631906,0.416,0,0.31096
0.768977777596577,0.00274801877118058,0.416,0,0.312
0.7959274065117,0.02380236195392,0.416,0,0.31304
0.826424256107082,0.04219092193153,0.416,0,0.31408
0.860230751131382,0.0600777812554041,0.416,0,0.31512
0.903185603638853,0.0803638073669601,0.416,0,0.31616
0.951897493018448,0.102491033588644,0.416,0,0.3172
0.997503669166559,0.12270796648297,0.416,0,0.31824
1.03721392594001,0.14206891482911,0.416,0,0.31928
1.07745625701119,0.161871528495913,0.416,0,0.32032
1.1199304396579,0.182319059817623,0.416,0,0.32136
1.16552362975304,0.203517376382217,0.416,0,0.3224
1.20751256402066,0.223865572716154,0.416,0,0.32344
1.24645539990486,0.242604128051079,0.416,0,0.32448
1.28090745077187,0.260925319974443,0.416,0,0.32552
1.31358570807028,0.279266844689429,0.416,0,0.32656
1.3392541429281,0.301764997459874,0.416,0,0.3276
1.36248400642622,0.32428769621785,0.416,0,0.32864
1.37993242157456,0.344504931326041,0.416,0,0.32968
1.38197452425189,0.362837241965492,0.416,0,0.33072
1.38370677284967,0.380043733103194,0.416,0,0.33176
1.38516608028352,0.396575602780125,0.416,0,0.3328
1.38837757637485,0.479617338086858,0.416,0,0.33696
1.39104634864334,0.499490075147505,0.416,0,0.338
1.39352439587217,0.51955002410446,0.416,0,0.33904
1.39573697350195,0.539999611256706,0.416,0,0.34008
1.39767844029231,0.560559775211498,0.416,0,0.34112
1.39940390115401,0.580921177276315,0.416,0,0.34216
1.4006728659312,0.600377054444679,0.416,0,0.3432
1.40143011247405,0.619925725648232,0.416,0,0.34424
1.4010554687403,0.639830245502663,0.416,0,0.34528
1.40002990594568,0.660787766556731,0.416,0,0.34632
1.39882453986164,0.682250486292048,0.416,0,0.34736
1.39607196618252,0.740159811218908,0.416,0,0.35048
1.39526820811524,0.759076056970928,0.416,0,0.35152
1.39426135165899,0.77978609393302,0.416,0,0.35256
1.39290652001079,0.798890586006545,0.416,0,0.3536
1.39157141728899,0.817587099672926,0.416,0,0.35464
1.39036858509168,0.836564066901992,0.416,0,0.35568
1.38099885813634,0.858637674971395,0.416,0,0.35672
1.36545344631527,0.881492815751744,0.416,0,0.35776
1.31081075859158,0.900575088484521,0.416,0,0.3588
1.21858831590481,0.918500638745566,0.416,0,0.35984
1.04933562261567,0.937526757370181,0.416,0,0.36088
0.773226439759533,0.959152551708676,0.416,0,0.36192
0.449838636383321,0.978277012381557,0.416,0,0.36296
