"Velocity[i] (m/s)","Normalized Radius","X (m)","Y (m)","Z (m)"
1.3539584489271,0.416531151842273,0.416,0,0.33384
1.36413310003166,0.437454419516126,0.416,0,0.33488
1.37325944596105,0.459002393829808,0.416,0,0.33592
1.3883584113596,0.703055078114597,0.416,0,0.3484
1.38721766105577,0.721466281430321,0.416,0,0.34944
0.111041442184329,-0.976745940424564,0.416,0,0.26104
0.163350858569953,-0.958301228919823,0.416,0,0.26208
0.210192735663149,-0.938184647183877,0.416,0,0.26312
0.247961457786999,-0.91914247775776,0.416,0,0.26416
0.279226561564563,-0.902143710637373,0.416,0,0.2652
0.310487981302989,-0.883523687894555,0.416,0,0.26624
0.345599180645274,-0.860530510033713,0.416,0,0.26728
0.374918281781645,-0.840070991938256,0.416,0,0.26832
0.403843988565677,-0.819154397592166,0.416,0,0.26936
0.430644233053441,-0.798266642301956,0.416,0,0.2704
0.455012207544026,-0.778174068477797,0.416,0,0.27144
0.476556785115128,-0.758238479055113,0.416,0,0.27248
0.496981822455595,-0.738029687169057,0.416,0,0.27352
0.516700627330025,-0.717992644541379,0.416,0,0.27456
0.533713304471063,-0.699140680102379,0.416,0,0.2756
0.549650114200196,-0.680210255468247,0.416,0,0.27664
0.56545494759707,-0.660805836667103,0.416,0,0.27768
0.581150832802383,-0.639967356460381,0.416,0,0.27872
0.595442660280445,-0.620077216287876,0.416,0,0.27976
0.609270263946744,-0.599643242431481,0.416,0,0.2808
0.621711319043457,-0.580124988264172,0.416,0,0.28184
0.633532957196304,-0.560168121531813,0.416,0,0.28288
0.644872923574732,-0.540141525257043,0.416,0,0.28392
0.656129299866237,-0.518867490645695,0.416,0,0.28496
0.666048775774264,-0.499046497668095,0.416,0,0.286
0.675484989171587,-0.479773143922389,0.416,0,0.28704
0.684434701416014,-0.459922909599847,0.416,0,0.28808
0.692627196631826,-0.439563094304127,0.416,0,0.28912
0.700208375707685,-0.419147159810493,0.416,0,0.29016
0.707238965034695,-0.39914357528988,0.416,0,0.2912
0.71426928246456,-0.37890325304086,0.416,0,0.29224
0.721039316571932,-0.35895537940366,0.416,0,0.29328
0.727179736966764,-0.339146486454692,0.416,0,0.29432
0.733249827842687,-0.319830632816478,0.416,0,0.29536
0.739004386689575,-0.300424427290962,0.416,0,0.2964
0.743995375563102,-0.280678052577577,0.416,0,0.29744
0.748562714354265,-0.260534836517711,0.416,0,0.29848
0.753097854784779,-0.241153140687109,0.416,0,0.29952
0.758026940400481,-0.222038859801038,0.416,0,0.30056
0.76462724240453,-0.200842222316715,0.416,0,0.3016
0.770469690399806,-0.179781122574965,0.416,0,0.30264
0.775270067060069,-0.159500674747491,0.416,0,0.30368
0.780597578967242,-0.140012500149846,0.416,0,0.30472
0.787076604090866,-0.119912209153413,0.416,0,0.30576
0.793484936591877,-0.0990606512673118,0.416,0,0.3068
0.799622910241139,-0.0776142544853187,0.416,0,0.30784
0.805110754254594,-0.0555722883719971,0.416,0,0.30888
0.813640110065791,-0.0368832070675653,0.416,0,0.30992
0.821393758916949,-0.0173101301631906,0.416,0,0.31096
0.829525191396263,0.00274801877118058,0.416,0,0.312
0.839248199502156,0.02380236195392,0.416,0,0.31304
0.849479550977805,0.04219092193153,0.416,0,0.31408
0.860302511975758,0.0600777812554041,0.416,0,0.31512
0.876072635345364,0.0803638073669601,0.416,0,0.31616
0.894636162302563,0.102491033588644,0.416,0,0.3172
0.914466810576208,0.12270796648297,0.416,0,0.31824
0.938347791772602,0.14206891482911,0.416,0,0.31928
0.964283326809872,0.161871528495913,0.416,0,0.32032
0.992685533806016,0.182319059817623,0.416,0,0.32136
1.02322503614095,0.203517376382217,0.416,0,0.3224
1.05669770725925,0.223865572716154,0.416,0,0.32344
1.09233525809001,0.242604128051079,0.416,0,0.32448
1.12737220666961,0.260925319974443,0.416,0,0.32552
1.16276454090447,0.279266844689429,0.416,0,0.32656
1.20517706843653,0.301764997459874,0.416,0,0.3276
1.25082229199367,0.32428769621785,0.416,0,0.32864
1.28763344221393,0.344504931326041,0.416,0,0.32968
1.30870107638643,0.362837241965492,0.416,0,0.33072
1.32707352947839,0.380043733103194,0.416,0,0.33176
1.34363489949063,0.396575602780125,0.416,0,0.3328
1.37987324455872,0.479617338086858,0.416,0,0.33696
1.38271890886288,0.499490075147505,0.416,0,0.338
1.38515168222077,0.51955002410446,0.416,0,0.33904
1.38703872349878,0.539999611256706,0.416,0,0.34008
1.38856366410497,0.560559775211498,0.416,0,0.34112
1.38989214992999,0.580921177276315,0.416,0,0.34216
1.39007591853331,0.600377054444679,0.416,0,0.3432
1.39025955942807,0.619925725648232,0.416,0,0.34424
1.39023257114152,0.639830245502663,0.416,0,0.34528
1.38986511028278,0.660787766556731,0.416,0,0.34632
1.38914678861168,0.682250486292048,0.416,0,0.34736
1.3848942927555,0.740159811218908,0.416,0,0.35048
1.3805690585029,0.759076056970928,0.416,0,0.35152
1.37511593430752,0.77978609393302,0.416,0,0.35256
1.36773583865054,0.798890586006545,0.416,0,0.3536
1.35820356081249,0.817587099672926,0.416,0,0.35464
1.34680920460813,0.836564066901992,0.416,0,0.35568
1.31994387740859,0.858637674971395,0.416,0,0.35672
1.28174359488226,0.881492815751744,0.416,0,0.35776
1.21822939660226,0.900575088484521,0.416,0,0.3588
1.13477853397859,0.918500638745566,0.416,0,0.35984
1.00414761545806,0.937526757370181,0.416,0,0.36088
0.786682063474129,0.959152551708676,0.416,0,0.36192
0.501892817444144,0.978277012381557,0.416,0,0.36296
