"Velocity[i] (m/s)","Normalized Radius","X (m)","Y (m)","Z (m)"
1.41296819205893,0.416531151842273,0.416,0,0.33384
1.42027076994248,0.437454419516126,0.416,0,0.33488
1.42648356289292,0.459002393829808,0.416,0,0.33592
1.41707939267478,0.703055078114597,0.416,0,0.3484
1.41545749152862,0.721466281430321,0.416,0,0.34944
0.0517337970239015,-0.976745940424564,0.416,0,0.26104
0.0822763125563263,-0.958301228919823,0.416,0,0.26208
0.116774820879295,-0.938184647183877,0.416,0,0.26312
0.152531130569068,-0.91914247775776,0.416,0,0.26416
0.186636343175482,-0.902143710637373,0.416,0,0.2652
0.226151100687708,-0.883523687894555,0.416,0,0.26624
0.278006156536318,-0.860530510033713,0.416,0,0.26728
0.332303450933647,-0.840070991938256,0.416,0,0.26832
0.390559457430958,-0.819154397592166,0.416,0,0.26936
0.446782748674137,-0.798266642301956,0.416,0,0.2704
0.497762172849407,-0.778174068477797,0.416,0,0.27144
0.529421480495079,-0.758238479055113,0.416,0,0.27248
0.553264070577725,-0.738029687169057,0.416,0,0.27352
0.57342001106024,-0.717992644541379,0.416,0,0.27456
0.584237610286455,-0.699140680102379,0.416,0,0.2756
0.590403717747056,-0.680210255468247,0.416,0,0.27664
0.595706141414948,-0.660805836667103,0.416,0,0.27768
0.59599749606364,-0.639967356460381,0.416,0,0.27872
0.59710772216456,-0.620077216287876,0.416,0,0.27976
0.598906052704327,-0.599643242431481,0.416,0,0.2808
0.601311667479987,-0.580124988264172,0.416,0,0.28184
0.605811513859357,-0.560168121531813,0.416,0,0.28288
0.61137227987508,-0.540141525257043,0.416,0,0.28392
0.618777200681549,-0.518867490645695,0.416,0,0.28496
0.626679677734505,-0.499046497668095,0.416,0,0.286
0.639371231202868,-0.479773143922389,0.416,0,0.28704
0.653202582152936,-0.459922909599847,0.416,0,0.28808
0.666126262339266,-0.439563094304127,0.416,0,0.28912
0.678320015126873,-0.419147159810493,0.416,0,0.29016
0.691369752392644,-0.39914357528988,0.416,0,0.2912
0.699961554503722,-0.37890325304086,0.416,0,0.29224
0.708577614816606,-0.35895537940366,0.416,0,0.29328
0.716712538865896,-0.339146486454692,0.416,0,0.29432
0.723844541281088,-0.319830632816478,0.416,0,0.29536
0.730324484428813,-0.300424427290962,0.416,0,0.2964
0.735942171591935,-0.280678052577577,0.416,0,0.29744
0.740978398046447,-0.260534836517711,0.416,0,0.29848
0.743678981697575,-0.241153140687109,0.416,0,0.29952
0.746509360054766,-0.222038859801038,0.416,0,0.30056
0.750505373181908,-0.200842222316715,0.416,0,0.3016
0.754208103701958,-0.179781122574965,0.416,0,0.30264
0.757582508864102,-0.159500674747491,0.416,0,0.30368
0.760661285322646,-0.140012500149846,0.416,0,0.30472
0.76381104206285,-0.119912209153413,0.416,0,0.30576
0.767456168241802,-0.0990606512673118,0.416,0,0.3068
0.771815893599871,-0.0776142544853187,0.416,0,0.30784
0.776581432937849,-0.0555722883719971,0.416,0,0.30888
0.778330562737756,-0.0368832070675653,0.416,0,0.30992
0.780380447589737,-0.0173101301631906,0.416,0,0.31096
0.781801377566065,0.00274801877118058,0.416,0,0.312
0.782477265490125,0.02380236195392,0.416,0,0.31304
0.781797349110217,0.04219092193153,0.416,0,0.31408
0.781586122920976,0.0600777812554041,0.416,0,0.31512
0.780876461896087,0.0803638073669601,0.416,0,0.31616
0.778563579263746,0.102491033588644,0.416,0,0.3172
0.78547276799443,0.12270796648297,0.416,0,0.31824
0.801502881967071,0.14206891482911,0.416,0,0.31928
0.823073257203054,0.161871528495913,0.416,0,0.32032
0.85087780815327,0.182319059817623,0.416,0,0.32136
0.884529587620096,0.203517376382217,0.416,0,0.3224
0.934025069093803,0.223865572716154,0.416,0,0.32344
1.0014488455782,0.242604128051079,0.416,0,0.32448
1.06609936052606,0.260925319974443,0.416,0,0.32552
1.13122213877944,0.279266844689429,0.416,0,0.32656
1.20610757851814,0.301764997459874,0.416,0,0.3276
1.28247466946877,0.32428769621785,0.416,0,0.32864
1.34032268731771,0.344504931326041,0.416,0,0.32968
1.36553195788536,0.362837241965492,0.416,0,0.33072
1.38652216171622,0.380043733103194,0.416,0,0.33176
1.4045457976688,0.396575602780125,0.416,0,0.3328
1.43031304757913,0.479617338086858,0.416,0,0.33696
1.43046241661226,0.499490075147505,0.416,0,0.338
1.43033062986413,0.51955002410446,0.416,0,0.33904
1.42980134594335,0.539999611256706,0.416,0,0.34008
1.42900093455748,0.560559775211498,0.416,0,0.34112
1.42803287564957,0.580921177276315,0.416,0,0.34216
1.42633919647281,0.600377054444679,0.416,0,0.3432
1.42460560542175,0.619925725648232,0.416,0,0.34424
1.42281362021114,0.639830245502663,0.416,0,0.34528
1.42088269841459,0.660787766556731,0.416,0,0.34632
1.41894298046877,0.682250486292048,0.416,0,0.34736
1.41402936030751,0.740159811218908,0.416,0,0.35048
1.41302521191176,0.759076056970928,0.416,0,0.35152
1.41187818124734,0.77978609393302,0.416,0,0.35256
1.4106335814235,0.798890586006545,0.416,0,0.3536
1.40932477390914,0.817587099672926,0.416,0,0.35464
1.4079082366333,0.836564066901992,0.416,0,0.35568
1.39797872760488,0.858637674971395,0.416,0,0.35672
1.38222467384376,0.881492815751744,0.416,0,0.35776
1.32451501398599,0.900575088484521,0.416,0,0.3588
1.22798907526809,0.918500638745566,0.416,0,0.35984
1.05478757903253,0.937526757370181,0.416,0,0.36088
0.773319165242779,0.959152551708676,0.416,0,0.36192
0.447021605029222,0.978277012381557,0.416,0,0.36296
