"Velocity[i] (m/s)","Normalized Radius","X (m)","Y (m)","Z (m)"
1.36145339588476,0.416531151842273,0.416,0,0.33384
1.36479387472612,0.437454419516126,0.416,0,0.33488
1.36763734389123,0.459002393829808,0.416,0,0.33592
1.37191638116314,0.703055078114597,0.416,0,0.3484
1.37060577919496,0.721466281430321,0.416,0,0.34944
0.00640760755911976,-0.976745940424564,0.416,0,0.26104
0.0343206203483826,-0.958301228919823,0.416,0,0.26208
0.0701372419179686,-0.938184647183877,0.416,0,0.26312
0.107762004312552,-0.91914247775776,0.416,0,0.26416
0.143907710385592,-0.902143710637373,0.416,0,0.2652
0.185259060842306,-0.883523687894555,0.416,0,0.26624
0.238696622961801,-0.860530510033713,0.416,0,0.26728
0.294815376993455,-0.840070991938256,0.416,0,0.26832
0.354513453943372,-0.819154397592166,0.416,0,0.26936
0.412651311442711,-0.798266642301956,0.416,0,0.2704
0.464502437852259,-0.778174068477797,0.416,0,0.27144
0.496472976940741,-0.758238479055113,0.416,0,0.27248
0.519672345987636,-0.738029687169057,0.416,0,0.27352
0.538428305342821,-0.717992644541379,0.416,0,0.27456
0.547892547061743,-0.699140680102379,0.416,0,0.2756
0.552912246103916,-0.680210255468247,0.416,0,0.27664
0.556982659835019,-0.660805836667103,0.416,0,0.27768
0.557937577938919,-0.639967356460381,0.416,0,0.27872
0.559204183222355,-0.620077216287876,0.416,0,0.27976
0.560933858217131,-0.599643242431481,0.416,0,0.2808
0.562032205443953,-0.580124988264172,0.416,0,0.28184
0.564565885169296,-0.560168121531813,0.416,0,0.28288
0.568075033626518,-0.540141525257043,0.416,0,0.28392
0.573474080931945,-0.518867490645695,0.416,0,0.28496
0.579593267134038,-0.499046497668095,0.416,0,0.286
0.591078942506398,-0.479773143922389,0.416,0,0.28704
0.604726222641225,-0.459922909599847,0.416,0,0.28808
0.61839967201289,-0.439563094304127,0.416,0,0.28912
0.632011646002042,-0.419147159810493,0.416,0,0.29016
0.646253725772681,-0.39914357528988,0.416,0,0.2912
0.655652205732429,-0.37890325304086,0.416,0,0.29224
0.665051776570799,-0.35895537940366,0.416,0,0.29328
0.673430391800377,-0.339146486454692,0.416,0,0.29432
0.680143421718845,-0.319830632816478,0.416,0,0.29536
0.68653176849992,-0.300424427290962,0.416,0,0.2964
0.692465932455743,-0.280678052577577,0.416,0,0.29744
0.697462588299782,-0.260534836517711,0.416,0,0.29848
0.6991458620089,-0.241153140687109,0.416,0,0.29952
0.700582152406238,-0.222038859801038,0.416,0,0.30056
0.701505264273653,-0.200842222316715,0.416,0,0.3016
0.701771336783978,-0.179781122574965,0.416,0,0.30264
0.701684123595887,-0.159500674747491,0.416,0,0.30368
0.701400176900495,-0.140012500149846,0.416,0,0.30472
0.701125565798355,-0.119912209153413,0.416,0,0.30576
0.700794498486723,-0.0990606512673118,0.416,0,0.3068
0.70058414250817,-0.0776142544853187,0.416,0,0.30784
0.701087027278315,-0.0555722883719971,0.416,0,0.30888
0.703899205903172,-0.0368832070675653,0.416,0,0.30992
0.707497061037592,-0.0173101301631906,0.416,0,0.31096
0.711703661133196,0.00274801877118058,0.416,0,0.312
0.717436367276804,0.02380236195392,0.416,0,0.31304
0.724197189634295,0.04219092193153,0.416,0,0.31408
0.732804057987267,0.0600777812554041,0.416,0,0.31512
0.745564998887302,0.0803638073669601,0.416,0,0.31616
0.759463355996214,0.102491033588644,0.416,0,0.3172
0.779782964384769,0.12270796648297,0.416,0,0.31824
0.808265943404561,0.14206891482911,0.416,0,0.31928
0.840379665766493,0.161871528495913,0.416,0,0.32032
0.876789231516538,0.182319059817623,0.416,0,0.32136
0.916758776639339,0.203517376382217,0.416,0,0.3224
0.968355791326967,0.223865572716154,0.416,0,0.32344
1.03292097408828,0.242604128051079,0.416,0,0.32448
1.09169503111422,0.260925319974443,0.416,0,0.32552
1.15013421241615,0.279266844689429,0.416,0,0.32656
1.21219310873326,0.301764997459874,0.416,0,0.3276
1.27221061552018,0.32428769621785,0.416,0,0.32864
1.31832626085261,0.344504931326041,0.416,0,0.32968
1.33336988238832,0.362837241965492,0.416,0,0.33072
1.3463523505887,0.380043733103194,0.416,0,0.33176
1.35764199711426,0.396575602780125,0.416,0,0.3328
1.36974672900901,0.479617338086858,0.416,0,0.33696
1.37090456017955,0.499490075147505,0.416,0,0.338
1.3720383240476,0.51955002410446,0.416,0,0.33904
1.37309080328875,0.539999611256706,0.416,0,0.34008
1.37407429199176,0.560559775211498,0.416,0,0.34112
1.37500324099382,0.580921177276315,0.416,0,0.34216
1.37546103772332,0.600377054444679,0.416,0,0.3432
1.3757258872712,0.619925725648232,0.416,0,0.34424
1.37532671716944,0.639830245502663,0.416,0,0.34528
1.37426747379396,0.660787766556731,0.416,0,0.34632
1.37309374023822,0.682250486292048,0.416,0,0.34736
1.36898776352523,0.740159811218908,0.416,0,0.35048
1.36734216406792,0.759076056970928,0.416,0,0.35152
1.36546229661226,0.77978609393302,0.416,0,0.35256
1.36370091224022,0.798890586006545,0.416,0,0.3536
1.36228246120977,0.817587099672926,0.416,0,0.35464
1.36111050263032,0.836564066901992,0.416,0,0.35568
1.35227312113178,0.858637674971395,0.416,0,0.35672
1.33749126044948,0.881492815751744,0.416,0,0.35776
1.28165952971713,0.900575088484521,0.416,0,0.3588
1.18661887676032,0.918500638745566,0.416,0,0.35984
1.01540297817486,0.937526757370181,0.416,0,0.36088
0.734521263300645,0.959152551708676,0.416,0,0.36192
0.407352440172255,0.978277012381557,0.416,0,0.36296
