"Velocity[i] (m/s)","Normalized Radius","X (m)","Y (m)","Z (m)"
1.42140275980834,0.416531151842273,0.416,0,0.33384
1.42898949887537,0.437454419516126,0.416,0,0.33488
1.43550619018113,0.459002393829808,0.416,0,0.33592
1.42561245455497,0.703055078114597,0.416,0,0.3484
1.42403014455617,0.721466281430321,0.416,0,0.34944
0.0606393730979559,-0.976745940424564,0.416,0,0.26104
0.0918599475195999,-0.958301228919823,0.416,0,0.26208
0.126318424132035,-0.938184647183877,0.416,0,0.26312
0.161741044104604,-0.91914247775776,0.416,0,0.26416
0.1954846625551,-0.902143710637373,0.416,0,0.2652
0.234649032467502,-0.883523687894555,0.416,0,0.26624
0.28615997184091,-0.860530510033713,0.416,0,0.26728
0.339825009596209,-0.840070991938256,0.416,0,0.26832
0.397504600209442,-0.819154397592166,0.416,0,0.26936
0.453257329900905,-0.798266642301956,0.416,0,0.2704
0.503850743796264,-0.778174068477797,0.416,0,0.27144
0.535339853546746,-0.758238479055113,0.416,0,0.27248
0.559134495680816,-0.738029687169057,0.416,0,0.27352
0.579285466706491,-0.717992644541379,0.416,0,0.27456
0.590107552424901,-0.699140680102379,0.416,0,0.2756
0.596277003348442,-0.680210255468247,0.416,0,0.27664
0.60171596401344,-0.660805836667103,0.416,0,0.27768
0.60193582759536,-0.639967356460381,0.416,0,0.27872
0.603136141777947,-0.620077216287876,0.416,0,0.27976
0.605185924547417,-0.599643242431481,0.416,0,0.2808
0.608039660644706,-0.580124988264172,0.416,0,0.28184
0.612931435922485,-0.560168121531813,0.416,0,0.28288
0.618844669404873,-0.540141525257043,0.416,0,0.28392
0.626528852993245,-0.518867490645695,0.416,0,0.28496
0.634602691276734,-0.499046497668095,0.416,0,0.286
0.647383705916067,-0.479773143922389,0.416,0,0.28704
0.661121901755297,-0.459922909599847,0.416,0,0.28808
0.673737388918972,-0.439563094304127,0.416,0,0.28912
0.685435069295048,-0.419147159810493,0.416,0,0.29016
0.698150403278703,-0.39914357528988,0.416,0,0.2912
0.706679685196921,-0.37890325304086,0.416,0,0.29224
0.715187900887084,-0.35895537940366,0.416,0,0.29328
0.723228853522209,-0.339146486454692,0.416,0,0.29432
0.730436851250443,-0.319830632816478,0.416,0,0.29536
0.737053715287544,-0.300424427290962,0.416,0,0.2964
0.742679479342109,-0.280678052577577,0.416,0,0.29744
0.74767660115619,-0.260534836517711,0.416,0,0.29848
0.750560246824935,-0.241153140687109,0.416,0,0.29952
0.753590066409987,-0.222038859801038,0.416,0,0.30056
0.757883800069855,-0.200842222316715,0.416,0,0.3016
0.761774280597973,-0.179781122574965,0.416,0,0.30264
0.765293258066325,-0.159500674747491,0.416,0,0.30368
0.768121354583655,-0.140012500149846,0.416,0,0.30472
0.770627845333193,-0.119912209153413,0.416,0,0.30576
0.773618309851677,-0.0990606512673118,0.416,0,0.3068
0.777315471884643,-0.0776142544853187,0.416,0,0.30784
0.781269223528605,-0.0555722883719971,0.416,0,0.30888
0.781888203671729,-0.0368832070675653,0.416,0,0.30992
0.782735086180898,-0.0173101301631906,0.416,0,0.31096
0.782872617990448,0.00274801877118058,0.416,0,0.312
0.782025463292158,0.02380236195392,0.416,0,0.31304
0.780303989081376,0.04219092193153,0.416,0,0.31408
0.779351705210561,0.0600777812554041,0.416,0,0.31512
0.77824085891849,0.0803638073669601,0.416,0,0.31616
0.775821136205918,0.102491033588644,0.416,0,0.3172
0.783120621892027,0.12270796648297,0.416,0,0.31824
0.800663256918761,0.14206891482911,0.416,0,0.31928
0.824151818461725,0.161871528495913,0.416,0,0.32032
0.854164967151414,0.182319059817623,0.416,0,0.32136
0.890191582886995,0.203517376382217,0.416,0,0.3224
0.941972019653077,0.223865572716154,0.416,0,0.32344
1.01117485069575,0.242604128051079,0.416,0,0.32448
1.07662602528507,0.260925319974443,0.416,0,0.32552
1.14212677458237,0.279266844689429,0.416,0,0.32656
1.21656390284434,0.301764997459874,0.416,0,0.3276
1.29173708450977,0.32428769621785,0.416,0,0.32864
1.3480623843644,0.344504931326041,0.416,0,0.32968
1.37335907286467,0.362837241965492,0.416,0,0.33072
1.39443775998387,0.380043733103194,0.416,0,0.33176
1.41256309135594,0.396575602780125,0.416,0,0.3328
1.43964981736699,0.479617338086858,0.416,0,0.33696
1.43992812579798,0.499490075147505,0.416,0,0.338
1.43987836287478,0.51955002410446,0.416,0,0.33904
1.43937943697679,0.539999611256706,0.416,0,0.34008
1.43857375018833,0.560559775211498,0.416,0,0.34112
1.43757796763534,0.580921177276315,0.416,0,0.34216
1.43567598442499,0.600377054444679,0.416,0,0.3432
1.43375683998609,0.619925725648232,0.416,0,0.34424
1.43177440249351,0.639830245502663,0.416,0,0.34528
1.42967794108284,0.660787766556731,0.416,0,0.34632
1.42759203713407,0.682250486292048,0.416,0,0.34736
1.42275429882079,0.740159811218908,0.416,0,0.35048
1.42189671673409,0.759076056970928,0.416,0,0.35152
1.42074418932731,0.77978609393302,0.416,0,0.35256
1.41945856283905,0.798890586006545,0.416,0,0.3536
1.41804406825418,0.817587099672926,0.416,0,0.35464
1.41645742212889,0.836564066901992,0.416,0,0.35568
1.40626410183788,0.858637674971395,0.416,0,0.35672
1.39030652836264,0.881492815751744,0.416,0,0.35776
1.33227664798926,0.900575088484521,0.416,0,0.3588
1.23530450748318,0.918500638745566,0.416,0,0.35984
1.06135209057571,0.937526757370181,0.416,0,0.36088
0.779115080323053,0.959152551708676,0.416,0,0.36192
0.45276685185086,0.978277012381557,0.416,0,0.36296
