"Velocity[i] (m/s)","Normalized Radius","X (m)","Y (m)","Z (m)"
1.35902726093831,0.416531151842273,0.416,0,0.33384
1.37032258250645,0.437454419516126,0.416,0,0.33488
1.37912573161537,0.459002393829808,0.416,0,0.33592
1.36523507115744,0.703055078114597,0.416,0,0.3484
1.36680954533789,0.721466281430321,0.416,0,0.34944
0.0169254108114527,-0.976745940424564,0.416,0,0.26104
0.04541845888123,-0.958301228919823,0.416,0,0.26208
0.0793669615785432,-0.938184647183877,0.416,0,0.26312
0.114370294732446,-0.91914247775776,0.416,0,0.26416
0.14698617648799,-0.902143710637373,0.416,0,0.2652
0.18392534990428,-0.883523687894555,0.416,0,0.26624
0.232490504827922,-0.860530510033713,0.416,0,0.26728
0.282226041759229,-0.840070991938256,0.416,0,0.26832
0.332389348575164,-0.819154397592166,0.416,0,0.26936
0.381149404791072,-0.798266642301956,0.416,0,0.2704
0.422949098497228,-0.778174068477797,0.416,0,0.27144
0.449703593581866,-0.758238479055113,0.416,0,0.27248
0.470004645588402,-0.738029687169057,0.416,0,0.27352
0.488058284344582,-0.717992644541379,0.416,0,0.27456
0.500606109627481,-0.699140680102379,0.416,0,0.2756
0.509851493244051,-0.680210255468247,0.416,0,0.27664
0.517576638138135,-0.660805836667103,0.416,0,0.27768
0.523596467835468,-0.639967356460381,0.416,0,0.27872
0.529618832845665,-0.620077216287876,0.416,0,0.27976
0.536878588979256,-0.599643242431481,0.416,0,0.2808
0.546411018818666,-0.580124988264172,0.416,0,0.28184
0.557375041931251,-0.560168121531813,0.416,0,0.28288
0.568847713906142,-0.540141525257043,0.416,0,0.28392
0.581577858349192,-0.518867490645695,0.416,0,0.28496
0.593927760606762,-0.499046497668095,0.416,0,0.286
0.610114123604116,-0.479773143922389,0.416,0,0.28704
0.626941822801046,-0.459922909599847,0.416,0,0.28808
0.643286924600614,-0.439563094304127,0.416,0,0.28912
0.659160951650898,-0.419147159810493,0.416,0,0.29016
0.675981171073934,-0.39914357528988,0.416,0,0.2912
0.684036500572286,-0.37890325304086,0.416,0,0.29224
0.692349923398791,-0.35895537940366,0.416,0,0.29328
0.700668161953631,-0.339146486454692,0.416,0,0.29432
0.706806037754242,-0.319830632816478,0.416,0,0.29536
0.713287166114647,-0.300424427290962,0.416,0,0.2964
0.720239704580012,-0.280678052577577,0.416,0,0.29744
0.725907731444685,-0.260534836517711,0.416,0,0.29848
0.729672342719681,-0.241153140687109,0.416,0,0.29952
0.733493379979312,-0.222038859801038,0.416,0,0.30056
0.738341432705484,-0.200842222316715,0.416,0,0.3016
0.743906619697004,-0.179781122574965,0.416,0,0.30264
0.749887760029471,-0.159500674747491,0.416,0,0.30368
0.755316685716369,-0.140012500149846,0.416,0,0.30472
0.760461482020493,-0.119912209153413,0.416,0,0.30576
0.767242189216657,-0.0990606512673118,0.416,0,0.3068
0.775912685406938,-0.0776142544853187,0.416,0,0.30784
0.786286315338876,-0.0555722883719971,0.416,0,0.30888
0.797375201095411,-0.0368832070675653,0.416,0,0.30992
0.809527760661843,-0.0173101301631906,0.416,0,0.31096
0.822988380875549,0.00274801877118058,0.416,0,0.312
0.837709471918257,0.02380236195392,0.416,0,0.31304
0.848494073822951,0.04219092193153,0.416,0,0.31408
0.85627938641412,0.0600777812554041,0.416,0,0.31512
0.861650911443915,0.0803638073669601,0.416,0,0.31616
0.865690883518511,0.102491033588644,0.416,0,0.3172
0.865557973563939,0.12270796648297,0.416,0,0.31824
0.861369049833251,0.14206891482911,0.416,0,0.31928
0.859104243173124,0.161871528495913,0.416,0,0.32032
0.858689709125936,0.182319059817623,0.416,0,0.32136
0.859346330465428,0.203517376382217,0.416,0,0.3224
0.872183123367051,0.223865572716154,0.416,0,0.32344
0.903945057996266,0.242604128051079,0.416,0,0.32448
0.950556335333124,0.260925319974443,0.416,0,0.32552
1.00522638551083,0.279266844689429,0.416,0,0.32656
1.08645699966386,0.301764997459874,0.416,0,0.3276
1.17398012303439,0.32428769621785,0.416,0,0.32864
1.24348473653361,0.344504931326041,0.416,0,0.32968
1.28197510676878,0.362837241965492,0.416,0,0.33072
1.31599808056825,0.380043733103194,0.416,0,0.33176
1.34775186894935,0.396575602780125,0.416,0,0.3328
1.38266096208721,0.479617338086858,0.416,0,0.33696
1.37991141544278,0.499490075147505,0.416,0,0.338
1.37685690775403,0.51955002410446,0.416,0,0.33904
1.37371446434859,0.539999611256706,0.416,0,0.34008
1.370686374638,0.560559775211498,0.416,0,0.34112
1.36780395460686,0.580921177276315,0.416,0,0.34216
1.36523058406896,0.600377054444679,0.416,0,0.3432
1.36317005490185,0.619925725648232,0.416,0,0.34424
1.36254111534016,0.639830245502663,0.416,0,0.34528
1.36321177410638,0.660787766556731,0.416,0,0.34632
1.36420095467612,0.682250486292048,0.416,0,0.34736
1.36851087833061,0.740159811218908,0.416,0,0.35048
1.36949241804411,0.759076056970928,0.416,0,0.35152
1.3702795262022,0.77978609393302,0.416,0,0.35256
1.37022700555481,0.798890586006545,0.416,0,0.3536
1.36987181363325,0.817587099672926,0.416,0,0.35464
1.36935360196512,0.836564066901992,0.416,0,0.35568
1.3612655300407,0.858637674971395,0.416,0,0.35672
1.34693181931427,0.881492815751744,0.416,0,0.35776
1.29310611504558,0.900575088484521,0.416,0,0.3588
1.19938237188212,0.918500638745566,0.416,0,0.35984
1.02577874259449,0.937526757370181,0.416,0,0.36088
0.745820733455389,0.959152551708676,0.416,0,0.36192
0.420171984573565,0.978277012381557,0.416,0,0.36296
