"Velocity[i] (m/s)","Normalized Radius","X (m)","Y (m)","Z (m)"
1.39257571943496,0.416531151842273,0.416,0,0.33384
1.39607886799277,0.437454419516126,0.416,0,0.33488
1.39893041415351,0.459002393829808,0.416,0,0.33592
1.40214178804912,0.703055078114597,0.416,0,0.3484
1.40278448085839,0.721466281430321,0.416,0,0.34944
0.028211876765692,-0.976745940424564,0.416,0,0.26104
0.0567093619790993,-0.958301228919823,0.416,0,0.26208
0.0894367141450275,-0.938184647183877,0.416,0,0.26312
0.122674911552183,-0.91914247775776,0.416,0,0.26416
0.154223063850302,-0.902143710637373,0.416,0,0.2652
0.191507860288738,-0.883523687894555,0.416,0,0.26624
0.241085970722205,-0.860530510033713,0.416,0,0.26728
0.291346100554995,-0.840070991938256,0.416,0,0.26832
0.345690465050803,-0.819154397592166,0.416,0,0.26936
0.39886040831901,-0.798266642301956,0.416,0,0.2704
0.444466553547294,-0.778174068477797,0.416,0,0.27144
0.474979070366084,-0.758238479055113,0.416,0,0.27248
0.49788261566906,-0.738029687169057,0.416,0,0.27352
0.516530287354013,-0.717992644541379,0.416,0,0.27456
0.527724436763717,-0.699140680102379,0.416,0,0.2756
0.535403843740726,-0.680210255468247,0.416,0,0.27664
0.54287732921661,-0.660805836667103,0.416,0,0.27768
0.54868763402964,-0.639967356460381,0.416,0,0.27872
0.554221789462147,-0.620077216287876,0.416,0,0.27976
0.561409977809718,-0.599643242431481,0.416,0,0.2808
0.570386481313383,-0.580124988264172,0.416,0,0.28184
0.577279973360556,-0.560168121531813,0.416,0,0.28288
0.583271832407227,-0.540141525257043,0.416,0,0.28392
0.590709014037119,-0.518867490645695,0.416,0,0.28496
0.598587106229281,-0.499046497668095,0.416,0,0.286
0.610107131441734,-0.479773143922389,0.416,0,0.28704
0.62123185937447,-0.459922909599847,0.416,0,0.28808
0.630637820017475,-0.439563094304127,0.416,0,0.28912
0.639006942421439,-0.419147159810493,0.416,0,0.29016
0.65078157825121,-0.39914357528988,0.416,0,0.2912
0.657618539688815,-0.37890325304086,0.416,0,0.29224
0.664527901741836,-0.35895537940366,0.416,0,0.29328
0.672293569167129,-0.339146486454692,0.416,0,0.29432
0.679806929788422,-0.319830632816478,0.416,0,0.29536
0.686488459030282,-0.300424427290962,0.416,0,0.2964
0.691907008114143,-0.280678052577577,0.416,0,0.29744
0.696078428438949,-0.260534836517711,0.416,0,0.29848
0.69747227962713,-0.241153140687109,0.416,0,0.29952
0.69915504936747,-0.222038859801038,0.416,0,0.30056
0.702778425366215,-0.200842222316715,0.416,0,0.3016
0.706456748742621,-0.179781122574965,0.416,0,0.30264
0.709963860382189,-0.159500674747491,0.416,0,0.30368
0.71419886140355,-0.140012500149846,0.416,0,0.30472
0.719308223888082,-0.119912209153413,0.416,0,0.30576
0.725907916800384,-0.0990606512673118,0.416,0,0.3068
0.73426551332282,-0.0776142544853187,0.416,0,0.30784
0.744366440143451,-0.0555722883719971,0.416,0,0.30888
0.747510581530316,-0.0368832070675653,0.416,0,0.30992
0.752123987618466,-0.0173101301631906,0.416,0,0.31096
0.756256353447805,0.00274801877118058,0.416,0,0.312
0.759120451154102,0.02380236195392,0.416,0,0.31304
0.756969856981177,0.04219092193153,0.416,0,0.31408
0.753453459862028,0.0600777812554041,0.416,0,0.31512
0.748480623434596,0.0803638073669601,0.416,0,0.31616
0.741517461362186,0.102491033588644,0.416,0,0.3172
0.744279168256694,0.12270796648297,0.416,0,0.31824
0.760021114443539,0.14206891482911,0.416,0,0.31928
0.783954447818602,0.161871528495913,0.416,0,0.32032
0.816723281787594,0.182319059817623,0.416,0,0.32136
0.858865753323091,0.203517376382217,0.416,0,0.3224
0.918815976326326,0.223865572716154,0.416,0,0.32344
0.993851182585407,0.242604128051079,0.416,0,0.32448
1.06529336996818,0.260925319974443,0.416,0,0.32552
1.13665928843804,0.279266844689429,0.416,0,0.32656
1.20940723097992,0.301764997459874,0.416,0,0.3276
1.28691316264409,0.32428769621785,0.416,0,0.32864
1.34163399487005,0.344504931326041,0.416,0,0.32968
1.36104100617249,0.362837241965492,0.416,0,0.33072
1.37626280741844,0.380043733103194,0.416,0,0.33176
1.38858219227652,0.396575602780125,0.416,0,0.3328
1.40046841922449,0.479617338086858,0.416,0,0.33696
1.40012321383165,0.499490075147505,0.416,0,0.338
1.39978446649556,0.51955002410446,0.416,0,0.33904
1.39959006085419,0.539999611256706,0.416,0,0.34008
1.39958708514312,0.560559775211498,0.416,0,0.34112
1.39963417287484,0.580921177276315,0.416,0,0.34216
1.39952577901692,0.600377054444679,0.416,0,0.3432
1.39963114083675,0.619925725648232,0.416,0,0.34424
1.39999384342503,0.639830245502663,0.416,0,0.34528
1.40061524567647,0.660787766556731,0.416,0,0.34632
1.40137000002363,0.682250486292048,0.416,0,0.34736
1.40296270706763,0.740159811218908,0.416,0,0.35048
1.40252894730245,0.759076056970928,0.416,0,0.35152
1.40180394246797,0.77978609393302,0.416,0,0.35256
1.40036327625243,0.798890586006545,0.416,0,0.3536
1.39876017198213,0.817587099672926,0.416,0,0.35464
1.39716849336569,0.836564066901992,0.416,0,0.35568
1.38490265477336,0.858637674971395,0.416,0,0.35672
1.3640207064177,0.881492815751744,0.416,0,0.35776
1.29984655316523,0.900575088484521,0.416,0,0.3588
1.19625990789929,0.918500638745566,0.416,0,0.35984
1.01829881814104,0.937526757370181,0.416,0,0.36088
0.736973604926263,0.959152551708676,0.416,0,0.36192
0.416250261167003,0.978277012381557,0.416,0,0.36296
