"Velocity[i] (m/s)","Normalized Radius","X (m)","Y (m)","Z (m)"
1.41655446254831,0.416531151842273,0.416,0,0.33384
1.42082999408903,0.437454419516126,0.416,0,0.33488
1.42430658034407,0.459002393829808,0.416,0,0.33592
1.42033504125483,0.703055078114597,0.416,0,0.3484
1.41870754277343,0.721466281430321,0.416,0,0.34944
0.0565000721159011,-0.976745940424564,0.416,0,0.26104
0.0902939506092502,-0.958301228919823,0.416,0,0.26208
0.126703116285695,-0.938184647183877,0.416,0,0.26312
0.163014868712192,-0.91914247775776,0.416,0,0.26416
0.197743370045956,-0.902143710637373,0.416,0,0.2652
0.237815383346643,-0.883523687894555,0.416,0,0.26624
0.290360486212001,-0.860530510033713,0.416,0,0.26728
0.345543659666602,-0.840070991938256,0.416,0,0.26832
0.404557113424287,-0.819154397592166,0.416,0,0.26936
0.462151519247023,-0.798266642301956,0.416,0,0.2704
0.513822898756583,-0.778174068477797,0.416,0,0.27144
0.545737127793194,-0.758238479055113,0.416,0,0.27248
0.56931999994969,-0.738029687169057,0.416,0,0.27352
0.588570775268929,-0.717992644541379,0.416,0,0.27456
0.598422032936258,-0.699140680102379,0.416,0,0.2756
0.603719297453906,-0.680210255468247,0.416,0,0.27664
0.608153258880705,-0.660805836667103,0.416,0,0.27768
0.609076978275844,-0.639967356460381,0.416,0,0.27872
0.610443763912897,-0.620077216287876,0.416,0,0.27976
0.612238688964196,-0.599643242431481,0.416,0,0.2808
0.613813607217439,-0.580124988264172,0.416,0,0.28184
0.616900915038469,-0.560168121531813,0.416,0,0.28288
0.621311203262615,-0.540141525257043,0.416,0,0.28392
0.627682558062779,-0.518867490645695,0.416,0,0.28496
0.634667031518675,-0.499046497668095,0.416,0,0.286
0.646631195046694,-0.479773143922389,0.416,0,0.28704
0.660380349848559,-0.459922909599847,0.416,0,0.28808
0.673849122983335,-0.439563094304127,0.416,0,0.28912
0.68701211913415,-0.419147159810493,0.416,0,0.29016
0.700867052682442,-0.39914357528988,0.416,0,0.2912
0.710277635110294,-0.37890325304086,0.416,0,0.29224
0.719731919608615,-0.35895537940366,0.416,0,0.29328
0.728393154087868,-0.339146486454692,0.416,0,0.29432
0.735398713218889,-0.319830632816478,0.416,0,0.29536
0.74193702950266,-0.300424427290962,0.416,0,0.2964
0.747843270711188,-0.280678052577577,0.416,0,0.29744
0.752977690789849,-0.260534836517711,0.416,0,0.29848
0.755268533360989,-0.241153140687109,0.416,0,0.29952
0.757491407534568,-0.222038859801038,0.416,0,0.30056
0.760017900528316,-0.200842222316715,0.416,0,0.3016
0.762085055832505,-0.179781122574965,0.416,0,0.30264
0.763770849255762,-0.159500674747491,0.416,0,0.30368
0.765481007675269,-0.140012500149846,0.416,0,0.30472
0.767670906764714,-0.119912209153413,0.416,0,0.30576
0.770143353785868,-0.0990606512673118,0.416,0,0.3068
0.773034186204953,-0.0776142544853187,0.416,0,0.30784
0.776635985875247,-0.0555722883719971,0.416,0,0.30888
0.78065064951087,-0.0368832070675653,0.416,0,0.30992
0.785195818599927,-0.0173101301631906,0.416,0,0.31096
0.789831312024713,0.00274801877118058,0.416,0,0.312
0.794996757346882,0.02380236195392,0.416,0,0.31304
0.799413457057102,0.04219092193153,0.416,0,0.31408
0.804204845984485,0.0600777812554041,0.416,0,0.31512
0.809965984445542,0.0803638073669601,0.416,0,0.31616
0.815001160048711,0.102491033588644,0.416,0,0.3172
0.82673478006136,0.12270796648297,0.416,0,0.31824
0.845381368923233,0.14206891482911,0.416,0,0.31928
0.867945624708827,0.161871528495913,0.416,0,0.32032
0.89518150886504,0.182319059817623,0.416,0,0.32136
0.926766127851595,0.203517376382217,0.416,0,0.3224
0.9727648393949,0.223865572716154,0.416,0,0.32344
1.03593161805269,0.242604128051079,0.416,0,0.32448
1.09717487322212,0.260925319974443,0.416,0,0.32552
1.15942681703811,0.279266844689429,0.416,0,0.32656
1.23082035015498,0.301764997459874,0.416,0,0.3276
1.30221942058009,0.32428769621785,0.416,0,0.32864
1.3580095468414,0.344504931326041,0.416,0,0.32968
1.37865187180049,0.362837241965492,0.416,0,0.33072
1.39628873438062,0.380043733103194,0.416,0,0.33176
1.41162871286861,0.396575602780125,0.416,0,0.3328
1.42628976646013,0.479617338086858,0.416,0,0.33696
1.42634786414513,0.499490075147505,0.416,0,0.338
1.42640184272288,0.51955002410446,0.416,0,0.33904
1.42646917539939,0.539999611256706,0.416,0,0.34008
1.42657024684945,0.560559775211498,0.416,0,0.34112
1.4266829746401,0.580921177276315,0.416,0,0.34216
1.42627137170155,0.600377054444679,0.416,0,0.3432
1.42579045455514,0.619925725648232,0.416,0,0.34424
1.42490350818359,0.639830245502663,0.416,0,0.34528
1.423538087172,0.660787766556731,0.416,0,0.34632
1.42194650417986,0.682250486292048,0.416,0,0.34736
1.41697002236615,0.740159811218908,0.416,0,0.35048
1.41515937211197,0.759076056970928,0.416,0,0.35152
1.41267447361087,0.77978609393302,0.416,0,0.35256
1.41007601165405,0.798890586006545,0.416,0,0.3536
1.40766348584619,0.817587099672926,0.416,0,0.35464
1.40532435006615,0.836564066901992,0.416,0,0.35568
1.39528118353801,0.858637674971395,0.416,0,0.35672
1.379933406497,0.881492815751744,0.416,0,0.35776
1.32370894533831,0.900575088484521,0.416,0,0.3588
1.22961228319374,0.918500638745566,0.416,0,0.35984
1.05898002964336,0.937526757370181,0.416,0,0.36088
0.777548138478004,0.959152551708676,0.416,0,0.36192
0.447546482124267,0.978277012381557,0.416,0,0.36296
