"Velocity[i] (m/s)","Normalized Radius","X (m)","Y (m)","Z (m)"
1.33525936926021,0.416531151842273,0.416,0,0.33384
1.34870977797499,0.437454419516126,0.416,0,0.33488
1.36099432237023,0.459002393829808,0.416,0,0.33592
1.37555972095735,0.703055078114597,0.416,0,0.3484
1.37348533239236,0.721466281430321,0.416,0,0.34944
0.0722847408604624,-0.976745940424564,0.416,0,0.26104
0.115752542649244,-0.958301228919823,0.416,0,0.26208
0.159510680826765,-0.938184647183877,0.416,0,0.26312
0.197578231540814,-0.91914247775776,0.416,0,0.26416
0.229831171690883,-0.902143710637373,0.416,0,0.2652
0.262747743284885,-0.883523687894555,0.416,0,0.26624
0.300418695366394,-0.860530510033713,0.416,0,0.26728
0.332332664628387,-0.840070991938256,0.416,0,0.26832
0.363918192681253,-0.819154397592166,0.416,0,0.26936
0.392536845021689,-0.798266642301956,0.416,0,0.2704
0.418559649041212,-0.778174068477797,0.416,0,0.27144
0.441256127720735,-0.758238479055113,0.416,0,0.27248
0.462565281836989,-0.738029687169057,0.416,0,0.27352
0.483085712457103,-0.717992644541379,0.416,0,0.27456
0.500482282367222,-0.699140680102379,0.416,0,0.2756
0.51653830784665,-0.680210255468247,0.416,0,0.27664
0.532510759544256,-0.660805836667103,0.416,0,0.27768
0.547283368641467,-0.639967356460381,0.416,0,0.27872
0.560844207671607,-0.620077216287876,0.416,0,0.27976
0.573790576713599,-0.599643242431481,0.416,0,0.2808
0.584978586530972,-0.580124988264172,0.416,0,0.28184
0.595771276758917,-0.560168121531813,0.416,0,0.28288
0.605940303327444,-0.540141525257043,0.416,0,0.28392
0.61580338457607,-0.518867490645695,0.416,0,0.28496
0.624537702651694,-0.499046497668095,0.416,0,0.286
0.632719322219203,-0.479773143922389,0.416,0,0.28704
0.640404471213106,-0.459922909599847,0.416,0,0.28808
0.647353013188641,-0.439563094304127,0.416,0,0.28912
0.653712593645564,-0.419147159810493,0.416,0,0.29016
0.659061987767405,-0.39914357528988,0.416,0,0.2912
0.664427686251547,-0.37890325304086,0.416,0,0.29224
0.669455719356495,-0.35895537940366,0.416,0,0.29328
0.673522266240134,-0.339146486454692,0.416,0,0.29432
0.677526921036158,-0.319830632816478,0.416,0,0.29536
0.680973487789886,-0.300424427290962,0.416,0,0.2964
0.683408919784963,-0.280678052577577,0.416,0,0.29744
0.685299198397256,-0.260534836517711,0.416,0,0.29848
0.686903958025406,-0.241153140687109,0.416,0,0.29952
0.688697176293916,-0.222038859801038,0.416,0,0.30056
0.690615902178459,-0.200842222316715,0.416,0,0.3016
0.691459323500839,-0.179781122574965,0.416,0,0.30264
0.690901864596617,-0.159500674747491,0.416,0,0.30368
0.691416374435079,-0.140012500149846,0.416,0,0.30472
0.693421198226187,-0.119912209153413,0.416,0,0.30576
0.694330962358315,-0.0990606512673118,0.416,0,0.3068
0.693991881999328,-0.0776142544853187,0.416,0,0.30784
0.69235755710036,-0.0555722883719971,0.416,0,0.30888
0.697599683135331,-0.0368832070675653,0.416,0,0.30992
0.701208646850377,-0.0173101301631906,0.416,0,0.31096
0.704883745965831,0.00274801877118058,0.416,0,0.312
0.710634921129459,0.02380236195392,0.416,0,0.31304
0.718655644944597,0.04219092193153,0.416,0,0.31408
0.731100657924457,0.0600777812554041,0.416,0,0.31512
0.75126099757138,0.0803638073669601,0.416,0,0.31616
0.776396743811826,0.102491033588644,0.416,0,0.3172
0.804221706917747,0.12270796648297,0.416,0,0.31824
0.837033049256341,0.14206891482911,0.416,0,0.31928
0.872312007846334,0.161871528495913,0.416,0,0.32032
0.910399984754605,0.182319059817623,0.416,0,0.32136
0.95178302956763,0.203517376382217,0.416,0,0.3224
0.997345007693227,0.223865572716154,0.416,0,0.32344
1.0416612359289,0.242604128051079,0.416,0,0.32448
1.08235987996842,0.260925319974443,0.416,0,0.32552
1.12283711677556,0.279266844689429,0.416,0,0.32656
1.1695880088774,0.301764997459874,0.416,0,0.3276
1.2172601247712,0.32428769621785,0.416,0,0.32864
1.25374002288127,0.344504931326041,0.416,0,0.32968
1.28019570725158,0.362837241965492,0.416,0,0.33072
1.30202533332495,0.380043733103194,0.416,0,0.33176
1.32091484820514,0.396575602780125,0.416,0,0.3328
1.37071127678157,0.479617338086858,0.416,0,0.33696
1.37495203579148,0.499490075147505,0.416,0,0.338
1.37830044009877,0.51955002410446,0.416,0,0.33904
1.38048380101521,0.539999611256706,0.416,0,0.34008
1.38184622380138,0.560559775211498,0.416,0,0.34112
1.38277783458863,0.580921177276315,0.416,0,0.34216
1.3824427428101,0.600377054444679,0.416,0,0.3432
1.38187173180373,0.619925725648232,0.416,0,0.34424
1.38074835800107,0.639830245502663,0.416,0,0.34528
1.3791257011383,0.660787766556731,0.416,0,0.34632
1.3773944892153,0.682250486292048,0.416,0,0.34736
1.37047733505274,0.740159811218908,0.416,0,0.35048
1.36635502689644,0.759076056970928,0.416,0,0.35152
1.36148695803136,0.77978609393302,0.416,0,0.35256
1.35535239886658,0.798890586006545,0.416,0,0.3536
1.34757321828769,0.817587099672926,0.416,0,0.35464
1.33813896886339,0.836564066901992,0.416,0,0.35568
1.31268411139814,0.858637674971395,0.416,0,0.35672
1.2749639926509,0.881492815751744,0.416,0,0.35776
1.21054360058029,0.900575088484521,0.416,0,0.3588
1.12478846598619,0.918500638745566,0.416,0,0.35984
0.990754175713094,0.937526757370181,0.416,0,0.36088
0.771527948005557,0.959152551708676,0.416,0,0.36192
0.489842041214736,0.978277012381557,0.416,0,0.36296
