"Velocity[i] (m/s)","Normalized Radius","X (m)","Y (m)","Z (m)"
1.33146342787285,0.416531151842273,0.416,0,0.33384
1.34025029345512,0.437454419516126,0.416,0,0.33488
1.34844911268924,0.459002393829808,0.416,0,0.33592
1.38324144985477,0.703055078114597,0.416,0,0.3484
1.38243823050154,0.721466281430321,0.416,0,0.34944
0.101642986086727,-0.976745940424564,0.416,0,0.26104
0.153552876876223,-0.958301228919823,0.416,0,0.26208
0.200806946477875,-0.938184647183877,0.416,0,0.26312
0.238914010095383,-0.91914247775776,0.416,0,0.26416
0.269882246212003,-0.902143710637373,0.416,0,0.2652
0.300377580649265,-0.883523687894555,0.416,0,0.26624
0.334137883452774,-0.860530510033713,0.416,0,0.26728
0.362282058511055,-0.840070991938256,0.416,0,0.26832
0.390000887765898,-0.819154397592166,0.416,0,0.26936
0.415349790068326,-0.798266642301956,0.416,0,0.2704
0.438642258276088,-0.778174068477797,0.416,0,0.27144
0.459623894555329,-0.758238479055113,0.416,0,0.27248
0.479650937335235,-0.738029687169057,0.416,0,0.27352
0.499184726570054,-0.717992644541379,0.416,0,0.27456
0.516255347624228,-0.699140680102379,0.416,0,0.2756
0.532337156896749,-0.680210255468247,0.416,0,0.27664
0.548298006308144,-0.660805836667103,0.416,0,0.27768
0.563968280084787,-0.639967356460381,0.416,0,0.27872
0.578259545062642,-0.620077216287876,0.416,0,0.27976
0.59208077092365,-0.599643242431481,0.416,0,0.2808
0.60450180138717,-0.580124988264172,0.416,0,0.28184
0.616455641819696,-0.560168121531813,0.416,0,0.28288
0.627684412819173,-0.540141525257043,0.416,0,0.28392
0.638889514265227,-0.518867490645695,0.416,0,0.28496
0.648771855500468,-0.499046497668095,0.416,0,0.286
0.65814928890568,-0.479773143922389,0.416,0,0.28704
0.666990992408755,-0.459922909599847,0.416,0,0.28808
0.675062702781551,-0.439563094304127,0.416,0,0.28912
0.682559077133389,-0.419147159810493,0.416,0,0.29016
0.689147184769166,-0.39914357528988,0.416,0,0.2912
0.695579482882722,-0.37890325304086,0.416,0,0.29224
0.701737454512918,-0.35895537940366,0.416,0,0.29328
0.707109049094968,-0.339146486454692,0.416,0,0.29432
0.712440119904551,-0.319830632816478,0.416,0,0.29536
0.717516610462565,-0.300424427290962,0.416,0,0.2964
0.721907382021992,-0.280678052577577,0.416,0,0.29744
0.725901234841428,-0.260534836517711,0.416,0,0.29848
0.729788427924901,-0.241153140687109,0.416,0,0.29952
0.734147428568889,-0.222038859801038,0.416,0,0.30056
0.740612217735194,-0.200842222316715,0.416,0,0.3016
0.746445341467724,-0.179781122574965,0.416,0,0.30264
0.751323872587086,-0.159500674747491,0.416,0,0.30368
0.757779922161152,-0.140012500149846,0.416,0,0.30472
0.766438868840225,-0.119912209153413,0.416,0,0.30576
0.77534411259404,-0.0990606512673118,0.416,0,0.3068
0.784251862882298,-0.0776142544853187,0.416,0,0.30784
0.793183324994253,-0.0555722883719971,0.416,0,0.30888
0.807384275806425,-0.0368832070675653,0.416,0,0.30992
0.821448936535701,-0.0173101301631906,0.416,0,0.31096
0.836707431598505,0.00274801877118058,0.416,0,0.312
0.854757333480867,0.02380236195392,0.416,0,0.31304
0.873669062623615,0.04219092193153,0.416,0,0.31408
0.893088120234906,0.0600777812554041,0.416,0,0.31512
0.918648323079704,0.0803638073669601,0.416,0,0.31616
0.948037963514929,0.102491033588644,0.416,0,0.3172
0.975721331328469,0.12270796648297,0.416,0,0.31824
1.00396740341736,0.14206891482911,0.416,0,0.31928
1.03318865238842,0.161871528495913,0.416,0,0.32032
1.0638261341433,0.182319059817623,0.416,0,0.32136
1.09569834972279,0.203517376382217,0.416,0,0.3224
1.12620820099583,0.223865572716154,0.416,0,0.32344
1.15388533028171,0.242604128051079,0.416,0,0.32448
1.17946346834761,0.260925319974443,0.416,0,0.32552
1.20459429676705,0.279266844689429,0.416,0,0.32656
1.23230949731337,0.301764997459874,0.416,0,0.3276
1.26091940907221,0.32428769621785,0.416,0,0.32864
1.28379844811076,0.344504931326041,0.416,0,0.32968
1.29829183750097,0.362837241965492,0.416,0,0.33072
1.3110166647713,0.380043733103194,0.416,0,0.33176
1.32248765662021,0.396575602780125,0.416,0,0.3328
1.35534695340306,0.479617338086858,0.416,0,0.33696
1.36047440715534,0.499490075147505,0.416,0,0.338
1.36526003586886,0.51955002410446,0.416,0,0.33904
1.36951900123972,0.539999611256706,0.416,0,0.34008
1.37336461453091,0.560559775211498,0.416,0,0.34112
1.37689378039121,0.580921177276315,0.416,0,0.34216
1.37929208714984,0.600377054444679,0.416,0,0.3432
1.38132770334213,0.619925725648232,0.416,0,0.34424
1.38256069793472,0.639830245502663,0.416,0,0.34528
1.38310205154793,0.660787766556731,0.416,0,0.34632
1.38323905121066,0.682250486292048,0.416,0,0.34736
1.37992868383679,0.740159811218908,0.416,0,0.35048
1.37506338129545,0.759076056970928,0.416,0,0.35152
1.36941305408881,0.77978609393302,0.416,0,0.35256
1.36166173350871,0.798890586006545,0.416,0,0.3536
1.35114167490911,0.817587099672926,0.416,0,0.35464
1.33821460371694,0.836564066901992,0.416,0,0.35568
1.30892474529933,0.858637674971395,0.416,0,0.35672
1.26779478195429,0.881492815751744,0.416,0,0.35776
1.20130655610337,0.900575088484521,0.416,0,0.3588
1.11505735794303,0.918500638745566,0.416,0,0.35984
0.982003292300233,0.937526757370181,0.416,0,0.36088
0.762818275391547,0.959152551708676,0.416,0,0.36192
0.481888467502121,0.978277012381557,0.416,0,0.36296
