"Velocity[i] (m/s)","Normalized Radius","X (m)","Y (m)","Z (m)"
1.34971098803741,0.416531151842273,0.416,0,0.33384
1.36670654210616,0.437454419516126,0.416,0,0.33488
1.38120020086108,0.459002393829808,0.416,0,0.33592
1.37323882409377,0.703055078114597,0.416,0,0.3484
1.37365641803443,0.721466281430321,0.416,0,0.34944
0.0162624234458858,-0.976745940424564,0.416,0,0.26104
0.043409167745222,-0.958301228919823,0.416,0,0.26208
0.0787847609667607,-0.938184647183877,0.416,0,0.26312
0.116038682908993,-0.91914247775776,0.416,0,0.26416
0.150423897915798,-0.902143710637373,0.416,0,0.2652
0.188998837361127,-0.883523687894555,0.416,0,0.26624
0.237974266206165,-0.860530510033713,0.416,0,0.26728
0.285863775493156,-0.840070991938256,0.416,0,0.26832
0.336370480707112,-0.819154397592166,0.416,0,0.26936
0.384938808258154,-0.798266642301956,0.416,0,0.2704
0.427758066018942,-0.778174068477797,0.416,0,0.27144
0.457846905307259,-0.758238479055113,0.416,0,0.27248
0.481502842389688,-0.738029687169057,0.416,0,0.27352
0.501750076964795,-0.717992644541379,0.416,0,0.27456
0.515061796206869,-0.699140680102379,0.416,0,0.2756
0.524748188665837,-0.680210255468247,0.416,0,0.27664
0.533873310497323,-0.660805836667103,0.416,0,0.27768
0.539494920306925,-0.639967356460381,0.416,0,0.27872
0.545355223273541,-0.620077216287876,0.416,0,0.27976
0.551061347828166,-0.599643242431481,0.416,0,0.2808
0.556204527063534,-0.580124988264172,0.416,0,0.28184
0.562262153811161,-0.560168121531813,0.416,0,0.28288
0.568665885690989,-0.540141525257043,0.416,0,0.28392
0.576699833779409,-0.518867490645695,0.416,0,0.28496
0.585639419760031,-0.499046497668095,0.416,0,0.286
0.595982038880534,-0.479773143922389,0.416,0,0.28704
0.60640097728532,-0.459922909599847,0.416,0,0.28808
0.616168880716915,-0.439563094304127,0.416,0,0.28912
0.625246430437549,-0.419147159810493,0.416,0,0.29016
0.635375020585972,-0.39914357528988,0.416,0,0.2912
0.646154998769183,-0.37890325304086,0.416,0,0.29224
0.656185235863965,-0.35895537940366,0.416,0,0.29328
0.665199880160993,-0.339146486454692,0.416,0,0.29432
0.674000420751012,-0.319830632816478,0.416,0,0.29536
0.68182657888185,-0.300424427290962,0.416,0,0.2964
0.688179194009844,-0.280678052577577,0.416,0,0.29744
0.694040729965427,-0.260534836517711,0.416,0,0.29848
0.699785287000457,-0.241153140687109,0.416,0,0.29952
0.705315602062668,-0.222038859801038,0.416,0,0.30056
0.710361388406403,-0.200842222316715,0.416,0,0.3016
0.715761760571125,-0.179781122574965,0.416,0,0.30264
0.721307458569628,-0.159500674747491,0.416,0,0.30368
0.727300401487493,-0.140012500149846,0.416,0,0.30472
0.734144649629106,-0.119912209153413,0.416,0,0.30576
0.74280575287816,-0.0990606512673118,0.416,0,0.3068
0.75328772082743,-0.0776142544853187,0.416,0,0.30784
0.765194519173687,-0.0555722883719971,0.416,0,0.30888
0.772644774330449,-0.0368832070675653,0.416,0,0.30992
0.781634802239662,-0.0173101301631906,0.416,0,0.31096
0.790560009784562,0.00274801877118058,0.416,0,0.312
0.799077864080834,0.02380236195392,0.416,0,0.31304
0.804888504896802,0.04219092193153,0.416,0,0.31408
0.807948456682906,0.0600777812554041,0.416,0,0.31512
0.807622874201226,0.0803638073669601,0.416,0,0.31616
0.80480551986819,0.102491033588644,0.416,0,0.3172
0.802042911785749,0.12270796648297,0.416,0,0.31824
0.801676845316081,0.14206891482911,0.416,0,0.31928
0.80397260250523,0.161871528495913,0.416,0,0.32032
0.809078282601232,0.182319059817623,0.416,0,0.32136
0.81534396326473,0.203517376382217,0.416,0,0.3224
0.832219564690932,0.223865572716154,0.416,0,0.32344
0.867916355551956,0.242604128051079,0.416,0,0.32448
0.915423010795737,0.260925319974443,0.416,0,0.32552
0.968706471631044,0.279266844689429,0.416,0,0.32656
1.04954193591004,0.301764997459874,0.416,0,0.3276
1.14076734632162,0.32428769621785,0.416,0,0.32864
1.21379827212843,0.344504931326041,0.416,0,0.32968
1.25909751142528,0.362837241965492,0.416,0,0.33072
1.29730350981135,0.380043733103194,0.416,0,0.33176
1.33139641784783,0.396575602780125,0.416,0,0.3328
1.39002464135128,0.479617338086858,0.416,0,0.33696
1.38933721892477,0.499490075147505,0.416,0,0.338
1.38822843583709,0.51955002410446,0.416,0,0.33904
1.3865534048084,0.539999611256706,0.416,0,0.34008
1.38461108822171,0.560559775211498,0.416,0,0.34112
1.38259173060704,0.580921177276315,0.416,0,0.34216
1.3796690496827,0.600377054444679,0.416,0,0.3432
1.37713016564335,0.619925725648232,0.416,0,0.34424
1.37543981885278,0.639830245502663,0.416,0,0.34528
1.37444533324661,0.660787766556731,0.416,0,0.34632
1.37373478431358,0.682250486292048,0.416,0,0.34736
1.37441240803878,0.740159811218908,0.416,0,0.35048
1.37499438312419,0.759076056970928,0.416,0,0.35152
1.37585396321847,0.77978609393302,0.416,0,0.35256
1.37621669807291,0.798890586006545,0.416,0,0.3536
1.37591289453108,0.817587099672926,0.416,0,0.35464
1.37506776421018,0.836564066901992,0.416,0,0.35568
1.36555809408082,0.858637674971395,0.416,0,0.35672
1.3489457494779,0.881492815751744,0.416,0,0.35776
1.29356247016927,0.900575088484521,0.416,0,0.3588
1.20007859965452,0.918500638745566,0.416,0,0.35984
1.0299480567882,0.937526757370181,0.416,0,0.36088
0.753623796985833,0.959152551708676,0.416,0,0.36192
0.434967831707699,0.978277012381557,0.416,0,0.36296
