"Velocity[i] (m/s)","Normalized Radius","X (m)","Y (m)","Z (m)"
1.42030726047102,0.416531151842273,0.416,0,0.33384
1.42385362539203,0.437454419516126,0.416,0,0.33488
1.4267628754093,0.459002393829808,0.416,0,0.33592
1.40667592422185,0.703055078114597,0.416,0,0.3484
1.40684799052044,0.721466281430321,0.416,0,0.34944
0.0532793875166903,-0.976745940424564,0.416,0,0.26104
0.0863992968775607,-0.958301228919823,0.416,0,0.26208
0.119655321149315,-0.938184647183877,0.416,0,0.26312
0.151665166198735,-0.91914247775776,0.416,0,0.26416
0.181800055255104,-0.902143710637373,0.416,0,0.2652
0.216795358825864,-0.883523687894555,0.416,0,0.26624
0.26386238590615,-0.860530510033713,0.416,0,0.26728
0.314036593934987,-0.840070991938256,0.416,0,0.26832
0.3705897366531,-0.819154397592166,0.416,0,0.26936
0.428076853496315,-0.798266642301956,0.416,0,0.2704
0.480575036858339,-0.778174068477797,0.416,0,0.27144
0.519088145526608,-0.758238479055113,0.416,0,0.27248
0.550486684203406,-0.738029687169057,0.416,0,0.27352
0.577268251706168,-0.717992644541379,0.416,0,0.27456
0.593092926735433,-0.699140680102379,0.416,0,0.2756
0.602813757549311,-0.680210255468247,0.416,0,0.27664
0.611726324990463,-0.660805836667103,0.416,0,0.27768
0.616767078281802,-0.639967356460381,0.416,0,0.27872
0.621969019026033,-0.620077216287876,0.416,0,0.27976
0.628952557596264,-0.599643242431481,0.416,0,0.2808
0.637056955095497,-0.580124988264172,0.416,0,0.28184
0.643313861172218,-0.560168121531813,0.416,0,0.28288
0.648841699554753,-0.540141525257043,0.416,0,0.28392
0.656590292846886,-0.518867490645695,0.416,0,0.28496
0.663896451423969,-0.499046497668095,0.416,0,0.286
0.675349570094055,-0.479773143922389,0.416,0,0.28704
0.686069771673514,-0.459922909599847,0.416,0,0.28808
0.694411968509013,-0.439563094304127,0.416,0,0.28912
0.701362068355589,-0.419147159810493,0.416,0,0.29016
0.708162788381756,-0.39914357528988,0.416,0,0.2912
0.710371679438857,-0.37890325304086,0.416,0,0.29224
0.712826601912696,-0.35895537940366,0.416,0,0.29328
0.71493505885495,-0.339146486454692,0.416,0,0.29432
0.716132638945228,-0.319830632816478,0.416,0,0.29536
0.71747352414435,-0.300424427290962,0.416,0,0.2964
0.718636487493546,-0.280678052577577,0.416,0,0.29744
0.719724464058214,-0.260534836517711,0.416,0,0.29848
0.72098766669766,-0.241153140687109,0.416,0,0.29952
0.721566211537758,-0.222038859801038,0.416,0,0.30056
0.719779069010905,-0.200842222316715,0.416,0,0.3016
0.717590193047041,-0.179781122574965,0.416,0,0.30264
0.715577483900099,-0.159500674747491,0.416,0,0.30368
0.710084069502124,-0.140012500149846,0.416,0,0.30472
0.700834863871366,-0.119912209153413,0.416,0,0.30576
0.691227741191682,-0.0990606512673118,0.416,0,0.3068
0.681785359554119,-0.0776142544853187,0.416,0,0.30784
0.673024426821418,-0.0555722883719971,0.416,0,0.30888
0.664171814751496,-0.0368832070675653,0.416,0,0.30992
0.657610862309236,-0.0173101301631906,0.416,0,0.31096
0.652829614180439,0.00274801877118058,0.416,0,0.312
0.649706082100238,0.02380236195392,0.416,0,0.31304
0.655971046844943,0.04219092193153,0.416,0,0.31408
0.669938844087371,0.0600777812554041,0.416,0,0.31512
0.704046878824261,0.0803638073669601,0.416,0,0.31616
0.751225060806156,0.102491033588644,0.416,0,0.3172
0.798532476047016,0.12270796648297,0.416,0,0.31824
0.856793173553176,0.14206891482911,0.416,0,0.31928
0.918847077782712,0.161871528495913,0.416,0,0.32032
0.985239154642267,0.182319059817623,0.416,0,0.32136
1.05699531366486,0.203517376382217,0.416,0,0.3224
1.12618956408665,0.223865572716154,0.416,0,0.32344
1.18596006274431,0.242604128051079,0.416,0,0.32448
1.23465612786439,0.260925319974443,0.416,0,0.32552
1.27974840336174,0.279266844689429,0.416,0,0.32656
1.32073471271308,0.301764997459874,0.416,0,0.3276
1.3603410955787,0.32428769621785,0.416,0,0.32864
1.38613813997082,0.344504931326041,0.416,0,0.32968
1.39843921189347,0.362837241965492,0.416,0,0.33072
1.40830756017195,0.380043733103194,0.416,0,0.33176
1.41625033640067,0.396575602780125,0.416,0,0.3328
1.42842700904025,0.479617338086858,0.416,0,0.33696
1.42728404162394,0.499490075147505,0.416,0,0.338
1.42554901875816,0.51955002410446,0.416,0,0.33904
1.42315672032794,0.539999611256706,0.416,0,0.34008
1.42037938879093,0.560559775211498,0.416,0,0.34112
1.41740262271064,0.580921177276315,0.416,0,0.34216
1.41427101201893,0.600377054444679,0.416,0,0.3432
1.41136189970427,0.619925725648232,0.416,0,0.34424
1.40919308370809,0.639830245502663,0.416,0,0.34528
1.40796308988963,0.660787766556731,0.416,0,0.34632
1.40723871839522,0.682250486292048,0.416,0,0.34736
1.40733811451922,0.740159811218908,0.416,0,0.35048
1.40730973496822,0.759076056970928,0.416,0,0.35152
1.40666445351508,0.77978609393302,0.416,0,0.35256
1.40520534773334,0.798890586006545,0.416,0,0.3536
1.40343431137389,0.817587099672926,0.416,0,0.35464
1.40159154685284,0.836564066901992,0.416,0,0.35568
1.38996652767689,0.858637674971395,0.416,0,0.35672
1.37087221262412,0.881492815751744,0.416,0,0.35776
1.31065566269254,0.900575088484521,0.416,0,0.3588
1.21233184607194,0.918500638745566,0.416,0,0.35984
1.0390050835647,0.937526757370181,0.416,0,0.36088
0.760095834565909,0.959152551708676,0.416,0,0.36192
0.433957289175608,0.978277012381557,0.416,0,0.36296
