"Velocity[i] (m/s)","Normalized Radius","X (m)","Y (m)","Z (m)"
1.40535571434367,0.416531151842273,0.416,0,0.33384
1.40874969466416,0.437454419516126,0.416,0,0.33488
1.41156702630194,0.459002393829808,0.416,0,0.33592
1.40549406620281,0.703055078114597,0.416,0,0.3484
1.40627298490254,0.721466281430321,0.416,0,0.34944
0.0348816242298904,-0.976745940424564,0.416,0,0.26104
0.0640036647653828,-0.958301228919823,0.416,0,0.26208
0.0967325770727141,-0.938184647183877,0.416,0,0.26312
0.129758441730831,-0.91914247775776,0.416,0,0.26416
0.161081500444644,-0.902143710637373,0.416,0,0.2652
0.198211837051561,-0.883523687894555,0.416,0,0.26624
0.247948658512991,-0.860530510033713,0.416,0,0.26728
0.298909869413461,-0.840070991938256,0.416,0,0.26832
0.35461005311186,-0.819154397592166,0.416,0,0.26936
0.409465197259597,-0.798266642301956,0.416,0,0.2704
0.456903897824495,-0.778174068477797,0.416,0,0.27144
0.488867326044001,-0.758238479055113,0.416,0,0.27248
0.513186717958334,-0.738029687169057,0.416,0,0.27352
0.533268229548238,-0.717992644541379,0.416,0,0.27456
0.545351210914392,-0.699140680102379,0.416,0,0.2756
0.553627962679823,-0.680210255468247,0.416,0,0.27664
0.562080576953176,-0.660805836667103,0.416,0,0.27768
0.568277908896238,-0.639967356460381,0.416,0,0.27872
0.574336667170806,-0.620077216287876,0.416,0,0.27976
0.582183961798546,-0.599643242431481,0.416,0,0.2808
0.5915975026172,-0.580124988264172,0.416,0,0.28184
0.598457556110749,-0.560168121531813,0.416,0,0.28288
0.604103664467974,-0.540141525257043,0.416,0,0.28392
0.611402858250488,-0.518867490645695,0.416,0,0.28496
0.61910615596502,-0.499046497668095,0.416,0,0.286
0.629781177408705,-0.479773143922389,0.416,0,0.28704
0.63993036120542,-0.459922909599847,0.416,0,0.28808
0.648588368475548,-0.439563094304127,0.416,0,0.28912
0.656454554751361,-0.419147159810493,0.416,0,0.29016
0.666557816351434,-0.39914357528988,0.416,0,0.2912
0.67144777539683,-0.37890325304086,0.416,0,0.29224
0.676562183551316,-0.35895537940366,0.416,0,0.29328
0.682660193111589,-0.339146486454692,0.416,0,0.29432
0.688492548313205,-0.319830632816478,0.416,0,0.29536
0.693574572604002,-0.300424427290962,0.416,0,0.2964
0.697865946485776,-0.280678052577577,0.416,0,0.29744
0.701367373752051,-0.260534836517711,0.416,0,0.29848
0.703227272786013,-0.241153140687109,0.416,0,0.29952
0.705346803149369,-0.222038859801038,0.416,0,0.30056
0.709002852636748,-0.200842222316715,0.416,0,0.3016
0.713056586909,-0.179781122574965,0.416,0,0.30264
0.717223355301491,-0.159500674747491,0.416,0,0.30368
0.720761211223049,-0.140012500149846,0.416,0,0.30472
0.723551149307295,-0.119912209153413,0.416,0,0.30576
0.727904689585965,-0.0990606512673118,0.416,0,0.3068
0.734275741690516,-0.0776142544853187,0.416,0,0.30784
0.742260501436834,-0.0555722883719971,0.416,0,0.30888
0.74098792740717,-0.0368832070675653,0.416,0,0.30992
0.741506980367461,-0.0173101301631906,0.416,0,0.31096
0.741155080373528,0.00274801877118058,0.416,0,0.312
0.738957737246878,0.02380236195392,0.416,0,0.31304
0.732580695352562,0.04219092193153,0.416,0,0.31408
0.726053757436464,0.0600777812554041,0.416,0,0.31512
0.719241861818489,0.0803638073669601,0.416,0,0.31616
0.71178357706333,0.102491033588644,0.416,0,0.3172
0.717181941880593,0.12270796648297,0.416,0,0.31824
0.739559756739261,0.14206891482911,0.416,0,0.31928
0.771563382168255,0.161871528495913,0.416,0,0.32032
0.813399632867709,0.182319059817623,0.416,0,0.32136
0.865802984430033,0.203517376382217,0.416,0,0.3224
0.935160046025161,0.223865572716154,0.416,0,0.32344
1.0147561377893,0.242604128051079,0.416,0,0.32448
1.08759143199766,0.260925319974443,0.416,0,0.32552
1.15896931408337,0.279266844689429,0.416,0,0.32656
1.22972797623053,0.301764997459874,0.416,0,0.3276
1.30366713559669,0.32428769621785,0.416,0,0.32864
1.35446855593466,0.344504931326041,0.416,0,0.32968
1.37417032040812,0.362837241965492,0.416,0,0.33072
1.38929367240891,0.380043733103194,0.416,0,0.33176
1.40122897570891,0.396575602780125,0.416,0,0.3328
1.4130182360755,0.479617338086858,0.416,0,0.33696
1.41202220987437,0.499490075147505,0.416,0,0.338
1.4108877986039,0.51955002410446,0.416,0,0.33904
1.4096628904801,0.539999611256706,0.416,0,0.34008
1.40846044779683,0.560559775211498,0.416,0,0.34112
1.40722708580795,0.580921177276315,0.416,0,0.34216
1.40565841192042,0.600377054444679,0.416,0,0.3432
1.40447752438759,0.619925725648232,0.416,0,0.34424
1.40397860788637,0.639830245502663,0.416,0,0.34528
1.40420131724258,0.660787766556731,0.416,0,0.34632
1.40480514578706,0.682250486292048,0.416,0,0.34736
1.40666662258794,0.740159811218908,0.416,0,0.35048
1.40640072289229,0.759076056970928,0.416,0,0.35152
1.40582258706762,0.77978609393302,0.416,0,0.35256
1.40449249347021,0.798890586006545,0.416,0,0.3536
1.40288567737638,0.817587099672926,0.416,0,0.35464
1.40115418932794,0.836564066901992,0.416,0,0.35568
1.38839189054098,0.858637674971395,0.416,0,0.35672
1.36723138701598,0.881492815751744,0.416,0,0.35776
1.30296678495917,0.900575088484521,0.416,0,0.3588
1.20019882969002,0.918500638745566,0.416,0,0.35984
1.02305382926379,0.937526757370181,0.416,0,0.36088
0.741952399276556,0.959152551708676,0.416,0,0.36192
0.421360323270093,0.978277012381557,0.416,0,0.36296
