"Velocity[i] (m/s)","Normalized Radius","X (m)","Y (m)","Z (m)"
1.3802025946264,0.416531151842273,0.416,0,0.33384
1.38859449732456,0.437454419516126,0.416,0,0.33488
1.39630301604717,0.459002393829808,0.416,0,0.33592
1.41663019752179,0.703055078114597,0.416,0,0.3484
1.41621757257226,0.721466281430321,0.416,0,0.34944
0.035032188878549,-0.976745940424564,0.416,0,0.26104
0.0663496525661468,-0.958301228919823,0.416,0,0.26208
0.10281689025283,-0.938184647183877,0.416,0,0.26312
0.140440053151685,-0.91914247775776,0.416,0,0.26416
0.175795948589123,-0.902143710637373,0.416,0,0.2652
0.216565100816015,-0.883523687894555,0.416,0,0.26624
0.27027955019681,-0.860530510033713,0.416,0,0.26728
0.325750942932641,-0.840070991938256,0.416,0,0.26832
0.385135241913504,-0.819154397592166,0.416,0,0.26936
0.443628574696113,-0.798266642301956,0.416,0,0.2704
0.494546945839645,-0.778174068477797,0.416,0,0.27144
0.525243876857578,-0.758238479055113,0.416,0,0.27248
0.54674758869629,-0.738029687169057,0.416,0,0.27352
0.564040447729975,-0.717992644541379,0.416,0,0.27456
0.573088522284244,-0.699140680102379,0.416,0,0.2756
0.578009445570871,-0.680210255468247,0.416,0,0.27664
0.58273198886222,-0.660805836667103,0.416,0,0.27768
0.585623164046738,-0.639967356460381,0.416,0,0.27872
0.589543163716764,-0.620077216287876,0.416,0,0.27976
0.594625295590632,-0.599643242431481,0.416,0,0.2808
0.600592705789068,-0.580124988264172,0.416,0,0.28184
0.605473951956916,-0.560168121531813,0.416,0,0.28288
0.608613686799271,-0.540141525257043,0.416,0,0.28392
0.613028198898294,-0.518867490645695,0.416,0,0.28496
0.617672300567988,-0.499046497668095,0.416,0,0.286
0.627472623254177,-0.479773143922389,0.416,0,0.28704
0.636398496579356,-0.459922909599847,0.416,0,0.28808
0.641638235486852,-0.439563094304127,0.416,0,0.28912
0.644464409946174,-0.419147159810493,0.416,0,0.29016
0.649352679882408,-0.39914357528988,0.416,0,0.2912
0.650837660944035,-0.37890325304086,0.416,0,0.29224
0.652044648790024,-0.35895537940366,0.416,0,0.29328
0.653954242126513,-0.339146486454692,0.416,0,0.29432
0.656980919111079,-0.319830632816478,0.416,0,0.29536
0.659241187543183,-0.300424427290962,0.416,0,0.2964
0.660395178374065,-0.280678052577577,0.416,0,0.29744
0.661591696787817,-0.260534836517711,0.416,0,0.29848
0.663240359525777,-0.241153140687109,0.416,0,0.29952
0.666465375450744,-0.222038859801038,0.416,0,0.30056
0.675813326526656,-0.200842222316715,0.416,0,0.3016
0.683792716172442,-0.179781122574965,0.416,0,0.30264
0.690803021488781,-0.159500674747491,0.416,0,0.30368
0.69657715873287,-0.140012500149846,0.416,0,0.30472
0.701586462770765,-0.119912209153413,0.416,0,0.30576
0.706884364951067,-0.0990606512673118,0.416,0,0.3068
0.712588826688643,-0.0776142544853187,0.416,0,0.30784
0.717691473926906,-0.0555722883719971,0.416,0,0.30888
0.715992131387951,-0.0368832070675653,0.416,0,0.30992
0.713199827571899,-0.0173101301631906,0.416,0,0.31096
0.708732301793442,0.00274801877118058,0.416,0,0.312
0.701874280633665,0.02380236195392,0.416,0,0.31304
0.702201555660507,0.04219092193153,0.416,0,0.31408
0.702027700725799,0.0600777812554041,0.416,0,0.31512
0.713384893038484,0.0803638073669601,0.416,0,0.31616
0.732470010874763,0.102491033588644,0.416,0,0.3172
0.75781457598962,0.12270796648297,0.416,0,0.31824
0.801999727697538,0.14206891482911,0.416,0,0.31928
0.854634876445017,0.161871528495913,0.416,0,0.32032
0.914610978256592,0.182319059817623,0.416,0,0.32136
0.982755502116238,0.203517376382217,0.416,0,0.3224
1.05174716755715,0.223865572716154,0.416,0,0.32344
1.11379117289579,0.242604128051079,0.416,0,0.32448
1.1667890968268,0.260925319974443,0.416,0,0.32552
1.21565890819085,0.279266844689429,0.416,0,0.32656
1.25957636775773,0.301764997459874,0.416,0,0.3276
1.30077818735642,0.32428769621785,0.416,0,0.32864
1.32802722776884,0.344504931326041,0.416,0,0.32968
1.34325651764778,0.362837241965492,0.416,0,0.33072
1.35751262605532,0.380043733103194,0.416,0,0.33176
1.37137757431648,0.396575602780125,0.416,0,0.3328
1.4023511788107,0.479617338086858,0.416,0,0.33696
1.40575810853981,0.499490075147505,0.416,0,0.338
1.40875804405252,0.51955002410446,0.416,0,0.33904
1.41130224429702,0.539999611256706,0.416,0,0.34008
1.41353996372533,0.560559775211498,0.416,0,0.34112
1.41548114454156,0.580921177276315,0.416,0,0.34216
1.41632325177576,0.600377054444679,0.416,0,0.3432
1.41690727142354,0.619925725648232,0.416,0,0.34424
1.41707412861396,0.639830245502663,0.416,0,0.34528
1.41696232179158,0.660787766556731,0.416,0,0.34632
1.4168104679357,0.682250486292048,0.416,0,0.34736
1.41540969452213,0.740159811218908,0.416,0,0.35048
1.41433001411023,0.759076056970928,0.416,0,0.35152
1.4130644420047,0.77978609393302,0.416,0,0.35256
1.41137183486014,0.798890586006545,0.416,0,0.3536
1.40973962620525,0.817587099672926,0.416,0,0.35464
1.40827198165459,0.836564066901992,0.416,0,0.35568
1.39613374327799,0.858637674971395,0.416,0,0.35672
1.37526001220682,0.881492815751744,0.416,0,0.35776
1.31241083506202,0.900575088484521,0.416,0,0.3588
1.21000980005809,0.918500638745566,0.416,0,0.35984
1.02992307558935,0.937526757370181,0.416,0,0.36088
0.745997813685107,0.959152551708676,0.416,0,0.36192
0.424065715609164,0.978277012381557,0.416,0,0.36296
