"Velocity[i] (m/s)","Normalized Radius","X (m)","Y (m)","Z (m)"
1.42589486871056,0.416531151842273,0.416,0,0.33384
1.43361979329459,0.437454419516126,0.416,0,0.33488
1.44030468383767,0.459002393829808,0.416,0,0.33592
1.43034731473186,0.703055078114597,0.416,0,0.3484
1.42884622860539,0.721466281430321,0.416,0,0.34944
0.0654769549116437,-0.976745940424564,0.416,0,0.26104
0.0980849763084845,-0.958301228919823,0.416,0,0.26208
0.132832998467278,-0.938184647183877,0.416,0,0.26312
0.167618931871002,-0.91914247775776,0.416,0,0.26416
0.200710196822668,-0.902143710637373,0.416,0,0.2652
0.239226331678819,-0.883523687894555,0.416,0,0.26624
0.290058436714178,-0.860530510033713,0.416,0,0.26728
0.342584137967273,-0.840070991938256,0.416,0,0.26832
0.399238250890661,-0.819154397592166,0.416,0,0.26936
0.454417069942531,-0.798266642301956,0.416,0,0.2704
0.504250539041815,-0.778174068477797,0.416,0,0.27144
0.535447050193677,-0.758238479055113,0.416,0,0.27248
0.559074489623159,-0.738029687169057,0.416,0,0.27352
0.578929277684021,-0.717992644541379,0.416,0,0.27456
0.589562152108926,-0.699140680102379,0.416,0,0.2756
0.595660137246633,-0.680210255468247,0.416,0,0.27664
0.601131441205103,-0.660805836667103,0.416,0,0.27768
0.601614417303218,-0.639967356460381,0.416,0,0.27872
0.603117268866976,-0.620077216287876,0.416,0,0.27976
0.605644058128586,-0.599643242431481,0.416,0,0.2808
0.609261209414901,-0.580124988264172,0.416,0,0.28184
0.614733073831003,-0.560168121531813,0.416,0,0.28288
0.621186043887203,-0.540141525257043,0.416,0,0.28392
0.629318698595228,-0.518867490645695,0.416,0,0.28496
0.6376129294393,-0.499046497668095,0.416,0,0.286
0.650521676435328,-0.479773143922389,0.416,0,0.28704
0.664045828903759,-0.459922909599847,0.416,0,0.28808
0.676018697092872,-0.439563094304127,0.416,0,0.28912
0.686673152461435,-0.419147159810493,0.416,0,0.29016
0.69881062693669,-0.39914357528988,0.416,0,0.2912
0.707381851082065,-0.37890325304086,0.416,0,0.29224
0.715842271335884,-0.35895537940366,0.416,0,0.29328
0.72389767717341,-0.339146486454692,0.416,0,0.29432
0.731347503018589,-0.319830632816478,0.416,0,0.29536
0.738301296057209,-0.300424427290962,0.416,0,0.2964
0.744003843298075,-0.280678052577577,0.416,0,0.29744
0.748998609839113,-0.260534836517711,0.416,0,0.29848
0.752228443051438,-0.241153140687109,0.416,0,0.29952
0.75552394664636,-0.222038859801038,0.416,0,0.30056
0.75990563173266,-0.200842222316715,0.416,0,0.3016
0.763723596025054,-0.179781122574965,0.416,0,0.30264
0.767085211262276,-0.159500674747491,0.416,0,0.30368
0.769110237361695,-0.140012500149846,0.416,0,0.30472
0.770169134722196,-0.119912209153413,0.416,0,0.30576
0.771577312886396,-0.0990606512673118,0.416,0,0.3068
0.773602842086617,-0.0776142544853187,0.416,0,0.30784
0.775709469496549,-0.0555722883719971,0.416,0,0.30888
0.77446736236168,-0.0368832070675653,0.416,0,0.30992
0.773393538262119,-0.0173101301631906,0.416,0,0.31096
0.771609655737222,0.00274801877118058,0.416,0,0.312
0.768792645221484,0.02380236195392,0.416,0,0.31304
0.765979563236131,0.04219092193153,0.416,0,0.31408
0.764582916646232,0.0600777812554041,0.416,0,0.31512
0.764055434565517,0.0803638073669601,0.416,0,0.31616
0.762964048753216,0.102491033588644,0.416,0,0.3172
0.772310900861208,0.12270796648297,0.416,0,0.31824
0.793409993711751,0.14206891482911,0.416,0,0.31928
0.820947864294,0.161871528495913,0.416,0,0.32032
0.855270330685799,0.182319059817623,0.416,0,0.32136
0.895712360241746,0.203517376382217,0.416,0,0.3224
0.951464681379205,0.223865572716154,0.416,0,0.32344
1.02323999108283,0.242604128051079,0.416,0,0.32448
1.08948769402297,0.260925319974443,0.416,0,0.32552
1.15501469853325,0.279266844689429,0.416,0,0.32656
1.22789348602312,0.301764997459874,0.416,0,0.3276
1.30003589712374,0.32428769621785,0.416,0,0.32864
1.35314389333426,0.344504931326041,0.416,0,0.32968
1.3779676755095,0.362837241965492,0.416,0,0.33072
1.39877364839285,0.380043733103194,0.416,0,0.33176
1.41682665323457,0.396575602780125,0.416,0,0.3328
1.444673191863,0.479617338086858,0.416,0,0.33696
1.44505939350966,0.499490075147505,0.416,0,0.338
1.44512907852958,0.51955002410446,0.416,0,0.33904
1.44477780211492,0.539999611256706,0.416,0,0.34008
1.44414897522602,0.560559775211498,0.416,0,0.34112
1.44334393520617,0.580921177276315,0.416,0,0.34216
1.44124712165665,0.600377054444679,0.416,0,0.3432
1.43920943200824,0.619925725648232,0.416,0,0.34424
1.43704206351154,0.639830245502663,0.416,0,0.34528
1.4347482760803,0.660787766556731,0.416,0,0.34632
1.43248146015596,0.682250486292048,0.416,0,0.34736
1.4278684683708,0.740159811218908,0.416,0,0.35048
1.42716235499857,0.759076056970928,0.416,0,0.35152
1.42577492065685,0.77978609393302,0.416,0,0.35256
1.42412897736115,0.798890586006545,0.416,0,0.3536
1.42238731089718,0.817587099672926,0.416,0,0.35464
1.42052733163542,0.836564066901992,0.416,0,0.35568
1.41034368632483,0.858637674971395,0.416,0,0.35672
1.39435247302419,0.881492815751744,0.416,0,0.35776
1.3364835007877,0.900575088484521,0.416,0,0.3588
1.23884950973496,0.918500638745566,0.416,0,0.35984
1.06370965342644,0.937526757370181,0.416,0,0.36088
0.780458147754631,0.959152551708676,0.416,0,0.36192
0.452548465116533,0.978277012381557,0.416,0,0.36296
