"Velocity[i] (m/s)","Normalized Radius","X (m)","Y (m)","Z (m)"
1.36481414522416,0.416531151842273,0.416,0,0.33384
1.37186127931578,0.437454419516126,0.416,0,0.33488
1.37834211449397,0.459002393829808,0.416,0,0.33592
1.37805474588048,0.703055078114597,0.416,0,0.3484
1.37823092292533,0.721466281430321,0.416,0,0.34944
0.0188567962723085,-0.976745940424564,0.416,0,0.26104
0.0473662840754895,-0.958301228919823,0.416,0,0.26208
0.0854510747912269,-0.938184647183877,0.416,0,0.26312
0.125727516154188,-0.91914247775776,0.416,0,0.26416
0.164979789526548,-0.902143710637373,0.416,0,0.2652
0.209307373948991,-0.883523687894555,0.416,0,0.26624
0.264050834211276,-0.860530510033713,0.416,0,0.26728
0.316299688586183,-0.840070991938256,0.416,0,0.26832
0.36929985614553,-0.819154397592166,0.416,0,0.26936
0.417352583246094,-0.798266642301956,0.416,0,0.2704
0.456779728499733,-0.778174068477797,0.416,0,0.27144
0.481068366187035,-0.758238479055113,0.416,0,0.27248
0.498201489052089,-0.738029687169057,0.416,0,0.27352
0.512049803554254,-0.717992644541379,0.416,0,0.27456
0.520554877797417,-0.699140680102379,0.416,0,0.2756
0.526590574072191,-0.680210255468247,0.416,0,0.27664
0.531914307691424,-0.660805836667103,0.416,0,0.27768
0.538126084239575,-0.639967356460381,0.416,0,0.27872
0.543066941087975,-0.620077216287876,0.416,0,0.27976
0.547959552485392,-0.599643242431481,0.416,0,0.2808
0.5579659181118,-0.580124988264172,0.416,0,0.28184
0.564060211186054,-0.560168121531813,0.416,0,0.28288
0.569469983999269,-0.540141525257043,0.416,0,0.28392
0.57938373602899,-0.518867490645695,0.416,0,0.28496
0.586620732609981,-0.499046497668095,0.416,0,0.286
0.601051074658256,-0.479773143922389,0.416,0,0.28704
0.613876096063094,-0.459922909599847,0.416,0,0.28808
0.621495178368221,-0.439563094304127,0.416,0,0.28912
0.626619643172071,-0.419147159810493,0.416,0,0.29016
0.635024780754428,-0.39914357528988,0.416,0,0.2912
0.640233307800502,-0.37890325304086,0.416,0,0.29224
0.644954653694972,-0.35895537940366,0.416,0,0.29328
0.64907097260719,-0.339146486454692,0.416,0,0.29432
0.65378053886782,-0.319830632816478,0.416,0,0.29536
0.657725094643442,-0.300424427290962,0.416,0,0.2964
0.660717021523291,-0.280678052577577,0.416,0,0.29744
0.662582627710427,-0.260534836517711,0.416,0,0.29848
0.65962977099952,-0.241153140687109,0.416,0,0.29952
0.655213659773484,-0.222038859801038,0.416,0,0.30056
0.64574931482362,-0.200842222316715,0.416,0,0.3016
0.63666151485015,-0.179781122574965,0.416,0,0.30264
0.627843293968303,-0.159500674747491,0.416,0,0.30368
0.62073758590971,-0.140012500149846,0.416,0,0.30472
0.615457827027147,-0.119912209153413,0.416,0,0.30576
0.611206949259068,-0.0990606512673118,0.416,0,0.3068
0.607840671693025,-0.0776142544853187,0.416,0,0.30784
0.607694972861794,-0.0555722883719971,0.416,0,0.30888
0.619995849798714,-0.0368832070675653,0.416,0,0.30992
0.635434871994711,-0.0173101301631906,0.416,0,0.31096
0.653756376206485,0.00274801877118058,0.416,0,0.312
0.676734556203666,0.02380236195392,0.416,0,0.31304
0.707998351463402,0.04219092193153,0.416,0,0.31408
0.74153940366014,0.0600777812554041,0.416,0,0.31512
0.787032967720862,0.0803638073669601,0.416,0,0.31616
0.839191177600075,0.102491033588644,0.416,0,0.3172
0.891455732895917,0.12270796648297,0.416,0,0.31824
0.946480499835559,0.14206891482911,0.416,0,0.31928
1.00259588711637,0.161871528495913,0.416,0,0.32032
1.06091207085972,0.182319059817623,0.416,0,0.32136
1.12100852859643,0.203517376382217,0.416,0,0.3224
1.17263916371844,0.223865572716154,0.416,0,0.32344
1.21456503458178,0.242604128051079,0.416,0,0.32448
1.24533950459093,0.260925319974443,0.416,0,0.32552
1.27190775843758,0.279266844689429,0.416,0,0.32656
1.29572581550875,0.301764997459874,0.416,0,0.3276
1.3159791327818,0.32428769621785,0.416,0,0.32864
1.32836498769302,0.344504931326041,0.416,0,0.32968
1.34003914984418,0.362837241965492,0.416,0,0.33072
1.34942215752637,0.380043733103194,0.416,0,0.33176
1.35727848150766,0.396575602780125,0.416,0,0.3328
1.38354228254597,0.479617338086858,0.416,0,0.33696
1.38583984547718,0.499490075147505,0.416,0,0.338
1.38702918572268,0.51955002410446,0.416,0,0.33904
1.3868767102837,0.539999611256706,0.416,0,0.34008
1.38569680398782,0.560559775211498,0.416,0,0.34112
1.38400040503501,0.580921177276315,0.416,0,0.34216
1.38233408568448,0.600377054444679,0.416,0,0.3432
1.38055294080954,0.619925725648232,0.416,0,0.34424
1.37921226153107,0.639830245502663,0.416,0,0.34528
1.37857841543055,0.660787766556731,0.416,0,0.34632
1.37828081711858,0.682250486292048,0.416,0,0.34736
1.37856495771256,0.740159811218908,0.416,0,0.35048
1.37832366946055,0.759076056970928,0.416,0,0.35152
1.37785476057314,0.77978609393302,0.416,0,0.35256
1.37684993254825,0.798890586006545,0.416,0,0.3536
1.37535963173203,0.817587099672926,0.416,0,0.35464
1.37366581323772,0.836564066901992,0.416,0,0.35568
1.3598102372542,0.858637674971395,0.416,0,0.35672
1.33588348597914,0.881492815751744,0.416,0,0.35776
1.26765023804717,0.900575088484521,0.416,0,0.3588
1.15757739495513,0.918500638745566,0.416,0,0.35984
0.971812337875208,0.937526757370181,0.416,0,0.36088
0.693452632290924,0.959152551708676,0.416,0,0.36192
0.386567731989331,0.978277012381557,0.416,0,0.36296
