"Velocity[i] (m/s)","Normalized Radius","X (m)","Y (m)","Z (m)"
1.38467253365377,0.416531151842273,0.416,0,0.33384
1.38373739025647,0.437454419516126,0.416,0,0.33488
1.38264052349465,0.459002393829808,0.416,0,0.33592
1.39317956903324,0.703055078114597,0.416,0,0.3484
1.39323949626582,0.721466281430321,0.416,0,0.34944
0.0550973502905872,-0.976745940424564,0.416,0,0.26104
0.0861670025297859,-0.958301228919823,0.416,0,0.26208
0.119243975234576,-0.938184647183877,0.416,0,0.26312
0.152279629913791,-0.91914247775776,0.416,0,0.26416
0.183112235580924,-0.902143710637373,0.416,0,0.2652
0.217788939933215,-0.883523687894555,0.416,0,0.26624
0.263281398993594,-0.860530510033713,0.416,0,0.26728
0.310196828539493,-0.840070991938256,0.416,0,0.26832
0.35922662025698,-0.819154397592166,0.416,0,0.26936
0.408945097103737,-0.798266642301956,0.416,0,0.2704
0.454114795288726,-0.778174068477797,0.416,0,0.27144
0.487653934992106,-0.758238479055113,0.416,0,0.27248
0.515748404788148,-0.738029687169057,0.416,0,0.27352
0.541452514804411,-0.717992644541379,0.416,0,0.27456
0.559403493930284,-0.699140680102379,0.416,0,0.2756
0.573138314739792,-0.680210255468247,0.416,0,0.27664
0.584622098789899,-0.660805836667103,0.416,0,0.27768
0.592092312624298,-0.639967356460381,0.416,0,0.27872
0.599679339216478,-0.620077216287876,0.416,0,0.27976
0.607423569821109,-0.599643242431481,0.416,0,0.2808
0.614659271956938,-0.580124988264172,0.416,0,0.28184
0.624667550143037,-0.560168121531813,0.416,0,0.28288
0.634204045682662,-0.540141525257043,0.416,0,0.28392
0.643882370963949,-0.518867490645695,0.416,0,0.28496
0.653428743844959,-0.499046497668095,0.416,0,0.286
0.667030913112568,-0.479773143922389,0.416,0,0.28704
0.680953884791177,-0.459922909599847,0.416,0,0.28808
0.694050644800521,-0.439563094304127,0.416,0,0.28912
0.70657400655281,-0.419147159810493,0.416,0,0.29016
0.719173847287321,-0.39914357528988,0.416,0,0.2912
0.726119556304052,-0.37890325304086,0.416,0,0.29224
0.733312944198105,-0.35895537940366,0.416,0,0.29328
0.739523304047189,-0.339146486454692,0.416,0,0.29432
0.743552336434927,-0.319830632816478,0.416,0,0.29536
0.747808755741986,-0.300424427290962,0.416,0,0.2964
0.751136827287159,-0.280678052577577,0.416,0,0.29744
0.752931166921663,-0.260534836517711,0.416,0,0.29848
0.752465959762304,-0.241153140687109,0.416,0,0.29952
0.751678083722307,-0.222038859801038,0.416,0,0.30056
0.751159084903039,-0.200842222316715,0.416,0,0.3016
0.750712215121512,-0.179781122574965,0.416,0,0.30264
0.749853175055475,-0.159500674747491,0.416,0,0.30368
0.751305378622289,-0.140012500149846,0.416,0,0.30472
0.755308415637669,-0.119912209153413,0.416,0,0.30576
0.759592439055538,-0.0990606512673118,0.416,0,0.3068
0.764199733354358,-0.0776142544853187,0.416,0,0.30784
0.769848257433335,-0.0555722883719971,0.416,0,0.30888
0.787989292983581,-0.0368832070675653,0.416,0,0.30992
0.806189007150699,-0.0173101301631906,0.416,0,0.31096
0.826588210825234,0.00274801877118058,0.416,0,0.312
0.851236397999744,0.02380236195392,0.416,0,0.31304
0.875681146633829,0.04219092193153,0.416,0,0.31408
0.900605788794389,0.0600777812554041,0.416,0,0.31512
0.929545748718693,0.0803638073669601,0.416,0,0.31616
0.960797736229462,0.102491033588644,0.416,0,0.3172
0.990763411989726,0.12270796648297,0.416,0,0.31824
1.01575344812268,0.14206891482911,0.416,0,0.31928
1.04095804375888,0.161871528495913,0.416,0,0.32032
1.06808315530812,0.182319059817623,0.416,0,0.32136
1.09862916796467,0.203517376382217,0.416,0,0.3224
1.13193284300946,0.223865572716154,0.416,0,0.32344
1.17060456273181,0.242604128051079,0.416,0,0.32448
1.21100177432068,0.260925319974443,0.416,0,0.32552
1.25244272031602,0.279266844689429,0.416,0,0.32656
1.29359572210461,0.301764997459874,0.416,0,0.3276
1.3352671487676,0.32428769621785,0.416,0,0.32864
1.37057805082651,0.344504931326041,0.416,0,0.32968
1.37510914776185,0.362837241965492,0.416,0,0.33072
1.38042900274913,0.380043733103194,0.416,0,0.33176
1.3856527435177,0.396575602780125,0.416,0,0.3328
1.38154282016118,0.479617338086858,0.416,0,0.33696
1.38168287032189,0.499490075147505,0.416,0,0.338
1.38222941309595,0.51955002410446,0.416,0,0.33904
1.38332186257638,0.539999611256706,0.416,0,0.34008
1.38479416028601,0.560559775211498,0.416,0,0.34112
1.38646566757246,0.580921177276315,0.416,0,0.34216
1.38837806606106,0.600377054444679,0.416,0,0.3432
1.39014458495661,0.619925725648232,0.416,0,0.34424
1.3914197111676,0.639830245502663,0.416,0,0.34528
1.39231216576771,0.660787766556731,0.416,0,0.34632
1.39274916380782,0.682250486292048,0.416,0,0.34736
1.39288152335358,0.740159811218908,0.416,0,0.35048
1.39205128836016,0.759076056970928,0.416,0,0.35152
1.39078694790122,0.77978609393302,0.416,0,0.35256
1.38886716425246,0.798890586006545,0.416,0,0.3536
1.38687065956386,0.817587099672926,0.416,0,0.35464
1.38490638679188,0.836564066901992,0.416,0,0.35568
1.37575208737219,0.858637674971395,0.416,0,0.35672
1.36098528040839,0.881492815751744,0.416,0,0.35776
1.30742357351992,0.900575088484521,0.416,0,0.3588
1.21578212466498,0.918500638745566,0.416,0,0.35984
1.04650640689323,0.937526757370181,0.416,0,0.36088
0.770250097910186,0.959152551708676,0.416,0,0.36192
0.446070730523009,0.978277012381557,0.416,0,0.36296
