"Velocity[i] (m/s)","Normalized Radius","X (m)","Y (m)","Z (m)"
1.39814905979615,0.416531151842273,0.416,0,0.33384
1.40369076487002,0.437454419516126,0.416,0,0.33488
1.40886038616092,0.459002393829808,0.416,0,0.33592
1.41841033872147,0.703055078114597,0.416,0,0.3484
1.41774542275985,0.721466281430321,0.416,0,0.34944
0.0434158667963802,-0.976745940424564,0.416,0,0.26104
0.0729079809618896,-0.958301228919823,0.416,0,0.26208
0.106328850221945,-0.938184647183877,0.416,0,0.26312
0.140378379920111,-0.91914247775776,0.416,0,0.26416
0.17257368804058,-0.902143710637373,0.416,0,0.2652
0.21023971719641,-0.883523687894555,0.416,0,0.26624
0.259809617431819,-0.860530510033713,0.416,0,0.26728
0.309251012363601,-0.840070991938256,0.416,0,0.26832
0.362489492889591,-0.819154397592166,0.416,0,0.26936
0.413301177264761,-0.798266642301956,0.416,0,0.2704
0.458032096658094,-0.778174068477797,0.416,0,0.27144
0.487010062852335,-0.758238479055113,0.416,0,0.27248
0.508746634798977,-0.738029687169057,0.416,0,0.27352
0.526402703684255,-0.717992644541379,0.416,0,0.27456
0.536463162720684,-0.699140680102379,0.416,0,0.2756
0.542894325696536,-0.680210255468247,0.416,0,0.27664
0.549223586708755,-0.660805836667103,0.416,0,0.27768
0.551288365727824,-0.639967356460381,0.416,0,0.27872
0.554228064403386,-0.620077216287876,0.416,0,0.27976
0.55866156311714,-0.599643242431481,0.416,0,0.2808
0.565655140942264,-0.580124988264172,0.416,0,0.28184
0.572907492062476,-0.560168121531813,0.416,0,0.28288
0.580114732084269,-0.540141525257043,0.416,0,0.28392
0.589180282961589,-0.518867490645695,0.416,0,0.28496
0.598016624894326,-0.499046497668095,0.416,0,0.286
0.611917523841035,-0.479773143922389,0.416,0,0.28704
0.625266417016946,-0.459922909599847,0.416,0,0.28808
0.635756412155581,-0.439563094304127,0.416,0,0.28912
0.644104021151461,-0.419147159810493,0.416,0,0.29016
0.65629156164291,-0.39914357528988,0.416,0,0.2912
0.666022522223985,-0.37890325304086,0.416,0,0.29224
0.675316044768968,-0.35895537940366,0.416,0,0.29328
0.684458984381928,-0.339146486454692,0.416,0,0.29432
0.693462737355607,-0.319830632816478,0.416,0,0.29536
0.701725895916574,-0.300424427290962,0.416,0,0.2964
0.708146567044189,-0.280678052577577,0.416,0,0.29744
0.713205269235741,-0.260534836517711,0.416,0,0.29848
0.71431468021763,-0.241153140687109,0.416,0,0.29952
0.714876422677436,-0.222038859801038,0.416,0,0.30056
0.714280367085784,-0.200842222316715,0.416,0,0.3016
0.712378384956444,-0.179781122574965,0.416,0,0.30264
0.709209259200653,-0.159500674747491,0.416,0,0.30368
0.70563519584476,-0.140012500149846,0.416,0,0.30472
0.702039539166057,-0.119912209153413,0.416,0,0.30576
0.697754540667121,-0.0990606512673118,0.416,0,0.3068
0.693228220180232,-0.0776142544853187,0.416,0,0.30784
0.689287791347255,-0.0555722883719971,0.416,0,0.30888
0.689193403250693,-0.0368832070675653,0.416,0,0.30992
0.689709433722994,-0.0173101301631906,0.416,0,0.31096
0.690887220903308,0.00274801877118058,0.416,0,0.312
0.69309150990357,0.02380236195392,0.416,0,0.31304
0.698228845675481,0.04219092193153,0.416,0,0.31408
0.70607621181969,0.0600777812554041,0.416,0,0.31512
0.72057435109162,0.0803638073669601,0.416,0,0.31616
0.738043566581474,0.102491033588644,0.416,0,0.3172
0.762582552463156,0.12270796648297,0.416,0,0.31824
0.799280665229888,0.14206891482911,0.416,0,0.31928
0.841552231733332,0.161871528495913,0.416,0,0.32032
0.890259011281485,0.182319059817623,0.416,0,0.32136
0.944579301878892,0.203517376382217,0.416,0,0.3224
1.00850986707931,0.223865572716154,0.416,0,0.32344
1.0825579525742,0.242604128051079,0.416,0,0.32448
1.14551073572514,0.260925319974443,0.416,0,0.32552
1.2054696492861,0.279266844689429,0.416,0,0.32656
1.26369445846823,0.301764997459874,0.416,0,0.3276
1.31828346916125,0.32428769621785,0.416,0,0.32864
1.35623621444854,0.344504931326041,0.416,0,0.32968
1.36915790079061,0.362837241965492,0.416,0,0.33072
1.38096408561248,0.380043733103194,0.416,0,0.33176
1.3915338580476,0.396575602780125,0.416,0,0.3328
1.41344202731405,0.479617338086858,0.416,0,0.33696
1.4163186999448,0.499490075147505,0.416,0,0.338
1.41864107056013,0.51955002410446,0.416,0,0.33904
1.42031795112799,0.539999611256706,0.416,0,0.34008
1.42147878632776,0.560559775211498,0.416,0,0.34112
1.42228244529073,0.580921177276315,0.416,0,0.34216
1.4222651430903,0.600377054444679,0.416,0,0.3432
1.42205605274888,0.619925725648232,0.416,0,0.34424
1.42129135229951,0.639830245502663,0.416,0,0.34528
1.42024941230758,0.660787766556731,0.416,0,0.34632
1.41928651399565,0.682250486292048,0.416,0,0.34736
1.41711897370293,0.740159811218908,0.416,0,0.35048
1.41660486463507,0.759076056970928,0.416,0,0.35152
1.41575899324143,0.77978609393302,0.416,0,0.35256
1.41453673895233,0.798890586006545,0.416,0,0.3536
1.41320068351731,0.817587099672926,0.416,0,0.35464
1.41179620953134,0.836564066901992,0.416,0,0.35568
1.40099390466223,0.858637674971395,0.416,0,0.35672
1.383181151824,0.881492815751744,0.416,0,0.35776
1.3214605229262,0.900575088484521,0.416,0,0.3588
1.21911335659204,0.918500638745566,0.416,0,0.35984
1.04002420817792,0.937526757370181,0.416,0,0.36088
0.756166518139915,0.959152551708676,0.416,0,0.36192
0.432223235640021,0.978277012381557,0.416,0,0.36296
