"Velocity[i] (m/s)","Normalized Radius","X (m)","Y (m)","Z (m)"
1.38960307890116,0.416531151842273,0.416,0,0.33384
1.39285799505275,0.437454419516126,0.416,0,0.33488
1.39591135854126,0.459002393829808,0.416,0,0.33592
1.40951614688931,0.703055078114597,0.416,0,0.3484
1.40949115008973,0.721466281430321,0.416,0,0.34944
0.0370573121544544,-0.976745940424564,0.416,0,0.26104
0.0665364634305721,-0.958301228919823,0.416,0,0.26208
0.102145807846441,-0.938184647183877,0.416,0,0.26312
0.14001084041431,-0.91914247775776,0.416,0,0.26416
0.176691077424419,-0.902143710637373,0.416,0,0.2652
0.217904228512756,-0.883523687894555,0.416,0,0.26624
0.269602671362286,-0.860530510033713,0.416,0,0.26728
0.322653850660441,-0.840070991938256,0.416,0,0.26832
0.37909667760527,-0.819154397592166,0.416,0,0.26936
0.434944880117434,-0.798266642301956,0.416,0,0.2704
0.484346595180683,-0.778174068477797,0.416,0,0.27144
0.516827236955458,-0.758238479055113,0.416,0,0.27248
0.540775635948961,-0.738029687169057,0.416,0,0.27352
0.560508746459557,-0.717992644541379,0.416,0,0.27456
0.570686717821616,-0.699140680102379,0.416,0,0.2756
0.576408720693767,-0.680210255468247,0.416,0,0.27664
0.581894489253193,-0.660805836667103,0.416,0,0.27768
0.583041893427474,-0.639967356460381,0.416,0,0.27872
0.585195601718261,-0.620077216287876,0.416,0,0.27976
0.588578188381453,-0.599643242431481,0.416,0,0.2808
0.590373922805653,-0.580124988264172,0.416,0,0.28184
0.594207360830643,-0.560168121531813,0.416,0,0.28288
0.598711073971207,-0.540141525257043,0.416,0,0.28392
0.604837125163914,-0.518867490645695,0.416,0,0.28496
0.611436659624974,-0.499046497668095,0.416,0,0.286
0.622536457376696,-0.479773143922389,0.416,0,0.28704
0.636028259232936,-0.459922909599847,0.416,0,0.28808
0.649751171772152,-0.439563094304127,0.416,0,0.28912
0.663382782779199,-0.419147159810493,0.416,0,0.29016
0.67608671846778,-0.39914357528988,0.416,0,0.2912
0.683868239615474,-0.37890325304086,0.416,0,0.29224
0.691749451830281,-0.35895537940366,0.416,0,0.29328
0.697976189673349,-0.339146486454692,0.416,0,0.29432
0.701933960371331,-0.319830632816478,0.416,0,0.29536
0.705709996134876,-0.300424427290962,0.416,0,0.2964
0.70919983028331,-0.280678052577577,0.416,0,0.29744
0.711945945677596,-0.260534836517711,0.416,0,0.29848
0.712146337048453,-0.241153140687109,0.416,0,0.29952
0.712304670330688,-0.222038859801038,0.416,0,0.30056
0.712414163092387,-0.200842222316715,0.416,0,0.3016
0.712382117546371,-0.179781122574965,0.416,0,0.30264
0.712616569579107,-0.159500674747491,0.416,0,0.30368
0.711774681682467,-0.140012500149846,0.416,0,0.30472
0.710164347092416,-0.119912209153413,0.416,0,0.30576
0.708906360825988,-0.0990606512673118,0.416,0,0.3068
0.708031105671392,-0.0776142544853187,0.416,0,0.30784
0.707482230034761,-0.0555722883719971,0.416,0,0.30888
0.706501770849705,-0.0368832070675653,0.416,0,0.30992
0.70590832569225,-0.0173101301631906,0.416,0,0.31096
0.70545534031505,0.00274801877118058,0.416,0,0.312
0.705447518452932,0.02380236195392,0.416,0,0.31304
0.707457453586978,0.04219092193153,0.416,0,0.31408
0.713052678578378,0.0600777812554041,0.416,0,0.31512
0.727417666799407,0.0803638073669601,0.416,0,0.31616
0.745431519286115,0.102491033588644,0.416,0,0.3172
0.771229937636674,0.12270796648297,0.416,0,0.31824
0.811129408473722,0.14206891482911,0.416,0,0.31928
0.856363521736771,0.161871528495913,0.416,0,0.32032
0.907508648034131,0.182319059817623,0.416,0,0.32136
0.964092162538231,0.203517376382217,0.416,0,0.3224
1.02916934572061,0.223865572716154,0.416,0,0.32344
1.10071396310853,0.242604128051079,0.416,0,0.32448
1.16043567293962,0.260925319974443,0.416,0,0.32552
1.21683118618401,0.279266844689429,0.416,0,0.32656
1.27059194189031,0.301764997459874,0.416,0,0.3276
1.32099387097377,0.32428769621785,0.416,0,0.32864
1.35776130903453,0.344504931326041,0.416,0,0.32968
1.36867040251051,0.362837241965492,0.416,0,0.33072
1.37790743139882,0.380043733103194,0.416,0,0.33176
1.38567109047805,0.396575602780125,0.416,0,0.3328
1.39850559789813,0.479617338086858,0.416,0,0.33696
1.40042932409096,0.499490075147505,0.416,0,0.338
1.40222039926234,0.51955002410446,0.416,0,0.33904
1.40384226288725,0.539999611256706,0.416,0,0.34008
1.40532024841687,0.560559775211498,0.416,0,0.34112
1.40667147005457,0.580921177276315,0.416,0,0.34216
1.4076069573586,0.600377054444679,0.416,0,0.3432
1.40844471294661,0.619925725648232,0.416,0,0.34424
1.4089334834996,0.639830245502663,0.416,0,0.34528
1.40916093526435,0.660787766556731,0.416,0,0.34632
1.4093356068693,0.682250486292048,0.416,0,0.34736
1.40894744164946,0.740159811218908,0.416,0,0.35048
1.40780454569392,0.759076056970928,0.416,0,0.35152
1.40657207026909,0.77978609393302,0.416,0,0.35256
1.40485395340028,0.798890586006545,0.416,0,0.3536
1.40293997834447,0.817587099672926,0.416,0,0.35464
1.40096084703423,0.836564066901992,0.416,0,0.35568
1.38957677436866,0.858637674971395,0.416,0,0.35672
1.37182660498348,0.881492815751744,0.416,0,0.35776
1.31196901619942,0.900575088484521,0.416,0,0.3588
1.21517944240656,0.918500638745566,0.416,0,0.35984
1.04357643952832,0.937526757370181,0.416,0,0.36088
0.762548982060293,0.959152551708676,0.416,0,0.36192
0.435030177159292,0.978277012381557,0.416,0,0.36296
