"Velocity[i] (m/s)","Normalized Radius","X (m)","Y (m)","Z (m)"
1.34491626405356,0.416531151842273,0.416,0,0.33384
1.35316797730788,0.437454419516126,0.416,0,0.33488
1.36077192658198,0.459002393829808,0.416,0,0.33592
1.38950746207443,0.703055078114597,0.416,0,0.3484
1.3887505500091,0.721466281430321,0.416,0,0.34944
0.110025208609687,-0.976745940424564,0.416,0,0.26104
0.164132387714325,-0.958301228919823,0.416,0,0.26208
0.211943829436726,-0.938184647183877,0.416,0,0.26312
0.249723220299229,-0.91914247775776,0.416,0,0.26416
0.280555462017895,-0.902143710637373,0.416,0,0.2652
0.311035904049804,-0.883523687894555,0.416,0,0.26624
0.344976502490283,-0.860530510033713,0.416,0,0.26728
0.373142235199296,-0.840070991938256,0.416,0,0.26832
0.400886933261561,-0.819154397592166,0.416,0,0.26936
0.42676628282252,-0.798266642301956,0.416,0,0.2704
0.45032042922139,-0.778174068477797,0.416,0,0.27144
0.471389670459003,-0.758238479055113,0.416,0,0.27248
0.491450658620986,-0.738029687169057,0.416,0,0.27352
0.510816265262072,-0.717992644541379,0.416,0,0.27456
0.527631430607124,-0.699140680102379,0.416,0,0.2756
0.543448309029519,-0.680210255468247,0.416,0,0.27664
0.559094627288184,-0.660805836667103,0.416,0,0.27768
0.574935916779628,-0.639967356460381,0.416,0,0.27872
0.589312293930202,-0.620077216287876,0.416,0,0.27976
0.603223880279631,-0.599643242431481,0.416,0,0.2808
0.615884062607473,-0.580124988264172,0.416,0,0.28184
0.627796383487878,-0.560168121531813,0.416,0,0.28288
0.639253019789179,-0.540141525257043,0.416,0,0.28392
0.65067532537225,-0.518867490645695,0.416,0,0.28496
0.660625576523291,-0.499046497668095,0.416,0,0.286
0.670021988768523,-0.479773143922389,0.416,0,0.28704
0.678864473601662,-0.459922909599847,0.416,0,0.28808
0.686909337319287,-0.439563094304127,0.416,0,0.28912
0.694320349272264,-0.419147159810493,0.416,0,0.29016
0.701005464333978,-0.39914357528988,0.416,0,0.2912
0.707786625361529,-0.37890325304086,0.416,0,0.29224
0.714301415570286,-0.35895537940366,0.416,0,0.29328
0.720046651345977,-0.339146486454692,0.416,0,0.29432
0.725664041506617,-0.319830632816478,0.416,0,0.29536
0.731050091460592,-0.300424427290962,0.416,0,0.2964
0.735661862286181,-0.280678052577577,0.416,0,0.29744
0.739808663644507,-0.260534836517711,0.416,0,0.29848
0.743951392061154,-0.241153140687109,0.416,0,0.29952
0.748575151133775,-0.222038859801038,0.416,0,0.30056
0.755378620978032,-0.200842222316715,0.416,0,0.3016
0.761508852847686,-0.179781122574965,0.416,0,0.30264
0.766593721047819,-0.159500674747491,0.416,0,0.30368
0.772873137810753,-0.140012500149846,0.416,0,0.30472
0.781036004628551,-0.119912209153413,0.416,0,0.30576
0.78930184753616,-0.0990606512673118,0.416,0,0.3068
0.797444412093186,-0.0776142544853187,0.416,0,0.30784
0.805401915909116,-0.0555722883719971,0.416,0,0.30888
0.818379933695826,-0.0368832070675653,0.416,0,0.30992
0.830991349509738,-0.0173101301631906,0.416,0,0.31096
0.844622539792687,0.00274801877118058,0.416,0,0.312
0.860811833085645,0.02380236195392,0.416,0,0.31304
0.87807895861178,0.04219092193153,0.416,0,0.31408
0.895710075009714,0.0600777812554041,0.416,0,0.31512
0.919379947013029,0.0803638073669601,0.416,0,0.31616
0.946707403289434,0.102491033588644,0.416,0,0.3172
0.973005801834861,0.12270796648297,0.416,0,0.31824
1.00067230592599,0.14206891482911,0.416,0,0.31928
1.02954077768578,0.161871528495913,0.416,0,0.32032
1.06003579067895,0.182319059817623,0.416,0,0.32136
1.09186319348608,0.203517376382217,0.416,0,0.3224
1.12302361863581,0.223865572716154,0.416,0,0.32344
1.15246410625324,0.242604128051079,0.416,0,0.32448
1.18014678313264,0.260925319974443,0.416,0,0.32552
1.20751968351678,0.279266844689429,0.416,0,0.32656
1.23825415477167,0.301764997459874,0.416,0,0.3276
1.27016961021357,0.32428769621785,0.416,0,0.32864
1.29576887768461,0.344504931326041,0.416,0,0.32968
1.31092965389139,0.362837241965492,0.416,0,0.33072
1.32435605746023,0.380043733103194,0.416,0,0.33176
1.33653679491213,0.396575602780125,0.416,0,0.3328
1.36690282428351,0.479617338086858,0.416,0,0.33696
1.37109489922526,0.499490075147505,0.416,0,0.338
1.37503717266426,0.51955002410446,0.416,0,0.33904
1.37860509652833,0.539999611256706,0.416,0,0.34008
1.38189019924448,0.560559775211498,0.416,0,0.34112
1.38494967934894,0.580921177276315,0.416,0,0.34216
1.3867431701372,0.600377054444679,0.416,0,0.3432
1.38834845303156,0.619925725648232,0.416,0,0.34424
1.38932016621084,0.639830245502663,0.416,0,0.34528
1.38970765800069,0.660787766556731,0.416,0,0.34632
1.38966360936647,0.682250486292048,0.416,0,0.34736
1.38652656586338,0.740159811218908,0.416,0,0.35048
1.38188779969016,0.759076056970928,0.416,0,0.35152
1.37605224405991,0.77978609393302,0.416,0,0.35256
1.36801481615515,0.798890586006545,0.416,0,0.3536
1.35744821631223,0.817587099672926,0.416,0,0.35464
1.34472979082152,0.836564066901992,0.416,0,0.35568
1.31591901130993,0.858637674971395,0.416,0,0.35672
1.27552014625291,0.881492815751744,0.416,0,0.35776
1.21005386573084,0.900575088484521,0.416,0,0.3588
1.12483711230446,0.918500638745566,0.416,0,0.35984
0.992722405667329,0.937526757370181,0.416,0,0.36088
0.773899611443332,0.959152551708676,0.416,0,0.36192
0.48983210202077,0.978277012381557,0.416,0,0.36296
