"Velocity[i] (m/s)","Normalized Radius","X (m)","Y (m)","Z (m)"
1.36526268586612,0.416531151842273,0.416,0,0.33384
1.38129365279989,0.437454419516126,0.416,0,0.33488
1.39572674797474,0.459002393829808,0.416,0,0.33592
1.41571033128024,0.703055078114597,0.416,0,0.3484
1.41465685213181,0.721466281430321,0.416,0,0.34944
0.030719362643163,-0.976745940424564,0.416,0,0.26104
0.0601950682160877,-0.958301228919823,0.416,0,0.26208
0.0952286337232649,-0.938184647183877,0.416,0,0.26312
0.132360092899187,-0.91914247775776,0.416,0,0.26416
0.167124152536306,-0.902143710637373,0.416,0,0.2652
0.207482747383928,-0.883523687894555,0.416,0,0.26624
0.261379951152285,-0.860530510033713,0.416,0,0.26728
0.317008406995493,-0.840070991938256,0.416,0,0.26832
0.375022021474243,-0.819154397592166,0.416,0,0.26936
0.430107499453323,-0.798266642301956,0.416,0,0.2704
0.476521584914875,-0.778174068477797,0.416,0,0.27144
0.502810959914019,-0.758238479055113,0.416,0,0.27248
0.520544895919423,-0.738029687169057,0.416,0,0.27352
0.534875223748615,-0.717992644541379,0.416,0,0.27456
0.542880432566762,-0.699140680102379,0.416,0,0.2756
0.547685116457921,-0.680210255468247,0.416,0,0.27664
0.552520778605627,-0.660805836667103,0.416,0,0.27768
0.555384248353446,-0.639967356460381,0.416,0,0.27872
0.559062724943606,-0.620077216287876,0.416,0,0.27976
0.564194293894403,-0.599643242431481,0.416,0,0.2808
0.57219991607607,-0.580124988264172,0.416,0,0.28184
0.578255093981608,-0.560168121531813,0.416,0,0.28288
0.582784198799982,-0.540141525257043,0.416,0,0.28392
0.589434861299355,-0.518867490645695,0.416,0,0.28496
0.596266733706286,-0.499046497668095,0.416,0,0.286
0.609554062769464,-0.479773143922389,0.416,0,0.28704
0.621740906690791,-0.459922909599847,0.416,0,0.28808
0.62949282721777,-0.439563094304127,0.416,0,0.28912
0.634883818146236,-0.419147159810493,0.416,0,0.29016
0.64435042998935,-0.39914357528988,0.416,0,0.2912
0.648534507018241,-0.37890325304086,0.416,0,0.29224
0.652708350481811,-0.35895537940366,0.416,0,0.29328
0.657731734762657,-0.339146486454692,0.416,0,0.29432
0.663347640744269,-0.319830632816478,0.416,0,0.29536
0.667842355752605,-0.300424427290962,0.416,0,0.2964
0.671202676963651,-0.280678052577577,0.416,0,0.29744
0.673846678175879,-0.260534836517711,0.416,0,0.29848
0.673939754318671,-0.241153140687109,0.416,0,0.29952
0.674738168057531,-0.222038859801038,0.416,0,0.30056
0.678311554846483,-0.200842222316715,0.416,0,0.3016
0.681410546985735,-0.179781122574965,0.416,0,0.30264
0.683670490274987,-0.159500674747491,0.416,0,0.30368
0.686027176901706,-0.140012500149846,0.416,0,0.30472
0.689177318890978,-0.119912209153413,0.416,0,0.30576
0.692314793294762,-0.0990606512673118,0.416,0,0.3068
0.695377391747039,-0.0776142544853187,0.416,0,0.30784
0.69846519476993,-0.0555722883719971,0.416,0,0.30888
0.699405239948803,-0.0368832070675653,0.416,0,0.30992
0.699607255691231,-0.0173101301631906,0.416,0,0.31096
0.698732030557264,0.00274801877118058,0.416,0,0.312
0.696283493883911,0.02380236195392,0.416,0,0.31304
0.695022787177891,0.04219092193153,0.416,0,0.31408
0.693206049364797,0.0600777812554041,0.416,0,0.31512
0.69324681550112,0.0803638073669601,0.416,0,0.31616
0.694315165885831,0.102491033588644,0.416,0,0.3172
0.706881053323994,0.12270796648297,0.416,0,0.31824
0.733575613291485,0.14206891482911,0.416,0,0.31928
0.767845833172981,0.161871528495913,0.416,0,0.32032
0.809633007237277,0.182319059817623,0.416,0,0.32136
0.861608702395569,0.203517376382217,0.416,0,0.3224
0.92615227316515,0.223865572716154,0.416,0,0.32344
0.990602342142976,0.242604128051079,0.416,0,0.32448
1.05050510209729,0.260925319974443,0.416,0,0.32552
1.10907572615136,0.279266844689429,0.416,0,0.32656
1.16903646204283,0.301764997459874,0.416,0,0.3276
1.22914047632624,0.32428769621785,0.416,0,0.32864
1.27130107751307,0.344504931326041,0.416,0,0.32968
1.29951404466373,0.362837241965492,0.416,0,0.33072
1.32480538697813,0.380043733103194,0.416,0,0.33176
1.34859662549164,0.396575602780125,0.416,0,0.3328
1.40664715124614,0.479617338086858,0.416,0,0.33696
1.41144568149897,0.499490075147505,0.416,0,0.338
1.41516332658133,0.51955002410446,0.416,0,0.33904
1.41773817292665,0.539999611256706,0.416,0,0.34008
1.41947221912173,0.560559775211498,0.416,0,0.34112
1.42065690395716,0.580921177276315,0.416,0,0.34216
1.42046059208835,0.600377054444679,0.416,0,0.3432
1.42006668603184,0.619925725648232,0.416,0,0.34424
1.41920198859992,0.639830245502663,0.416,0,0.34528
1.41800785515132,0.660787766556731,0.416,0,0.34632
1.41685376102006,0.682250486292048,0.416,0,0.34736
1.41358830265892,0.740159811218908,0.416,0,0.35048
1.41262292491645,0.759076056970928,0.416,0,0.35152
1.41165654084812,0.77978609393302,0.416,0,0.35256
1.41060971724087,0.798890586006545,0.416,0,0.3536
1.40963963528831,0.817587099672926,0.416,0,0.35464
1.40873963395065,0.836564066901992,0.416,0,0.35568
1.39889728076805,0.858637674971395,0.416,0,0.35672
1.38119108760594,0.881492815751744,0.416,0,0.35776
1.32119493373769,0.900575088484521,0.416,0,0.3588
1.21905590412722,0.918500638745566,0.416,0,0.35984
1.03658330872864,0.937526757370181,0.416,0,0.36088
0.750672464173371,0.959152551708676,0.416,0,0.36192
0.42707330369988,0.978277012381557,0.416,0,0.36296
