"Velocity[i] (m/s)","Normalized Radius","X (m)","Y (m)","Z (m)"
1.37919511562793,0.416531151842273,0.416,0,0.33384
1.38311650481135,0.437454419516126,0.416,0,0.33488
1.38675107899566,0.459002393829808,0.416,0,0.33592
1.40226551478095,0.703055078114597,0.416,0,0.3484
1.40217561678006,0.721466281430321,0.416,0,0.34944
0.0251123019136872,-0.976745940424564,0.416,0,0.26104
0.0523971065631691,-0.958301228919823,0.416,0,0.26208
0.0851185340014838,-0.938184647183877,0.416,0,0.26312
0.119139460883019,-0.91914247775776,0.416,0,0.26416
0.151320452694376,-0.902143710637373,0.416,0,0.2652
0.188995154925514,-0.883523687894555,0.416,0,0.26624
0.238439219912537,-0.860530510033713,0.416,0,0.26728
0.287668455666885,-0.840070991938256,0.416,0,0.26832
0.340436090062568,-0.819154397592166,0.416,0,0.26936
0.390625150548001,-0.798266642301956,0.416,0,0.2704
0.434188531220376,-0.778174068477797,0.416,0,0.27144
0.462739527921253,-0.758238479055113,0.416,0,0.27248
0.484052511360854,-0.738029687169057,0.416,0,0.27352
0.501269727906354,-0.717992644541379,0.416,0,0.27456
0.511440493853987,-0.699140680102379,0.416,0,0.2756
0.518160496206871,-0.680210255468247,0.416,0,0.27664
0.524583374639899,-0.660805836667103,0.416,0,0.27768
0.527718004498802,-0.639967356460381,0.416,0,0.27872
0.531325252074928,-0.620077216287876,0.416,0,0.27976
0.536481930205316,-0.599643242431481,0.416,0,0.2808
0.544258316108245,-0.580124988264172,0.416,0,0.28184
0.551494180277812,-0.560168121531813,0.416,0,0.28288
0.558301720308517,-0.540141525257043,0.416,0,0.28392
0.566999293323641,-0.518867490645695,0.416,0,0.28496
0.575794360827367,-0.499046497668095,0.416,0,0.286
0.589732454464031,-0.479773143922389,0.416,0,0.28704
0.603085561106152,-0.459922909599847,0.416,0,0.28808
0.613645835127644,-0.439563094304127,0.416,0,0.28912
0.622211341832275,-0.419147159810493,0.416,0,0.29016
0.635042994472917,-0.39914357528988,0.416,0,0.2912
0.644914204370252,-0.37890325304086,0.416,0,0.29224
0.654371964774613,-0.35895537940366,0.416,0,0.29328
0.663684063958905,-0.339146486454692,0.416,0,0.29432
0.672817753508289,-0.319830632816478,0.416,0,0.29536
0.681183907841878,-0.300424427290962,0.416,0,0.2964
0.687562627278617,-0.280678052577577,0.416,0,0.29744
0.692251919468778,-0.260534836517711,0.416,0,0.29848
0.692513891244923,-0.241153140687109,0.416,0,0.29952
0.692560753352121,-0.222038859801038,0.416,0,0.30056
0.692723340997143,-0.200842222316715,0.416,0,0.3016
0.691676323480989,-0.179781122574965,0.416,0,0.30264
0.689289781884475,-0.159500674747491,0.416,0,0.30368
0.688118695740327,-0.140012500149846,0.416,0,0.30472
0.688573897957823,-0.119912209153413,0.416,0,0.30576
0.688718307723649,-0.0990606512673118,0.416,0,0.3068
0.688975323366861,-0.0776142544853187,0.416,0,0.30784
0.690339927646648,-0.0555722883719971,0.416,0,0.30888
0.694004025552915,-0.0368832070675653,0.416,0,0.30992
0.698478461893193,-0.0173101301631906,0.416,0,0.31096
0.703573433938805,0.00274801877118058,0.416,0,0.312
0.709958474465589,0.02380236195392,0.416,0,0.31304
0.715819012793769,0.04219092193153,0.416,0,0.31408
0.722590576680081,0.0600777812554041,0.416,0,0.31512
0.733785341792157,0.0803638073669601,0.416,0,0.31616
0.746599532200563,0.102491033588644,0.416,0,0.3172
0.766692132923397,0.12270796648297,0.416,0,0.31824
0.797640137741473,0.14206891482911,0.416,0,0.31928
0.834226876888856,0.161871528495913,0.416,0,0.32032
0.877662416776415,0.182319059817623,0.416,0,0.32136
0.92779806423813,0.203517376382217,0.416,0,0.3224
0.989065776389484,0.223865572716154,0.416,0,0.32344
1.06240650650374,0.242604128051079,0.416,0,0.32448
1.12650873165774,0.260925319974443,0.416,0,0.32552
1.18833363816308,0.279266844689429,0.416,0,0.32656
1.24715193373387,0.301764997459874,0.416,0,0.3276
1.30372588360893,0.32428769621785,0.416,0,0.32864
1.34451562842186,0.344504931326041,0.416,0,0.32968
1.35535423169951,0.362837241965492,0.416,0,0.33072
1.36552212531839,0.380043733103194,0.416,0,0.33176
1.37472851513469,0.396575602780125,0.416,0,0.3328
1.3901945959689,0.479617338086858,0.416,0,0.33696
1.3931631629813,0.499490075147505,0.416,0,0.338
1.39576614999582,0.51955002410446,0.416,0,0.33904
1.39790955637665,0.539999611256706,0.416,0,0.34008
1.39968053127911,0.560559775211498,0.416,0,0.34112
1.40116443515904,0.580921177276315,0.416,0,0.34216
1.40223984811156,0.600377054444679,0.416,0,0.3432
1.40295470945437,0.619925725648232,0.416,0,0.34424
1.40293134189899,0.639830245502663,0.416,0,0.34528
1.40260990334737,0.660787766556731,0.416,0,0.34632
1.4023945758516,0.682250486292048,0.416,0,0.34736
1.40187713478912,0.740159811218908,0.416,0,0.35048
1.40147163513854,0.759076056970928,0.416,0,0.35152
1.40095721270819,0.77978609393302,0.416,0,0.35256
1.40000888812218,0.798890586006545,0.416,0,0.3536
1.39890648196635,0.817587099672926,0.416,0,0.35464
1.39772118847175,0.836564066901992,0.416,0,0.35568
1.38647791854016,0.858637674971395,0.416,0,0.35672
1.36744031854309,0.881492815751744,0.416,0,0.35776
1.30437693700775,0.900575088484521,0.416,0,0.3588
1.20112249043803,0.918500638745566,0.416,0,0.35984
1.02211890635719,0.937526757370181,0.416,0,0.36088
0.739449106833569,0.959152551708676,0.416,0,0.36192
0.418008231590231,0.978277012381557,0.416,0,0.36296
