"Velocity[i] (m/s)","Normalized Radius","X (m)","Y (m)","Z (m)"
1.36657300338085,0.416531151842273,0.416,0,0.33384
1.37562810285444,0.437454419516126,0.416,0,0.33488
1.38291348193186,0.459002393829808,0.416,0,0.33592
1.371288239597,0.703055078114597,0.416,0,0.3484
1.37170497152177,0.721466281430321,0.416,0,0.34944
0.0169321662570426,-0.976745940424564,0.416,0,0.26104
0.0457195563233073,-0.958301228919823,0.416,0,0.26208
0.08181012243486,-0.938184647183877,0.416,0,0.26312
0.118905201159066,-0.91914247775776,0.416,0,0.26416
0.153381573754036,-0.902143710637373,0.416,0,0.2652
0.19084668320553,-0.883523687894555,0.416,0,0.26624
0.237504291449227,-0.860530510033713,0.416,0,0.26728
0.285832620684168,-0.840070991938256,0.416,0,0.26832
0.336023440632493,-0.819154397592166,0.416,0,0.26936
0.384656863044943,-0.798266642301956,0.416,0,0.2704
0.428881957035392,-0.778174068477797,0.416,0,0.27144
0.459850199297209,-0.758238479055113,0.416,0,0.27248
0.485404598763291,-0.738029687169057,0.416,0,0.27352
0.509136523399654,-0.717992644541379,0.416,0,0.27456
0.525986928446082,-0.699140680102379,0.416,0,0.2756
0.539611719643521,-0.680210255468247,0.416,0,0.27664
0.5520105843202,-0.660805836667103,0.416,0,0.27768
0.557291053341812,-0.639967356460381,0.416,0,0.27872
0.562939473203171,-0.620077216287876,0.416,0,0.27976
0.5680432502248,-0.599643242431481,0.416,0,0.2808
0.56845143180795,-0.580124988264172,0.416,0,0.28184
0.574385770621548,-0.560168121531813,0.416,0,0.28288
0.581259169367619,-0.540141525257043,0.416,0,0.28392
0.587711800333947,-0.518867490645695,0.416,0,0.28496
0.59545293172864,-0.499046497668095,0.416,0,0.286
0.607833319702445,-0.479773143922389,0.416,0,0.28704
0.622529033770524,-0.459922909599847,0.416,0,0.28808
0.638186289991448,-0.439563094304127,0.416,0,0.28912
0.654028365351307,-0.419147159810493,0.416,0,0.29016
0.667125052236232,-0.39914357528988,0.416,0,0.2912
0.675780853890173,-0.37890325304086,0.416,0,0.29224
0.684533638617358,-0.35895537940366,0.416,0,0.29328
0.690863834617224,-0.339146486454692,0.416,0,0.29432
0.694089577900353,-0.319830632816478,0.416,0,0.29536
0.69752246005829,-0.300424427290962,0.416,0,0.2964
0.700929326747444,-0.280678052577577,0.416,0,0.29744
0.703863361172433,-0.260534836517711,0.416,0,0.29848
0.704749030727538,-0.241153140687109,0.416,0,0.29952
0.706069170255576,-0.222038859801038,0.416,0,0.30056
0.710521953941152,-0.200842222316715,0.416,0,0.3016
0.715148426674943,-0.179781122574965,0.416,0,0.30264
0.720713281428091,-0.159500674747491,0.416,0,0.30368
0.724001228355208,-0.140012500149846,0.416,0,0.30472
0.725349052534514,-0.119912209153413,0.416,0,0.30576
0.728645213720398,-0.0990606512673118,0.416,0,0.3068
0.733544284696597,-0.0776142544853187,0.416,0,0.30784
0.738741965242162,-0.0555722883719971,0.416,0,0.30888
0.741581154541408,-0.0368832070675653,0.416,0,0.30992
0.744106675090869,-0.0173101301631906,0.416,0,0.31096
0.746084879596683,0.00274801877118058,0.416,0,0.312
0.746295658513581,0.02380236195392,0.416,0,0.31304
0.747232333210295,0.04219092193153,0.416,0,0.31408
0.747356757458856,0.0600777812554041,0.416,0,0.31512
0.748417257269459,0.0803638073669601,0.416,0,0.31616
0.749716137553736,0.102491033588644,0.416,0,0.3172
0.754628767194391,0.12270796648297,0.416,0,0.31824
0.767765459109195,0.14206891482911,0.416,0,0.31928
0.78832779669593,0.161871528495913,0.416,0,0.32032
0.815603856450329,0.182319059817623,0.416,0,0.32136
0.848608615923193,0.203517376382217,0.416,0,0.3224
0.895500160038493,0.223865572716154,0.416,0,0.32344
0.957195336804304,0.242604128051079,0.416,0,0.32448
1.02150798199421,0.260925319974443,0.416,0,0.32552
1.08858249327827,0.279266844689429,0.416,0,0.32656
1.16228309178592,0.301764997459874,0.416,0,0.3276
1.23714393383238,0.32428769621785,0.416,0,0.32864
1.2897011764506,0.344504931326041,0.416,0,0.32968
1.31474939315366,0.362837241965492,0.416,0,0.33072
1.33670614251435,0.380043733103194,0.416,0,0.33176
1.35738791379067,0.396575602780125,0.416,0,0.3328
1.38642885805925,0.479617338086858,0.416,0,0.33696
1.3852710499831,0.499490075147505,0.416,0,0.338
1.38389358770735,0.51955002410446,0.416,0,0.33904
1.38213832957379,0.539999611256706,0.416,0,0.34008
1.38016132575918,0.560559775211498,0.416,0,0.34112
1.3781381036026,0.580921177276315,0.416,0,0.34216
1.375661373192,0.600377054444679,0.416,0,0.3432
1.37370131244034,0.619925725648232,0.416,0,0.34424
1.37246959732655,0.639830245502663,0.416,0,0.34528
1.37178103151154,0.660787766556731,0.416,0,0.34632
1.37145174593412,0.682250486292048,0.416,0,0.34736
1.37232766977268,0.740159811218908,0.416,0,0.35048
1.37293999885355,0.759076056970928,0.416,0,0.35152
1.37358983512049,0.77978609393302,0.416,0,0.35256
1.37362165109728,0.798890586006545,0.416,0,0.3536
1.37310799478883,0.817587099672926,0.416,0,0.35464
1.37221112737915,0.836564066901992,0.416,0,0.35568
1.36172282045953,0.858637674971395,0.416,0,0.35672
1.34333855514551,0.881492815751744,0.416,0,0.35776
1.28200610591819,0.900575088484521,0.416,0,0.3588
1.17869686980871,0.918500638745566,0.416,0,0.35984
0.996003047605192,0.937526757370181,0.416,0,0.36088
0.714942686936074,0.959152551708676,0.416,0,0.36192
0.401089521020713,0.978277012381557,0.416,0,0.36296
