"Velocity[i] (m/s)","Normalized Radius","X (m)","Y (m)","Z (m)"
1.38387177838029,0.416531151842273,0.416,0,0.33384
1.38880172337968,0.437454419516126,0.416,0,0.33488
1.39332935434642,0.459002393829808,0.416,0,0.33592
1.40347363652212,0.703055078114597,0.416,0,0.3484
1.40366477891528,0.721466281430321,0.416,0,0.34944
0.0338093718660381,-0.976745940424564,0.416,0,0.26104
0.067095243127504,-0.958301228919823,0.416,0,0.26208
0.104543174141992,-0.938184647183877,0.416,0,0.26312
0.142158961115627,-0.91914247775776,0.416,0,0.26416
0.177585487054799,-0.902143710637373,0.416,0,0.2652
0.218076960705352,-0.883523687894555,0.416,0,0.26624
0.270860856480412,-0.860530510033713,0.416,0,0.26728
0.325805494395855,-0.840070991938256,0.416,0,0.26832
0.385999104052873,-0.819154397592166,0.416,0,0.26936
0.445686038202826,-0.798266642301956,0.416,0,0.2704
0.499384575305152,-0.778174068477797,0.416,0,0.27144
0.533687037353083,-0.758238479055113,0.416,0,0.27248
0.559004324486233,-0.738029687169057,0.416,0,0.27352
0.579997019177253,-0.717992644541379,0.416,0,0.27456
0.590864752763986,-0.699140680102379,0.416,0,0.2756
0.596690507947864,-0.680210255468247,0.416,0,0.27664
0.601961397933251,-0.660805836667103,0.416,0,0.27768
0.604539652016066,-0.639967356460381,0.416,0,0.27872
0.607990544637279,-0.620077216287876,0.416,0,0.27976
0.613047517082156,-0.599643242431481,0.416,0,0.2808
0.617892865572125,-0.580124988264172,0.416,0,0.28184
0.622724674892425,-0.560168121531813,0.416,0,0.28288
0.62736551720828,-0.540141525257043,0.416,0,0.28392
0.632479931058457,-0.518867490645695,0.416,0,0.28496
0.637604121873887,-0.499046497668095,0.416,0,0.286
0.645218778889952,-0.479773143922389,0.416,0,0.28704
0.653001834186148,-0.459922909599847,0.416,0,0.28808
0.659398331723224,-0.439563094304127,0.416,0,0.28912
0.664405745167912,-0.419147159810493,0.416,0,0.29016
0.668748745370193,-0.39914357528988,0.416,0,0.2912
0.668570151780456,-0.37890325304086,0.416,0,0.29224
0.668579499922007,-0.35895537940366,0.416,0,0.29328
0.669584810767934,-0.339146486454692,0.416,0,0.29432
0.669984374195548,-0.319830632816478,0.416,0,0.29536
0.670229276709739,-0.300424427290962,0.416,0,0.2964
0.670651822127446,-0.280678052577577,0.416,0,0.29744
0.670876399602123,-0.260534836517711,0.416,0,0.29848
0.669646113317318,-0.241153140687109,0.416,0,0.29952
0.66915829349604,-0.222038859801038,0.416,0,0.30056
0.671065986711171,-0.200842222316715,0.416,0,0.3016
0.671457286807328,-0.179781122574965,0.416,0,0.30264
0.671440709896739,-0.159500674747491,0.416,0,0.30368
0.668929981442536,-0.140012500149846,0.416,0,0.30472
0.664108925008386,-0.119912209153413,0.416,0,0.30576
0.659371855480391,-0.0990606512673118,0.416,0,0.3068
0.654527455817052,-0.0776142544853187,0.416,0,0.30784
0.649491924977042,-0.0555722883719971,0.416,0,0.30888
0.646773250001453,-0.0368832070675653,0.416,0,0.30992
0.644737237562323,-0.0173101301631906,0.416,0,0.31096
0.6439396049673,0.00274801877118058,0.416,0,0.312
0.644679623178883,0.02380236195392,0.416,0,0.31304
0.659678480366662,0.04219092193153,0.416,0,0.31408
0.680352576106094,0.0600777812554041,0.416,0,0.31512
0.719671919682629,0.0803638073669601,0.416,0,0.31616
0.77161144543071,0.102491033588644,0.416,0,0.3172
0.823672801314273,0.12270796648297,0.416,0,0.31824
0.8818516569091,0.14206891482911,0.416,0,0.31928
0.943093663221507,0.161871528495913,0.416,0,0.32032
1.00772289368707,0.182319059817623,0.416,0,0.32136
1.07552669135417,0.203517376382217,0.416,0,0.3224
1.13653443227981,0.223865572716154,0.416,0,0.32344
1.18985842527792,0.242604128051079,0.416,0,0.32448
1.23383969280122,0.260925319974443,0.416,0,0.32552
1.27382187991385,0.279266844689429,0.416,0,0.32656
1.30750987504574,0.301764997459874,0.416,0,0.3276
1.33698007237212,0.32428769621785,0.416,0,0.32864
1.35499050673096,0.344504931326041,0.416,0,0.32968
1.36336089623184,0.362837241965492,0.416,0,0.33072
1.37123750373285,0.380043733103194,0.416,0,0.33176
1.37865539603173,0.396575602780125,0.416,0,0.3328
1.3968399504367,0.479617338086858,0.416,0,0.33696
1.39860976487572,0.499490075147505,0.416,0,0.338
1.4000392589796,0.51955002410446,0.416,0,0.33904
1.40114590256531,0.539999611256706,0.416,0,0.34008
1.40204516915253,0.560559775211498,0.416,0,0.34112
1.40277876169154,0.580921177276315,0.416,0,0.34216
1.40271211552773,0.600377054444679,0.416,0,0.3432
1.40275492683353,0.619925725648232,0.416,0,0.34424
1.40282265766701,0.639830245502663,0.416,0,0.34528
1.4029742643135,0.660787766556731,0.416,0,0.34632
1.40322103317468,0.682250486292048,0.416,0,0.34736
1.40349367726856,0.740159811218908,0.416,0,0.35048
1.40266788155377,0.759076056970928,0.416,0,0.35152
1.40159837663465,0.77978609393302,0.416,0,0.35256
1.4000897310517,0.798890586006545,0.416,0,0.3536
1.39849052016181,0.817587099672926,0.416,0,0.35464
1.39697788389089,0.836564066901992,0.416,0,0.35568
1.3856432521374,0.858637674971395,0.416,0,0.35672
1.36633812807313,0.881492815751744,0.416,0,0.35776
1.30541589282134,0.900575088484521,0.416,0,0.3588
1.20518257517745,0.918500638745566,0.416,0,0.35984
1.02734963342536,0.937526757370181,0.416,0,0.36088
0.745512130490456,0.959152551708676,0.416,0,0.36192
0.421164664915227,0.978277012381557,0.416,0,0.36296
