"Velocity[i] (m/s)","Normalized Radius","X (m)","Y (m)","Z (m)"
1.37635249849509,0.416531151842273,0.416,0,0.33384
1.3954787939747,0.437454419516126,0.416,0,0.33488
1.41200236710119,0.459002393829808,0.416,0,0.33592
1.41096374218711,0.703055078114597,0.416,0,0.3484
1.40931448750837,0.721466281430321,0.416,0,0.34944
0.0360194675751476,-0.976745940424564,0.416,0,0.26104
0.0653016281603856,-0.958301228919823,0.416,0,0.26208
0.0997941402049203,-0.938184647183877,0.416,0,0.26312
0.136353054677647,-0.91914247775776,0.416,0,0.26416
0.170414842040043,-0.902143710637373,0.416,0,0.2652
0.209667750604671,-0.883523687894555,0.416,0,0.26624
0.262158240886046,-0.860530510033713,0.416,0,0.26728
0.316260830718233,-0.840070991938256,0.416,0,0.26832
0.371506624872497,-0.819154397592166,0.416,0,0.26936
0.423372106575979,-0.798266642301956,0.416,0,0.2704
0.466697671532687,-0.778174068477797,0.416,0,0.27144
0.491156287221937,-0.758238479055113,0.416,0,0.27248
0.507848949947794,-0.738029687169057,0.416,0,0.27352
0.52215265138822,-0.717992644541379,0.416,0,0.27456
0.530640782799142,-0.699140680102379,0.416,0,0.2756
0.535873006588726,-0.680210255468247,0.416,0,0.27664
0.540691038245207,-0.660805836667103,0.416,0,0.27768
0.543555641795588,-0.639967356460381,0.416,0,0.27872
0.546662495438021,-0.620077216287876,0.416,0,0.27976
0.55153343685662,-0.599643242431481,0.416,0,0.2808
0.560294095673953,-0.580124988264172,0.416,0,0.28184
0.567913037926735,-0.560168121531813,0.416,0,0.28288
0.575276375272732,-0.540141525257043,0.416,0,0.28392
0.585716698688394,-0.518867490645695,0.416,0,0.28496
0.596093333271027,-0.499046497668095,0.416,0,0.286
0.612218869737829,-0.479773143922389,0.416,0,0.28704
0.628184351342569,-0.459922909599847,0.416,0,0.28808
0.641421303518858,-0.439563094304127,0.416,0,0.28912
0.653219738665637,-0.419147159810493,0.416,0,0.29016
0.668037197934187,-0.39914357528988,0.416,0,0.2912
0.673939094662845,-0.37890325304086,0.416,0,0.29224
0.680200012469816,-0.35895537940366,0.416,0,0.29328
0.687564330489959,-0.339146486454692,0.416,0,0.29432
0.694069488462301,-0.319830632816478,0.416,0,0.29536
0.699955626355258,-0.300424427290962,0.416,0,0.2964
0.70595215628083,-0.280678052577577,0.416,0,0.29744
0.711063605478727,-0.260534836517711,0.416,0,0.29848
0.712893568041999,-0.241153140687109,0.416,0,0.29952
0.714611131035975,-0.222038859801038,0.416,0,0.30056
0.715727951027883,-0.200842222316715,0.416,0,0.3016
0.717098459462933,-0.179781122574965,0.416,0,0.30264
0.718678231997926,-0.159500674747491,0.416,0,0.30368
0.718072070431101,-0.140012500149846,0.416,0,0.30472
0.715595637455682,-0.119912209153413,0.416,0,0.30576
0.713831119409564,-0.0990606512673118,0.416,0,0.3068
0.712766959814132,-0.0776142544853187,0.416,0,0.30784
0.712614621516989,-0.0555722883719971,0.416,0,0.30888
0.709351811190345,-0.0368832070675653,0.416,0,0.30992
0.706833469462157,-0.0173101301631906,0.416,0,0.31096
0.703707417783982,0.00274801877118058,0.416,0,0.312
0.699008190007826,0.02380236195392,0.416,0,0.31304
0.696259920465281,0.04219092193153,0.416,0,0.31408
0.694420975500976,0.0600777812554041,0.416,0,0.31512
0.693304343028823,0.0803638073669601,0.416,0,0.31616
0.692364719565529,0.102491033588644,0.416,0,0.3172
0.698354850246869,0.12270796648297,0.416,0,0.31824
0.711858799253279,0.14206891482911,0.416,0,0.31928
0.730970537949726,0.161871528495913,0.416,0,0.32032
0.755517373324626,0.182319059817623,0.416,0,0.32136
0.787099085675614,0.203517376382217,0.416,0,0.3224
0.837506811058495,0.223865572716154,0.416,0,0.32344
0.897532793763411,0.242604128051079,0.416,0,0.32448
0.960824293914391,0.260925319974443,0.416,0,0.32552
1.02755049289976,0.279266844689429,0.416,0,0.32656
1.10559864559325,0.301764997459874,0.416,0,0.3276
1.18729935800677,0.32428769621785,0.416,0,0.32864
1.24707519719969,0.344504931326041,0.416,0,0.32968
1.28726984319537,0.362837241965492,0.416,0,0.33072
1.32286336588542,0.380043733103194,0.416,0,0.33176
1.35603411940183,0.396575602780125,0.416,0,0.3328
1.42315274503024,0.479617338086858,0.416,0,0.33696
1.42556748858257,0.499490075147505,0.416,0,0.338
1.42699199856941,0.51955002410446,0.416,0,0.33904
1.42734429987627,0.539999611256706,0.416,0,0.34008
1.42698303354518,0.560559775211498,0.416,0,0.34112
1.42622702258894,0.580921177276315,0.416,0,0.34216
1.42417913109648,0.600377054444679,0.416,0,0.3432
1.42186278530949,0.619925725648232,0.416,0,0.34424
1.41906533804453,0.639830245502663,0.416,0,0.34528
1.41610397279536,0.660787766556731,0.416,0,0.34632
1.41349490016021,0.682250486292048,0.416,0,0.34736
1.40837257999063,0.740159811218908,0.416,0,0.35048
1.4081695545915,0.759076056970928,0.416,0,0.35152
1.40809608926335,0.77978609393302,0.416,0,0.35256
1.40807082721114,0.798890586006545,0.416,0,0.3536
1.40799597815139,0.817587099672926,0.416,0,0.35464
1.40777282577828,0.836564066901992,0.416,0,0.35568
1.39978482494056,0.858637674971395,0.416,0,0.35672
1.38513556502893,0.881492815751744,0.416,0,0.35776
1.32930538724851,0.900575088484521,0.416,0,0.3588
1.23153012787927,0.918500638745566,0.416,0,0.35984
1.0512976670537,0.937526757370181,0.416,0,0.36088
0.764970681691563,0.959152551708676,0.416,0,0.36192
0.439440457932402,0.978277012381557,0.416,0,0.36296
