"Velocity[i] (m/s)","Normalized Radius","X (m)","Y (m)","Z (m)"
1.37495726483712,0.416531151842273,0.416,0,0.33384
1.37935627717843,0.437454419516126,0.416,0,0.33488
1.38186703805768,0.459002393829808,0.416,0,0.33592
1.37692136234328,0.703055078114597,0.416,0,0.3484
1.3784570598959,0.721466281430321,0.416,0,0.34944
0.0331639479464623,-0.976745940424564,0.416,0,0.26104
0.061383911688802,-0.958301228919823,0.416,0,0.26208
0.0944039570240187,-0.938184647183877,0.416,0,0.26312
0.128797784654893,-0.91914247775776,0.416,0,0.26416
0.160866536930583,-0.902143710637373,0.416,0,0.2652
0.197030233358785,-0.883523687894555,0.416,0,0.26624
0.244449712153398,-0.860530510033713,0.416,0,0.26728
0.292934024579602,-0.840070991938256,0.416,0,0.26832
0.342280142792935,-0.819154397592166,0.416,0,0.26936
0.39070162784463,-0.798266642301956,0.416,0,0.2704
0.433383284936198,-0.778174068477797,0.416,0,0.27144
0.462672344459636,-0.758238479055113,0.416,0,0.27248
0.486003973910934,-0.738029687169057,0.416,0,0.27352
0.507223368969211,-0.717992644541379,0.416,0,0.27456
0.522191747643387,-0.699140680102379,0.416,0,0.2756
0.533477868072866,-0.680210255468247,0.416,0,0.27664
0.543067428282516,-0.660805836667103,0.416,0,0.27768
0.549671057252725,-0.639967356460381,0.416,0,0.27872
0.556575194733848,-0.620077216287876,0.416,0,0.27976
0.564492480501814,-0.599643242431481,0.416,0,0.2808
0.573487540899751,-0.580124988264172,0.416,0,0.28184
0.584771057404796,-0.560168121531813,0.416,0,0.28288
0.596172975350858,-0.540141525257043,0.416,0,0.28392
0.608031983755443,-0.518867490645695,0.416,0,0.28496
0.619551824539264,-0.499046497668095,0.416,0,0.286
0.634660916227868,-0.479773143922389,0.416,0,0.28704
0.650458141374899,-0.459922909599847,0.416,0,0.28808
0.666027881242906,-0.439563094304127,0.416,0,0.28912
0.681323530074516,-0.419147159810493,0.416,0,0.29016
0.696973631363691,-0.39914357528988,0.416,0,0.2912
0.704876652831783,-0.37890325304086,0.416,0,0.29224
0.713018805761686,-0.35895537940366,0.416,0,0.29328
0.720659334644442,-0.339146486454692,0.416,0,0.29432
0.726050302962661,-0.319830632816478,0.416,0,0.29536
0.731849659928515,-0.300424427290962,0.416,0,0.2964
0.737692257639283,-0.280678052577577,0.416,0,0.29744
0.742016843149064,-0.260534836517711,0.416,0,0.29848
0.744205627983102,-0.241153140687109,0.416,0,0.29952
0.746508194968171,-0.222038859801038,0.416,0,0.30056
0.750316303474331,-0.200842222316715,0.416,0,0.3016
0.754551852894545,-0.179781122574965,0.416,0,0.30264
0.758857625559435,-0.159500674747491,0.416,0,0.30368
0.764307387248161,-0.140012500149846,0.416,0,0.30472
0.771057550320126,-0.119912209153413,0.416,0,0.30576
0.778994940258395,-0.0990606512673118,0.416,0,0.3068
0.788250983410442,-0.0776142544853187,0.416,0,0.30784
0.79900907677499,-0.0555722883719971,0.416,0,0.30888
0.814768407389296,-0.0368832070675653,0.416,0,0.30992
0.831340132843931,-0.0173101301631906,0.416,0,0.31096
0.849683179833827,0.00274801877118058,0.416,0,0.312
0.870486160281311,0.02380236195392,0.416,0,0.31304
0.887365026695307,0.04219092193153,0.416,0,0.31408
0.901904753017006,0.0600777812554041,0.416,0,0.31512
0.914902536986016,0.0803638073669601,0.416,0,0.31616
0.927097181631217,0.102491033588644,0.416,0,0.3172
0.935378912568576,0.12270796648297,0.416,0,0.31824
0.938610371037826,0.14206891482911,0.416,0,0.31928
0.942207954676886,0.161871528495913,0.416,0,0.32032
0.946835871637035,0.182319059817623,0.416,0,0.32136
0.952546046280402,0.203517376382217,0.416,0,0.3224
0.967082433629122,0.223865572716154,0.416,0,0.32344
0.997823174051058,0.242604128051079,0.416,0,0.32448
1.04103868920996,0.260925319974443,0.416,0,0.32552
1.09076727067436,0.279266844689429,0.416,0,0.32656
1.16125515312963,0.301764997459874,0.416,0,0.3276
1.23708843227582,0.32428769621785,0.416,0,0.32864
1.29865244159317,0.344504931326041,0.416,0,0.32968
1.32501727326746,0.362837241965492,0.416,0,0.33072
1.34880800028355,0.380043733103194,0.416,0,0.33176
1.37103316536522,0.396575602780125,0.416,0,0.3328
1.38115032244719,0.479617338086858,0.416,0,0.33696
1.37767550357369,0.499490075147505,0.416,0,0.338
1.37454134949064,0.51955002410446,0.416,0,0.33904
1.37209506476547,0.539999611256706,0.416,0,0.34008
1.37029706346256,0.560559775211498,0.416,0,0.34112
1.36900297832033,0.580921177276315,0.416,0,0.34216
1.36917772604509,0.600377054444679,0.416,0,0.3432
1.36964479257882,0.619925725648232,0.416,0,0.34424
1.37093356803386,0.639830245502663,0.416,0,0.34528
1.37299556128128,0.660787766556731,0.416,0,0.34632
1.37498628316872,0.682250486292048,0.416,0,0.34736
1.37930113718724,0.740159811218908,0.416,0,0.35048
1.3793373372738,0.759076056970928,0.416,0,0.35152
1.37930406369631,0.77978609393302,0.416,0,0.35256
1.37860304024166,0.798890586006545,0.416,0,0.3536
1.37759393894644,0.817587099672926,0.416,0,0.35464
1.37633173977823,0.836564066901992,0.416,0,0.35568
1.3674952857194,0.858637674971395,0.416,0,0.35672
1.35295933826663,0.881492815751744,0.416,0,0.35776
1.29857619682873,0.900575088484521,0.416,0,0.3588
1.20580190930875,0.918500638745566,0.416,0,0.35984
1.03406799211914,0.937526757370181,0.416,0,0.36088
0.755778147905067,0.959152551708676,0.416,0,0.36192
0.433676326872493,0.978277012381557,0.416,0,0.36296
