"Velocity[i] (m/s)","Normalized Radius","X (m)","Y (m)","Z (m)"
1.37901725047191,0.416531151842273,0.416,0,0.33384
1.38869946871898,0.437454419516126,0.416,0,0.33488
1.39663207456219,0.459002393829808,0.416,0,0.33592
1.4116034358757,0.703055078114597,0.416,0,0.3484
1.41133331467515,0.721466281430321,0.416,0,0.34944
0.0359392572089173,-0.976745940424564,0.416,0,0.26104
0.0677054442814066,-0.958301228919823,0.416,0,0.26208
0.106684649637151,-0.938184647183877,0.416,0,0.26312
0.147384708640817,-0.91914247775776,0.416,0,0.26416
0.185750307248045,-0.902143710637373,0.416,0,0.2652
0.227169506618794,-0.883523687894555,0.416,0,0.26624
0.276743704527293,-0.860530510033713,0.416,0,0.26728
0.324227355862794,-0.840070991938256,0.416,0,0.26832
0.370834240482977,-0.819154397592166,0.416,0,0.26936
0.413408171948872,-0.798266642301956,0.416,0,0.2704
0.447821324681195,-0.778174068477797,0.416,0,0.27144
0.470642430887199,-0.758238479055113,0.416,0,0.27248
0.487750775575206,-0.738029687169057,0.416,0,0.27352
0.502711129778348,-0.717992644541379,0.416,0,0.27456
0.512269513024739,-0.699140680102379,0.416,0,0.2756
0.51824348458668,-0.680210255468247,0.416,0,0.27664
0.524293290374551,-0.660805836667103,0.416,0,0.27768
0.526231484969674,-0.639967356460381,0.416,0,0.27872
0.52782141036495,-0.620077216287876,0.416,0,0.27976
0.529755158310016,-0.599643242431481,0.416,0,0.2808
0.536032041723921,-0.580124988264172,0.416,0,0.28184
0.537964608642339,-0.560168121531813,0.416,0,0.28288
0.54150967379771,-0.540141525257043,0.416,0,0.28392
0.552108276354539,-0.518867490645695,0.416,0,0.28496
0.562734211016886,-0.499046497668095,0.416,0,0.286
0.581807658448502,-0.479773143922389,0.416,0,0.28704
0.60007494014573,-0.459922909599847,0.416,0,0.28808
0.614117341675379,-0.439563094304127,0.416,0,0.28912
0.626122616334155,-0.419147159810493,0.416,0,0.29016
0.641499928998616,-0.39914357528988,0.416,0,0.2912
0.65325020022029,-0.37890325304086,0.416,0,0.29224
0.664258958310687,-0.35895537940366,0.416,0,0.29328
0.674216848495451,-0.339146486454692,0.416,0,0.29432
0.684341478552118,-0.319830632816478,0.416,0,0.29536
0.693063527161661,-0.300424427290962,0.416,0,0.2964
0.700228175871488,-0.280678052577577,0.416,0,0.29744
0.705860157619647,-0.260534836517711,0.416,0,0.29848
0.70690085504167,-0.241153140687109,0.416,0,0.29952
0.708929665391312,-0.222038859801038,0.416,0,0.30056
0.715817844951688,-0.200842222316715,0.416,0,0.3016
0.72275926879732,-0.179781122574965,0.416,0,0.30264
0.729266181044197,-0.159500674747491,0.416,0,0.30368
0.736955025677218,-0.140012500149846,0.416,0,0.30472
0.747172996708851,-0.119912209153413,0.416,0,0.30576
0.759963013912703,-0.0990606512673118,0.416,0,0.3068
0.775369498922512,-0.0776142544853187,0.416,0,0.30784
0.792696350658552,-0.0555722883719971,0.416,0,0.30888
0.803166198763188,-0.0368832070675653,0.416,0,0.30992
0.813828596217246,-0.0173101301631906,0.416,0,0.31096
0.823526061970292,0.00274801877118058,0.416,0,0.312
0.831347536163428,0.02380236195392,0.416,0,0.31304
0.829810024217224,0.04219092193153,0.416,0,0.31408
0.825080117087785,0.0600777812554041,0.416,0,0.31512
0.814925015541435,0.0803638073669601,0.416,0,0.31616
0.801055085305982,0.102491033588644,0.416,0,0.3172
0.79325478053896,0.12270796648297,0.416,0,0.31824
0.791727835280096,0.14206891482911,0.416,0,0.31928
0.796695929331302,0.161871528495913,0.416,0,0.32032
0.808619525704805,0.182319059817623,0.416,0,0.32136
0.828135947951607,0.203517376382217,0.416,0,0.3224
0.86825367522968,0.223865572716154,0.416,0,0.32344
0.927337806594074,0.242604128051079,0.416,0,0.32448
0.992520580301888,0.260925319974443,0.416,0,0.32552
1.0622999655734,0.279266844689429,0.416,0,0.32656
1.14241391981851,0.301764997459874,0.416,0,0.3276
1.23048729077593,0.32428769621785,0.416,0,0.32864
1.29459164348762,0.344504931326041,0.416,0,0.32968
1.3229738844949,0.362837241965492,0.416,0,0.33072
1.34727000897814,0.380043733103194,0.416,0,0.33176
1.36973373194761,0.396575602780125,0.416,0,0.3328
1.4010903856745,0.479617338086858,0.416,0,0.33696
1.40229905344781,0.499490075147505,0.416,0,0.338
1.40348697978485,0.51955002410446,0.416,0,0.33904
1.40476483308184,0.539999611256706,0.416,0,0.34008
1.40620328007577,0.560559775211498,0.416,0,0.34112
1.40765815881116,0.580921177276315,0.416,0,0.34216
1.40865402155377,0.600377054444679,0.416,0,0.3432
1.40962415661195,0.619925725648232,0.416,0,0.34424
1.41044089602669,0.639830245502663,0.416,0,0.34528
1.41099501589144,0.660787766556731,0.416,0,0.34632
1.41136149656192,0.682250486292048,0.416,0,0.34736
1.4103543319707,0.740159811218908,0.416,0,0.35048
1.4089787134845,0.759076056970928,0.416,0,0.35152
1.40752131433896,0.77978609393302,0.416,0,0.35256
1.40565759834841,0.798890586006545,0.416,0,0.3536
1.40403762972373,0.817587099672926,0.416,0,0.35464
1.40267121331218,0.836564066901992,0.416,0,0.35568
1.38912338979119,0.858637674971395,0.416,0,0.35672
1.36493880197028,0.881492815751744,0.416,0,0.35776
1.29707640389018,0.900575088484521,0.416,0,0.3588
1.1873249925638,0.918500638745566,0.416,0,0.35984
1.00028344628281,0.937526757370181,0.416,0,0.36088
0.718114190388847,0.959152551708676,0.416,0,0.36192
0.407709834886684,0.978277012381557,0.416,0,0.36296
