"Velocity[i] (m/s)","Normalized Radius","X (m)","Y (m)","Z (m)"
1.38354761382545,0.416531151842273,0.416,0,0.33384
1.38834189150245,0.437454419516126,0.416,0,0.33488
1.39276633710219,0.459002393829808,0.416,0,0.33592
1.40253114447101,0.703055078114597,0.416,0,0.3484
1.40276950752712,0.721466281430321,0.416,0,0.34944
0.034823519269365,-0.976745940424564,0.416,0,0.26104
0.0679877798887348,-0.958301228919823,0.416,0,0.26208
0.105350998221878,-0.938184647183877,0.416,0,0.26312
0.142962126435709,-0.91914247775776,0.416,0,0.26416
0.178403462254622,-0.902143710637373,0.416,0,0.2652
0.218849819491722,-0.883523687894555,0.416,0,0.26624
0.271462997526811,-0.860530510033713,0.416,0,0.26728
0.326309883418977,-0.840070991938256,0.416,0,0.26832
0.386481949026645,-0.819154397592166,0.416,0,0.26936
0.446023785419916,-0.798266642301956,0.416,0,0.2704
0.49977892555932,-0.778174068477797,0.416,0,0.27144
0.534351497904922,-0.758238479055113,0.416,0,0.27248
0.560117099382235,-0.738029687169057,0.416,0,0.27352
0.581603109349568,-0.717992644541379,0.416,0,0.27456
0.592912578034381,-0.699140680102379,0.416,0,0.2756
0.599150168941065,-0.680210255468247,0.416,0,0.27664
0.604888623668706,-0.660805836667103,0.416,0,0.27768
0.607590060038419,-0.639967356460381,0.416,0,0.27872
0.611300544503673,-0.620077216287876,0.416,0,0.27976
0.616658329284694,-0.599643242431481,0.416,0,0.2808
0.62139245086492,-0.580124988264172,0.416,0,0.28184
0.626280796257805,-0.560168121531813,0.416,0,0.28288
0.631023600620751,-0.540141525257043,0.416,0,0.28392
0.63631258493667,-0.518867490645695,0.416,0,0.28496
0.641521484740531,-0.499046497668095,0.416,0,0.286
0.648990723323513,-0.479773143922389,0.416,0,0.28704
0.656724732840753,-0.459922909599847,0.416,0,0.28808
0.663271272931994,-0.439563094304127,0.416,0,0.28912
0.668509068398277,-0.419147159810493,0.416,0,0.29016
0.672877002580091,-0.39914357528988,0.416,0,0.2912
0.672494366606103,-0.37890325304086,0.416,0,0.29224
0.672376330325926,-0.35895537940366,0.416,0,0.29328
0.673303656924099,-0.339146486454692,0.416,0,0.29432
0.673293690871431,-0.319830632816478,0.416,0,0.29536
0.673157083736502,-0.300424427290962,0.416,0,0.2964
0.67331728497359,-0.280678052577577,0.416,0,0.29744
0.673233076489368,-0.260534836517711,0.416,0,0.29848
0.671412309513834,-0.241153140687109,0.416,0,0.29952
0.67024372685586,-0.222038859801038,0.416,0,0.30056
0.671009068741098,-0.200842222316715,0.416,0,0.3016
0.670221539623894,-0.179781122574965,0.416,0,0.30264
0.669041850338533,-0.159500674747491,0.416,0,0.30368
0.665559902649535,-0.140012500149846,0.416,0,0.30472
0.660025155076826,-0.119912209153413,0.416,0,0.30576
0.654581532973758,-0.0990606512673118,0.416,0,0.3068
0.649000360964567,-0.0776142544853187,0.416,0,0.30784
0.6434194690734,-0.0555722883719971,0.416,0,0.30888
0.642004415080053,-0.0368832070675653,0.416,0,0.30992
0.641482358717362,-0.0173101301631906,0.416,0,0.31096
0.642640473947272,0.00274801877118058,0.416,0,0.312
0.645996696457899,0.02380236195392,0.416,0,0.31304
0.663371500454718,0.04219092193153,0.416,0,0.31408
0.686672979475684,0.0600777812554041,0.416,0,0.31512
0.728487176244606,0.0803638073669601,0.416,0,0.31616
0.782722734253146,0.102491033588644,0.416,0,0.3172
0.836687047293456,0.12270796648297,0.416,0,0.31824
0.894833205091805,0.14206891482911,0.416,0,0.31928
0.955546946373564,0.161871528495913,0.416,0,0.32032
1.01936096584788,0.182319059817623,0.416,0,0.32136
1.08599207945611,0.203517376382217,0.416,0,0.3224
1.14535570784533,0.223865572716154,0.416,0,0.32344
1.19725956847502,0.242604128051079,0.416,0,0.32448
1.24002418917356,0.260925319974443,0.416,0,0.32552
1.27891310138661,0.279266844689429,0.416,0,0.32656
1.3113446569321,0.301764997459874,0.416,0,0.3276
1.33943094279147,0.32428769621785,0.416,0,0.32864
1.35642200292071,0.344504931326041,0.416,0,0.32968
1.36426893311216,0.362837241965492,0.416,0,0.33072
1.37160193300925,0.380043733103194,0.416,0,0.33176
1.37848745670911,0.396575602780125,0.416,0,0.3328
1.39625522677244,0.479617338086858,0.416,0,0.33696
1.39808829882203,0.499490075147505,0.416,0,0.338
1.39954229810035,0.51955002410446,0.416,0,0.33904
1.40060424373305,0.539999611256706,0.416,0,0.34008
1.40139197441763,0.560559775211498,0.416,0,0.34112
1.40198863406827,0.580921177276315,0.416,0,0.34216
1.40188288614853,0.600377054444679,0.416,0,0.3432
1.40185173395009,0.619925725648232,0.416,0,0.34424
1.40185554681856,0.639830245502663,0.416,0,0.34528
1.40199221619328,0.660787766556731,0.416,0,0.34632
1.40225171299545,0.682250486292048,0.416,0,0.34736
1.40264785927743,0.740159811218908,0.416,0,0.35048
1.40189494032034,0.759076056970928,0.416,0,0.35152
1.40097482682478,0.77978609393302,0.416,0,0.35256
1.39961726049539,0.798890586006545,0.416,0,0.3536
1.39815428217057,0.817587099672926,0.416,0,0.35464
1.39677479728113,0.836564066901992,0.416,0,0.35568
1.38557896281747,0.858637674971395,0.416,0,0.35672
1.36642297594798,0.881492815751744,0.416,0,0.35776
1.30569590898129,0.900575088484521,0.416,0,0.3588
1.20567577467531,0.918500638745566,0.416,0,0.35984
1.02806184702146,0.937526757370181,0.416,0,0.36088
0.746622940601891,0.959152551708676,0.416,0,0.36192
0.422679525040116,0.978277012381557,0.416,0,0.36296
