"Velocity[i] (m/s)","Normalized Radius","X (m)","Y (m)","Z (m)"
1.41534836421565,0.416531151842273,0.416,0,0.33384
1.42273704553925,0.437454419516126,0.416,0,0.33488
1.42903766482263,0.459002393829808,0.416,0,0.33592
1.41945256073225,0.703055078114597,0.416,0,0.3484
1.41783921417663,0.721466281430321,0.416,0,0.34944
0.0542354418847264,-0.976745940424564,0.416,0,0.26104
0.0849054695074415,-0.958301228919823,0.416,0,0.26208
0.119347645870903,-0.938184647183877,0.416,0,0.26312
0.155008472337168,-0.91914247775776,0.416,0,0.26416
0.189017956934657,-0.902143710637373,0.416,0,0.2652
0.228446108644691,-0.883523687894555,0.416,0,0.26624
0.28022271242384,-0.860530510033713,0.416,0,0.26728
0.334379729560278,-0.840070991938256,0.416,0,0.26832
0.392503668310528,-0.819154397592166,0.416,0,0.26936
0.448607460815806,-0.798266642301956,0.416,0,0.2704
0.499499896471139,-0.778174068477797,0.416,0,0.27144
0.531122170830664,-0.758238479055113,0.416,0,0.27248
0.554961498310878,-0.738029687169057,0.416,0,0.27352
0.575130159066904,-0.717992644541379,0.416,0,0.27456
0.585965061933465,-0.699140680102379,0.416,0,0.2756
0.592144521930072,-0.680210255468247,0.416,0,0.27664
0.597494826003362,-0.660805836667103,0.416,0,0.27768
0.597754049294588,-0.639967356460381,0.416,0,0.27872
0.59888176531481,-0.620077216287876,0.416,0,0.27976
0.600739671158156,-0.599643242431481,0.416,0,0.2808
0.603265681174399,-0.580124988264172,0.416,0,0.28184
0.60786175290775,-0.560168121531813,0.416,0,0.28288
0.613505255350173,-0.540141525257043,0.416,0,0.28392
0.620974266217364,-0.518867490645695,0.416,0,0.28496
0.628924118334181,-0.499046497668095,0.416,0,0.286
0.641644126327841,-0.479773143922389,0.416,0,0.28704
0.655463028316397,-0.459922909599847,0.416,0,0.28808
0.6683242370466,-0.439563094304127,0.416,0,0.28912
0.680413101865296,-0.419147159810493,0.416,0,0.29016
0.693389687885148,-0.39914357528988,0.416,0,0.2912
0.701958292626669,-0.37890325304086,0.416,0,0.29224
0.710541085323556,-0.35895537940366,0.416,0,0.29328
0.718642503494158,-0.339146486454692,0.416,0,0.29432
0.725780713477866,-0.319830632816478,0.416,0,0.29536
0.732278447292779,-0.300424427290962,0.416,0,0.2964
0.737884528582924,-0.280678052577577,0.416,0,0.29744
0.742897236378897,-0.260534836517711,0.416,0,0.29848
0.74562829701666,-0.241153140687109,0.416,0,0.29952
0.748504020992673,-0.222038859801038,0.416,0,0.30056
0.752602232374389,-0.200842222316715,0.416,0,0.3016
0.756377252194763,-0.179781122574965,0.416,0,0.30264
0.759808788872242,-0.159500674747491,0.416,0,0.30368
0.762847600248068,-0.140012500149846,0.416,0,0.30472
0.765868425376516,-0.119912209153413,0.416,0,0.30576
0.769387348838771,-0.0990606512673118,0.416,0,0.3068
0.773623582197275,-0.0776142544853187,0.416,0,0.30784
0.778220907101675,-0.0555722883719971,0.416,0,0.30888
0.779713188281659,-0.0368832070675653,0.416,0,0.30992
0.781483977281786,-0.0173101301631906,0.416,0,0.31096
0.782610662823545,0.00274801877118058,0.416,0,0.312
0.782934524305536,0.02380236195392,0.416,0,0.31304
0.781963286044338,0.04219092193153,0.416,0,0.31408
0.781515833173643,0.0600777812554041,0.416,0,0.31512
0.780646771448859,0.0803638073669601,0.416,0,0.31616
0.778236753864687,0.102491033588644,0.416,0,0.3172
0.785152887642133,0.12270796648297,0.416,0,0.31824
0.801478526840258,0.14206891482911,0.416,0,0.31928
0.823449789471501,0.161871528495913,0.416,0,0.32032
0.851734886963737,0.182319059817623,0.416,0,0.32136
0.885924488065942,0.203517376382217,0.416,0,0.3224
0.935956031749407,0.223865572716154,0.416,0,0.32344
1.00381121601755,0.242604128051079,0.416,0,0.32448
1.06867156832313,0.260925319974443,0.416,0,0.32552
1.13390558968237,0.279266844689429,0.416,0,0.32656
1.20871812203645,0.301764997459874,0.416,0,0.3276
1.28488520127576,0.32428769621785,0.416,0,0.32864
1.3424411804973,0.344504931326041,0.416,0,0.32968
1.36769578258,0.362837241965492,0.416,0,0.33072
1.38873143672659,0.380043733103194,0.416,0,0.33176
1.40679815207505,0.396575602780125,0.416,0,0.3328
1.43295235253561,0.479617338086858,0.416,0,0.33696
1.43312957871873,0.499490075147505,0.416,0,0.338
1.43301234813842,0.51955002410446,0.416,0,0.33904
1.43248211785868,0.539999611256706,0.416,0,0.34008
1.43166982172823,0.560559775211498,0.416,0,0.34112
1.43068291249595,0.580921177276315,0.416,0,0.34216
1.42892999056192,0.600377054444679,0.416,0,0.3432
1.42714160234402,0.619925725648232,0.416,0,0.34424
1.42529760687145,0.639830245502663,0.416,0,0.34528
1.42332332857525,0.660787766556731,0.416,0,0.34632
1.42134566232083,0.682250486292048,0.416,0,0.34736
1.41644926415491,0.740159811218908,0.416,0,0.35048
1.41548899402657,0.759076056970928,0.416,0,0.35152
1.41435830391104,0.77978609393302,0.416,0,0.35256
1.41312453142618,0.798890586006545,0.416,0,0.3536
1.41180194556993,0.817587099672926,0.416,0,0.35464
1.41035046621155,0.836564066901992,0.416,0,0.35568
1.40033619129188,0.858637674971395,0.416,0,0.35672
1.384508959994,0.881492815751744,0.416,0,0.35776
1.32670155075463,0.900575088484521,0.416,0,0.3588
1.23007229597251,0.918500638745566,0.416,0,0.35984
1.05670107643773,0.937526757370181,0.416,0,0.36088
0.775043211152701,0.959152551708676,0.416,0,0.36192
0.448799264385531,0.978277012381557,0.416,0,0.36296
