"Physical Time: Physical Time (s)","Solver Elapsed Time per Time Step Monitor: Solver Elapsed Time per Time Step (s)"
0.006,0.342983722686768
0.012,0.329300880432129
0.018,0.332696199417114
0.024,0.337242603302002
0.03,0.340104579925537
0.036,0.341150999069214
0.042,0.338404417037964
0.048,0.373081922531128
0.054,0.336273908615112
0.06,0.340708017349243
0.066,0.332418441772461
0.072,0.337617874145508
0.078,0.392806529998779
0.084,0.337827444076538
0.09,0.335582971572876
0.096,0.335124254226685
0.102,0.336084604263306
0.108,0.335143566131592
0.114,0.335753440856934
0.12,0.3374342918396
0.126,0.336762189865112
0.132,0.337826728820801
0.138,0.337237596511841
0.144,0.337324380874634
0.15,0.336739778518677
0.156,0.336752891540527
0.162,0.336500406265259
0.168,0.344019174575806
0.174,0.336412906646729
0.18,0.338549375534058
0.186,0.336965322494507
0.192,0.335437536239624
0.198,0.336958885192871
0.204,0.336543560028076
0.21,0.33588433265686
0.216,0.336597204208374
0.222,0.3363196849823
0.228,0.335391283035278
0.234,0.334643363952637
0.24,0.333745956420898
0.246,0.334233522415161
0.252,0.334490299224854
0.258,0.33410906791687
0.264,0.334293603897095
0.27,0.334629774093628
0.276,0.334577322006226
0.282,0.334604024887085
0.288,0.334800481796265
0.294,0.334701299667358
0.3,0.335389137268066
0.306,0.335050344467163
0.312,0.337162733078003
0.318,0.34168004989624
0.324,0.336556673049927
0.33,0.338926076889038
0.336,0.338546514511108
0.342,0.338062524795532
0.348,0.33578634262085
0.354,0.336280822753906
0.36,0.338455677032471
0.366,0.335235357284546
0.372,0.335318803787231
0.378,0.336992740631104
0.384,0.334545850753784
0.39,0.335490942001343
0.396,0.334220886230469
0.402,0.335266351699829
0.408,0.333199501037598
0.414,0.335090398788452
0.42,0.332167148590088
0.426,0.333637237548828
0.432,0.33333945274353
0.438,0.332295417785645
0.444,0.332306385040283
0.45,0.332518577575684
0.456,0.333165645599365
0.462,0.33260178565979
0.468,0.332641363143921
0.474,0.332143545150757
0.48,0.334549903869629
0.486,0.33204460144043
0.492,0.33421802520752
0.498,0.336851358413696
0.504,0.333544969558716
0.51,0.334772825241089
0.516,0.334459066390991
0.522,0.33477258682251
0.528,0.3341965675354
0.534,0.336659908294678
0.54,0.336668014526367
0.546,0.336811780929565
0.552,0.335566520690918
0.558,0.334798812866211
0.564,0.336687088012695
0.57,0.333819627761841
0.576,0.334334373474121
0.582,0.335033416748047
0.588,0.334640264511108
0.594,0.335517644882202
0.6,0.333874464035034
0.606,0.336152791976929
0.612,0.334635972976685
0.618,0.335453987121582
0.624,0.336950063705444
0.63,0.334710836410522
0.636,0.333891153335571
0.642,0.335016012191772
0.648,0.334445238113403
0.654,0.335097074508667
0.66,0.334014654159546
0.666,0.334890604019165
0.672,0.333261013031006
0.678,0.335387468338013
0.684,0.333593845367432
0.690000000000001,0.333711385726929
0.696000000000001,0.333303451538086
0.702000000000001,0.339898347854614
0.708000000000001,0.33250880241394
0.714000000000001,0.33332896232605
0.720000000000001,0.331752777099609
0.726000000000001,0.332665681838989
0.732000000000001,0.33165979385376
0.738000000000001,0.332111597061157
0.744000000000001,0.33193826675415
0.750000000000001,0.331599950790405
0.756000000000001,0.335634469985962
0.762000000000001,0.338040590286255
0.768000000000001,0.336670637130737
0.774000000000001,0.334114551544189
0.780000000000001,0.335119009017944
0.786000000000001,0.337186574935913
0.792000000000001,0.334609031677246
0.798000000000001,0.333991527557373
0.804000000000001,0.337147951126099
0.810000000000001,0.335688829421997
0.816000000000001,0.335594654083252
0.822000000000001,0.337374687194824
0.828000000000001,0.344340562820435
0.834000000000001,0.338798761367798
0.840000000000001,0.333239793777466
0.846000000000001,0.334954261779785
0.852000000000001,0.336036443710327
0.858000000000001,0.333706140518188
0.864000000000001,0.334046602249146
0.870000000000001,0.333888292312622
0.876000000000001,0.334768533706665
0.882000000000001,0.331555366516113
0.888000000000001,0.334559917449951
0.894000000000001,0.335691452026367
0.900000000000001,0.334328651428223
0.906000000000001,0.332147598266602
0.912000000000001,0.334743022918701
0.918000000000001,0.332058906555176
0.924000000000001,0.334589004516602
0.930000000000001,0.33275318145752
0.936000000000001,0.333113193511963
0.942000000000001,0.333959817886353
0.948000000000001,0.334957122802734
0.954000000000001,0.334341526031494
0.960000000000001,0.33427906036377
0.966000000000001,0.334594488143921
0.972000000000001,0.335254430770874
0.978000000000001,0.334466934204102
0.984000000000001,0.334762334823608
0.990000000000001,0.332990169525146
0.996000000000001,0.333470821380615
1.002,0.334762811660767
1.008,0.331721782684326
1.014,0.3345046043396
1.02,0.331689119338989
1.026,0.334688663482666
1.032,0.335723400115967
1.038,0.334935188293457
1.044,0.332032918930054
1.05,0.334681510925293
1.056,0.334136962890625
1.062,0.331898212432861
1.068,0.333199501037598
1.074,0.334249496459961
1.08,0.33464527130127
1.086,0.333870887756348
1.092,0.334607362747192
1.098,0.335260391235352
1.104,0.333371877670288
1.11,0.336167335510254
1.116,0.3361496925354
1.122,0.336959600448608
1.128,0.332619428634644
1.134,0.335715532302856
1.14,0.334525108337402
1.146,0.334608316421509
1.152,0.334484815597534
1.158,0.335808038711548
1.164,0.333133459091187
1.17,0.334679841995239
1.176,0.334525585174561
1.182,0.333166360855103
1.188,0.337026596069336
1.194,0.335946083068848
1.2,0.33428955078125
1.206,0.337587356567383
1.212,0.33957576751709
1.218,0.34026026725769
1.224,0.337785720825195
1.23,0.337860584259033
1.236,0.343414545059204
1.242,0.33694863319397
1.248,0.33603835105896
1.254,0.33803915977478
1.26,0.33581280708313
1.266,0.335807800292969
1.272,0.335596561431885
1.278,0.336631536483765
1.284,0.337368965148926
1.29,0.336086273193359
1.296,0.336302995681763
1.302,0.336222648620605
1.308,0.335952043533325
1.314,0.335373640060425
1.32,0.3342604637146
1.326,0.335445880889893
1.332,0.334266185760498
1.338,0.335464477539062
1.344,0.33558201789856
1.35,0.334303855895996
1.356,0.334030151367188
1.362,0.334507942199707
1.368,0.336780786514282
1.374,0.333290338516235
1.38,0.337210655212402
1.386,0.334803342819214
1.392,0.335536956787109
1.398,0.332908391952515
1.404,0.332872629165649
1.41,0.334396362304688
1.416,0.331738710403442
1.422,0.334297657012939
1.428,0.33192253112793
1.434,0.333117246627808
1.44,0.333151817321777
1.446,0.331759452819824
1.452,0.333458185195923
1.458,0.331809759140015
1.464,0.332980871200562
1.47,0.331798791885376
1.476,0.333082437515259
1.482,0.332387208938599
1.488,0.333156824111938
1.494,0.331709146499634
1.5,0.332987546920776
1.506,0.333305597305298
1.512,0.333703517913818
1.518,0.333372592926025
1.524,0.334545850753784
1.53,0.333003759384155
1.536,0.333083868026733
1.542,0.332981586456299
1.548,0.333465576171875
1.554,0.3329017162323
1.56,0.333048343658447
1.566,0.336685419082642
1.572,0.332964181900024
1.578,0.334205865859985
1.584,0.332878351211548
1.59,0.331769466400146
1.596,0.331562995910645
1.602,0.331928730010986
1.608,0.331774473190308
1.614,0.332789182662964
1.62,0.332388401031494
1.626,0.332452535629272
1.632,0.332627773284912
1.638,0.33244252204895
1.644,0.3318932056427
1.65,0.332136631011963
1.656,0.333364248275757
1.662,0.337059020996094
1.668,0.333599090576172
1.674,0.333547592163086
1.68,0.334803581237793
1.686,0.334103345870972
1.692,0.332690238952637
1.698,0.331910610198975
1.704,0.333158493041992
1.71,0.332148790359497
1.716,0.349905014038086
1.722,0.331992149353027
1.728,0.333176612854004
1.734,0.33347225189209
1.74,0.333181381225586
1.746,0.33589243888855
1.752,0.333786010742188
1.758,0.333587169647217
1.764,0.333227157592773
1.77,0.339992761611938
1.776,0.333255529403687
1.782,0.333633184432983
1.788,0.333536624908447
1.794,0.334936380386353
1.8,0.333446502685547
1.806,0.332845211029053
1.812,0.332972764968872
1.818,0.333571910858154
1.824,0.333024024963379
1.83,0.333398580551147
1.836,0.332989931106567
1.842,0.332949638366699
1.848,0.334157943725586
1.854,0.332369565963745
1.86,0.331833600997925
1.866,0.333643674850464
1.872,0.331480026245117
1.878,0.331994771957397
1.884,0.333428621292114
1.89,0.332006216049194
1.896,0.333988666534424
1.902,0.33444356918335
1.908,0.331957817077637
1.914,0.331960916519165
1.92,0.331871032714844
1.926,0.332887172698975
1.932,0.332175493240356
1.938,0.33217978477478
1.944,0.332983493804932
1.95,0.332396268844604
1.956,0.332098484039307
1.962,0.331993579864502
1.968,0.332740545272827
1.974,0.332851648330688
1.98,0.332542657852173
1.986,0.333510398864746
1.992,0.333557605743408
1.998,0.341402053833008
2.004,0.333679914474487
2.01,0.331743717193604
2.016,0.33162260055542
2.022,0.332633018493652
2.028,0.33244514465332
2.034,0.332083463668823
2.04,0.332285404205322
2.046,0.333255290985107
2.052,0.331908941268921
2.058,0.331941366195679
2.064,0.332079887390137
2.07,0.331946134567261
2.076,0.332496166229248
2.082,0.332209825515747
2.088,0.331965208053589
2.094,0.332415819168091
2.1,0.331392765045166
2.106,0.334244251251221
2.112,0.333698987960815
2.118,0.337188482284546
2.124,0.335684061050415
2.13,0.333191633224487
2.136,0.333794116973877
2.142,0.333555698394775
2.148,0.332350730895996
2.154,0.332174301147461
2.16,0.332328319549561
2.166,0.332889080047607
2.172,0.332678079605103
2.178,0.332328081130981
2.18399999999999,0.332683086395264
2.18999999999999,0.335773229598999
2.19599999999999,0.331814527511597
2.20199999999999,0.331999063491821
2.20799999999999,0.331961393356323
2.21399999999999,0.33193302154541
2.21999999999999,0.332143783569336
2.22599999999999,0.331668376922607
2.23199999999999,0.332784175872803
2.23799999999999,0.332033634185791
2.24399999999999,0.33308744430542
2.24999999999999,0.331307888031006
2.25599999999999,0.331732988357544
2.26199999999999,0.332046270370483
2.26799999999999,0.333061695098877
2.27399999999999,0.332034826278687
2.27999999999999,0.333157300949097
2.28599999999999,0.333949327468872
2.29199999999999,0.33204984664917
2.29799999999999,0.332022905349731
2.30399999999999,0.331781148910522
2.30999999999999,0.33989405632019
2.31599999999999,0.332451105117798
2.32199999999999,0.332255363464355
2.32799999999999,0.333417654037476
2.33399999999999,0.332239627838135
2.33999999999999,0.332157373428345
2.34599999999999,0.332179546356201
2.35199999999999,0.33299732208252
2.35799999999999,0.332229137420654
2.36399999999999,0.333608388900757
2.36999999999999,0.331484317779541
2.37599999999999,0.332555294036865
2.38199999999999,0.331843376159668
2.38799999999999,0.331770896911621
2.39399999999999,0.331939697265625
2.39999999999999,0.332312822341919
2.40599999999999,0.332157850265503
2.41199999999999,0.331804275512695
2.41799999999999,0.331738948822021
2.42399999999999,0.332870244979858
2.42999999999999,0.332002639770508
2.43599999999999,0.332416534423828
2.44199999999999,0.331746578216553
2.44799999999999,0.332544326782227
2.45399999999999,0.332491397857666
2.45999999999998,0.333538055419922
2.46599999999998,0.332929134368896
2.47199999999998,0.331989765167236
2.47799999999998,0.331701278686523
2.48399999999998,0.331547260284424
2.48999999999998,0.332288980484009
2.49599999999998,0.331523895263672
2.50199999999998,0.331998109817505
2.50799999999998,0.332093238830566
2.51399999999998,0.331731081008911
2.51999999999998,0.332134962081909
2.52599999999998,0.331781148910522
2.53199999999998,0.331709623336792
2.53799999999998,0.332067966461182
2.54399999999998,0.331984996795654
2.54999999999998,0.332311868667603
2.55599999999998,0.332379817962646
2.56199999999998,0.333345174789429
2.56799999999998,0.33722448348999
2.57399999999998,0.332998275756836
2.57999999999998,0.33577823638916
2.58599999999998,0.333069324493408
2.59199999999998,0.333038568496704
2.59799999999998,0.332590579986572
2.60399999999998,0.332759618759155
2.60999999999998,0.331860303878784
2.61599999999998,0.33293604850769
2.62199999999998,0.332472085952759
2.62799999999998,0.332641363143921
2.63399999999998,0.332117557525635
2.63999999999998,0.332501649856567
2.64599999999998,0.334942817687988
2.65199999999998,0.332299470901489
2.65799999999998,0.333333969116211
2.66399999999998,0.33241868019104
2.66999999999998,0.332542181015015
2.67599999999998,0.332330942153931
2.68199999999998,0.332517147064209
2.68799999999998,0.332785367965698
2.69399999999998,0.335006237030029
2.69999999999998,0.332926511764526
2.70599999999998,0.333764791488647
2.71199999999998,0.332880973815918
2.71799999999998,0.333600282669067
2.72399999999998,0.333273649215698
2.72999999999998,0.333209991455078
2.73599999999997,0.333475589752197
2.74199999999997,0.333343029022217
2.74799999999997,0.333045244216919
2.75399999999997,0.334828853607178
2.75999999999997,0.333247423171997
2.76599999999997,0.33409595489502
2.77199999999997,0.333666801452637
2.77799999999997,0.333529233932495
2.78399999999997,0.334528923034668
2.78999999999997,0.333218812942505
2.79599999999997,0.333035230636597
2.80199999999997,0.333925008773804
2.80799999999997,0.333183765411377
2.81399999999997,0.333322525024414
2.81999999999997,0.333609580993652
2.82599999999997,0.333934545516968
2.83199999999997,0.333109617233276
2.83799999999997,0.333041667938232
2.84399999999997,0.341005086898804
2.84999999999997,0.332937955856323
2.85599999999997,0.33315896987915
2.86199999999997,0.333379745483398
2.86799999999997,0.333918809890747
2.87399999999997,0.333795785903931
2.87999999999997,0.333592653274536
2.88599999999997,0.33287501335144
2.89199999999997,0.333440542221069
2.89799999999997,0.333183526992798
2.90399999999997,0.332707643508911
2.90999999999997,0.333313941955566
2.91599999999997,0.333050966262817
2.92199999999997,0.333881378173828
2.92799999999997,0.332673072814941
2.93399999999997,0.333645105361938
2.93999999999997,0.333759069442749
2.94599999999997,0.333635330200195
2.95199999999997,0.333068132400513
2.95799999999997,0.333382368087769
2.96399999999997,0.334363222122192
2.96999999999997,0.332741975784302
2.97599999999997,0.334244251251221
2.98199999999997,0.336912155151367
2.98799999999997,0.333347320556641
2.99399999999997,0.333639144897461
2.99999999999997,0.33394980430603
3.00599999999997,0.33379340171814
3.01199999999996,0.335751056671143
3.01799999999996,0.33842658996582
3.02399999999996,0.334460020065308
3.02999999999996,0.336718082427979
3.03599999999996,0.337169170379639
3.04199999999996,0.333036184310913
3.04799999999996,0.334846258163452
3.05399999999996,0.333370685577393
3.05999999999996,0.332945108413696
3.06599999999996,0.334409952163696
3.07199999999996,0.333431482315063
3.07799999999996,0.333296298980713
3.08399999999996,0.333096742630005
3.08999999999996,0.333324432373047
3.09599999999996,0.333150863647461
3.10199999999996,0.333825588226318
3.10799999999996,0.333277940750122
3.11399999999996,0.333685398101807
3.11999999999996,0.334091424942017
3.12599999999996,0.335366249084473
3.13199999999996,0.333023309707642
3.13799999999996,0.334342479705811
3.14399999999996,0.332895278930664
3.14999999999996,0.333662509918213
3.15599999999996,0.333028554916382
3.16199999999996,0.333125114440918
3.16799999999996,0.333621978759766
3.17399999999996,0.334394693374634
3.17999999999996,0.335554361343384
3.18599999999996,0.333154678344727
3.19199999999996,0.333763122558594
3.19799999999996,0.3331298828125
3.20399999999996,0.341067314147949
3.20999999999996,0.339915752410889
3.21599999999996,0.332895278930664
3.22199999999996,0.333172082901001
3.22799999999996,0.334333419799805
3.23399999999996,0.333161592483521
3.23999999999996,0.333541631698608
3.24599999999996,0.334278106689453
3.25199999999996,0.333142280578613
3.25799999999996,0.333407163619995
3.26399999999996,0.334283351898193
3.26999999999996,0.335019111633301
3.27599999999996,0.333535432815552
3.28199999999996,0.333574295043945
3.28799999999995,0.334066867828369
3.29399999999995,0.333619594573975
3.29999999999995,0.33366060256958
3.30599999999995,0.333240747451782
3.31199999999995,0.333593130111694
3.31799999999995,0.333918333053589
3.32399999999995,0.333090305328369
3.32999999999995,0.333182334899902
3.33599999999995,0.332941293716431
3.34199999999995,0.333514451980591
3.34799999999995,0.333780765533447
3.35399999999995,0.33326244354248
3.35999999999995,0.335873365402222
3.36599999999995,0.333079099655151
3.37199999999995,0.333268880844116
3.37799999999995,0.333389759063721
3.38399999999995,0.340459823608398
3.38999999999995,0.3328697681427
3.39599999999995,0.33267617225647
3.40199999999995,0.333318710327148
3.40799999999995,0.335521459579468
3.41399999999995,0.333292245864868
3.41999999999995,0.332500219345093
3.42599999999995,0.333706140518188
3.43199999999995,0.333381652832031
3.43799999999995,0.333825826644897
3.44399999999995,0.332525491714478
3.44999999999995,0.333063840866089
3.45599999999995,0.332093477249146
3.46199999999995,0.334581136703491
3.46799999999995,0.334951162338257
3.47399999999995,0.336002349853516
3.47999999999995,0.336174249649048
3.48599999999995,0.334168434143066
3.49199999999995,0.334319591522217
3.49799999999995,0.334216594696045
3.50399999999995,0.343197822570801
3.50999999999995,0.332389354705811
3.51599999999995,0.332247734069824
3.52199999999995,0.333299398422241
3.52799999999995,0.332501173019409
3.53399999999995,0.33420991897583
3.53999999999995,0.333189725875854
3.54599999999995,0.33189582824707
3.55199999999995,0.332971572875977
3.55799999999995,0.332385301589966
3.56399999999994,0.333163976669312
3.56999999999994,0.33330225944519
3.57599999999994,0.332324981689453
3.58199999999994,0.333268880844116
3.58799999999994,0.333488941192627
3.59399999999994,0.33260178565979
3.59999999999994,0.332116365432739
3.60599999999994,0.332795858383179
3.61199999999994,0.332647085189819
3.61799999999994,0.332372903823853
3.62399999999994,0.332503318786621
3.62999999999994,0.332736492156982
3.63599999999994,0.332234382629395
3.64199999999994,0.332980871200562
3.64799999999994,0.33196496963501
3.65399999999994,0.332302093505859
3.65999999999994,0.332285642623901
3.66599999999994,0.332136869430542
3.67199999999994,0.332087755203247
3.67799999999994,0.333717823028564
3.68399999999994,0.33196234703064
3.68999999999994,0.331868648529053
3.69599999999994,0.332470655441284
3.70199999999994,0.332469940185547
3.70799999999994,0.332808017730713
3.71399999999994,0.335405588150024
3.71999999999994,0.332950353622437
3.72599999999994,0.332406997680664
3.73199999999994,0.333369255065918
3.73799999999994,0.332193374633789
3.74399999999994,0.332215547561646
3.74999999999994,0.332261085510254
3.75599999999994,0.332097053527832
3.76199999999994,0.332190752029419
3.76799999999994,0.333649158477783
3.77399999999994,0.332675933837891
3.77999999999994,0.332801342010498
3.78599999999994,0.332495450973511
3.79199999999994,0.332892179489136
3.79799999999994,0.332179069519043
3.80399999999994,0.332180738449097
3.80999999999994,0.332131862640381
3.81599999999994,0.332011222839355
3.82199999999994,0.332499504089355
3.82799999999994,0.332968711853027
3.83399999999994,0.332099914550781
3.83999999999994,0.333268404006958
3.84599999999993,0.332927703857422
3.85199999999993,0.332145214080811
3.85799999999993,0.332826614379883
3.86399999999993,0.332268714904785
3.86999999999993,0.332314968109131
3.87599999999993,0.332659721374512
3.88199999999993,0.332391262054443
3.88799999999993,0.332798719406128
3.89399999999993,0.333019495010376
3.89999999999993,0.333766222000122
3.90599999999993,0.332332849502563
3.91199999999993,0.33589506149292
3.91799999999993,0.343984842300415
3.92399999999993,0.334187030792236
3.92999999999993,0.335506439208984
3.93599999999993,0.334568500518799
3.94199999999993,0.334594011306763
3.94799999999993,0.333611488342285
3.95399999999993,0.33228874206543
3.95999999999993,0.331979513168335
3.96599999999993,0.332219839096069
3.97199999999993,0.332959651947021
3.97799999999993,0.332394123077393
3.98399999999993,0.333114147186279
3.98999999999993,0.332425594329834
3.99599999999993,0.332677602767944
4.00199999999993,0.33223557472229
4.00799999999993,0.333503246307373
4.01399999999993,0.378840923309326
4.01999999999993,0.332273483276367
4.02599999999993,0.33255410194397
4.03199999999993,0.332784175872803
4.03799999999993,0.332544088363647
4.04399999999993,0.332170486450195
4.04999999999993,0.332803964614868
4.05599999999993,0.336899042129517
4.06199999999993,0.332518815994263
4.06799999999993,0.34575343132019
4.07399999999993,0.333640575408936
4.07999999999993,0.332148551940918
4.08599999999993,0.333595037460327
4.09199999999993,0.332541942596436
4.09799999999993,0.332348346710205
4.10399999999993,0.332309007644653
4.10999999999993,0.332330465316772
4.11599999999993,0.333565711975098
4.12199999999993,0.334057092666626
4.12799999999993,0.333710670471191
4.13399999999993,0.332701444625854
4.13999999999993,0.333500146865845
4.14599999999994,0.332272529602051
4.15199999999994,0.332895040512085
4.15799999999994,0.332693338394165
4.16399999999994,0.33282995223999
4.16999999999994,0.332477569580078
4.17599999999994,0.332562446594238
4.18199999999994,0.333062887191772
4.18799999999994,0.33218240737915
4.19399999999994,0.333256721496582
4.19999999999994,0.333285570144653
4.20599999999994,0.332550287246704
4.21199999999994,0.333077430725098
4.21799999999994,0.401249170303345
4.22399999999994,0.332217216491699
4.22999999999994,0.332762241363525
4.23599999999994,0.332365989685059
4.24199999999994,0.332557678222656
4.24799999999994,0.334631443023682
4.25399999999994,0.332718133926392
4.25999999999994,0.332406997680664
4.26599999999994,0.333218336105347
4.27199999999994,0.332932233810425
4.27799999999994,0.33246636390686
4.28399999999994,0.332098007202148
4.28999999999994,0.332749128341675
4.29599999999994,0.332844257354736
4.30199999999994,0.332744121551514
4.30799999999994,0.333214044570923
4.31399999999994,0.332811594009399
4.31999999999994,0.332542896270752
4.32599999999994,0.332768678665161
4.33199999999994,0.332499265670776
4.33799999999994,0.33376669883728
4.34399999999994,0.335055828094482
4.34999999999994,0.33247709274292
4.35599999999994,0.334502458572388
4.36199999999994,0.338407278060913
4.36799999999994,0.333951473236084
4.37399999999994,0.333907842636108
4.37999999999994,0.335730791091919
4.38599999999994,0.33532452583313
4.39199999999994,0.332823991775513
4.39799999999994,0.333113193511963
4.40399999999994,0.333305835723877
4.40999999999995,0.341366767883301
4.41599999999995,0.336269378662109
4.42199999999995,0.33360743522644
4.42799999999995,0.334595203399658
4.43399999999995,0.332731962203979
4.43999999999995,0.332056522369385
4.44599999999995,0.332631349563599
4.45199999999995,0.339107275009155
4.45799999999995,0.331928968429565
4.46399999999995,0.33246898651123
4.46999999999995,0.332196235656738
4.47599999999995,0.332711219787598
4.48199999999995,0.333014726638794
4.48799999999995,0.332496166229248
4.49399999999995,0.332725286483765
4.49999999999995,0.332536458969116
4.50599999999995,0.333035707473755
4.51199999999995,0.333433866500854
4.51799999999995,0.332008600234985
4.52399999999995,0.332680463790894
4.52999999999995,0.332139015197754
4.53599999999995,0.332919836044312
4.54199999999995,0.333775043487549
4.54799999999995,0.332104682922363
4.55399999999995,0.333284854888916
4.55999999999995,0.332539558410645
4.56599999999995,0.33253288269043
4.57199999999995,0.332220554351807
4.57799999999995,0.334029912948608
4.58399999999995,0.333142280578613
4.58999999999995,0.332318782806396
4.59599999999995,0.333243131637573
4.60199999999995,0.333108901977539
4.60799999999995,0.335581302642822
4.61399999999995,0.332822561264038
4.61999999999995,0.332528352737427
4.62599999999995,0.332145929336548
4.63199999999995,0.332297086715698
4.63799999999995,0.33277153968811
4.64399999999995,0.332702875137329
4.64999999999995,0.332552433013916
4.65599999999995,0.332556009292603
4.66199999999995,0.332699537277222
4.66799999999995,0.333654165267944
4.67399999999996,0.332274913787842
4.67999999999996,0.333804130554199
4.68599999999996,0.332773447036743
4.69199999999996,0.332433223724365
4.69799999999996,0.332802534103394
4.70399999999996,0.333231210708618
4.70999999999996,0.332067966461182
4.71599999999996,0.333294868469238
4.72199999999996,0.333233594894409
4.72799999999996,0.333383798599243
4.73399999999996,0.333420038223267
4.73999999999996,0.334402799606323
4.74599999999996,0.333534002304077
4.75199999999996,0.333779096603394
4.75799999999996,0.334239959716797
4.76399999999996,0.334316968917847
4.76999999999996,0.333607196807861
4.77599999999996,0.334293365478516
4.78199999999996,0.334657192230225
4.78799999999996,0.336787223815918
4.79399999999996,0.333514928817749
4.79999999999996,0.334204912185669
4.80599999999996,0.334114074707031
4.81199999999996,0.33552098274231
4.81799999999996,0.338510751724243
4.82399999999996,0.336732149124146
4.82999999999996,0.335279703140259
4.83599999999996,0.336189031600952
4.84199999999996,0.335618734359741
4.84799999999996,0.334803104400635
4.85399999999996,0.333673238754272
4.85999999999996,0.333984375
4.86599999999996,0.333783864974976
4.87199999999996,0.334154844284058
4.87799999999996,0.334604740142822
4.88399999999996,0.33456563949585
4.88999999999996,0.333899259567261
4.89599999999996,0.334104061126709
4.90199999999996,0.33544135093689
4.90799999999996,0.334557771682739
4.91399999999996,0.333658933639526
4.91999999999996,0.335145711898804
4.92599999999996,0.333728075027466
4.93199999999996,0.33331823348999
4.93799999999997,0.334771394729614
4.94399999999997,0.335213899612427
4.94999999999997,0.333496570587158
4.95599999999997,0.333530426025391
4.96199999999997,0.33547568321228
4.96799999999997,0.334324836730957
4.97399999999997,0.334217548370361
4.97999999999997,0.334975004196167
4.98599999999997,0.334599733352661
4.99199999999997,0.340539455413818
4.99799999999997,0.334589958190918
5.00399999999997,0.334331512451172
5.00999999999997,0.333910465240479
5.01599999999997,0.334512948989868
5.02199999999997,0.334760904312134
5.02799999999997,0.335464715957642
5.03399999999997,0.334294557571411
5.03999999999997,0.334730386734009
5.04599999999997,0.333986520767212
5.05199999999997,0.333487510681152
5.05799999999997,0.334498167037964
5.06399999999997,0.333203315734863
5.06999999999997,0.333492994308472
5.07599999999997,0.33418345451355
5.08199999999997,0.335111856460571
5.08799999999997,0.334549427032471
5.09399999999997,0.334868431091309
5.09999999999997,0.334189653396606
5.10599999999997,0.33388090133667
5.11199999999997,0.334197521209717
5.11799999999997,0.335462331771851
5.12399999999997,0.333657741546631
5.12999999999997,0.336174964904785
5.13599999999997,0.335478067398071
5.14199999999997,0.336140871047974
5.14799999999997,0.334127187728882
5.15399999999997,0.334028959274292
5.15999999999997,0.335045099258423
5.16599999999997,0.334309101104736
5.17199999999997,0.333077430725098
5.17799999999997,0.334266662597656
5.18399999999997,0.333348751068115
5.18999999999997,0.333564043045044
5.19599999999997,0.335001230239868
5.20199999999998,0.333924770355225
5.20799999999998,0.334704875946045
5.21399999999998,0.334716558456421
5.21999999999998,0.334894895553589
5.22599999999998,0.333077907562256
5.23199999999998,0.333701133728027
5.23799999999998,0.333753347396851
5.24399999999998,0.333601474761963
5.24999999999998,0.333554029464722
5.25599999999998,0.334845304489136
5.26199999999998,0.33661413192749
5.26799999999998,0.335700750350952
5.27399999999998,0.337080717086792
5.27999999999998,0.335582256317139
5.28599999999998,0.335217714309692
5.29199999999998,0.33373498916626
5.29799999999998,0.334926605224609
5.30399999999998,0.333097457885742
5.30999999999998,0.333724498748779
5.31599999999998,0.334429264068604
5.32199999999998,0.33662486076355
5.32799999999998,0.333339929580688
5.33399999999998,0.334250450134277
5.33999999999998,0.335081577301025
5.34599999999998,0.333557367324829
5.35199999999998,0.333564281463623
5.35799999999998,0.334359407424927
5.36399999999998,0.333214998245239
5.36999999999998,0.33359694480896
5.37599999999998,0.334145069122314
5.38199999999998,0.334403991699219
5.38799999999998,0.33545184135437
5.39399999999998,0.333704471588135
5.39999999999998,0.334022760391235
5.40599999999998,0.334004163742065
5.41199999999998,0.334515571594238
5.41799999999998,0.33612060546875
5.42399999999998,0.333936929702759
5.42999999999998,0.333670139312744
5.43599999999998,0.334167957305908
5.44199999999998,0.334029197692871
5.44799999999998,0.333730697631836
5.45399999999998,0.333838939666748
5.45999999999998,0.333623647689819
5.46599999999999,0.333979368209839
5.47199999999999,0.333985090255737
5.47799999999999,0.335195779800415
5.48399999999999,0.333649396896362
5.48999999999999,0.334441900253296
5.49599999999999,0.334033966064453
5.50199999999999,0.336445569992065
5.50799999999999,0.334309101104736
5.51399999999999,0.334165096282959
5.51999999999999,0.334293842315674
5.52599999999999,0.340508222579956
5.53199999999999,0.333936214447021
5.53799999999999,0.334599256515503
5.54399999999999,0.334566116333008
5.54999999999999,0.33402943611145
5.55599999999999,0.33500075340271
5.56199999999999,0.334597110748291
5.56799999999999,0.334064722061157
5.57399999999999,0.334792613983154
5.57999999999999,0.343343734741211
5.58599999999999,0.337026596069336
5.59199999999999,0.334555387496948
5.59799999999999,0.333747148513794
5.60399999999999,0.334030628204346
5.60999999999999,0.334247827529907
5.61599999999999,0.334128141403198
5.62199999999999,0.334233045578003
5.62799999999999,0.334374666213989
5.63399999999999,0.333931922912598
5.63999999999999,0.334084510803223
5.64599999999999,0.333899259567261
5.65199999999999,0.333543300628662
5.65799999999999,0.376399517059326
5.66399999999999,0.333891630172729
5.66999999999999,0.334425687789917
5.67599999999999,0.335319995880127
5.68199999999999,0.335616588592529
5.68799999999999,0.333727598190308
5.69399999999999,0.334138154983521
5.69999999999999,0.334054470062256
5.70599999999999,0.334593296051025
5.71199999999999,0.335281372070312
5.71799999999999,0.337608814239502
5.72399999999999,0.335389137268066
5.73,0.33515191078186
5.736,0.337228059768677
5.742,0.336146593093872
5.748,0.334415197372437
5.754,0.334917306900024
5.76,0.334236621856689
5.766,0.333918809890747
5.772,0.334031343460083
5.778,0.334097623825073
5.784,0.333767890930176
5.79,0.334402084350586
5.796,0.334174871444702
5.802,0.333693742752075
5.808,0.334120035171509
5.814,0.334290266036987
5.82,0.333662748336792
5.826,0.333719491958618
5.832,0.334110736846924
5.838,0.334804058074951
5.844,0.333913564682007
5.85,0.333845376968384
5.856,0.336321115493774
5.862,0.333841323852539
5.868,0.333795785903931
5.874,0.334086656570435
5.88,0.335115432739258
5.886,0.334411144256592
5.892,0.334352016448975
5.898,0.334164142608643
5.904,0.334320783615112
5.91,0.334090948104858
5.916,0.335105895996094
5.922,0.334574699401855
5.928,0.334539651870728
5.934,0.334064245223999
5.94,0.334744930267334
5.946,0.334292888641357
5.952,0.334081411361694
5.958,0.334233045578003
5.964,0.33392596244812
5.97,0.33423900604248
5.976,0.334322690963745
5.982,0.334575176239014
5.988,0.334808826446533
5.99400000000001,0.334363698959351
6.00000000000001,2.07736325263977
6.00600000000001,0.346199035644531
6.01200000000001,0.332761764526367
6.01800000000001,0.332279443740845
6.02400000000001,0.332542896270752
6.03000000000001,0.339000225067139
6.03600000000001,0.332146167755127
6.04200000000001,0.33243465423584
6.04800000000001,0.332133054733276
6.05400000000001,0.33290958404541
6.06000000000001,0.33246898651123
6.06600000000001,0.332152843475342
6.07200000000001,0.33240818977356
6.07800000000001,0.332049369812012
6.08400000000001,0.332304954528809
6.09000000000001,0.333081007003784
6.09600000000001,0.332221508026123
6.10200000000001,0.332347631454468
6.10800000000001,0.332208633422852
6.11400000000001,0.332396745681763
6.12000000000001,0.332622766494751
6.12600000000001,0.334551095962524
6.13200000000001,0.335408926010132
6.13800000000001,0.334348917007446
6.14400000000001,0.335205554962158
6.15000000000001,0.333736658096313
6.15600000000001,0.334958076477051
6.16200000000001,0.333000659942627
6.16800000000001,0.332714796066284
6.17400000000001,0.334277153015137
6.18000000000001,0.335412740707397
6.18600000000001,0.332578897476196
6.19200000000001,0.331927299499512
6.19800000000001,0.332706928253174
6.20400000000001,0.333357810974121
6.21000000000001,0.333359003067017
6.21600000000001,0.332633018493652
6.22200000000001,0.332275152206421
6.22800000000001,0.332250118255615
6.23400000000001,0.332584857940674
6.24000000000001,0.332557678222656
6.24600000000001,0.332097053527832
6.25200000000001,0.332350730895996
6.25800000000002,0.333592414855957
6.26400000000002,0.332780122756958
6.27000000000002,0.333704948425293
6.27600000000002,0.33266019821167
6.28200000000002,0.332409381866455
6.28800000000002,0.332088232040405
6.29400000000002,0.333319902420044
6.30000000000002,0.332307577133179
6.30600000000002,0.332676649093628
6.31200000000002,0.332905054092407
6.31800000000002,0.333244562149048
6.32400000000002,0.332510232925415
6.33000000000002,0.332683801651001
6.33600000000002,0.332465410232544
6.34200000000002,0.333083152770996
6.34800000000002,0.332269906997681
6.35400000000002,0.332188129425049
6.36000000000002,0.33519983291626
6.36600000000002,0.333003044128418
6.37200000000002,0.332354307174683
6.37800000000002,0.332547903060913
6.38400000000002,0.333663940429688
6.39000000000002,0.33265233039856
6.39600000000002,0.332764148712158
6.40200000000002,0.332424402236938
6.40800000000002,0.332505226135254
6.41400000000002,0.332724809646606
6.42000000000002,0.332373142242432
6.42600000000002,0.33315634727478
6.43200000000002,0.332627773284912
6.43800000000002,0.332536458969116
6.44400000000002,0.332363367080688
6.45000000000002,0.333612203598022
6.45600000000002,0.333230972290039
6.46200000000002,0.333084106445312
6.46800000000002,0.3319091796875
6.47400000000002,0.332175493240356
6.48000000000002,0.332235097885132
6.48600000000002,0.33219313621521
6.49200000000002,0.331804513931274
6.49800000000002,0.33172607421875
6.50400000000002,0.332062959671021
6.51000000000002,0.331832647323608
6.51600000000002,0.33179783821106
6.52200000000003,0.332184076309204
6.52800000000003,0.332113742828369
6.53400000000003,0.332045316696167
6.54000000000003,0.334707736968994
6.54600000000003,0.333158016204834
6.55200000000003,0.333290576934814
6.55800000000003,0.33249306678772
6.56400000000003,0.338007926940918
6.57000000000003,0.332297325134277
6.57600000000003,0.334281444549561
6.58200000000003,0.336362838745117
6.58800000000003,0.333584308624268
6.59400000000003,0.336590051651001
6.60000000000003,0.335041999816895
6.60600000000003,0.333454370498657
6.61200000000003,0.332187652587891
6.61800000000003,0.332653999328613
6.62400000000003,0.332738637924194
6.63000000000003,0.335451126098633
6.63600000000003,0.331961631774902
6.64200000000003,0.332360029220581
6.64800000000003,0.332610845565796
6.65400000000003,0.332183837890625
6.66000000000003,0.332633018493652
6.66600000000003,0.333690881729126
6.67200000000003,0.332080125808716
6.67800000000003,0.331708908081055
6.68400000000003,0.332009553909302
6.69000000000003,0.331930160522461
6.69600000000003,0.332834243774414
6.70200000000003,0.332420110702515
6.70800000000003,0.332020282745361
6.71400000000003,0.332901954650879
6.72000000000003,0.335242986679077
6.72600000000003,0.3331618309021
6.73200000000003,0.331750869750977
6.73800000000003,0.332037687301636
6.74400000000003,0.332487821578979
6.75000000000003,0.332226991653442
6.75600000000003,0.339657068252563
6.76200000000003,0.337671041488647
6.76800000000003,0.332241773605347
6.77400000000003,0.332301378250122
6.78000000000003,0.332023620605469
6.78600000000004,0.332063913345337
6.79200000000004,0.332262754440308
6.79800000000004,0.332068204879761
6.80400000000004,0.332165002822876
6.81000000000004,0.332017183303833
6.81600000000004,0.332286357879639
6.82200000000004,0.331995010375977
6.82800000000004,0.33228611946106
6.83400000000004,0.332728147506714
6.84000000000004,0.332061529159546
6.84600000000004,0.331937789916992
6.85200000000004,0.331848859786987
6.85800000000004,0.33174729347229
6.86400000000004,0.331963539123535
6.87000000000004,0.332404136657715
6.87600000000004,0.332358360290527
6.88200000000004,0.331981182098389
6.88800000000004,0.332147359848022
6.89400000000004,0.332398176193237
6.90000000000004,0.333435773849487
6.90600000000004,0.332154273986816
6.91200000000004,0.332118034362793
6.91800000000004,0.332497596740723
6.92400000000004,0.333454370498657
6.93000000000004,0.332568168640137
6.93600000000004,0.332214117050171
6.94200000000004,0.332324266433716
6.94800000000004,0.332077264785767
6.95400000000004,0.332310199737549
6.96000000000004,0.332237243652344
6.96600000000004,0.333151340484619
6.97200000000004,0.331640005111694
6.97800000000004,0.332308769226074
6.98400000000004,0.331822633743286
6.99000000000004,0.332842826843262
6.99600000000004,0.332919836044312
7.00200000000004,0.331840753555298
7.00800000000004,0.332100629806519
7.01400000000004,0.332457780838013
7.02000000000004,0.332969427108765
7.02600000000004,0.332051038742065
7.03200000000004,0.332760810852051
7.03800000000004,0.33394193649292
7.04400000000004,0.336323022842407
7.05000000000005,0.333793878555298
7.05600000000005,0.335361957550049
7.06200000000005,0.334669351577759
7.06800000000005,0.332134008407593
7.07400000000005,0.332002639770508
7.08000000000005,0.334574460983276
7.08600000000005,0.331815242767334
7.09200000000005,0.332412719726562
7.09800000000005,0.3316810131073
7.10400000000005,0.339446067810059
7.11000000000005,0.332167387008667
7.11600000000005,0.33253812789917
7.12200000000005,0.332302331924438
7.12800000000005,0.332192659378052
7.13400000000005,0.332284927368164
7.14000000000005,0.352124214172363
7.14600000000005,0.333148956298828
7.15200000000005,0.332040786743164
7.15800000000005,0.331493854522705
7.16400000000005,0.332409858703613
7.17000000000005,0.332908153533936
7.17600000000005,0.331603765487671
7.18200000000005,0.331608295440674
7.18800000000005,0.33231258392334
7.19400000000005,0.332295179367065
7.20000000000005,0.333314180374146
7.20600000000005,0.333341598510742
7.21200000000005,0.332646608352661
7.21800000000005,0.331829071044922
7.22400000000005,0.331681966781616
7.23000000000005,0.332939863204956
7.23600000000005,0.332012176513672
7.24200000000005,0.332002639770508
7.24800000000005,0.334628582000732
7.25400000000005,0.334126234054565
7.26000000000005,0.334988117218018
7.26600000000005,0.332131385803223
7.27200000000005,0.33200740814209
7.27800000000005,0.33284068107605
7.28400000000005,0.331714391708374
7.29000000000005,0.332655429840088
7.29600000000005,0.331913948059082
7.30200000000005,0.331876516342163
7.30800000000005,0.331871271133423
7.31400000000006,0.33171010017395
7.32000000000006,0.333637237548828
7.32600000000006,0.332111120223999
7.33200000000006,0.332385301589966
7.33800000000006,0.332458972930908
7.34400000000006,0.331850051879883
7.35000000000006,0.332524299621582
7.35600000000006,0.332094669342041
7.36200000000006,0.331942081451416
7.36800000000006,0.332608938217163
7.37400000000006,0.332379817962646
7.38000000000006,0.332603931427002
7.38600000000006,0.332082271575928
7.39200000000006,0.33370566368103
7.39800000000006,0.332584857940674
7.40400000000006,0.332333564758301
7.41000000000006,0.332477807998657
7.41600000000006,0.332192182540894
7.42200000000006,0.332279920578003
7.42800000000006,0.332226037979126
7.43400000000006,0.333018064498901
7.44000000000006,0.333392858505249
7.44600000000006,0.332200527191162
7.45200000000006,0.33206844329834
7.45800000000006,0.333013772964478
7.46400000000006,0.332303285598755
7.47000000000006,0.332340955734253
7.47600000000006,0.333311319351196
7.48200000000006,0.334226846694946
7.48800000000006,0.33750057220459
7.49400000000006,0.33448600769043
7.50000000000006,0.334685802459717
7.50600000000006,0.333514928817749
7.51200000000006,0.334565877914429
7.51800000000006,0.332002401351929
7.52400000000006,0.332343816757202
7.53000000000006,0.332448482513428
7.53600000000006,0.335829019546509
7.54200000000006,0.332953214645386
7.54800000000006,0.332461833953857
7.55400000000006,0.331610679626465
7.56000000000006,0.33237624168396
7.56600000000006,0.332051038742065
7.57200000000006,0.332324981689453
7.57800000000007,0.332049608230591
7.58400000000007,0.332274675369263
7.59000000000007,0.332175731658936
7.59600000000007,0.33225417137146
7.60200000000007,0.332211017608643
7.60800000000007,0.332087516784668
7.61400000000007,0.334143877029419
7.62000000000007,0.333799123764038
7.62600000000007,0.33475923538208
7.63200000000007,0.332246541976929
7.63800000000007,0.338216781616211
7.64400000000007,0.332012891769409
7.65000000000007,0.332231998443604
7.65600000000007,0.332221031188965
7.66200000000007,0.332492113113403
7.66800000000007,0.332321166992188
7.67400000000007,0.332672119140625
7.68000000000007,0.331804752349854
7.68600000000007,0.332437992095947
7.69200000000007,0.332388877868652
7.69800000000007,0.332834005355835
7.70400000000007,0.33212685585022
7.71000000000007,0.334369421005249
7.71600000000007,0.332224607467651
7.72200000000007,0.331931352615356
7.72800000000007,0.332511901855469
7.73400000000007,0.331949710845947
7.74000000000007,0.332828521728516
7.74600000000007,0.332181453704834
7.75200000000007,0.332161903381348
7.75800000000007,0.332231283187866
7.76400000000007,0.331966638565063
7.77000000000007,0.332188844680786
7.77600000000007,0.332076072692871
7.78200000000007,0.332668542861938
7.78800000000007,0.332270622253418
7.79400000000007,0.333849668502808
7.80000000000007,0.33319091796875
7.80600000000007,0.33339262008667
7.81200000000007,0.3318190574646
7.81800000000007,0.332449197769165
7.82400000000007,0.332192659378052
7.83000000000007,0.331650972366333
7.83600000000007,0.33191967010498
7.84200000000008,0.332246541976929
7.84800000000008,0.331921577453613
7.85400000000008,0.332119226455688
7.86000000000008,0.332269430160522
7.86600000000008,0.33273983001709
7.87200000000008,0.332609891891479
7.87800000000008,0.33263635635376
7.88400000000008,0.332160472869873
7.89000000000008,0.332423448562622
7.89600000000008,0.331968307495117
7.90200000000008,0.331639766693115
7.90800000000008,0.332681894302368
7.91400000000008,0.332249402999878
7.92000000000008,0.332047700881958
7.92600000000008,0.332560062408447
7.93200000000008,0.334084272384644
7.93800000000008,0.334831714630127
7.94400000000008,0.334072351455688
7.95000000000008,0.33490777015686
7.95600000000008,0.333166599273682
7.96200000000008,0.33594536781311
7.96800000000008,0.339162588119507
7.97400000000008,0.335603952407837
7.98000000000008,0.333284139633179
7.98600000000008,0.331830263137817
7.99200000000008,0.332260608673096
7.99800000000008,0.332191228866577
8.00400000000008,0.332770824432373
8.01000000000008,0.331983804702759
8.01600000000008,0.332052946090698
8.02200000000008,0.3319411277771
8.02800000000008,0.331642150878906
8.03400000000008,0.33247447013855
8.04000000000008,0.332479000091553
8.04600000000008,0.333063125610352
8.05200000000008,0.331761598587036
8.05800000000008,0.331896543502808
8.06400000000008,0.332420349121094
8.07000000000008,0.33235764503479
8.07600000000008,0.332527160644531
8.08200000000008,0.331836938858032
8.08800000000008,0.33294415473938
8.09400000000008,0.331666469573975
8.10000000000008,0.332439661026001
8.10600000000009,0.33263897895813
8.11200000000009,0.332404375076294
8.11800000000009,0.332680225372314
8.12400000000009,0.33211612701416
8.13000000000009,0.332155704498291
8.13600000000009,0.331877708435059
8.14200000000009,0.332363843917847
8.14800000000009,0.33216404914856
8.15400000000009,0.333732604980469
8.16000000000009,0.332680225372314
8.16600000000009,0.332093954086304
8.17200000000009,0.331939935684204
8.17800000000009,0.339688777923584
8.18400000000009,0.33242392539978
8.19000000000009,0.332508087158203
8.19600000000009,0.331788063049316
8.20200000000009,0.332293748855591
8.20800000000009,0.332326889038086
8.21400000000009,0.331982851028442
8.22000000000009,0.33190131187439
8.22600000000009,0.333046913146973
8.23200000000009,0.332118034362793
8.23800000000009,0.332136869430542
8.24400000000009,0.332698106765747
8.25000000000009,0.333735704421997
8.25600000000009,0.332744598388672
8.26200000000009,0.332260370254517
8.26800000000009,0.332303285598755
8.27400000000009,0.33274245262146
8.28000000000009,0.332436800003052
8.28600000000009,0.332327842712402
8.29200000000009,0.332232713699341
8.29800000000009,0.332356691360474
8.30400000000009,0.331711530685425
8.31000000000009,0.332813739776611
8.31600000000009,0.332037448883057
8.32200000000009,0.332459211349487
8.32800000000009,0.334924936294556
8.33400000000009,0.334251880645752
8.34000000000009,0.333410501480103
8.34600000000009,0.333395719528198
8.35200000000009,0.33194637298584
8.35800000000009,0.332915306091309
8.36400000000009,0.332659006118774
8.3700000000001,0.333379030227661
8.3760000000001,0.331938743591309
8.3820000000001,0.332233905792236
8.3880000000001,0.33454704284668
8.3940000000001,0.338287830352783
8.4000000000001,0.334398031234741
8.4060000000001,0.334614753723145
8.4120000000001,0.334133148193359
8.4180000000001,0.334457874298096
8.4240000000001,0.332370281219482
8.4300000000001,0.332409858703613
8.4360000000001,0.331869125366211
8.4420000000001,0.332509994506836
8.4480000000001,0.33309006690979
8.4540000000001,0.332175731658936
8.4600000000001,0.332193851470947
8.4660000000001,0.332068681716919
8.4720000000001,0.332365274429321
8.4780000000001,0.332598924636841
8.4840000000001,0.332134008407593
8.4900000000001,0.332311630249023
8.4960000000001,0.331660985946655
8.5020000000001,0.332489728927612
8.5080000000001,0.332530975341797
8.5140000000001,0.334354400634766
8.5200000000001,0.332973480224609
8.5260000000001,0.332203149795532
8.5320000000001,0.332321166992188
8.5380000000001,0.334209442138672
8.5440000000001,0.332536458969116
8.5500000000001,0.332106828689575
8.5560000000001,0.33229923248291
8.5620000000001,0.332201242446899
8.5680000000001,0.332212209701538
8.5740000000001,0.33232855796814
8.5800000000001,0.332425832748413
8.5860000000001,0.332659006118774
8.5920000000001,0.33249044418335
8.5980000000001,0.332363843917847
8.6040000000001,0.332418441772461
8.6100000000001,0.333219051361084
8.6160000000001,0.335280418395996
8.6220000000001,0.332161903381348
8.6280000000001,0.332372903823853
8.63400000000011,0.332148790359497
8.64000000000011,0.331916332244873
8.64600000000011,0.332386493682861
8.65200000000011,0.332368850708008
8.65800000000011,0.33190393447876
8.66400000000011,0.332262516021729
8.67000000000011,0.332329511642456
8.67600000000011,0.332176923751831
8.68200000000011,0.332572460174561
8.68800000000011,0.332738399505615
8.69400000000011,0.333676099777222
8.70000000000011,0.375810861587524
8.70600000000011,0.360320329666138
8.71200000000011,0.333080291748047
8.71800000000011,0.34082293510437
8.72400000000011,0.332428693771362
8.73000000000011,0.332401752471924
8.73600000000011,0.332352876663208
8.74200000000011,0.332119941711426
8.74800000000011,0.332262277603149
8.75400000000011,0.332787990570068
8.76000000000011,0.33256983757019
8.76600000000011,0.332626581192017
8.77200000000011,0.3326096534729
8.77800000000011,0.333311080932617
8.78400000000011,0.33292555809021
8.79000000000011,0.333711624145508
8.79600000000011,0.332276105880737
8.80200000000011,0.333301067352295
8.80800000000011,0.332252264022827
8.81400000000011,0.332902431488037
8.82000000000011,0.332191705703735
8.82600000000011,0.332411527633667
8.83200000000011,0.333391189575195
8.83800000000011,0.334802627563477
8.84400000000011,0.336283683776855
8.85000000000011,0.33611798286438
8.85600000000011,0.333529949188232
8.86200000000011,0.333838701248169
8.86800000000011,0.335329532623291
8.87400000000011,0.332329988479614
8.88000000000011,0.334141254425049
8.88600000000011,0.332823514938354
8.89200000000011,0.332367897033691
8.89800000000012,0.332409620285034
8.90400000000012,0.3327317237854
8.91000000000012,0.33262300491333
8.91600000000012,0.332576751708984
8.92200000000012,0.332760572433472
8.92800000000012,0.33230447769165
8.93400000000012,0.332488298416138
8.94000000000012,0.332694530487061
8.94600000000012,0.332679510116577
8.95200000000012,0.332089900970459
8.95800000000012,0.333498954772949
8.96400000000012,0.332346200942993
8.97000000000012,0.33354926109314
8.97600000000012,0.332651376724243
8.98200000000012,0.332268476486206
8.98800000000012,0.332705974578857
8.99400000000012,0.332380056381226
9.00000000000012,0.332485198974609
9.00600000000012,0.332483053207397
9.01200000000012,0.332027435302734
9.01800000000012,0.332710266113281
9.02400000000012,0.332467555999756
9.03000000000012,0.332806825637817
9.03600000000012,0.332301378250122
9.04200000000012,0.332006692886353
9.04800000000012,0.334498882293701
9.05400000000012,0.332405090332031
9.06000000000012,0.333317041397095
9.06600000000012,0.332672595977783
9.07200000000012,0.332685232162476
9.07800000000012,0.333407163619995
9.08400000000012,0.332768440246582
9.09000000000012,0.332437753677368
9.09600000000012,0.332135200500488
9.10200000000012,0.332358121871948
9.10800000000012,0.331698656082153
9.11400000000012,0.333392381668091
9.12000000000012,0.332521200180054
9.12600000000012,0.331954479217529
9.13200000000012,0.332726240158081
9.13800000000012,0.337531089782715
9.14400000000012,0.339567422866821
9.15000000000012,0.332143545150757
9.15600000000012,0.331899404525757
9.16200000000013,0.332891702651978
9.16800000000013,0.332178592681885
9.17400000000013,0.331726789474487
9.18000000000013,0.333264827728271
9.18600000000013,0.332309722900391
9.19200000000013,0.332272291183472
9.19800000000013,0.332920551300049
9.20400000000013,0.331981182098389
9.21000000000013,0.332618236541748
9.21600000000013,0.332474231719971
9.22200000000013,0.332482814788818
9.22800000000013,0.333076238632202
9.23400000000013,0.33265209197998
9.24000000000013,0.332712650299072
9.24600000000013,0.332695484161377
9.25200000000013,0.341129541397095
9.25800000000013,0.33225154876709
9.26400000000013,0.332144975662231
9.27000000000013,0.332465171813965
9.27600000000013,0.332084655761719
9.28200000000013,0.332134962081909
9.28800000000013,0.333276271820068
9.29400000000013,0.334668159484863
9.30000000000013,0.336803913116455
9.30600000000013,0.335134506225586
9.31200000000013,0.335408449172974
9.31800000000013,0.333802700042725
9.32400000000013,0.333147048950195
9.33000000000013,0.333152532577515
9.33600000000013,0.332140207290649
9.34200000000013,0.332753419876099
9.34800000000013,0.332108020782471
9.35400000000013,0.332765817642212
9.36000000000013,0.333382606506348
9.36600000000013,0.332291841506958
9.37200000000013,0.331118106842041
9.37800000000013,0.332321166992188
9.38400000000013,0.331779718399048
9.39000000000013,0.332978010177612
9.39600000000013,0.332234859466553
9.40200000000013,0.333479404449463
9.40800000000013,0.334196805953979
9.41400000000013,0.332040071487427
9.42000000000013,0.333026170730591
9.42600000000014,0.333839893341064
9.43200000000014,0.332538843154907
9.43800000000014,0.332513570785522
9.44400000000014,0.332392930984497
9.45000000000014,0.332457542419434
9.45600000000014,0.331976652145386
9.46200000000014,0.332121133804321
9.46800000000014,0.332104921340942
9.47400000000014,0.333677291870117
9.48000000000014,0.332323312759399
9.48600000000014,0.332701683044434
9.49200000000014,0.333016395568848
9.49800000000014,0.332320213317871
9.50400000000014,0.332690000534058
9.51000000000014,0.332923173904419
9.51600000000014,0.332298994064331
9.52200000000014,0.332606315612793
9.52800000000014,0.33343243598938
9.53400000000014,0.332164525985718
9.54000000000014,0.332609891891479
9.54600000000014,0.333384275436401
9.55200000000014,0.332728147506714
9.55800000000014,0.332037210464478
9.56400000000014,0.332733869552612
9.57000000000014,0.332135915756226
9.57600000000014,0.332876443862915
9.58200000000014,0.33219313621521
9.58800000000014,0.334822416305542
9.59400000000014,0.332458019256592
9.60000000000014,0.33322286605835
9.60600000000014,0.332240581512451
9.61200000000014,0.33261775970459
9.61800000000014,0.332740545272827
9.62400000000014,0.332355737686157
9.63000000000014,0.332748889923096
9.63600000000014,0.332520961761475
9.64200000000014,0.332170724868774
9.64800000000014,0.33250904083252
9.65400000000014,0.331997632980347
9.66000000000014,0.33244776725769
9.66600000000014,0.332364559173584
9.67200000000014,0.332151889801025
9.67800000000014,0.332896709442139
9.68400000000014,0.332209825515747
9.69000000000015,0.334449291229248
9.69600000000015,0.333176136016846
9.70200000000015,0.3321213722229
9.70800000000015,0.332474946975708
9.71400000000015,0.332461357116699
9.72000000000015,0.332214832305908
9.72600000000015,0.332380771636963
9.73200000000015,0.332406759262085
9.73800000000015,0.333402395248413
9.74400000000015,0.334841012954712
9.75000000000015,0.335285902023315
9.75600000000015,0.33355188369751
9.76200000000015,0.335209846496582
9.76800000000015,0.336534261703491
9.77400000000015,0.333070039749146
9.78000000000015,0.33342170715332
9.78600000000015,0.33366322517395
9.79200000000015,0.340791702270508
9.79800000000015,0.332313299179077
9.80400000000015,0.3327476978302
9.81000000000015,0.332570552825928
9.81600000000015,0.33220648765564
9.82200000000015,0.332968473434448
9.82800000000015,0.332113981246948
9.83400000000015,0.333699464797974
9.84000000000015,0.332642078399658
9.84600000000015,0.332342386245728
9.85200000000015,0.333213090896606
9.85800000000015,0.3330078125
9.86400000000015,0.332584142684937
9.87000000000015,0.332001686096191
9.87600000000015,0.332036256790161
9.88200000000015,0.332674980163574
9.88800000000015,0.332293748855591
9.89400000000015,0.332582235336304
9.90000000000015,0.332399845123291
9.90600000000015,0.332764387130737
9.91200000000015,0.332371950149536
9.91800000000015,0.332961082458496
9.92400000000015,0.332497596740723
9.93000000000015,0.332087278366089
9.93600000000015,0.331902027130127
9.94200000000015,0.334080934524536
9.94800000000015,0.333199977874756
9.95400000000016,0.332217931747437
9.96000000000016,0.335327625274658
9.96600000000016,0.33201789855957
9.97200000000016,0.332779169082642
9.97800000000016,0.332531213760376
9.98400000000016,0.33230185508728
9.99000000000016,0.332334518432617
9.99600000000016,0.332295656204224
10.0020000000002,0.332536458969116
