"Physical Time: Physical Time (s)","Solver CPU Time per Time Step Monitor: Solver CPU Time per Time Step (s)"
0.000666666666666667,29.69
0.00133333333333333,29.81
0.002,29.57
0.00266666666666667,29.56
0.00333333333333333,30.43
0.004,29.72
0.00466666666666667,29.68
0.00533333333333333,29.91
0.006,29.8
0.00666666666666667,29.62
0.00733333333333333,29.59
0.008,32.88
0.00866666666666667,29.94
0.00933333333333333,29.7
0.01,29.8
0.0106666666666667,30
0.0113333333333333,29.63
0.012,30.02
0.0126666666666667,29.8
0.0133333333333333,30.37
0.014,29.66
0.0146666666666667,30.72
0.0153333333333333,29.67
0.016,29.82
0.0166666666666667,29.83
0.0173333333333333,29.89
0.018,29.88
0.0186666666666667,29.81
0.0193333333333333,29.88
0.02,29.84
0.0206666666666667,29.78
0.0213333333333333,29.86
0.022,29.82
0.0226666666666667,29.94
0.0233333333333333,29.69
0.024,29.98
0.0246666666666667,29.62
0.0253333333333333,29.82
0.026,29.78
0.0266666666666667,29.8
0.0273333333333333,29.49
0.028,29.76
0.0286666666666667,29.82
0.0293333333333333,29.52
0.03,29.79
0.0306666666666667,29.61
0.0313333333333333,29.71
0.032,29.58
0.0326666666666667,29.57
0.0333333333333333,29.64
0.034,29.7
0.0346666666666667,29.67
0.0353333333333333,29.8
0.036,29.53
0.0366666666666667,29.52
0.0373333333333333,29.74
0.038,29.57
0.0386666666666667,29.67
0.0393333333333334,29.48
0.04,29.65
0.0406666666666667,29.49
0.0413333333333334,29.75
0.042,29.43
0.0426666666666667,29.8
0.0433333333333334,29.42
0.044,29.62
0.0446666666666667,29.51
0.0453333333333334,29.75
0.046,29.43
0.0466666666666667,29.65
0.0473333333333334,29.51
0.0480000000000001,29.52
0.0486666666666667,29.66
0.0493333333333334,29.79
0.0500000000000001,29.72
0.0506666666666667,29.58
0.0513333333333334,29.64
0.0520000000000001,29.58
0.0526666666666667,29.72
0.0533333333333334,29.44
0.0540000000000001,29.74
0.0546666666666668,29.43
0.0553333333333334,29.76
0.0560000000000001,29.42
0.0566666666666668,29.76
0.0573333333333334,29.58
0.0580000000000001,29.78
0.0586666666666668,29.51
0.0593333333333334,29.71
0.0600000000000001,29.65
0.0606666666666668,29.49
0.0613333333333334,29.7
0.0620000000000001,30
0.0626666666666668,29.87
0.0633333333333334,29.62
0.0640000000000001,29.72
0.0646666666666668,29.92
0.0653333333333334,29.63
0.0660000000000001,29.91
0.0666666666666668,29.69
0.0673333333333334,29.76
0.0680000000000001,29.8
0.0686666666666668,29.72
0.0693333333333334,29.96
0.0700000000000001,29.87
0.0706666666666667,29.92
0.0713333333333334,30.03
0.0720000000000001,29.92
0.0726666666666667,29.88
0.0733333333333334,30.04
0.0740000000000001,29.83
0.0746666666666667,29.82
0.0753333333333334,29.93
0.076,29.99
0.0766666666666667,29.76
0.0773333333333334,29.9
0.078,29.99
0.0786666666666667,29.84
0.0793333333333334,29.85
0.08,29.81
0.0806666666666667,29.88
0.0813333333333333,29.85
0.082,29.66
0.0826666666666667,29.9
0.0833333333333333,29.78
0.084,29.9
0.0846666666666667,29.75
0.0853333333333333,29.78
0.086,29.84
0.0866666666666666,29.72
0.0873333333333333,29.76
0.088,29.81
0.0886666666666666,29.68
0.0893333333333333,29.91
0.09,29.65
0.0906666666666666,29.76
0.0913333333333333,29.86
0.0919999999999999,29.95
0.0926666666666666,29.88
0.0933333333333333,29.78
0.0939999999999999,29.83
0.0946666666666666,30.03
0.0953333333333333,29.65
0.0959999999999999,29.85
0.0966666666666666,29.64
0.0973333333333332,29.89
0.0979999999999999,29.6
0.0986666666666666,29.86
0.0993333333333332,29.94
0.0999999999999999,29.52
0.100666666666667,29.76
0.101333333333333,29.61
0.102,29.45
0.102666666666667,29.8
0.103333333333333,29.44
0.104,29.74
0.104666666666667,29.48
0.105333333333333,29.87
0.106,29.64
0.106666666666667,29.73
0.107333333333333,29.5
0.108,29.84
0.108666666666667,29.54
0.109333333333333,29.61
0.11,29.7
0.110666666666666,29.68
0.111333333333333,29.61
0.112,29.78
0.112666666666666,29.53
0.113333333333333,29.78
0.114,29.76
0.114666666666666,29.45
0.115333333333333,30.02
0.116,29.97
0.116666666666666,29.64
0.117333333333333,29.69
0.118,29.74
0.118666666666666,29.8
0.119333333333333,29.87
0.12,29.64
0.120666666666666,29.84
0.121333333333333,29.56
0.122,29.87
0.122666666666666,29.56
0.123333333333333,29.79
0.124,29.78
0.124666666666666,29.73
0.125333333333333,29.8
0.126,29.7
0.126666666666666,29.87
0.127333333333333,29.59
0.128,29.93
0.128666666666666,29.6
0.129333333333333,29.89
0.13,29.89
0.130666666666666,29.75
0.131333333333333,29.87
0.132,30.06
0.132666666666667,29.94
0.133333333333333,29.8
0.134,29.7
0.134666666666667,29.66
0.135333333333333,29.81
0.136,29.95
0.136666666666667,29.7
0.137333333333333,29.83
0.138,29.72
0.138666666666667,30.08
0.139333333333333,29.87
0.14,29.92
0.140666666666667,29.74
0.141333333333333,29.86
0.142,29.93
0.142666666666667,29.79
0.143333333333333,29.91
0.144,29.71
0.144666666666667,29.74
0.145333333333333,29.95
0.146,29.78
0.146666666666667,29.65
0.147333333333333,29.97
0.148,29.6
0.148666666666667,29.86
0.149333333333333,29.85
0.15,29.65
0.150666666666667,29.82
0.151333333333333,29.81
0.152,29.81
0.152666666666667,29.56
0.153333333333333,29.93
0.154,29.61
0.154666666666667,29.7
0.155333333333334,29.65
0.156,29.88
0.156666666666667,29.57
0.157333333333334,29.75
0.158,29.82
0.158666666666667,29.78
0.159333333333334,29.78
0.16,29.67
0.160666666666667,29.82
0.161333333333334,29.84
0.162,29.85
0.162666666666667,29.81
0.163333333333334,29.76
0.164,29.81
0.164666666666667,29.77
0.165333333333334,29.85
0.166,29.75
0.166666666666667,29.77
0.167333333333334,29.88
0.168,29.87
0.168666666666667,30.36
0.169333333333334,29.77
0.17,29.82
0.170666666666667,29.81
0.171333333333334,29.81
0.172,29.79
0.172666666666667,29.78
0.173333333333334,29.86
0.174,29.84
0.174666666666667,29.72
0.175333333333334,29.71
0.176,29.69
0.176666666666667,29.78
0.177333333333334,29.84
0.178000000000001,29.64
0.178666666666667,29.83
0.179333333333334,29.84
0.180000000000001,29.73
0.180666666666667,29.77
0.181333333333334,29.78
0.182000000000001,29.61
0.182666666666667,29.93
0.183333333333334,29.86
0.184000000000001,29.9
0.184666666666667,29.79
0.185333333333334,29.71
0.186000000000001,29.85
0.186666666666667,29.85
0.187333333333334,29.95
0.188000000000001,29.69
0.188666666666667,29.8
0.189333333333334,29.85
0.190000000000001,29.84
0.190666666666667,29.73
0.191333333333334,29.87
0.192000000000001,30.12
0.192666666666667,29.78
0.193333333333334,29.77
0.194000000000001,29.81
0.194666666666667,29.84
0.195333333333334,29.93
0.196000000000001,29.82
0.196666666666667,29.75
0.197333333333334,29.82
0.198000000000001,29.77
0.198666666666667,29.95
0.199333333333334,29.78
0.200000000000001,29.74
0.200666666666668,29.9
0.201333333333334,29.79
0.202000000000001,29.76
0.202666666666668,29.7
0.203333333333334,29.93
0.204000000000001,29.54
0.204666666666668,29.93
0.205333333333334,29.8
0.206000000000001,29.89
0.206666666666668,30.03
0.207333333333334,29.64
0.208000000000001,29.72
0.208666666666668,29.84
0.209333333333334,29.74
0.210000000000001,29.89
0.210666666666668,29.8
0.211333333333334,29.74
0.212000000000001,29.66
0.212666666666668,29.9
0.213333333333334,29.95
0.214000000000001,29.85
0.214666666666668,30.68
0.215333333333334,29.77
0.216000000000001,29.46
0.216666666666668,29.73
0.217333333333334,29.65
0.218000000000001,29.92
0.218666666666668,29.38
0.219333333333334,29.97
0.220000000000001,29.43
0.220666666666668,29.92
0.221333333333334,29.48
0.222000000000001,29.77
0.222666666666668,29.76
0.223333333333335,29.4
0.224000000000001,29.96
0.224666666666668,29.5
0.225333333333335,29.76
0.226000000000001,29.82
0.226666666666668,29.38
0.227333333333335,29.98
0.228000000000001,29.74
0.228666666666668,29.81
0.229333333333335,29.9
0.230000000000001,29.49
0.230666666666668,29.62
0.231333333333335,29.7
0.232000000000001,29.35
0.232666666666668,29.82
0.233333333333335,29.38
0.234000000000001,29.7
0.234666666666668,29.73
0.235333333333335,29.47
0.236000000000001,29.75
0.236666666666668,29.89
0.237333333333335,29.39
0.238000000000001,29.64
0.238666666666668,29.65
0.239333333333335,29.79
0.240000000000001,29.41
0.240666666666668,29.62
0.241333333333335,29.84
0.242000000000001,29.4
0.242666666666668,29.69
0.243333333333335,29.81
0.244000000000001,29.36
0.244666666666668,29.72
0.245333333333335,29.86
0.246000000000002,29.48
0.246666666666668,29.53
0.247333333333335,29.67
0.248000000000002,29.78
0.248666666666668,29.71
0.249333333333335,29.67
0.250000000000002,29.84
0.250666666666668,29.53
0.251333333333335,29.8
0.252000000000002,30.08
0.252666666666668,29.48
0.253333333333335,29.67
0.254000000000001,29.72
0.254666666666668,29.76
0.255333333333335,29.47
0.256000000000001,29.55
0.256666666666668,29.45
0.257333333333335,29.73
0.258000000000001,29.55
0.258666666666668,29.65
0.259333333333335,29.66
0.260000000000001,29.5
0.260666666666668,29.76
0.261333333333335,29.49
0.262000000000001,29.77
0.262666666666668,29.56
0.263333333333335,29.71
0.264000000000001,29.57
0.264666666666668,29.66
0.265333333333334,29.53
0.266000000000001,29.82
0.266666666666668,29.37
0.267333333333334,29.8
0.268000000000001,29.65
0.268666666666668,29.62
0.269333333333334,29.83
0.270000000000001,29.55
0.270666666666668,29.88
0.271333333333334,29.42
0.272000000000001,30.01
0.272666666666668,29.7
0.273333333333334,30.06
0.274000000000001,29.43
0.274666666666668,29.82
0.275333333333334,29.85
0.276000000000001,29.85
0.276666666666668,29.47
0.277333333333334,33.49
0.278000000000001,29.48
0.278666666666667,29.82
0.279333333333334,29.27
0.280000000000001,29.87
0.280666666666667,31.03
0.281333333333334,29.75
0.282000000000001,29.53
0.282666666666667,29.75
0.283333333333334,29.3
0.284000000000001,29.81
0.284666666666667,29.49
0.285333333333334,29.81
0.286000000000001,29.54
0.286666666666667,29.86
0.287333333333334,29.5
0.288000000000001,29.81
0.288666666666667,29.46
0.289333333333334,30
0.29,29.46
0.290666666666667,29.79
0.291333333333334,29.53
0.292,29.81
0.292666666666667,29.54
0.293333333333334,29.83
0.294,29.44
0.294666666666667,29.85
0.295333333333334,30
0.296,29.63
0.296666666666667,29.89
0.297333333333334,29.49
0.298,29.92
0.298666666666667,29.48
0.299333333333334,29.88
0.3,29.6
0.300666666666667,29.86
0.301333333333334,29.42
0.302,29.98
0.302666666666667,29.41
0.303333333333333,29.76
0.304,29.42
0.304666666666667,29.84
0.305333333333333,29.53
0.306,29.79
0.306666666666667,29.53
0.307333333333333,29.83
0.308,29.48
0.308666666666667,29.66
0.309333333333333,29.65
0.31,29.87
0.310666666666667,29.46
0.311333333333333,29.54
0.312,29.73
0.312666666666667,29.53
0.313333333333333,29.66
0.314,29.7
0.314666666666666,29.58
0.315333333333333,29.46
0.316,29.79
0.316666666666666,29.55
0.317333333333333,29.63
0.318,29.74
0.318666666666666,29.67
0.319333333333333,29.69
0.32,29.49
0.320666666666666,29.91
0.321333333333333,29.43
0.322,29.61
0.322666666666666,29.87
0.323333333333333,29.29
0.324,29.86
0.324666666666666,29.6
0.325333333333333,29.81
0.326,29.78
0.326666666666666,29.64
0.327333333333333,29.79
0.327999999999999,29.82
0.328666666666666,29.99
0.329333333333333,29.78
0.329999999999999,29.71
0.330666666666666,29.71
0.331333333333333,29.75
0.331999999999999,29.74
0.332666666666666,29.81
0.333333333333333,29.63
0.333999999999999,29.84
0.334666666666666,29.68
0.335333333333333,29.67
0.335999999999999,29.74
0.336666666666666,29.63
0.337333333333333,29.69
0.337999999999999,29.68
0.338666666666666,29.72
0.339333333333332,29.69
0.339999999999999,29.75
0.340666666666666,29.87
0.341333333333332,29.83
0.341999999999999,29.71
0.342666666666666,29.69
0.343333333333332,29.76
0.343999999999999,29.69
0.344666666666666,29.63
0.345333333333332,29.69
0.345999999999999,29.66
0.346666666666666,29.58
0.347333333333332,29.86
0.347999999999999,29.54
0.348666666666666,29.79
0.349333333333332,29.69
0.349999999999999,29.71
0.350666666666666,29.71
0.351333333333332,29.7
0.351999999999999,29.79
0.352666666666665,29.63
0.353333333333332,29.7
0.353999999999999,29.7
0.354666666666665,29.91
0.355333333333332,29.66
0.355999999999999,29.75
0.356666666666665,29.69
0.357333333333332,29.59
0.357999999999999,29.62
0.358666666666665,29.62
0.359333333333332,29.89
0.359999999999999,29.61
0.360666666666665,29.68
0.361333333333332,29.61
0.361999999999999,29.74
0.362666666666665,29.84
0.363333333333332,29.93
0.363999999999998,29.62
0.364666666666665,29.84
0.365333333333332,29.73
0.365999999999998,29.71
0.366666666666665,29.68
0.367333333333332,29.58
0.367999999999998,29.88
0.368666666666665,29.56
0.369333333333332,29.77
0.369999999999998,30.12
0.370666666666665,29.62
0.371333333333332,29.86
0.371999999999998,29.58
0.372666666666665,29.88
0.373333333333332,29.57
0.373999999999998,29.91
0.374666666666665,29.56
0.375333333333332,29.86
0.375999999999998,29.6
0.376666666666665,29.77
0.377333333333331,29.57
0.377999999999998,29.87
0.378666666666665,29.93
0.379333333333331,29.73
0.379999999999998,29.78
0.380666666666665,29.55
0.381333333333331,29.87
0.381999999999998,29.96
0.382666666666665,29.78
0.383333333333331,29.65
0.383999999999998,29.85
0.384666666666665,29.8
0.385333333333331,29.86
0.385999999999998,29.66
0.386666666666665,29.85
0.387333333333331,29.77
0.387999999999998,29.83
0.388666666666664,29.47
0.389333333333331,29.88
0.389999999999998,29.63
0.390666666666664,29.86
0.391333333333331,29.53
0.391999999999998,29.97
0.392666666666664,29.51
0.393333333333331,29.77
0.393999999999998,29.71
0.394666666666664,29.82
0.395333333333331,29.58
0.395999999999998,29.88
0.396666666666664,29.71
0.397333333333331,29.82
0.397999999999998,29.51
0.398666666666664,29.85
0.399333333333331,29.58
0.399999999999998,29.9
0.400666666666664,29.54
0.401333333333331,29.99
0.401999999999997,29.5
0.402666666666664,29.78
0.403333333333331,29.7
0.403999999999997,29.63
0.404666666666664,29.84
0.405333333333331,29.75
0.405999999999997,29.54
0.406666666666664,29.72
0.407333333333331,29.88
0.407999999999997,29.6
0.408666666666664,29.97
0.409333333333331,29.96
0.409999999999997,29.69
0.410666666666664,29.71
0.411333333333331,29.85
0.411999999999997,29.56
0.412666666666664,29.92
0.41333333333333,29.8
0.413999999999997,29.91
0.414666666666664,29.56
0.41533333333333,29.88
0.415999999999997,29.83
0.416666666666664,29.91
0.41733333333333,29.61
0.417999999999997,29.89
0.418666666666664,29.71
0.41933333333333,29.87
0.419999999999997,29.55
0.420666666666664,29.8
0.42133333333333,29.8
0.421999999999997,29.58
0.422666666666664,29.85
0.42333333333333,29.83
0.423999999999997,29.64
0.424666666666664,29.82
0.42533333333333,29.51
0.425999999999997,29.98
0.426666666666663,29.59
0.42733333333333,29.93
0.427999999999997,29.81
0.428666666666663,29.93
0.42933333333333,29.81
0.429999999999997,29.88
0.430666666666663,29.74
0.43133333333333,29.96
0.431999999999997,29.9
0.432666666666663,29.74
0.43333333333333,29.68
0.433999999999997,29.69
0.434666666666663,29.75
0.43533333333333,29.68
0.435999999999997,30.1
0.436666666666663,29.57
0.43733333333333,30.08
0.437999999999997,29.59
0.438666666666663,29.85
0.43933333333333,29.77
0.439999999999996,29.73
0.440666666666663,29.86
0.44133333333333,29.71
0.441999999999996,29.68
0.442666666666663,29.7
0.44333333333333,29.81
0.443999999999996,29.59
0.444666666666663,29.9
0.44533333333333,29.75
0.445999999999996,29.69
0.446666666666663,29.76
0.44733333333333,29.58
0.447999999999996,29.82
0.448666666666663,29.7
0.44933333333333,29.86
0.449999999999996,29.65
0.450666666666663,30
0.451333333333329,33.66
0.451999999999996,29.64
0.452666666666663,30.06
0.453333333333329,29.77
0.453999999999996,29.92
0.454666666666663,29.83
0.455333333333329,29.87
0.455999999999996,29.57
0.456666666666663,29.92
0.457333333333329,29.51
0.457999999999996,29.81
0.458666666666663,29.87
0.459333333333329,29.82
0.459999999999996,29.59
0.460666666666663,29.83
0.461333333333329,29.77
0.461999999999996,29.96
0.462666666666663,29.66
0.463333333333329,29.81
0.463999999999996,29.69
0.464666666666662,29.81
0.465333333333329,29.6
0.465999999999996,29.98
0.466666666666662,29.54
0.467333333333329,29.97
0.467999999999996,29.85
0.468666666666662,29.58
0.469333333333329,30.05
0.469999999999996,29.93
0.470666666666662,29.61
0.471333333333329,29.95
0.471999999999996,29.88
0.472666666666662,29.69
0.473333333333329,29.84
0.473999999999996,29.95
0.474666666666662,29.75
0.475333333333329,29.96
0.475999999999995,29.98
0.476666666666662,29.81
0.477333333333329,29.73
0.477999999999995,29.63
0.478666666666662,29.82
0.479333333333329,29.77
0.479999999999995,29.56
0.480666666666662,29.87
0.481333333333329,29.74
0.481999999999995,29.66
0.482666666666662,29.63
0.483333333333329,29.72
0.483999999999995,29.66
0.484666666666662,29.73
0.485333333333329,29.86
0.485999999999995,29.92
0.486666666666662,29.68
0.487333333333329,29.98
0.487999999999995,29.64
0.488666666666662,30.26
0.489333333333328,29.79
0.489999999999995,29.58
0.490666666666662,30.13
0.491333333333328,29.69
0.491999999999995,29.82
0.492666666666662,29.75
0.493333333333328,29.68
0.493999999999995,29.92
0.494666666666662,29.58
0.495333333333328,29.83
0.495999999999995,29.82
0.496666666666662,29.58
0.497333333333328,30.05
0.497999999999995,29.67
0.498666666666662,29.77
0.499333333333328,29.73
0.499999999999995,29.63
0.500666666666661,29.91
0.501333333333328,29.47
0.501999999999995,29.89
0.502666666666662,29.74
0.503333333333328,29.93
0.503999999999995,29.64
0.504666666666662,29.85
0.505333333333328,29.89
0.505999999999995,29.5
0.506666666666662,29.86
0.507333333333329,29.7
0.507999999999995,29.87
0.508666666666662,29.49
0.509333333333329,29.96
0.509999999999995,29.8
0.510666666666662,29.68
0.511333333333329,29.85
0.511999999999995,29.91
0.512666666666662,29.92
0.513333333333329,29.84
0.513999999999996,29.96
0.514666666666662,29.66
0.515333333333329,30.08
0.515999999999996,29.81
0.516666666666662,29.85
0.517333333333329,29.84
0.517999999999996,29.78
0.518666666666663,29.82
0.519333333333329,29.76
0.519999999999996,29.93
0.520666666666663,29.97
0.521333333333329,29.73
0.521999999999996,29.8
0.522666666666663,29.82
0.523333333333329,29.85
0.523999999999996,29.82
0.524666666666663,29.69
0.52533333333333,29.77
0.525999999999996,29.89
0.526666666666663,29.89
0.52733333333333,29.7
0.527999999999996,29.77
0.528666666666663,29.86
0.52933333333333,29.8
0.529999999999996,29.88
0.530666666666663,29.84
0.53133333333333,29.85
0.531999999999997,29.64
0.532666666666663,29.71
0.53333333333333,29.76
0.533999999999997,29.82
0.534666666666663,29.66
0.53533333333333,29.81
0.535999999999997,29.77
0.536666666666664,29.7
0.53733333333333,29.79
0.537999999999997,29.77
0.538666666666664,29.93
0.53933333333333,29.89
0.539999999999997,29.85
0.540666666666664,29.72
0.54133333333333,29.77
0.541999999999997,30.16
0.542666666666664,29.87
0.543333333333331,29.81
0.543999999999997,29.68
0.544666666666664,29.91
0.545333333333331,29.79
0.545999999999997,29.9
0.546666666666664,29.8
0.547333333333331,29.99
0.547999999999997,29.72
0.548666666666664,30.06
0.549333333333331,29.86
0.549999999999998,29.66
0.550666666666664,29.83
0.551333333333331,29.67
0.551999999999998,29.76
0.552666666666664,29.8
0.553333333333331,29.72
0.553999999999998,29.81
0.554666666666665,29.84
0.555333333333331,29.64
0.555999999999998,29.87
0.556666666666665,29.82
0.557333333333331,29.88
0.557999999999998,29.77
0.558666666666665,29.84
0.559333333333331,29.86
0.559999999999998,29.81
0.560666666666665,29.86
0.561333333333332,29.8
0.561999999999998,29.61
0.562666666666665,29.93
0.563333333333332,29.73
0.563999999999998,29.97
0.564666666666665,29.91
0.565333333333332,29.82
0.565999999999999,29.86
0.566666666666665,29.83
0.567333333333332,29.65
0.567999999999999,29.68
0.568666666666665,30.17
0.569333333333332,29.62
0.569999999999999,29.77
0.570666666666665,29.83
0.571333333333332,29.86
0.571999999999999,29.91
0.572666666666666,29.83
0.573333333333332,29.69
0.573999999999999,29.9
0.574666666666666,29.76
0.575333333333332,29.85
0.575999999999999,29.89
0.576666666666666,29.9
0.577333333333332,29.82
0.577999999999999,29.67
0.578666666666666,29.71
0.579333333333333,29.84
0.579999999999999,29.72
0.580666666666666,29.93
0.581333333333333,29.83
0.581999999999999,29.68
0.582666666666666,30.02
0.583333333333333,29.7
0.584,29.71
0.584666666666666,29.69
0.585333333333333,29.86
0.586,29.83
0.586666666666666,29.91
0.587333333333333,29.84
0.588,29.76
0.588666666666666,29.72
0.589333333333333,29.95
0.59,29.72
0.590666666666667,29.57
0.591333333333333,29.86
0.592,29.99
0.592666666666667,29.73
0.593333333333333,29.79
0.594,29.81
0.594666666666667,29.66
0.595333333333333,29.95
0.596,29.66
0.596666666666667,29.85
0.597333333333334,29.69
0.598,29.78
0.598666666666667,29.57
0.599333333333334,30.03
0.6,29.75
0.600666666666667,29.79
0.601333333333334,29.74
0.602000000000001,29.64
0.602666666666667,29.8
0.603333333333334,29.69
0.604000000000001,29.75
0.604666666666667,29.74
0.605333333333334,29.79
0.606000000000001,29.55
0.606666666666667,30.14
0.607333333333334,29.74
0.608000000000001,29.77
0.608666666666668,29.93
0.609333333333334,30.09
0.610000000000001,29.76
0.610666666666668,29.91
0.611333333333334,29.69
0.612000000000001,29.89
0.612666666666668,29.87
0.613333333333335,29.49
0.614000000000001,29.77
0.614666666666668,29.62
0.615333333333335,29.82
0.616000000000001,29.86
0.616666666666668,29.73
0.617333333333335,29.85
0.618000000000001,29.69
0.618666666666668,29.82
0.619333333333335,29.73
0.620000000000002,29.82
0.620666666666668,29.75
0.621333333333335,29.61
0.622000000000002,30.17
0.622666666666668,29.91
0.623333333333335,29.68
0.624000000000002,29.79
0.624666666666668,29.67
0.625333333333335,29.86
0.626000000000002,29.75
0.626666666666669,29.85
0.627333333333335,29.9
0.628000000000002,29.66
0.628666666666669,29.77
0.629333333333335,29.87
0.630000000000002,29.94
0.630666666666669,29.82
0.631333333333336,29.85
0.632000000000002,29.91
0.632666666666669,29.72
0.633333333333336,29.87
0.634000000000002,29.72
0.634666666666669,29.87
0.635333333333336,29.97
0.636000000000002,29.82
0.636666666666669,29.87
0.637333333333336,29.87
0.638000000000003,29.58
0.638666666666669,30.06
0.639333333333336,29.82
0.640000000000003,29.64
0.640666666666669,30.04
0.641333333333336,29.67
0.642000000000003,29.76
0.642666666666669,29.54
0.643333333333336,30.02
0.644000000000003,29.92
0.64466666666667,29.6
0.645333333333336,30.1
0.646000000000003,29.64
0.64666666666667,29.92
0.647333333333336,29.8
0.648000000000003,29.76
0.64866666666667,30.05
0.649333333333337,29.55
0.650000000000003,30.05
0.65066666666667,29.88
0.651333333333337,29.59
0.652000000000003,29.98
0.65266666666667,29.92
0.653333333333337,29.71
0.654000000000003,30.08
0.65466666666667,29.94
0.655333333333337,29.82
0.656000000000004,29.87
0.65666666666667,29.88
0.657333333333337,29.86
0.658000000000004,29.87
0.65866666666667,29.89
0.659333333333337,29.87
0.660000000000004,29.81
0.660666666666671,29.86
0.661333333333337,29.85
0.662000000000004,29.94
0.662666666666671,29.98
0.663333333333337,29.84
0.664000000000004,29.89
0.664666666666671,29.79
0.665333333333337,29.89
0.666000000000004,29.82
0.666666666666671,158.98
0.667333333333338,30.01
0.668000000000004,29.57
0.668666666666671,29.74
0.669333333333338,29.59
0.670000000000004,29.61
0.670666666666671,29.52
0.671333333333338,29.63
0.672000000000004,29.9
0.672666666666671,29.59
0.673333333333338,29.66
0.674000000000005,29.79
0.674666666666671,29.6
0.675333333333338,29.53
0.676000000000005,29.61
0.676666666666671,29.49
0.677333333333338,29.66
0.678000000000005,29.65
0.678666666666672,29.57
0.679333333333338,29.62
0.680000000000005,29.54
0.680666666666672,29.6
0.681333333333338,29.6
0.682000000000005,29.65
0.682666666666672,29.63
0.683333333333338,29.58
0.684000000000005,29.55
0.684666666666672,29.64
0.685333333333339,29.63
0.686000000000005,29.65
0.686666666666672,29.67
0.687333333333339,29.6
0.688000000000005,29.53
0.688666666666672,29.6
0.689333333333339,29.68
0.690000000000005,29.58
0.690666666666672,29.63
0.691333333333339,29.65
0.692000000000006,29.53
0.692666666666672,29.49
0.693333333333339,29.66
0.694000000000006,29.71
0.694666666666672,29.55
0.695333333333339,29.7
0.696000000000006,29.75
0.696666666666673,29.71
0.697333333333339,29.67
0.698000000000006,29.61
0.698666666666673,29.67
0.699333333333339,29.84
0.700000000000006,29.64
0.700666666666673,29.69
0.701333333333339,29.49
0.702000000000006,29.67
0.702666666666673,29.7
0.70333333333334,29.74
0.704000000000006,29.55
0.704666666666673,29.67
0.70533333333334,29.61
0.706000000000006,29.61
0.706666666666673,29.63
0.70733333333334,29.54
0.708000000000007,29.85
0.708666666666673,29.49
0.70933333333334,29.71
0.710000000000007,29.61
0.710666666666673,29.53
0.71133333333334,29.59
0.712000000000007,29.65
0.712666666666673,29.64
0.71333333333334,29.66
0.714000000000007,29.62
0.714666666666674,29.46
0.71533333333334,29.56
0.716000000000007,29.56
0.716666666666674,29.57
0.71733333333334,29.54
0.718000000000007,29.82
0.718666666666674,29.64
0.71933333333334,29.61
0.720000000000007,29.46
0.720666666666674,29.56
0.721333333333341,29.68
0.722000000000007,29.48
0.722666666666674,29.6
0.723333333333341,29.53
0.724000000000007,29.74
0.724666666666674,29.35
0.725333333333341,29.76
0.726000000000008,29.63
0.726666666666674,29.61
0.727333333333341,29.36
0.728000000000008,29.72
0.728666666666674,29.46
0.729333333333341,29.51
0.730000000000008,29.58
0.730666666666674,29.46
0.731333333333341,29.89
0.732000000000008,29.62
0.732666666666675,29.29
0.733333333333341,29.75
0.734000000000008,29.61
0.734666666666675,29.51
0.735333333333341,29.63
0.736000000000008,29.69
0.736666666666675,29.65
0.737333333333342,29.31
0.738000000000008,29.77
0.738666666666675,29.48
0.739333333333342,29.7
0.740000000000008,29.63
0.740666666666675,29.73
0.741333333333342,29.79
0.742000000000008,29.7
0.742666666666675,29.54
0.743333333333342,29.46
0.744000000000009,29.68
0.744666666666675,29.61
0.745333333333342,29.41
0.746000000000009,29.84
0.746666666666675,29.65
0.747333333333342,29.3
0.748000000000009,29.79
0.748666666666675,29.56
0.749333333333342,29.92
0.750000000000009,29.35
0.750666666666676,29.84
0.751333333333342,29.68
0.752000000000009,29.33
0.752666666666676,29.91
0.753333333333342,29.52
0.754000000000009,29.65
0.754666666666676,29.39
0.755333333333343,29.8
0.756000000000009,29.72
0.756666666666676,29.51
0.757333333333343,29.91
0.758000000000009,29.65
0.758666666666676,30.5
0.759333333333343,29.31
0.760000000000009,29.76
0.760666666666676,29.66
0.761333333333343,29.52
0.76200000000001,29.64
0.762666666666676,29.67
0.763333333333343,29.73
0.76400000000001,29.72
0.764666666666676,29.5
0.765333333333343,29.61
0.76600000000001,29.72
0.766666666666676,29.87
0.767333333333343,29.61
0.76800000000001,29.42
0.768666666666677,29.72
0.769333333333343,29.64
0.77000000000001,29.64
0.770666666666677,29.62
0.771333333333343,29.54
0.77200000000001,29.6
0.772666666666677,29.63
0.773333333333344,29.68
0.77400000000001,29.53
0.774666666666677,29.64
0.775333333333344,29.61
0.77600000000001,29.46
0.776666666666677,29.77
0.777333333333344,29.5
0.77800000000001,29.64
0.778666666666677,29.45
0.779333333333344,29.71
0.780000000000011,29.72
0.780666666666677,29.46
0.781333333333344,29.59
0.782000000000011,29.93
0.782666666666677,29.85
0.783333333333344,29.71
0.784000000000011,29.46
0.784666666666678,29.74
0.785333333333344,29.81
0.786000000000011,29.84
0.786666666666678,29.67
0.787333333333344,29.58
0.788000000000011,29.61
0.788666666666678,29.51
0.789333333333344,29.7
0.790000000000011,29.54
0.790666666666678,29.62
0.791333333333345,29.51
0.792000000000011,29.75
0.792666666666678,29.77
0.793333333333345,29.45
0.794000000000011,29.82
0.794666666666678,29.61
0.795333333333345,29.36
0.796000000000011,29.82
0.796666666666678,29.49
0.797333333333345,29.61
0.798000000000012,29.36
0.798666666666678,29.76
0.799333333333345,29.46
0.800000000000012,29.66
0.800666666666678,29.66
0.801333333333345,29.53
0.802000000000012,29.48
0.802666666666679,29.79
0.803333333333345,29.61
0.804000000000012,29.46
0.804666666666679,29.65
0.805333333333345,29.61
0.806000000000012,29.76
0.806666666666679,29.64
0.807333333333345,29.74
0.808000000000012,29.79
0.808666666666679,29.54
0.809333333333346,29.98
0.810000000000012,29.43
0.810666666666679,29.83
0.811333333333346,29.47
0.812000000000012,29.89
0.812666666666679,29.33
0.813333333333346,29.61
0.814000000000012,29.51
0.814666666666679,29.63
0.815333333333346,29.52
0.816000000000013,29.69
0.816666666666679,29.54
0.817333333333346,29.55
0.818000000000013,29.46
0.818666666666679,29.65
0.819333333333346,29.58
0.820000000000013,29.62
0.82066666666668,29.65
0.821333333333346,29.58
0.822000000000013,29.67
0.82266666666668,29.55
0.823333333333346,29.67
0.824000000000013,29.5
0.82466666666668,29.59
0.825333333333346,29.72
0.826000000000013,29.44
0.82666666666668,29.54
0.827333333333347,29.55
0.828000000000013,29.53
0.82866666666668,29.62
0.829333333333347,29.72
0.830000000000013,29.73
0.83066666666668,29.57
0.831333333333347,29.75
0.832000000000014,29.59
0.83266666666668,29.48
0.833333333333347,29.82
0.834000000000014,29.58
0.83466666666668,29.67
0.835333333333347,29.42
0.836000000000014,29.59
0.83666666666668,29.55
0.837333333333347,29.67
0.838000000000014,29.55
0.838666666666681,29.64
0.839333333333347,29.64
0.840000000000014,29.58
0.840666666666681,29.42
0.841333333333347,29.59
0.842000000000014,29.71
0.842666666666681,29.67
0.843333333333347,29.6
0.844000000000014,29.66
0.844666666666681,29.59
0.845333333333348,29.6
0.846000000000014,29.55
0.846666666666681,29.66
0.847333333333348,29.65
0.848000000000014,29.7
0.848666666666681,29.65
0.849333333333348,29.59
0.850000000000015,29.61
0.850666666666681,29.7
0.851333333333348,29.62
0.852000000000015,29.63
0.852666666666681,29.84
0.853333333333348,29.71
0.854000000000015,29.7
0.854666666666681,29.79
0.855333333333348,29.64
0.856000000000015,29.65
0.856666666666682,29.68
0.857333333333348,29.69
0.858000000000015,29.65
0.858666666666682,29.56
0.859333333333348,29.63
0.860000000000015,29.94
0.860666666666682,29.7
0.861333333333348,29.51
0.862000000000015,29.73
0.862666666666682,29.63
0.863333333333349,29.55
0.864000000000015,29.72
0.864666666666682,29.65
0.865333333333349,29.58
0.866000000000015,65.34
0.866666666666682,29.63
0.867333333333349,29.72
0.868000000000016,29.64
0.868666666666682,29.61
0.869333333333349,29.59
0.870000000000016,29.7
0.870666666666682,29.65
0.871333333333349,29.62
0.872000000000016,29.8
0.872666666666682,29.63
0.873333333333349,29.76
0.874000000000016,29.69
0.874666666666683,29.81
0.875333333333349,29.85
0.876000000000016,29.72
0.876666666666683,29.6
0.877333333333349,29.51
0.878000000000016,29.61
0.878666666666683,29.64
0.87933333333335,29.78
0.880000000000016,29.64
0.880666666666683,29.63
0.88133333333335,29.68
0.882000000000016,29.91
0.882666666666683,29.64
0.88333333333335,29.57
0.884000000000016,29.69
0.884666666666683,29.56
0.88533333333335,29.5
0.886000000000017,29.96
0.886666666666683,29.58
0.88733333333335,29.58
0.888000000000017,29.63
0.888666666666683,29.93
0.88933333333335,29.6
0.890000000000017,29.59
0.890666666666683,29.71
0.89133333333335,29.6
0.892000000000017,29.64
0.892666666666684,29.85
0.89333333333335,29.64
0.894000000000017,29.7
0.894666666666684,29.75
0.89533333333335,29.59
0.896000000000017,29.71
0.896666666666684,29.79
0.897333333333351,29.59
0.898000000000017,29.81
0.898666666666684,29.58
0.899333333333351,29.88
0.900000000000017,29.76
0.900666666666684,29.58
0.901333333333351,29.9
0.902000000000017,29.87
0.902666666666684,29.61
0.903333333333351,29.65
0.904000000000018,29.67
0.904666666666684,29.99
0.905333333333351,29.64
0.906000000000018,29.51
0.906666666666684,29.66
0.907333333333351,29.6
0.908000000000018,29.71
0.908666666666684,29.71
0.909333333333351,29.61
0.910000000000018,29.75
0.910666666666685,29.7
0.911333333333351,29.58
0.912000000000018,29.46
0.912666666666685,29.96
0.913333333333351,29.62
0.914000000000018,29.51
0.914666666666685,29.71
0.915333333333352,29.79
0.916000000000018,29.68
0.916666666666685,29.43
0.917333333333352,29.98
0.918000000000018,29.65
0.918666666666685,29.77
0.919333333333352,29.72
0.920000000000018,29.77
0.920666666666685,29.6
0.921333333333352,29.62
0.922000000000019,32.1
0.922666666666685,29.58
0.923333333333352,29.62
0.924000000000019,29.51
0.924666666666685,29.67
0.925333333333352,29.61
0.926000000000019,29.56
0.926666666666686,29.67
0.927333333333352,29.53
0.928000000000019,29.62
0.928666666666686,29.68
0.929333333333352,29.5
0.930000000000019,29.65
0.930666666666686,29.78
0.931333333333352,29.58
0.932000000000019,29.58
0.932666666666686,29.59
0.933333333333353,29.62
0.934000000000019,29.65
0.934666666666686,29.64
0.935333333333353,29.62
0.936000000000019,29.63
0.936666666666686,29.68
0.937333333333353,29.52
0.938000000000019,29.5
0.938666666666686,29.73
0.939333333333353,29.77
0.94000000000002,29.58
0.940666666666686,29.38
0.941333333333353,29.81
0.94200000000002,29.59
0.942666666666686,29.85
0.943333333333353,29.37
0.94400000000002,29.69
0.944666666666687,29.49
0.945333333333353,29.75
0.94600000000002,29.33
0.946666666666687,29.71
0.947333333333353,29.43
0.94800000000002,29.66
0.948666666666687,29.59
0.949333333333353,29.49
0.95000000000002,29.7
0.950666666666687,29.31
0.951333333333354,29.74
0.95200000000002,29.46
0.952666666666687,29.48
0.953333333333354,29.76
0.95400000000002,29.34
0.954666666666687,29.67
0.955333333333354,29.48
0.956000000000021,29.62
0.956666666666687,29.43
0.957333333333354,29.78
0.958000000000021,29.35
0.958666666666687,29.69
0.959333333333354,29.36
0.960000000000021,29.73
0.960666666666687,29.62
0.961333333333354,29.6
0.962000000000021,29.5
0.962666666666688,29.67
0.963333333333354,29.61
0.964000000000021,29.65
0.964666666666688,29.5
0.965333333333354,29.74
0.966000000000021,29.88
0.966666666666688,29.59
0.967333333333354,29.44
0.968000000000021,29.67
0.968666666666688,29.62
0.969333333333355,29.44
0.970000000000021,29.84
0.970666666666688,29.66
0.971333333333355,29.57
0.972000000000021,29.77
0.972666666666688,29.68
0.973333333333355,29.33
0.974000000000022,29.78
0.974666666666688,29.41
0.975333333333355,29.79
0.976000000000022,29.62
0.976666666666688,29.59
0.977333333333355,29.46
0.978000000000022,29.66
0.978666666666688,29.6
0.979333333333355,29.51
0.980000000000022,29.72
0.980666666666689,29.65
0.981333333333355,29.65
0.982000000000022,29.47
0.982666666666689,29.72
0.983333333333355,29.63
0.984000000000022,29.43
0.984666666666689,29.59
0.985333333333355,29.61
0.986000000000022,29.47
0.986666666666689,29.59
0.987333333333356,29.98
0.988000000000022,29.45
0.988666666666689,29.82
0.989333333333356,29.65
0.990000000000022,29.62
0.990666666666689,29.32
0.991333333333356,29.82
0.992000000000023,29.69
0.992666666666689,29.88
0.993333333333356,29.37
0.994000000000023,29.74
0.994666666666689,29.66
0.995333333333356,29.6
0.996000000000023,29.3
0.996666666666689,29.81
0.997333333333356,29.69
0.998000000000023,29.72
0.99866666666669,29.35
0.999333333333356,29.77
1.00000000000002,29.63
1.00066666666669,29.55
1.00133333333336,29.72
1.00200000000002,29.31
1.00266666666669,29.77
1.00333333333336,29.68
1.00400000000002,29.61
1.00466666666669,29.57
1.00533333333336,29.54
1.00600000000002,29.67
1.00666666666669,29.69
1.00733333333336,29.47
1.00800000000002,29.79
1.00866666666669,29.73
1.00933333333336,29.89
1.01000000000002,29.64
1.01066666666669,29.73
1.01133333333335,29.59
1.01200000000002,29.71
1.01266666666669,29.59
1.01333333333335,29.69
1.01400000000002,29.61
1.01466666666669,29.36
1.01533333333335,29.92
1.01600000000002,29.63
1.01666666666669,29.49
1.01733333333335,29.64
1.01800000000002,29.7
1.01866666666669,29.56
1.01933333333335,29.98
1.02000000000002,29.76
1.02066666666669,29.8
1.02133333333335,29.66
1.02200000000002,29.69
1.02266666666669,29.58
1.02333333333335,29.81
1.02400000000002,29.63
1.02466666666669,29.69
1.02533333333335,29.62
1.02600000000002,29.7
1.02666666666669,29.63
1.02733333333335,29.6
1.02800000000002,29.48
1.02866666666669,29.63
1.02933333333335,29.58
1.03000000000002,29.63
1.03066666666669,29.53
1.03133333333335,29.59
1.03200000000002,29.77
1.03266666666669,29.73
1.03333333333335,29.36
1.03400000000002,29.86
1.03466666666669,29.51
1.03533333333335,29.68
1.03600000000002,29.32
1.03666666666669,29.73
1.03733333333335,29.3
1.03800000000002,29.8
1.03866666666669,29.37
1.03933333333335,29.82
1.04000000000002,29.35
1.04066666666669,29.65
1.04133333333335,29.5
1.04200000000002,29.63
1.04266666666668,29.44
1.04333333333335,29.71
1.04400000000002,29.29
1.04466666666668,29.67
1.04533333333335,29.58
1.04600000000002,29.53
1.04666666666668,29.79
1.04733333333335,29.6
1.04800000000002,29.62
1.04866666666668,29.39
1.04933333333335,29.76
1.05000000000002,29.55
1.05066666666668,29.33
1.05133333333335,29.87
1.05200000000002,29.58
1.05266666666668,29.73
1.05333333333335,29.38
1.05400000000002,29.84
1.05466666666668,29.55
1.05533333333335,30
1.05600000000002,29.45
1.05666666666668,29.63
1.05733333333335,29.66
1.05800000000002,29.41
1.05866666666668,29.78
1.05933333333335,29.48
1.06000000000002,29.64
1.06066666666668,29.44
1.06133333333335,29.77
1.06200000000002,29.49
1.06266666666668,29.65
1.06333333333335,29.37
1.06400000000002,29.83
1.06466666666668,29.44
1.06533333333335,29.49
1.06600000000002,29.59
1.06666666666668,29.33
1.06733333333335,29.8
1.06800000000002,29.51
1.06866666666668,29.47
1.06933333333335,29.76
1.07000000000002,29.36
1.07066666666668,29.87
1.07133333333335,29.32
1.07200000000001,29.76
1.07266666666668,29.56
1.07333333333335,29.9
1.07400000000001,29.31
1.07466666666668,29.86
1.07533333333335,29.54
1.07600000000001,29.62
1.07666666666668,29.55
1.07733333333335,30.02
1.07800000000001,29.64
1.07866666666668,29.76
1.07933333333335,29.4
1.08000000000001,29.85
1.08066666666668,29.9
1.08133333333335,29.41
1.08200000000001,29.77
1.08266666666668,29.52
1.08333333333335,29.63
1.08400000000001,29.4
1.08466666666668,29.77
1.08533333333335,29.78
1.08600000000001,29.44
1.08666666666668,29.64
1.08733333333335,29.85
1.08800000000001,29.47
1.08866666666668,29.67
1.08933333333335,29.7
1.09000000000001,29.74
1.09066666666668,29.51
1.09133333333335,29.6
1.09200000000001,29.64
1.09266666666668,29.69
1.09333333333335,29.67
1.09400000000001,29.62
1.09466666666668,29.61
1.09533333333335,29.53
1.09600000000001,29.69
1.09666666666668,29.7
1.09733333333335,29.63
1.09800000000001,29.6
1.09866666666668,29.65
1.09933333333335,29.78
1.10000000000001,29.98
1.10066666666668,29.73
1.10133333333335,29.62
1.10200000000001,29.67
1.10266666666668,29.61
1.10333333333334,29.78
1.10400000000001,29.59
1.10466666666668,29.67
1.10533333333334,29.62
1.10600000000001,29.63
1.10666666666668,29.56
1.10733333333334,29.85
1.10800000000001,29.55
1.10866666666668,29.8
1.10933333333334,29.62
1.11000000000001,29.64
1.11066666666668,29.58
1.11133333333334,29.66
1.11200000000001,29.61
1.11266666666668,29.8
1.11333333333334,29.65
1.11400000000001,29.62
1.11466666666668,29.7
1.11533333333334,29.6
1.11600000000001,29.64
1.11666666666668,29.74
1.11733333333334,29.72
1.11800000000001,29.46
1.11866666666668,29.62
1.11933333333334,29.68
1.12000000000001,29.83
1.12066666666668,29.68
1.12133333333334,29.85
1.12200000000001,29.82
1.12266666666668,29.78
1.12333333333334,29.73
1.12400000000001,29.73
1.12466666666668,29.7
1.12533333333334,29.72
1.12600000000001,29.71
1.12666666666668,30
1.12733333333334,29.63
1.12800000000001,29.63
1.12866666666668,29.77
1.12933333333334,29.7
1.13000000000001,29.66
1.13066666666668,29.62
1.13133333333334,29.78
1.13200000000001,29.75
1.13266666666667,29.68
1.13333333333334,29.72
1.13400000000001,29.58
1.13466666666667,29.64
1.13533333333334,29.7
1.13600000000001,29.61
1.13666666666667,29.74
1.13733333333334,29.67
1.13800000000001,29.66
1.13866666666667,29.58
1.13933333333334,29.9
1.14000000000001,29.65
1.14066666666667,29.62
1.14133333333334,29.65
1.14200000000001,29.61
1.14266666666667,29.63
1.14333333333334,29.68
1.14400000000001,29.59
1.14466666666667,29.59
1.14533333333334,29.78
1.14600000000001,29.83
1.14666666666667,29.73
1.14733333333334,29.55
1.14800000000001,29.67
1.14866666666667,29.61
1.14933333333334,29.63
1.15000000000001,29.71
1.15066666666667,29.7
1.15133333333334,29.57
1.15200000000001,29.61
1.15266666666667,29.62
1.15333333333334,29.92
1.15400000000001,29.75
1.15466666666667,29.74
1.15533333333334,29.68
1.15600000000001,29.66
1.15666666666667,29.56
1.15733333333334,29.65
1.15800000000001,29.61
1.15866666666667,29.74
1.15933333333334,29.69
1.16000000000001,29.64
1.16066666666667,29.99
1.16133333333334,29.75
1.16200000000001,29.63
1.16266666666667,29.59
1.16333333333334,29.64
1.164,29.63
1.16466666666667,29.71
1.16533333333334,29.62
1.166,29.44
1.16666666666667,29.73
1.16733333333334,29.8
1.168,29.84
1.16866666666667,29.65
1.16933333333334,29.35
1.17,29.78
1.17066666666667,29.68
1.17133333333334,29.29
1.172,29.78
1.17266666666667,29.69
1.17333333333334,29.61
1.174,29.59
1.17466666666667,29.67
1.17533333333334,29.46
1.176,29.62
1.17666666666667,29.71
1.17733333333334,29.55
1.178,29.73
1.17866666666667,29.68
1.17933333333334,29.69
1.18,29.71
1.18066666666667,29.73
1.18133333333334,29.69
1.182,29.3
1.18266666666667,30.02
1.18333333333334,29.61
1.184,29.68
1.18466666666667,29.46
1.18533333333334,29.9
1.186,29.59
1.18666666666667,29.48
1.18733333333334,29.92
1.188,29.44
1.18866666666667,29.77
1.18933333333334,29.71
1.19,29.75
1.19066666666667,29.4
1.19133333333334,29.81
1.192,29.45
1.19266666666667,29.62
1.19333333333333,29.4
1.194,29.86
1.19466666666667,29.38
1.19533333333333,29.82
1.196,29.41
1.19666666666667,29.79
1.19733333333333,29.43
1.198,29.71
1.19866666666667,29.41
1.19933333333333,29.95
1.2,29.57
1.20066666666667,29.62
1.20133333333333,29.73
1.202,29.4
1.20266666666667,29.77
1.20333333333333,29.53
1.204,29.55
1.20466666666667,29.76
1.20533333333333,29.52
1.206,29.66
1.20666666666667,29.61
1.20733333333333,29.7
1.208,29.52
1.20866666666667,29.66
1.20933333333333,29.65
1.21,29.58
1.21066666666667,29.54
1.21133333333333,29.64
1.212,29.88
1.21266666666667,29.73
1.21333333333333,29.42
1.214,29.82
1.21466666666667,29.55
1.21533333333333,29.51
1.216,29.68
1.21666666666667,29.64
1.21733333333333,29.34
1.218,29.86
1.21866666666667,29.53
1.21933333333333,29.67
1.22,29.55
1.22066666666667,29.81
1.22133333333333,29.49
1.222,29.83
1.22266666666667,29.34
1.22333333333333,29.81
1.224,29.53
1.22466666666666,29.58
1.22533333333333,29.56
1.226,29.63
1.22666666666666,29.59
1.22733333333333,29.55
1.228,29.73
1.22866666666666,29.7
1.22933333333333,29.58
1.23,29.72
1.23066666666666,29.55
1.23133333333333,29.83
1.232,29.59
1.23266666666666,29.68
1.23333333333333,29.57
1.234,29.98
1.23466666666666,29.81
1.23533333333333,29.9
1.236,29.79
1.23666666666666,29.69
1.23733333333333,29.7
1.238,29.68
1.23866666666666,29.77
1.23933333333333,29.61
1.24,29.55
1.24066666666666,29.76
1.24133333333333,29.6
1.242,29.74
1.24266666666666,29.49
1.24333333333333,29.59
1.244,29.69
1.24466666666666,29.55
1.24533333333333,29.61
1.246,29.32
1.24666666666666,29.75
1.24733333333333,29.51
1.248,29.62
1.24866666666666,29.67
1.24933333333333,29.49
1.25,29.71
1.25066666666666,29.49
1.25133333333333,29.68
1.252,29.55
1.25266666666666,29.62
1.25333333333333,29.65
1.25399999999999,29.4
1.25466666666666,29.77
1.25533333333333,29.55
1.25599999999999,29.67
1.25666666666666,29.51
1.25733333333333,29.9
1.25799999999999,29.52
1.25866666666666,29.64
1.25933333333333,29.48
1.25999999999999,30.04
1.26066666666666,29.67
1.26133333333333,29.81
1.26199999999999,29.55
1.26266666666666,29.69
1.26333333333333,29.38
1.26399999999999,29.79
1.26466666666666,29.65
1.26533333333333,29.42
1.26599999999999,29.95
1.26666666666666,29.42
1.26733333333333,29.9
1.26799999999999,29.45
1.26866666666666,29.74
1.26933333333333,29.59
1.26999999999999,29.67
1.27066666666666,29.46
1.27133333333333,29.71
1.27199999999999,29.71
1.27266666666666,29.45
1.27333333333333,30
1.27399999999999,29.51
1.27466666666666,29.86
1.27533333333333,29.69
1.27599999999999,29.39
1.27666666666666,29.95
1.27733333333333,29.52
1.27799999999999,29.69
1.27866666666666,29.72
1.27933333333333,29.84
1.27999999999999,29.68
1.28066666666666,29.73
1.28133333333333,29.7
1.28199999999999,29.74
1.28266666666666,29.76
1.28333333333332,29.75
1.28399999999999,29.62
1.28466666666666,29.72
1.28533333333332,29.76
1.28599999999999,29.71
1.28666666666666,29.64
1.28733333333332,29.97
1.28799999999999,29.77
1.28866666666666,29.73
1.28933333333332,29.69
1.28999999999999,29.83
1.29066666666666,29.74
1.29133333333332,29.69
1.29199999999999,29.78
1.29266666666666,29.86
1.29333333333332,29.52
1.29399999999999,29.96
1.29466666666666,29.61
1.29533333333332,29.67
1.29599999999999,29.73
1.29666666666666,29.65
1.29733333333332,29.66
1.29799999999999,29.71
1.29866666666666,29.65
1.29933333333332,29.65
1.29999999999999,29.66
1.30066666666666,29.73
1.30133333333332,29.91
1.30199999999999,29.69
1.30266666666666,29.84
1.30333333333332,29.61
1.30399999999999,29.66
1.30466666666666,29.81
1.30533333333332,29.59
1.30599999999999,29.73
1.30666666666666,29.65
1.30733333333332,29.71
1.30799999999999,29.69
1.30866666666666,29.69
1.30933333333332,29.66
1.30999999999999,29.82
1.31066666666666,29.72
1.31133333333332,29.69
1.31199999999999,29.53
1.31266666666666,29.84
1.31333333333332,29.65
1.31399999999999,29.75
1.31466666666665,29.87
1.31533333333332,29.71
1.31599999999999,29.57
1.31666666666665,29.73
1.31733333333332,29.69
1.31799999999999,30.11
1.31866666666665,29.69
1.31933333333332,30.62
1.31999999999999,29.66
1.32066666666665,29.9
1.32133333333332,29.7
1.32199999999999,29.56
1.32266666666665,29.67
1.32333333333332,29.73
1.32399999999999,29.84
1.32466666666665,29.85
1.32533333333332,29.62
1.32599999999999,29.8
1.32666666666665,29.6
1.32733333333332,29.71
1.32799999999999,29.82
1.32866666666665,29.69
1.32933333333332,29.67
1.32999999999999,29.74
1.33066666666665,29.66
1.33133333333332,29.74
1.33199999999999,29.66
1.33266666666665,29.72
1.33333333333332,153.91
1.33399999999999,30.31
1.33466666666665,29.68
1.33533333333332,29.65
1.33599999999999,29.71
1.33666666666665,29.56
1.33733333333332,29.75
1.33799999999999,29.74
1.33866666666665,29.6
1.33933333333332,29.57
1.33999999999999,29.62
1.34066666666665,29.79
1.34133333333332,29.59
1.34199999999999,29.64
1.34266666666665,29.68
1.34333333333332,29.7
1.34399999999998,29.67
1.34466666666665,29.82
1.34533333333332,29.67
1.34599999999998,29.59
1.34666666666665,29.69
1.34733333333332,29.61
1.34799999999998,29.71
1.34866666666665,29.55
1.34933333333332,29.66
1.34999999999998,29.6
1.35066666666665,29.63
1.35133333333332,29.66
1.35199999999998,29.69
1.35266666666665,29.62
1.35333333333332,29.64
1.35399999999998,29.62
1.35466666666665,29.56
1.35533333333332,29.7
1.35599999999998,29.59
1.35666666666665,29.64
1.35733333333332,29.64
1.35799999999998,29.67
1.35866666666665,29.6
1.35933333333332,29.66
1.35999999999998,29.64
1.36066666666665,29.74
1.36133333333332,29.64
1.36199999999998,29.67
1.36266666666665,29.48
1.36333333333332,29.63
1.36399999999998,29.61
1.36466666666665,29.81
1.36533333333332,29.74
1.36599999999998,29.84
1.36666666666665,29.79
1.36733333333332,29.73
1.36799999999998,29.69
1.36866666666665,29.64
1.36933333333332,29.73
1.36999999999998,29.66
1.37066666666665,29.68
1.37133333333332,29.66
1.37199999999998,29.66
1.37266666666665,29.61
1.37333333333332,29.67
1.37399999999998,29.58
1.37466666666665,29.68
1.37533333333331,29.79
1.37599999999998,29.76
1.37666666666665,29.73
1.37733333333331,29.66
1.37799999999998,29.67
1.37866666666665,29.77
1.37933333333331,29.61
1.37999999999998,29.59
1.38066666666665,29.57
1.38133333333331,29.7
1.38199999999998,29.65
1.38266666666665,29.62
1.38333333333331,29.7
1.38399999999998,29.53
1.38466666666665,29.84
1.38533333333331,29.66
1.38599999999998,29.48
1.38666666666665,29.6
1.38733333333331,29.82
1.38799999999998,29.6
1.38866666666665,29.62
1.38933333333331,29.82
1.38999999999998,29.55
1.39066666666665,29.66
1.39133333333331,29.78
1.39199999999998,29.51
1.39266666666665,29.7
1.39333333333331,29.62
1.39399999999998,29.55
1.39466666666665,29.74
1.39533333333331,29.52
1.39599999999998,29.75
1.39666666666665,29.84
1.39733333333331,29.67
1.39799999999998,29.69
1.39866666666665,29.71
1.39933333333331,29.67
1.39999999999998,29.52
1.40066666666665,29.64
1.40133333333331,29.57
1.40199999999998,29.6
1.40266666666665,29.62
1.40333333333331,29.63
1.40399999999998,29.63
1.40466666666664,29.68
1.40533333333331,29.63
1.40599999999998,29.71
1.40666666666664,29.63
1.40733333333331,29.68
1.40799999999998,29.59
1.40866666666664,29.73
1.40933333333331,29.59
1.40999999999998,29.7
1.41066666666664,29.51
1.41133333333331,29.7
1.41199999999998,29.67
1.41266666666664,29.7
1.41333333333331,29.57
1.41399999999998,29.49
1.41466666666664,29.71
1.41533333333331,29.6
1.41599999999998,29.64
1.41666666666664,29.67
1.41733333333331,29.59
1.41799999999998,29.63
1.41866666666664,29.68
1.41933333333331,29.67
1.41999999999998,29.68
1.42066666666664,29.61
1.42133333333331,29.46
1.42199999999998,29.81
1.42266666666664,29.49
1.42333333333331,29.74
1.42399999999998,29.7
1.42466666666664,29.7
1.42533333333331,29.71
1.42599999999998,29.64
1.42666666666664,29.61
1.42733333333331,29.59
1.42799999999998,29.58
1.42866666666664,29.56
1.42933333333331,29.67
1.42999999999998,29.62
1.43066666666664,29.69
1.43133333333331,29.71
1.43199999999998,29.69
1.43266666666664,29.59
1.43333333333331,29.96
1.43399999999998,29.49
1.43466666666664,29.67
1.43533333333331,29.89
1.43599999999997,29.75
1.43666666666664,29.65
1.43733333333331,29.6
1.43799999999997,29.66
1.43866666666664,29.65
1.43933333333331,29.67
1.43999999999997,29.64
1.44066666666664,29.56
1.44133333333331,29.74
1.44199999999997,29.62
1.44266666666664,29.68
1.44333333333331,29.75
1.44399999999997,29.56
1.44466666666664,29.95
1.44533333333331,29.65
1.44599999999997,29.68
1.44666666666664,29.67
1.44733333333331,29.49
1.44799999999997,29.82
1.44866666666664,29.47
1.44933333333331,29.8
1.44999999999997,29.58
1.45066666666664,29.74
1.45133333333331,29.57
1.45199999999997,29.68
1.45266666666664,29.56
1.45333333333331,29.68
1.45399999999997,29.5
1.45466666666664,29.56
1.45533333333331,29.58
1.45599999999997,29.69
1.45666666666664,29.7
1.45733333333331,29.75
1.45799999999997,29.63
1.45866666666664,29.67
1.45933333333331,29.67
1.45999999999997,29.64
1.46066666666664,29.66
1.46133333333331,29.7
1.46199999999997,29.73
1.46266666666664,29.66
1.46333333333331,29.66
1.46399999999997,29.6
1.46466666666664,29.64
1.4653333333333,29.64
1.46599999999997,29.61
1.46666666666664,29.63
1.4673333333333,29.71
1.46799999999997,29.68
1.46866666666664,29.63
1.4693333333333,29.55
1.46999999999997,29.62
1.47066666666664,29.67
1.4713333333333,29.94
1.47199999999997,29.46
1.47266666666664,29.7
1.4733333333333,29.48
1.47399999999997,29.68
1.47466666666664,29.49
1.4753333333333,29.45
1.47599999999997,29.61
1.47666666666664,29.68
1.4773333333333,29.51
1.47799999999997,29.91
1.47866666666664,29.66
1.4793333333333,29.54
1.47999999999997,29.76
1.48066666666664,29.46
1.4813333333333,29.66
1.48199999999997,29.43
1.48266666666664,34.38
1.4833333333333,29.67
1.48399999999997,29.57
1.48466666666664,29.81
1.4853333333333,29.58
1.48599999999997,29.5
1.48666666666664,29.63
1.4873333333333,29.49
1.48799999999997,29.54
1.48866666666664,29.46
1.4893333333333,29.68
1.48999999999997,29.68
1.49066666666664,29.5
1.4913333333333,29.73
1.49199999999997,29.5
1.49266666666664,29.57
1.4933333333333,29.58
1.49399999999997,29.99
1.49466666666664,29.54
1.4953333333333,29.66
1.49599999999997,29.51
1.49666666666663,29.69
1.4973333333333,29.52
1.49799999999997,29.88
1.49866666666663,29.88
1.4993333333333,29.35
1.49999999999997,29.59
1.50066666666663,29.64
1.5013333333333,29.81
1.50199999999997,29.73
1.50266666666663,29.62
1.5033333333333,29.61
1.50399999999997,29.72
1.50466666666663,29.39
1.5053333333333,29.67
1.50599999999997,29.53
1.50666666666663,29.56
1.5073333333333,29.58
1.50799999999997,29.47
1.50866666666663,29.67
1.5093333333333,29.53
1.50999999999997,29.79
1.51066666666663,29.59
1.5113333333333,29.77
1.51199999999997,29.57
1.51266666666663,29.65
1.5133333333333,29.5
1.51399999999997,29.6
1.51466666666663,29.5
1.5153333333333,29.63
1.51599999999997,29.48
1.51666666666663,29.66
1.5173333333333,29.5
1.51799999999997,29.76
1.51866666666663,29.55
1.5193333333333,29.77
1.51999999999997,29.54
1.52066666666663,29.75
1.5213333333333,29.61
1.52199999999997,29.65
1.52266666666663,29.51
1.5233333333333,29.78
1.52399999999997,29.63
1.52466666666663,29.87
1.5253333333333,29.6
1.52599999999996,29.44
1.52666666666663,29.7
1.5273333333333,29.69
1.52799999999996,29.67
1.52866666666663,29.61
1.5293333333333,29.49
1.52999999999996,29.88
1.53066666666663,29.62
1.5313333333333,29.43
1.53199999999996,29.64
1.53266666666663,29.76
1.5333333333333,29.68
1.53399999999996,29.66
1.53466666666663,29.75
1.5353333333333,29.65
1.53599999999996,29.51
1.53666666666663,29.76
1.5373333333333,29.58
1.53799999999996,29.63
1.53866666666663,29.59
1.5393333333333,29.64
1.53999999999996,29.59
1.54066666666663,29.63
1.5413333333333,29.62
1.54199999999996,29.62
1.54266666666663,29.66
1.5433333333333,29.64
1.54399999999996,29.61
1.54466666666663,29.65
1.5453333333333,29.72
1.54599999999996,29.77
1.54666666666663,29.77
1.5473333333333,29.7
1.54799999999996,29.66
1.54866666666663,29.62
1.5493333333333,29.56
1.54999999999996,29.58
1.55066666666663,29.77
1.5513333333333,29.64
1.55199999999996,29.89
1.55266666666663,29.62
1.5533333333333,29.61
1.55399999999996,29.84
1.55466666666663,29.8
1.5553333333333,29.86
1.55599999999996,29.59
1.55666666666663,29.81
1.55733333333329,29.77
1.55799999999996,29.59
1.55866666666663,29.74
1.55933333333329,29.65
1.55999999999996,31.79
1.56066666666663,29.57
1.56133333333329,29.69
1.56199999999996,29.6
1.56266666666663,29.63
1.56333333333329,29.63
1.56399999999996,29.69
1.56466666666663,29.63
1.56533333333329,29.6
1.56599999999996,29.66
1.56666666666663,29.64
1.56733333333329,29.58
1.56799999999996,29.72
1.56866666666663,29.68
1.56933333333329,29.71
1.56999999999996,29.69
1.57066666666663,29.6
1.57133333333329,29.66
1.57199999999996,29.63
1.57266666666663,29.53
1.57333333333329,29.63
1.57399999999996,29.63
1.57466666666663,29.68
1.57533333333329,29.49
1.57599999999996,29.59
1.57666666666663,29.59
1.57733333333329,29.6
1.57799999999996,29.62
1.57866666666663,29.69
1.57933333333329,29.68
1.57999999999996,29.65
1.58066666666663,29.32
1.58133333333329,29.81
1.58199999999996,29.66
1.58266666666663,29.52
1.58333333333329,29.61
1.58399999999996,29.45
1.58466666666663,29.75
1.58533333333329,29.45
1.58599999999996,29.85
1.58666666666662,29.65
1.58733333333329,29.59
1.58799999999996,29.68
1.58866666666662,29.48
1.58933333333329,29.48
1.58999999999996,29.54
1.59066666666662,29.78
1.59133333333329,29.51
1.59199999999996,29.7
1.59266666666662,29.69
1.59333333333329,29.6
1.59399999999996,29.51
1.59466666666662,29.64
1.59533333333329,29.69
1.59599999999996,29.62
1.59666666666662,29.64
1.59733333333329,29.61
1.59799999999996,29.47
1.59866666666662,29.64
1.59933333333329,29.69
1.59999999999996,29.63
1.60066666666662,29.63
1.60133333333329,29.77
1.60199999999996,29.53
1.60266666666662,29.6
1.60333333333329,29.65
1.60399999999996,29.72
1.60466666666662,29.65
1.60533333333329,29.92
1.60599999999996,29.58
1.60666666666662,29.65
1.60733333333329,29.7
1.60799999999996,29.59
1.60866666666662,29.57
1.60933333333329,29.77
1.60999999999996,29.51
1.61066666666662,29.7
1.61133333333329,29.73
1.61199999999996,29.56
1.61266666666662,29.71
1.61333333333329,29.79
1.61399999999996,29.71
1.61466666666662,29.81
1.61533333333329,29.49
1.61599999999996,29.64
1.61666666666662,29.62
1.61733333333329,29.63
1.61799999999995,29.44
1.61866666666662,29.62
1.61933333333329,29.58
1.61999999999995,29.57
1.62066666666662,29.44
1.62133333333329,29.68
1.62199999999995,29.34
1.62266666666662,29.69
1.62333333333329,29.67
1.62399999999995,29.34
1.62466666666662,29.73
1.62533333333329,29.48
1.62599999999995,29.52
1.62666666666662,29.43
1.62733333333329,29.72
1.62799999999995,29.46
1.62866666666662,29.63
1.62933333333329,29.44
1.62999999999995,29.49
1.63066666666662,29.75
1.63133333333329,29.3
1.63199999999995,29.91
1.63266666666662,29.38
1.63333333333329,29.74
1.63399999999995,29.46
1.63466666666662,29.67
1.63533333333329,29.61
1.63599999999995,29.71
1.63666666666662,29.67
1.63733333333329,29.66
1.63799999999995,29.44
1.63866666666662,29.67
1.63933333333329,29.49
1.63999999999995,29.69
1.64066666666662,29.51
1.64133333333329,29.58
1.64199999999995,29.47
1.64266666666662,29.57
1.64333333333329,29.48
1.64399999999995,29.62
1.64466666666662,29.41
1.64533333333329,29.62
1.64599999999995,29.57
1.64666666666662,29.61
1.64733333333328,29.44
1.64799999999995,29.59
1.64866666666662,29.5
1.64933333333328,29.58
1.64999999999995,29.65
1.65066666666662,29.47
1.65133333333328,29.7
1.65199999999995,29.56
1.65266666666662,29.6
1.65333333333328,29.53
1.65399999999995,29.62
1.65466666666662,29.58
1.65533333333328,29.85
1.65599999999995,29.35
1.65666666666662,29.63
1.65733333333328,29.52
1.65799999999995,29.8
1.65866666666662,29.67
1.65933333333328,29.79
1.65999999999995,29.49
1.66066666666662,29.64
1.66133333333328,29.48
1.66199999999995,29.71
1.66266666666662,29.67
1.66333333333328,29.48
1.66399999999995,29.77
1.66466666666662,29.68
1.66533333333328,29.52
1.66599999999995,29.6
1.66666666666662,29.64
1.66733333333328,29.54
1.66799999999995,29.79
1.66866666666662,29.47
1.66933333333328,29.62
1.66999999999995,29.44
1.67066666666662,29.6
1.67133333333328,29.63
1.67199999999995,29.51
1.67266666666662,29.77
1.67333333333328,29.77
1.67399999999995,29.43
1.67466666666662,29.57
1.67533333333328,29.65
1.67599999999995,29.49
1.67666666666662,29.64
1.67733333333328,29.55
1.67799999999995,29.63
1.67866666666661,29.56
1.67933333333328,29.46
1.67999999999995,29.77
1.68066666666661,29.73
1.68133333333328,29.77
1.68199999999995,29.7
1.68266666666661,29.59
1.68333333333328,29.68
1.68399999999995,29.53
1.68466666666661,29.56
1.68533333333328,29.8
1.68599999999995,29.68
1.68666666666661,29.56
1.68733333333328,29.63
1.68799999999995,29.6
1.68866666666661,29.59
1.68933333333328,29.61
1.68999999999995,29.6
1.69066666666661,29.75
1.69133333333328,29.47
1.69199999999995,29.56
1.69266666666661,29.66
1.69333333333328,29.6
1.69399999999995,29.56
1.69466666666661,29.74
1.69533333333328,29.52
1.69599999999995,29.6
1.69666666666661,29.5
1.69733333333328,29.61
1.69799999999995,29.62
1.69866666666661,29.57
1.69933333333328,29.78
1.69999999999995,29.62
1.70066666666661,29.6
1.70133333333328,29.41
1.70199999999995,29.61
1.70266666666661,29.75
1.70333333333328,29.51
1.70399999999995,29.65
1.70466666666661,29.38
1.70533333333328,29.53
1.70599999999995,29.3
1.70666666666661,29.52
1.70733333333328,29.39
1.70799999999994,29.49
1.70866666666661,29.48
1.70933333333328,29.56
1.70999999999994,29.43
1.71066666666661,29.59
1.71133333333328,29.39
1.71199999999994,29.59
1.71266666666661,29.69
1.71333333333328,29.6
1.71399999999994,29.47
1.71466666666661,29.57
1.71533333333328,29.38
1.71599999999994,29.5
1.71666666666661,29.43
1.71733333333328,29.64
1.71799999999994,29.56
1.71866666666661,29.63
1.71933333333328,29.39
1.71999999999994,29.53
1.72066666666661,29.4
1.72133333333328,29.57
1.72199999999994,29.5
1.72266666666661,29.77
1.72333333333328,29.53
1.72399999999994,29.47
1.72466666666661,29.54
1.72533333333328,29.53
1.72599999999994,29.68
1.72666666666661,29.53
1.72733333333328,29.5
1.72799999999994,29.39
1.72866666666661,29.56
1.72933333333328,29.39
1.72999999999994,29.53
1.73066666666661,29.35
1.73133333333328,29.59
1.73199999999994,29.36
1.73266666666661,29.6
1.73333333333328,29.66
1.73399999999994,29.58
1.73466666666661,29.55
1.73533333333328,29.67
1.73599999999994,29.45
1.73666666666661,29.55
1.73733333333327,29.49
1.73799999999994,29.5
1.73866666666661,29.36
1.73933333333327,29.76
1.73999999999994,29.46
1.74066666666661,29.6
1.74133333333327,29.61
1.74199999999994,29.43
1.74266666666661,29.56
1.74333333333327,29.57
1.74399999999994,29.54
1.74466666666661,29.5
1.74533333333327,29.58
1.74599999999994,29.54
1.74666666666661,29.47
1.74733333333327,29.49
1.74799999999994,29.6
1.74866666666661,29.69
1.74933333333327,29.51
1.74999999999994,29.57
1.75066666666661,29.49
1.75133333333327,29.3
1.75199999999994,29.69
1.75266666666661,29.41
1.75333333333327,29.57
1.75399999999994,29.55
1.75466666666661,29.45
1.75533333333327,29.59
1.75599999999994,29.56
1.75666666666661,29.61
1.75733333333327,29.38
1.75799999999994,29.58
1.75866666666661,29.53
1.75933333333327,29.56
1.75999999999994,29.54
1.76066666666661,29.47
1.76133333333327,29.53
1.76199999999994,29.52
1.76266666666661,29.46
1.76333333333327,29.51
1.76399999999994,29.59
1.76466666666661,29.41
1.76533333333327,29.58
1.76599999999994,29.66
1.76666666666661,29.62
1.76733333333327,29.44
1.76799999999994,29.62
1.7686666666666,29.46
1.76933333333327,29.58
1.76999999999994,29.49
1.7706666666666,29.7
1.77133333333327,29.55
1.77199999999994,29.78
1.7726666666666,29.42
1.77333333333327,29.51
1.77399999999994,29.43
1.7746666666666,29.62
1.77533333333327,29.37
1.77599999999994,29.49
1.7766666666666,29.51
1.77733333333327,29.36
1.77799999999994,29.54
1.7786666666666,29.63
1.77933333333327,29.41
1.77999999999994,29.46
1.7806666666666,29.44
1.78133333333327,29.56
1.78199999999994,29.41
1.7826666666666,29.58
1.78333333333327,29.32
1.78399999999994,29.59
1.7846666666666,29.31
1.78533333333327,29.56
1.78599999999994,29.34
1.7866666666666,29.65
1.78733333333327,29.56
1.78799999999994,29.32
1.7886666666666,29.54
1.78933333333327,29.47
1.78999999999994,29.37
1.7906666666666,29.57
1.79133333333327,29.58
1.79199999999994,29.77
1.7926666666666,29.67
1.79333333333327,29.59
1.79399999999994,29.65
1.7946666666666,29.57
1.79533333333327,29.48
1.79599999999994,29.56
1.7966666666666,29.58
1.79733333333327,29.58
1.79799999999993,29.57
1.7986666666666,29.63
1.79933333333327,29.47
1.79999999999993,29.49
1.8006666666666,29.49
1.80133333333327,29.6
1.80199999999993,29.54
1.8026666666666,29.53
1.80333333333327,29.52
1.80399999999993,29.6
1.8046666666666,57.02
1.80533333333327,29.49
1.80599999999993,29.68
1.8066666666666,29.61
1.80733333333327,29.57
1.80799999999993,29.47
1.8086666666666,29.64
1.80933333333327,29.6
1.80999999999993,29.65
1.8106666666666,29.47
1.81133333333327,29.9
1.81199999999993,29.53
1.8126666666666,29.71
1.81333333333327,29.53
1.81399999999993,29.57
1.8146666666666,29.72
1.81533333333327,29.72
1.81599999999993,29.9
1.8166666666666,29.57
1.81733333333327,29.51
1.81799999999993,29.64
1.8186666666666,29.7
1.81933333333327,29.71
1.81999999999993,29.71
1.8206666666666,29.57
1.82133333333327,29.54
1.82199999999993,29.6
1.8226666666666,29.53
1.82333333333327,29.49
1.82399999999993,29.51
1.8246666666666,29.84
1.82533333333327,29.6
1.82599999999993,29.67
1.8266666666666,29.55
1.82733333333327,29.59
1.82799999999993,29.62
1.8286666666666,29.44
1.82933333333326,29.48
1.82999999999993,29.57
1.8306666666666,29.51
1.83133333333326,29.53
1.83199999999993,29.57
1.8326666666666,29.7
1.83333333333326,29.6
1.83399999999993,29.63
1.8346666666666,29.46
1.83533333333326,29.56
1.83599999999993,29.58
1.8366666666666,29.44
1.83733333333326,29.6
1.83799999999993,29.66
1.8386666666666,29.65
1.83933333333326,29.56
1.83999999999993,29.56
1.8406666666666,29.48
1.84133333333326,29.55
1.84199999999993,29.56
1.8426666666666,29.59
1.84333333333326,29.56
1.84399999999993,29.53
1.8446666666666,29.53
1.84533333333326,29.47
1.84599999999993,29.55
1.8466666666666,29.53
1.84733333333326,29.67
1.84799999999993,29.49
1.8486666666666,29.49
1.84933333333326,29.53
1.84999999999993,29.51
1.8506666666666,29.56
1.85133333333326,29.66
1.85199999999993,29.59
1.8526666666666,29.51
1.85333333333326,29.51
1.85399999999993,29.57
1.8546666666666,29.63
1.85533333333326,29.41
1.85599999999993,29.7
1.8566666666666,29.3
1.85733333333326,29.61
1.85799999999993,29.4
1.85866666666659,29.59
1.85933333333326,29.62
1.85999999999993,29.56
1.86066666666659,29.7
1.86133333333326,29.72
1.86199999999993,29.45
1.86266666666659,29.53
1.86333333333326,29.37
1.86399999999993,29.5
1.86466666666659,29.43
1.86533333333326,29.37
1.86599999999993,29.49
1.86666666666659,29.28
1.86733333333326,29.64
1.86799999999993,29.43
1.86866666666659,29.35
1.86933333333326,29.59
1.86999999999993,29.25
1.87066666666659,29.77
1.87133333333326,29.41
1.87199999999993,29.45
1.87266666666659,29.72
1.87333333333326,29.49
1.87399999999993,29.55
1.87466666666659,29.56
1.87533333333326,29.47
1.87599999999993,29.5
1.87666666666659,29.47
1.87733333333326,29.5
1.87799999999993,29.68
1.87866666666659,29.41
1.87933333333326,29.57
1.87999999999993,29.6
1.88066666666659,29.4
1.88133333333326,29.46
1.88199999999993,29.57
1.88266666666659,29.44
1.88333333333326,29.61
1.88399999999993,29.52
1.88466666666659,29.35
1.88533333333326,29.42
1.88599999999993,29.39
1.88666666666659,29.56
1.88733333333326,29.44
1.88799999999993,29.38
1.88866666666659,29.56
1.88933333333326,29.35
1.88999999999992,29.52
1.89066666666659,29.38
1.89133333333326,29.56
1.89199999999992,29.37
1.89266666666659,29.56
1.89333333333326,29.39
1.89399999999992,29.54
1.89466666666659,29.38
1.89533333333326,29.59
1.89599999999992,29.6
1.89666666666659,29.46
1.89733333333326,29.42
1.89799999999992,29.67
1.89866666666659,29.32
1.89933333333326,29.49
1.89999999999992,29.67
1.90066666666659,29.55
1.90133333333326,29.53
1.90199999999992,29.53
1.90266666666659,29.4
1.90333333333326,29.61
1.90399999999992,29.53
1.90466666666659,29.45
1.90533333333326,29.86
1.90599999999992,29.66
1.90666666666659,29.52
1.90733333333326,29.56
1.90799999999992,29.55
1.90866666666659,29.42
1.90933333333326,29.62
1.90999999999992,29.6
1.91066666666659,29.55
1.91133333333326,29.71
1.91199999999992,29.65
1.91266666666659,29.57
1.91333333333326,29.66
1.91399999999992,29.49
1.91466666666659,29.55
1.91533333333326,29.36
1.91599999999992,29.53
1.91666666666659,29.45
1.91733333333326,29.57
1.91799999999992,29.43
1.91866666666659,29.61
1.91933333333325,29.33
1.91999999999992,29.45
1.92066666666659,29.29
1.92133333333325,29.55
1.92199999999992,29.58
1.92266666666659,29.37
1.92333333333325,29.47
1.92399999999992,29.53
1.92466666666659,29.42
1.92533333333325,29.48
1.92599999999992,29.44
1.92666666666659,29.94
1.92733333333325,29.52
1.92799999999992,29.77
1.92866666666659,29.58
1.92933333333325,29.7
1.92999999999992,29.38
1.93066666666659,29.48
1.93133333333325,29.42
1.93199999999992,29.68
1.93266666666659,29.48
1.93333333333325,29.61
1.93399999999992,29.52
1.93466666666659,29.66
1.93533333333325,29.55
1.93599999999992,29.48
1.93666666666659,29.52
1.93733333333325,29.64
1.93799999999992,29.36
1.93866666666659,29.51
1.93933333333325,29.57
1.93999999999992,29.55
1.94066666666659,29.67
1.94133333333325,29.4
1.94199999999992,29.5
1.94266666666659,29.4
1.94333333333325,29.55
1.94399999999992,29.56
1.94466666666659,29.45
1.94533333333325,29.54
1.94599999999992,29.59
1.94666666666659,29.55
1.94733333333325,29.4
1.94799999999992,29.56
1.94866666666659,29.38
1.94933333333325,29.58
1.94999999999992,29.53
1.95066666666658,29.53
1.95133333333325,29.62
1.95199999999992,29.45
1.95266666666658,29.56
1.95333333333325,29.62
1.95399999999992,29.58
1.95466666666658,29.35
1.95533333333325,29.61
1.95599999999992,29.38
1.95666666666658,29.58
1.95733333333325,29.43
1.95799999999992,29.35
1.95866666666658,29.69
1.95933333333325,29.49
1.95999999999992,29.58
1.96066666666658,29.53
1.96133333333325,29.4
1.96199999999992,29.51
1.96266666666658,29.61
1.96333333333325,29.53
1.96399999999992,29.56
1.96466666666658,29.69
1.96533333333325,29.55
1.96599999999992,29.54
1.96666666666658,29.52
1.96733333333325,29.56
1.96799999999992,29.61
1.96866666666658,29.53
1.96933333333325,29.52
1.96999999999992,29.61
1.97066666666658,29.83
1.97133333333325,29.58
1.97199999999992,29.49
1.97266666666658,29.57
1.97333333333325,29.6
1.97399999999992,29.69
1.97466666666658,29.5
1.97533333333325,29.62
1.97599999999992,29.51
1.97666666666658,29.62
1.97733333333325,29.58
1.97799999999992,29.54
1.97866666666658,29.5
1.97933333333325,29.49
1.97999999999991,29.43
1.98066666666658,29.74
1.98133333333325,29.59
1.98199999999991,29.56
1.98266666666658,29.58
1.98333333333325,29.56
1.98399999999991,29.5
1.98466666666658,29.5
1.98533333333325,29.56
1.98599999999991,29.68
1.98666666666658,29.57
1.98733333333325,29.55
1.98799999999991,29.55
1.98866666666658,29.5
1.98933333333325,29.55
1.98999999999991,29.65
1.99066666666658,29.54
1.99133333333325,29.6
1.99199999999991,29.57
1.99266666666658,29.55
1.99333333333325,29.5
1.99399999999991,29.53
1.99466666666658,29.66
1.99533333333325,29.64
1.99599999999991,29.64
1.99666666666658,29.61
1.99733333333325,29.53
1.99799999999991,29.6
1.99866666666658,29.76
1.99933333333325,29.53
1.99999999999991,157.94
2.00066666666658,30.03
2.00133333333325,29.52
2.00199999999991,29.75
2.00266666666658,29.61
2.00333333333325,29.53
2.00399999999991,29.79
2.00466666666658,29.75
2.00533333333325,29.62
2.00599999999991,29.78
2.00666666666658,29.61
2.00733333333325,29.58
2.00799999999991,29.68
2.00866666666658,29.57
2.00933333333325,29.75
2.00999999999991,29.53
2.01066666666658,29.74
2.01133333333325,29.49
2.01199999999991,29.69
2.01266666666658,29.64
2.01333333333324,29.62
2.01399999999991,29.69
2.01466666666658,29.6
2.01533333333324,29.9
2.01599999999991,29.65
2.01666666666658,29.57
2.01733333333324,29.67
2.01799999999991,29.53
2.01866666666658,29.71
2.01933333333324,29.64
2.01999999999991,29.54
2.02066666666658,29.57
2.02133333333324,29.74
2.02199999999991,29.53
2.02266666666658,29.52
2.02333333333324,29.58
2.02399999999991,29.57
2.02466666666658,29.54
2.02533333333324,29.58
2.02599999999991,29.6
2.02666666666658,29.48
2.02733333333324,29.61
2.02799999999991,29.82
2.02866666666658,29.55
2.02933333333324,29.57
2.02999999999991,29.51
2.03066666666658,29.78
2.03133333333324,29.58
2.03199999999991,29.57
2.03266666666658,29.62
2.03333333333324,29.48
2.03399999999991,29.58
2.03466666666658,29.59
2.03533333333324,29.58
2.03599999999991,29.72
2.03666666666658,29.65
2.03733333333324,29.68
2.03799999999991,29.8
2.03866666666658,29.69
2.03933333333324,29.56
2.03999999999991,29.58
2.04066666666658,29.64
2.04133333333324,29.53
2.04199999999991,29.57
2.04266666666657,29.53
2.04333333333324,29.58
2.04399999999991,29.57
2.04466666666657,29.52
2.04533333333324,29.63
2.04599999999991,29.57
2.04666666666657,29.83
2.04733333333324,29.57
2.04799999999991,29.55
2.04866666666657,29.59
2.04933333333324,29.63
2.04999999999991,29.63
2.05066666666657,29.63
2.05133333333324,29.61
2.05199999999991,29.5
2.05266666666657,29.6
2.05333333333324,29.57
2.05399999999991,29.61
2.05466666666657,29.52
2.05533333333324,29.56
2.05599999999991,29.53
2.05666666666657,29.63
2.05733333333324,29.64
2.05799999999991,29.94
2.05866666666657,29.59
2.05933333333324,29.55
2.05999999999991,29.72
2.06066666666657,29.57
2.06133333333324,29.58
2.06199999999991,29.56
2.06266666666657,29.58
2.06333333333324,29.6
2.06399999999991,29.52
2.06466666666657,29.51
2.06533333333324,29.75
2.06599999999991,29.55
2.06666666666657,29.71
2.06733333333324,29.52
2.06799999999991,29.54
2.06866666666657,29.56
2.06933333333324,29.54
2.06999999999991,29.57
2.07066666666657,29.63
2.07133333333324,29.57
2.07199999999991,29.83
2.07266666666657,29.55
2.07333333333324,29.55
2.0739999999999,29.57
2.07466666666657,29.58
2.07533333333324,29.62
2.0759999999999,29.55
2.07666666666657,29.48
2.07733333333324,29.56
2.0779999999999,29.56
2.07866666666657,29.76
2.07933333333324,29.62
2.0799999999999,29.57
2.08066666666657,29.66
2.08133333333324,29.62
2.0819999999999,29.65
2.08266666666657,29.7
2.08333333333324,29.67
2.0839999999999,29.58
2.08466666666657,29.83
2.08533333333324,29.49
2.0859999999999,29.64
2.08666666666657,29.5
2.08733333333324,29.59
2.0879999999999,29.82
2.08866666666657,29.42
2.08933333333324,29.63
2.0899999999999,29.58
2.09066666666657,29.79
2.09133333333324,29.64
2.0919999999999,29.53
2.09266666666657,29.88
2.09333333333324,29.42
2.0939999999999,29.62
2.09466666666657,29.47
2.09533333333324,29.53
2.0959999999999,29.54
2.09666666666657,29.41
2.09733333333324,29.54
2.0979999999999,29.52
2.09866666666657,29.53
2.09933333333324,29.66
2.0999999999999,29.41
2.10066666666657,29.53
2.10133333333324,29.58
2.1019999999999,29.58
2.10266666666657,29.57
2.10333333333323,29.52
2.1039999999999,29.58
2.10466666666657,29.7
2.10533333333323,29.87
2.1059999999999,29.78
2.10666666666657,29.48
2.10733333333323,29.57
2.1079999999999,29.69
2.10866666666657,29.53
2.10933333333323,29.6
2.1099999999999,29.47
2.11066666666657,29.65
2.11133333333323,29.89
2.1119999999999,29.57
2.11266666666657,29.62
2.11333333333323,29.62
2.1139999999999,29.5
2.11466666666657,29.76
2.11533333333323,29.61
2.1159999999999,29.58
2.11666666666657,29.61
2.11733333333323,29.5
2.1179999999999,29.4
2.11866666666657,29.59
2.11933333333323,29.6
2.1199999999999,29.5
2.12066666666657,29.69
2.12133333333323,29.51
2.1219999999999,29.58
2.12266666666657,29.62
2.12333333333323,29.66
2.1239999999999,29.6
2.12466666666657,29.62
2.12533333333323,29.63
2.1259999999999,29.63
2.12666666666657,29.55
2.12733333333323,29.51
2.1279999999999,29.78
2.12866666666657,29.63
2.12933333333323,29.58
2.1299999999999,29.55
2.13066666666657,29.43
2.13133333333323,29.6
2.1319999999999,29.52
2.13266666666657,29.59
2.13333333333323,29.58
2.1339999999999,29.4
2.13466666666656,29.65
2.13533333333323,29.59
2.1359999999999,29.54
2.13666666666656,29.58
2.13733333333323,29.4
2.1379999999999,29.99
2.13866666666656,29.49
2.13933333333323,29.56
2.1399999999999,29.7
2.14066666666656,29.63
2.14133333333323,29.58
2.1419999999999,29.59
2.14266666666656,29.57
2.14333333333323,29.74
2.1439999999999,29.58
2.14466666666656,29.63
2.14533333333323,29.59
2.1459999999999,29.72
2.14666666666656,29.75
2.14733333333323,29.73
2.1479999999999,29.69
2.14866666666656,29.61
2.14933333333323,29.58
2.1499999999999,29.7
2.15066666666656,29.72
2.15133333333323,29.6
2.1519999999999,29.69
2.15266666666656,29.72
2.15333333333323,29.53
2.1539999999999,29.52
2.15466666666656,29.53
2.15533333333323,29.57
2.1559999999999,29.56
2.15666666666656,29.63
2.15733333333323,29.61
2.1579999999999,29.62
2.15866666666656,29.49
2.15933333333323,29.56
2.1599999999999,29.61
2.16066666666656,29.55
2.16133333333323,29.67
2.1619999999999,29.55
2.16266666666656,29.53
2.16333333333323,29.55
2.16399999999989,29.52
2.16466666666656,29.88
2.16533333333323,29.62
2.16599999999989,29.54
2.16666666666656,29.52
2.16733333333323,29.56
2.16799999999989,29.57
2.16866666666656,29.54
2.16933333333323,29.61
2.16999999999989,29.59
2.17066666666656,29.57
2.17133333333323,29.43
2.17199999999989,29.63
2.17266666666656,29.66
2.17333333333323,29.51
2.17399999999989,29.61
2.17466666666656,29.58
2.17533333333323,29.57
2.17599999999989,29.58
2.17666666666656,29.64
2.17733333333323,29.62
2.17799999999989,29.63
2.17866666666656,29.35
2.17933333333323,29.77
2.17999999999989,29.5
2.18066666666656,29.56
2.18133333333323,29.42
2.18199999999989,29.61
2.18266666666656,29.44
2.18333333333323,29.71
2.18399999999989,29.39
2.18466666666656,29.48
2.18533333333323,29.56
2.18599999999989,29.62
2.18666666666656,29.29
2.18733333333323,29.96
2.18799999999989,29.39
2.18866666666656,29.71
2.18933333333323,29.28
2.18999999999989,29.64
2.19066666666656,29.68
2.19133333333323,29.36
2.19199999999989,29.85
2.19266666666656,29.39
2.19333333333322,29.46
2.19399999999989,31.92
2.19466666666656,29.46
2.19533333333322,29.7
2.19599999999989,29.54
2.19666666666656,29.41
2.19733333333322,29.63
2.19799999999989,29.65
2.19866666666656,29.49
2.19933333333322,29.66
2.19999999999989,29.43
2.20066666666656,29.66
2.20133333333322,29.45
2.20199999999989,29.63
2.20266666666656,29.54
2.20333333333322,29.45
2.20399999999989,29.57
2.20466666666656,29.54
2.20533333333322,29.51
2.20599999999989,29.6
2.20666666666656,29.59
2.20733333333322,29.71
2.20799999999989,29.4
2.20866666666656,29.71
2.20933333333322,29.44
2.20999999999989,29.58
2.21066666666656,29.5
2.21133333333322,29.43
2.21199999999989,29.92
2.21266666666656,29.43
2.21333333333322,29.63
2.21399999999989,29.6
2.21466666666656,29.54
2.21533333333322,29.73
2.21599999999989,29.54
2.21666666666656,29.62
2.21733333333322,29.72
2.21799999999989,29.61
2.21866666666656,30.06
2.21933333333322,29.6
2.21999999999989,29.65
2.22066666666656,29.57
2.22133333333322,29.58
2.22199999999989,29.57
2.22266666666656,29.59
2.22333333333322,29.72
2.22399999999989,29.53
2.22466666666655,29.57
2.22533333333322,29.64
2.22599999999989,29.61
2.22666666666655,29.69
2.22733333333322,29.56
2.22799999999989,29.66
2.22866666666655,29.52
2.22933333333322,29.59
2.22999999999989,29.59
2.23066666666655,29.62
2.23133333333322,29.61
2.23199999999989,29.62
2.23266666666655,29.69
2.23333333333322,29.6
2.23399999999989,29.62
2.23466666666655,29.71
2.23533333333322,29.53
2.23599999999989,29.58
2.23666666666655,29.7
2.23733333333322,29.58
2.23799999999989,29.55
2.23866666666655,29.65
2.23933333333322,29.63
2.23999999999989,29.7
2.24066666666655,29.71
2.24133333333322,29.75
2.24199999999989,29.64
2.24266666666655,29.59
2.24333333333322,29.6
2.24399999999989,29.6
2.24466666666655,29.66
2.24533333333322,29.85
2.24599999999989,29.71
2.24666666666655,29.76
2.24733333333322,29.7
2.24799999999989,29.66
2.24866666666655,29.63
2.24933333333322,29.68
2.24999999999989,29.51
2.25066666666655,29.65
2.25133333333322,29.62
2.25199999999989,29.7
2.25266666666655,29.64
2.25333333333322,29.78
2.25399999999988,29.75
2.25466666666655,29.56
2.25533333333322,29.63
2.25599999999988,29.65
2.25666666666655,29.57
2.25733333333322,29.55
2.25799999999988,29.55
2.25866666666655,29.63
2.25933333333322,29.71
2.25999999999988,29.6
2.26066666666655,29.64
2.26133333333322,29.53
2.26199999999988,29.6
2.26266666666655,29.66
2.26333333333322,29.76
2.26399999999988,29.7
2.26466666666655,29.6
2.26533333333322,29.52
2.26599999999988,29.67
2.26666666666655,29.63
2.26733333333322,29.88
2.26799999999988,29.64
2.26866666666655,29.73
2.26933333333322,29.52
2.26999999999988,29.55
2.27066666666655,29.55
2.27133333333322,29.59
2.27199999999988,29.82
2.27266666666655,29.57
2.27333333333322,29.6
2.27399999999988,29.62
2.27466666666655,29.62
2.27533333333322,29.56
2.27599999999988,29.54
2.27666666666655,29.54
2.27733333333322,29.67
2.27799999999988,29.58
2.27866666666655,29.6
2.27933333333322,29.6
2.27999999999988,29.61
2.28066666666655,29.63
2.28133333333322,29.59
2.28199999999988,29.66
2.28266666666655,29.54
2.28333333333322,29.63
2.28399999999988,29.63
2.28466666666655,29.71
2.28533333333321,29.86
2.28599999999988,29.83
2.28666666666655,29.69
2.28733333333321,29.69
2.28799999999988,29.68
2.28866666666655,29.52
2.28933333333321,29.71
2.28999999999988,29.65
2.29066666666655,29.7
2.29133333333321,29.93
2.29199999999988,29.82
2.29266666666655,29.7
2.29333333333321,29.59
2.29399999999988,29.73
2.29466666666655,29.62
2.29533333333321,29.87
2.29599999999988,29.66
2.29666666666655,29.56
2.29733333333321,29.67
2.29799999999988,29.67
2.29866666666655,29.72
2.29933333333321,29.67
2.29999999999988,29.72
2.30066666666655,29.75
2.30133333333321,29.5
2.30199999999988,29.72
2.30266666666655,29.5
2.30333333333321,29.58
2.30399999999988,29.72
2.30466666666655,29.64
2.30533333333321,29.66
2.30599999999988,29.69
2.30666666666655,29.86
2.30733333333321,29.8
2.30799999999988,29.61
2.30866666666655,29.82
2.30933333333321,29.64
2.30999999999988,29.6
2.31066666666655,29.58
2.31133333333321,29.64
2.31199999999988,29.56
2.31266666666655,29.58
2.31333333333321,29.68
2.31399999999988,29.49
2.31466666666654,29.71
2.31533333333321,29.51
2.31599999999988,29.96
2.31666666666654,29.62
2.31733333333321,29.46
2.31799999999988,29.67
2.31866666666654,29.63
2.31933333333321,29.63
2.31999999999988,29.62
2.32066666666654,29.63
2.32133333333321,29.63
2.32199999999988,29.63
2.32266666666654,29.64
2.32333333333321,29.65
2.32399999999988,29.6
2.32466666666654,29.59
2.32533333333321,29.81
2.32599999999988,29.88
2.32666666666654,29.5
2.32733333333321,29.74
2.32799999999988,29.42
2.32866666666654,29.58
2.32933333333321,29.63
2.32999999999988,29.75
2.33066666666654,29.83
2.33133333333321,29.73
2.33199999999988,29.63
2.33266666666654,29.6
2.33333333333321,29.47
2.33399999999988,29.57
2.33466666666654,29.59
2.33533333333321,29.48
2.33599999999988,29.56
2.33666666666654,29.44
2.33733333333321,29.6
2.33799999999988,29.54
2.33866666666654,29.61
2.33933333333321,29.68
2.33999999999988,29.61
2.34066666666654,29.58
2.34133333333321,29.41
2.34199999999988,29.61
2.34266666666654,29.54
2.34333333333321,29.59
2.34399999999988,29.47
2.34466666666654,29.62
2.34533333333321,29.51
2.34599999999987,29.56
2.34666666666654,29.45
2.34733333333321,29.62
2.34799999999987,29.45
2.34866666666654,29.63
2.34933333333321,29.38
2.34999999999987,29.66
2.35066666666654,29.57
2.35133333333321,29.44
2.35199999999987,29.62
2.35266666666654,29.73
2.35333333333321,29.65
2.35399999999987,29.58
2.35466666666654,29.61
2.35533333333321,29.59
2.35599999999987,29.52
2.35666666666654,29.54
2.35733333333321,29.61
2.35799999999987,29.46
2.35866666666654,29.6
2.35933333333321,29.71
2.35999999999987,29.61
2.36066666666654,29.71
2.36133333333321,29.62
2.36199999999987,29.51
2.36266666666654,29.62
2.36333333333321,29.67
2.36399999999987,29.58
2.36466666666654,29.64
2.36533333333321,29.51
2.36599999999987,29.57
2.36666666666654,29.7
2.36733333333321,29.32
2.36799999999987,29.81
2.36866666666654,29.6
2.36933333333321,29.36
2.36999999999987,29.65
2.37066666666654,29.4
2.37133333333321,29.58
2.37199999999987,29.6
2.37266666666654,29.47
2.37333333333321,29.72
2.37399999999987,29.54
2.37466666666654,29.49
2.3753333333332,29.8
2.37599999999987,29.7
2.37666666666654,29.55
2.3773333333332,29.59
2.37799999999987,29.61
2.37866666666654,29.58
2.3793333333332,29.87
2.37999999999987,29.63
2.38066666666654,29.54
2.3813333333332,29.58
2.38199999999987,29.55
2.38266666666654,29.54
2.3833333333332,29.6
2.38399999999987,29.59
2.38466666666654,29.58
2.3853333333332,29.58
2.38599999999987,29.87
2.38666666666654,29.6
2.3873333333332,29.6
2.38799999999987,29.65
2.38866666666654,29.74
2.3893333333332,29.61
2.38999999999987,29.8
2.39066666666654,29.58
2.3913333333332,29.57
2.39199999999987,29.58
2.39266666666654,29.61
2.3933333333332,29.62
2.39399999999987,29.65
2.39466666666654,29.61
2.3953333333332,29.58
2.39599999999987,29.62
2.39666666666654,29.63
2.3973333333332,29.75
2.39799999999987,29.68
2.39866666666654,29.75
2.3993333333332,29.65
2.39999999999987,29.73
2.40066666666654,29.58
2.4013333333332,29.62
2.40199999999987,29.72
2.40266666666654,29.69
2.4033333333332,29.55
2.40399999999987,29.6
2.40466666666654,29.58
2.4053333333332,29.59
2.40599999999987,29.92
2.40666666666653,29.65
2.4073333333332,29.69
2.40799999999987,29.54
2.40866666666653,29.68
2.4093333333332,29.66
2.40999999999987,29.68
2.41066666666653,29.62
2.4113333333332,29.76
2.41199999999987,29.57
2.41266666666653,29.73
2.4133333333332,29.64
2.41399999999987,29.7
2.41466666666653,29.72
2.4153333333332,29.55
2.41599999999987,29.75
2.41666666666653,29.58
2.4173333333332,29.68
2.41799999999987,29.63
2.41866666666653,29.62
2.4193333333332,29.65
2.41999999999987,29.79
2.42066666666653,29.77
2.4213333333332,29.59
2.42199999999987,29.68
2.42266666666653,29.65
2.4233333333332,29.64
2.42399999999987,29.64
2.42466666666653,29.59
2.4253333333332,29.67
2.42599999999987,29.57
2.42666666666653,29.61
2.4273333333332,29.63
2.42799999999987,29.66
2.42866666666653,29.58
2.4293333333332,29.8
2.42999999999987,29.63
2.43066666666653,29.65
2.4313333333332,29.63
2.43199999999987,29.67
2.43266666666653,29.85
2.4333333333332,29.57
2.43399999999987,29.68
2.43466666666653,29.62
2.4353333333332,29.65
2.43599999999986,29.59
2.43666666666653,29.53
2.4373333333332,29.84
2.43799999999986,29.62
2.43866666666653,29.65
2.4393333333332,29.51
2.43999999999986,29.67
2.44066666666653,29.6
2.4413333333332,29.45
2.44199999999986,29.72
2.44266666666653,29.79
2.4433333333332,29.5
2.44399999999986,29.57
2.44466666666653,29.49
2.4453333333332,29.67
2.44599999999986,29.7
2.44666666666653,29.93
2.4473333333332,29.51
2.44799999999986,29.54
2.44866666666653,29.65
2.4493333333332,29.55
2.44999999999986,29.47
2.45066666666653,29.71
2.4513333333332,29.44
2.45199999999986,29.62
2.45266666666653,29.74
2.4533333333332,29.52
2.45399999999986,29.62
2.45466666666653,29.66
2.4553333333332,29.58
2.45599999999986,29.78
2.45666666666653,29.59
2.4573333333332,29.7
2.45799999999986,29.58
2.45866666666653,29.62
2.4593333333332,29.93
2.45999999999986,29.72
2.46066666666653,29.82
2.4613333333332,29.64
2.46199999999986,29.75
2.46266666666653,29.46
2.4633333333332,29.57
2.46399999999986,29.63
2.46466666666653,29.76
2.4653333333332,29.76
2.46599999999986,29.66
2.46666666666653,29.65
2.46733333333319,29.67
2.46799999999986,29.66
2.46866666666653,29.64
2.46933333333319,29.62
2.46999999999986,29.69
2.47066666666653,29.64
2.47133333333319,29.64
2.47199999999986,29.6
2.47266666666653,29.46
2.47333333333319,29.67
2.47399999999986,29.46
2.47466666666653,29.79
2.47533333333319,29.57
2.47599999999986,29.48
2.47666666666653,29.6
2.47733333333319,29.6
2.47799999999986,29.58
2.47866666666653,29.69
2.47933333333319,29.65
2.47999999999986,29.42
2.48066666666653,29.69
2.48133333333319,29.59
2.48199999999986,29.58
2.48266666666653,29.56
2.48333333333319,29.57
2.48399999999986,29.57
2.48466666666653,29.65
2.48533333333319,29.44
2.48599999999986,29.73
2.48666666666653,29.63
2.48733333333319,29.61
2.48799999999986,29.84
2.48866666666653,29.66
2.48933333333319,29.49
2.48999999999986,29.59
2.49066666666653,29.64
2.49133333333319,29.7
2.49199999999986,29.43
2.49266666666653,29.64
2.49333333333319,29.62
2.49399999999986,29.63
2.49466666666653,29.48
2.49533333333319,29.7
2.49599999999986,29.55
2.49666666666652,29.74
2.49733333333319,29.57
2.49799999999986,29.46
2.49866666666652,29.64
2.49933333333319,29.74
2.49999999999986,29.44
