"Iteration: Iteration","Physical Time: Physical Time (s)"
20005,0.00333333333333333
20010,0.00666666666666667
20015,0.01
20020,0.0133333333333333
20025,0.0166666666666667
20030,0.02
20035,0.0233333333333333
20040,0.0266666666666667
20045,0.03
20050,0.0333333333333333
20055,0.0366666666666667
20060,0.04
20065,0.0433333333333333
20070,0.0466666666666667
20075,0.05
20080,0.0533333333333333
20085,0.0566666666666667
20090,0.06
20095,0.0633333333333333
20100,0.0666666666666667
20105,0.07
20110,0.0733333333333333
20115,0.0766666666666666
20120,0.08
20125,0.0833333333333333
20130,0.0866666666666666
20135,0.09
20140,0.0933333333333333
20145,0.0966666666666666
20150,0.0999999999999999
20155,0.103333333333333
20160,0.106666666666667
20165,0.11
20170,0.113333333333333
20175,0.116666666666667
20180,0.12
20185,0.123333333333333
20190,0.126666666666667
20195,0.13
20200,0.133333333333333
20205,0.136666666666667
20210,0.14
20215,0.143333333333333
20220,0.146666666666667
20225,0.15
20230,0.153333333333333
20235,0.156666666666667
20240,0.16
20245,0.163333333333333
20250,0.166666666666666
20255,0.17
20260,0.173333333333333
20265,0.176666666666666
20270,0.18
20275,0.183333333333333
20280,0.186666666666666
20285,0.19
20290,0.193333333333333
20295,0.196666666666666
20300,0.2
20305,0.203333333333333
20310,0.206666666666666
20315,0.21
20320,0.213333333333333
20325,0.216666666666666
20330,0.22
20335,0.223333333333333
20340,0.226666666666666
20345,0.23
20350,0.233333333333333
20355,0.236666666666666
20360,0.24
20365,0.243333333333333
20370,0.246666666666666
20375,0.25
20380,0.253333333333333
20385,0.256666666666666
20390,0.26
20395,0.263333333333333
20400,0.266666666666666
20405,0.27
20410,0.273333333333333
20415,0.276666666666667
20420,0.28
20425,0.283333333333333
20430,0.286666666666667
20435,0.29
20440,0.293333333333333
20445,0.296666666666667
20450,0.3
20455,0.303333333333333
20460,0.306666666666667
20465,0.31
20470,0.313333333333333
20475,0.316666666666667
20480,0.32
20485,0.323333333333333
20490,0.326666666666667
20495,0.33
20500,0.333333333333334
20505,0.336666666666667
20510,0.34
20515,0.343333333333334
20520,0.346666666666667
20525,0.35
20530,0.353333333333334
20535,0.356666666666667
20540,0.36
20545,0.363333333333334
20550,0.366666666666667
20555,0.37
20560,0.373333333333334
20565,0.376666666666667
20570,0.380000000000001
20575,0.383333333333334
20580,0.386666666666667
20585,0.390000000000001
20590,0.393333333333334
20595,0.396666666666667
20600,0.400000000000001
20605,0.403333333333334
20610,0.406666666666667
20615,0.410000000000001
20620,0.413333333333334
20625,0.416666666666667
20630,0.420000000000001
20635,0.423333333333334
20640,0.426666666666667
20645,0.430000000000001
20650,0.433333333333334
20655,0.436666666666668
20660,0.440000000000001
20665,0.443333333333334
20670,0.446666666666668
20675,0.450000000000001
20680,0.453333333333334
20685,0.456666666666668
20690,0.460000000000001
20695,0.463333333333334
20700,0.466666666666668
20705,0.470000000000001
20710,0.473333333333334
20715,0.476666666666668
20720,0.480000000000001
20725,0.483333333333335
20730,0.486666666666668
20735,0.490000000000001
20740,0.493333333333335
20745,0.496666666666668
20750,0.500000000000001
20755,0.503333333333335
20760,0.506666666666668
20765,0.510000000000001
20770,0.513333333333334
20775,0.516666666666668
20780,0.520000000000001
20785,0.523333333333334
20790,0.526666666666668
20795,0.530000000000001
20800,0.533333333333334
20805,0.536666666666668
20810,0.540000000000001
20815,0.543333333333334
20820,0.546666666666667
20825,0.550000000000001
20830,0.553333333333334
20835,0.556666666666667
20840,0.560000000000001
20845,0.563333333333334
20850,0.566666666666667
20855,0.570000000000001
20860,0.573333333333334
20865,0.576666666666667
20870,0.58
20875,0.583333333333334
20880,0.586666666666667
20885,0.59
20890,0.593333333333334
20895,0.596666666666667
20900,0.6
20905,0.603333333333333
20910,0.606666666666667
20915,0.61
20920,0.613333333333333
20925,0.616666666666667
20930,0.62
20935,0.623333333333333
20940,0.626666666666667
20945,0.63
20950,0.633333333333333
20955,0.636666666666666
20960,0.64
20965,0.643333333333333
20970,0.646666666666666
20975,0.65
20980,0.653333333333333
20985,0.656666666666666
20990,0.66
20995,0.663333333333333
21000,0.666666666666666
21005,0.669999999999999
21010,0.673333333333333
21015,0.676666666666666
21020,0.679999999999999
21025,0.683333333333333
21030,0.686666666666666
21035,0.689999999999999
21040,0.693333333333333
21045,0.696666666666666
21050,0.699999999999999
21055,0.703333333333332
21060,0.706666666666666
21065,0.709999999999999
21070,0.713333333333332
21075,0.716666666666666
21080,0.719999999999999
21085,0.723333333333332
21090,0.726666666666666
21095,0.729999999999999
21100,0.733333333333332
21105,0.736666666666665
21110,0.739999999999999
21115,0.743333333333332
21120,0.746666666666665
21125,0.749999999999999
21130,0.753333333333332
21135,0.756666666666665
21140,0.759999999999999
21145,0.763333333333332
21150,0.766666666666665
21155,0.769999999999998
21160,0.773333333333332
21165,0.776666666666665
21170,0.779999999999998
21175,0.783333333333332
21180,0.786666666666665
21185,0.789999999999998
21190,0.793333333333332
21195,0.796666666666665
21200,0.799999999999998
21205,0.803333333333331
21210,0.806666666666665
21215,0.809999999999998
21220,0.813333333333331
21225,0.816666666666665
21230,0.819999999999998
21235,0.823333333333331
21240,0.826666666666665
21245,0.829999999999998
21250,0.833333333333331
21255,0.836666666666664
21260,0.839999999999998
21265,0.843333333333331
21270,0.846666666666664
21275,0.849999999999998
21280,0.853333333333331
21285,0.856666666666664
21290,0.859999999999998
21295,0.863333333333331
21300,0.866666666666664
21305,0.869999999999997
21310,0.873333333333331
21315,0.876666666666664
21320,0.879999999999997
21325,0.883333333333331
21330,0.886666666666664
21335,0.889999999999997
21340,0.893333333333331
21345,0.896666666666664
21350,0.899999999999997
21355,0.90333333333333
21360,0.906666666666664
21365,0.909999999999997
21370,0.91333333333333
21375,0.916666666666664
21380,0.919999999999997
21385,0.92333333333333
21390,0.926666666666664
21395,0.929999999999997
21400,0.93333333333333
21405,0.936666666666663
21410,0.939999999999997
21415,0.94333333333333
21420,0.946666666666663
21425,0.949999999999997
21430,0.95333333333333
21435,0.956666666666663
21440,0.959999999999997
21445,0.96333333333333
21450,0.966666666666663
21455,0.969999999999996
21460,0.97333333333333
21465,0.976666666666663
21470,0.979999999999996
21475,0.98333333333333
21480,0.986666666666663
21485,0.989999999999996
21490,0.99333333333333
21495,0.996666666666663
21500,0.999999999999996
21505,1.00333333333333
21510,1.00666666666666
21515,1.01
21520,1.01333333333333
21525,1.01666666666666
21530,1.02
21535,1.02333333333333
21540,1.02666666666666
21545,1.03
21550,1.03333333333333
21555,1.03666666666666
21560,1.04
21565,1.04333333333333
21570,1.04666666666666
21575,1.05
21580,1.05333333333333
21585,1.05666666666666
21590,1.06
21595,1.06333333333333
21600,1.06666666666666
21605,1.07
21610,1.07333333333333
21615,1.07666666666666
21620,1.08
21625,1.08333333333333
21630,1.08666666666666
21635,1.09
21640,1.09333333333333
21645,1.09666666666666
21650,1.1
21655,1.10333333333333
21660,1.10666666666667
21665,1.11
21670,1.11333333333333
21675,1.11666666666667
21680,1.12
21685,1.12333333333333
21690,1.12666666666667
21695,1.13
21700,1.13333333333333
21705,1.13666666666667
21710,1.14
21715,1.14333333333333
21720,1.14666666666667
21725,1.15
21730,1.15333333333333
21735,1.15666666666667
21740,1.16
21745,1.16333333333333
21750,1.16666666666667
21755,1.17
21760,1.17333333333333
21765,1.17666666666667
21770,1.18
21775,1.18333333333333
21780,1.18666666666667
21785,1.19
21790,1.19333333333333
21795,1.19666666666667
21800,1.2
21805,1.20333333333333
21810,1.20666666666667
21815,1.21
21820,1.21333333333333
21825,1.21666666666667
21830,1.22
21835,1.22333333333333
21840,1.22666666666667
21845,1.23
21850,1.23333333333333
21855,1.23666666666667
21860,1.24
21865,1.24333333333333
21870,1.24666666666667
21875,1.25
21880,1.25333333333334
21885,1.25666666666667
21890,1.26
21895,1.26333333333334
21900,1.26666666666667
21905,1.27
21910,1.27333333333334
21915,1.27666666666667
21920,1.28
21925,1.28333333333334
21930,1.28666666666667
21935,1.29
21940,1.29333333333334
21945,1.29666666666667
21950,1.3
21955,1.30333333333334
21960,1.30666666666667
21965,1.31
21970,1.31333333333334
21975,1.31666666666667
21980,1.32
21985,1.32333333333334
21990,1.32666666666667
21995,1.33
22000,1.33333333333334
22005,1.33666666666667
22010,1.34
22015,1.34333333333334
22020,1.34666666666667
22025,1.35
22030,1.35333333333334
22035,1.35666666666667
22040,1.36
22045,1.36333333333334
22050,1.36666666666667
22055,1.37
22060,1.37333333333334
22065,1.37666666666667
22070,1.38
22075,1.38333333333334
22080,1.38666666666667
22085,1.39000000000001
22090,1.39333333333334
22095,1.39666666666667
22100,1.40000000000001
22105,1.40333333333334
22110,1.40666666666667
22115,1.41000000000001
22120,1.41333333333334
22125,1.41666666666667
22130,1.42000000000001
22135,1.42333333333334
22140,1.42666666666667
22145,1.43000000000001
22150,1.43333333333334
22155,1.43666666666667
22160,1.44000000000001
22165,1.44333333333334
22170,1.44666666666667
22175,1.45000000000001
22180,1.45333333333334
22185,1.45666666666667
22190,1.46000000000001
22195,1.46333333333334
22200,1.46666666666667
22205,1.47000000000001
22210,1.47333333333334
22215,1.47666666666667
22220,1.48000000000001
22225,1.48333333333334
22230,1.48666666666667
22235,1.49000000000001
22240,1.49333333333334
22245,1.49666666666667
22250,1.50000000000001
22255,1.50333333333334
22260,1.50666666666667
22265,1.51000000000001
22270,1.51333333333334
22275,1.51666666666667
22280,1.52000000000001
22285,1.52333333333334
22290,1.52666666666667
22295,1.53000000000001
22300,1.53333333333334
22305,1.53666666666668
22310,1.54000000000001
22315,1.54333333333334
22320,1.54666666666668
22325,1.55000000000001
22330,1.55333333333334
22335,1.55666666666668
22340,1.56000000000001
22345,1.56333333333334
22350,1.56666666666668
22355,1.57000000000001
22360,1.57333333333334
22365,1.57666666666668
22370,1.58000000000001
22375,1.58333333333334
22380,1.58666666666668
22385,1.59000000000001
22390,1.59333333333334
22395,1.59666666666668
22400,1.60000000000001
22405,1.60333333333334
22410,1.60666666666668
22415,1.61000000000001
22420,1.61333333333334
22425,1.61666666666668
22430,1.62000000000001
22435,1.62333333333334
22440,1.62666666666668
22445,1.63000000000001
22450,1.63333333333334
22455,1.63666666666668
22460,1.64000000000001
22465,1.64333333333334
22470,1.64666666666668
22475,1.65000000000001
22480,1.65333333333334
22485,1.65666666666668
22490,1.66000000000001
22495,1.66333333333334
22500,1.66666666666668
22505,1.67000000000001
22510,1.67333333333334
22515,1.67666666666668
22520,1.68000000000001
22525,1.68333333333335
22530,1.68666666666668
22535,1.69000000000001
22540,1.69333333333335
22545,1.69666666666668
22550,1.70000000000001
22555,1.70333333333335
22560,1.70666666666668
22565,1.71000000000001
22570,1.71333333333335
22575,1.71666666666668
22580,1.72000000000001
22585,1.72333333333335
22590,1.72666666666668
22595,1.73000000000001
22600,1.73333333333335
22605,1.73666666666668
22610,1.74000000000001
22615,1.74333333333335
22620,1.74666666666668
22625,1.75000000000001
22630,1.75333333333335
22635,1.75666666666668
22640,1.76000000000001
22645,1.76333333333335
22650,1.76666666666668
22655,1.77000000000001
22660,1.77333333333335
22665,1.77666666666668
22670,1.78000000000001
22675,1.78333333333335
22680,1.78666666666668
22685,1.79000000000001
22690,1.79333333333335
22695,1.79666666666668
22700,1.80000000000001
22705,1.80333333333335
22710,1.80666666666668
22715,1.81000000000001
22720,1.81333333333335
22725,1.81666666666668
22730,1.82000000000001
22735,1.82333333333335
22740,1.82666666666668
22745,1.83000000000002
22750,1.83333333333335
22755,1.83666666666668
22760,1.84000000000002
22765,1.84333333333335
22770,1.84666666666668
22775,1.85000000000002
22780,1.85333333333335
22785,1.85666666666668
22790,1.86000000000002
22795,1.86333333333335
22800,1.86666666666668
22805,1.87000000000002
22810,1.87333333333335
22815,1.87666666666668
22820,1.88000000000002
22825,1.88333333333335
22830,1.88666666666668
22835,1.89000000000002
22840,1.89333333333335
22845,1.89666666666668
22850,1.90000000000002
22855,1.90333333333335
22860,1.90666666666668
22865,1.91000000000002
22870,1.91333333333335
22875,1.91666666666668
22880,1.92000000000002
22885,1.92333333333335
22890,1.92666666666668
22895,1.93000000000002
22900,1.93333333333335
22905,1.93666666666668
22910,1.94000000000002
22915,1.94333333333335
22920,1.94666666666668
22925,1.95000000000002
22930,1.95333333333335
22935,1.95666666666668
22940,1.96000000000002
22945,1.96333333333335
22950,1.96666666666668
22955,1.97000000000002
22960,1.97333333333335
22965,1.97666666666669
22970,1.98000000000002
22975,1.98333333333335
22980,1.98666666666669
22985,1.99000000000002
22990,1.99333333333335
22995,1.99666666666669
23000,2.00000000000002
23005,2.00333333333335
23010,2.00666666666669
23015,2.01000000000002
23020,2.01333333333335
23025,2.01666666666669
23030,2.02000000000002
23035,2.02333333333335
23040,2.02666666666669
23045,2.03000000000002
23050,2.03333333333335
23055,2.03666666666669
23060,2.04000000000002
23065,2.04333333333335
23070,2.04666666666669
23075,2.05000000000002
23080,2.05333333333335
23085,2.05666666666669
23090,2.06000000000002
23095,2.06333333333335
23100,2.06666666666669
23105,2.07000000000002
23110,2.07333333333335
23115,2.07666666666669
23120,2.08000000000002
23125,2.08333333333335
23130,2.08666666666669
23135,2.09000000000002
23140,2.09333333333335
23145,2.09666666666669
23150,2.10000000000002
23155,2.10333333333335
23160,2.10666666666669
23165,2.11000000000002
23170,2.11333333333336
23175,2.11666666666669
23180,2.12000000000002
23185,2.12333333333336
23190,2.12666666666669
23195,2.13000000000002
23200,2.13333333333336
23205,2.13666666666669
23210,2.14000000000002
23215,2.14333333333336
23220,2.14666666666669
23225,2.15000000000002
23230,2.15333333333336
23235,2.15666666666669
23240,2.16000000000002
23245,2.16333333333336
23250,2.16666666666669
23255,2.17000000000002
23260,2.17333333333336
23265,2.17666666666669
23270,2.18000000000002
23275,2.18333333333336
23280,2.18666666666669
23285,2.19000000000002
23290,2.19333333333336
23295,2.19666666666669
23300,2.20000000000002
23305,2.20333333333336
23310,2.20666666666669
23315,2.21000000000002
23320,2.21333333333336
23325,2.21666666666669
23330,2.22000000000002
23335,2.22333333333336
23340,2.22666666666669
23345,2.23000000000002
23350,2.23333333333336
23355,2.23666666666669
23360,2.24000000000002
23365,2.24333333333336
23370,2.24666666666669
23375,2.25000000000002
23380,2.25333333333336
23385,2.25666666666669
23390,2.26000000000003
23395,2.26333333333336
23400,2.26666666666669
23405,2.27000000000003
23410,2.27333333333336
23415,2.27666666666669
23420,2.28000000000003
23425,2.28333333333336
23430,2.28666666666669
23435,2.29000000000003
23440,2.29333333333336
23445,2.29666666666669
23450,2.30000000000003
23455,2.30333333333336
23460,2.30666666666669
23465,2.31000000000003
23470,2.31333333333336
23475,2.31666666666669
23480,2.32000000000003
23485,2.32333333333336
23490,2.32666666666669
23495,2.33000000000003
23500,2.33333333333336
23505,2.33666666666669
23510,2.34000000000003
23515,2.34333333333336
23520,2.34666666666669
23525,2.35000000000003
23530,2.35333333333336
23535,2.35666666666669
23540,2.36000000000003
23545,2.36333333333336
23550,2.36666666666669
23555,2.37000000000003
23560,2.37333333333336
23565,2.37666666666669
23570,2.38000000000003
23575,2.38333333333336
23580,2.38666666666669
23585,2.39000000000003
23590,2.39333333333336
23595,2.39666666666669
23600,2.40000000000003
23605,2.40333333333336
23610,2.4066666666667
23615,2.41000000000003
23620,2.41333333333336
23625,2.4166666666667
23630,2.42000000000003
23635,2.42333333333336
23640,2.4266666666667
23645,2.43000000000003
23650,2.43333333333336
23655,2.4366666666667
23660,2.44000000000003
23665,2.44333333333336
23670,2.4466666666667
23675,2.45000000000003
23680,2.45333333333336
23685,2.4566666666667
23690,2.46000000000003
23695,2.46333333333336
23700,2.4666666666667
23705,2.47000000000003
23710,2.47333333333336
23715,2.4766666666667
23720,2.48000000000003
23725,2.48333333333336
23730,2.4866666666667
23735,2.49000000000003
23740,2.49333333333336
23745,2.4966666666667
23750,2.50000000000003
23755,2.50333333333336
23760,2.5066666666667
23765,2.51000000000003
23770,2.51333333333336
23775,2.5166666666667
23780,2.52000000000003
23785,2.52333333333336
23790,2.5266666666667
23795,2.53000000000003
23800,2.53333333333336
23805,2.5366666666667
23810,2.54000000000003
23815,2.54333333333336
23820,2.5466666666667
23825,2.55000000000003
23830,2.55333333333337
23835,2.5566666666667
23840,2.56000000000003
23845,2.56333333333337
23850,2.5666666666667
23855,2.57000000000003
23860,2.57333333333337
23865,2.5766666666667
23870,2.58000000000003
23875,2.58333333333337
23880,2.5866666666667
23885,2.59000000000003
23890,2.59333333333337
23895,2.5966666666667
23900,2.60000000000003
23905,2.60333333333337
23910,2.6066666666667
23915,2.61000000000003
23920,2.61333333333337
23925,2.6166666666667
23930,2.62000000000003
23935,2.62333333333337
23940,2.6266666666667
23945,2.63000000000003
23950,2.63333333333337
23955,2.6366666666667
23960,2.64000000000003
23965,2.64333333333337
23970,2.6466666666667
23975,2.65000000000003
23980,2.65333333333337
23985,2.6566666666667
23990,2.66000000000003
23995,2.66333333333337
24000,2.6666666666667
24005,2.67000000000003
24010,2.67333333333337
24015,2.6766666666667
24020,2.68000000000003
24025,2.68333333333337
24030,2.6866666666667
24035,2.69000000000004
24040,2.69333333333337
24045,2.6966666666667
24050,2.70000000000004
24055,2.70333333333337
24060,2.7066666666667
24065,2.71000000000004
24070,2.71333333333337
24075,2.7166666666667
24080,2.72000000000004
24085,2.72333333333337
24090,2.7266666666667
24095,2.73000000000004
24100,2.73333333333337
24105,2.7366666666667
24110,2.74000000000004
24115,2.74333333333337
24120,2.7466666666667
24125,2.75000000000004
24130,2.75333333333337
24135,2.7566666666667
24140,2.76000000000004
24145,2.76333333333337
24150,2.7666666666667
24155,2.77000000000004
24160,2.77333333333337
24165,2.7766666666667
24170,2.78000000000004
24175,2.78333333333337
24180,2.7866666666667
24185,2.79000000000004
24190,2.79333333333337
24195,2.7966666666667
24200,2.80000000000004
24205,2.80333333333337
24210,2.8066666666667
24215,2.81000000000004
24220,2.81333333333337
24225,2.8166666666667
24230,2.82000000000004
24235,2.82333333333337
24240,2.8266666666667
24245,2.83000000000004
24250,2.83333333333337
24255,2.83666666666671
24260,2.84000000000004
24265,2.84333333333337
24270,2.84666666666671
24275,2.85000000000004
24280,2.85333333333337
24285,2.85666666666671
24290,2.86000000000004
24295,2.86333333333337
24300,2.86666666666671
24305,2.87000000000004
24310,2.87333333333337
24315,2.87666666666671
24320,2.88000000000004
24325,2.88333333333337
24330,2.88666666666671
24335,2.89000000000004
24340,2.89333333333337
24345,2.89666666666671
24350,2.90000000000004
24355,2.90333333333337
24360,2.90666666666671
24365,2.91000000000004
24370,2.91333333333337
24375,2.91666666666671
24380,2.92000000000004
24385,2.92333333333337
24390,2.92666666666671
24395,2.93000000000004
24400,2.93333333333337
24405,2.93666666666671
24410,2.94000000000004
24415,2.94333333333337
24420,2.94666666666671
24425,2.95000000000004
24430,2.95333333333337
24435,2.95666666666671
24440,2.96000000000004
24445,2.96333333333337
24450,2.96666666666671
24455,2.97000000000004
24460,2.97333333333337
24465,2.97666666666671
24470,2.98000000000004
24475,2.98333333333338
24480,2.98666666666671
24485,2.99000000000004
24490,2.99333333333338
24495,2.99666666666671
24500,3.00000000000004
24505,3.00333333333338
24510,3.00666666666671
24515,3.01000000000004
24520,3.01333333333338
24525,3.01666666666671
24530,3.02000000000004
24535,3.02333333333338
24540,3.02666666666671
24545,3.03000000000004
24550,3.03333333333338
24555,3.03666666666671
24560,3.04000000000004
24565,3.04333333333338
24570,3.04666666666671
24575,3.05000000000004
24580,3.05333333333338
24585,3.05666666666671
24590,3.06000000000004
24595,3.06333333333338
24600,3.06666666666671
24605,3.07000000000004
24610,3.07333333333338
24615,3.07666666666671
24620,3.08000000000004
24625,3.08333333333338
24630,3.08666666666671
24635,3.09000000000004
24640,3.09333333333338
24645,3.09666666666671
24650,3.10000000000004
24655,3.10333333333338
24660,3.10666666666671
24665,3.11000000000004
24670,3.11333333333338
24675,3.11666666666671
24680,3.12000000000004
24685,3.12333333333338
24690,3.12666666666671
24695,3.13000000000005
24700,3.13333333333338
24705,3.13666666666671
24710,3.14000000000005
24715,3.14333333333338
24720,3.14666666666671
24725,3.15000000000005
24730,3.15333333333338
24735,3.15666666666671
24740,3.16000000000005
24745,3.16333333333338
24750,3.16666666666671
24755,3.17000000000005
24760,3.17333333333338
24765,3.17666666666671
24770,3.18000000000005
24775,3.18333333333338
24780,3.18666666666671
24785,3.19000000000005
24790,3.19333333333338
24795,3.19666666666671
24800,3.20000000000005
24805,3.20333333333338
24810,3.20666666666671
24815,3.21000000000005
24820,3.21333333333338
24825,3.21666666666671
24830,3.22000000000005
24835,3.22333333333338
24840,3.22666666666671
24845,3.23000000000005
24850,3.23333333333338
24855,3.23666666666671
24860,3.24000000000005
24865,3.24333333333338
24870,3.24666666666671
24875,3.25000000000005
24880,3.25333333333338
24885,3.25666666666671
24890,3.26000000000005
24895,3.26333333333338
24900,3.26666666666672
24905,3.27000000000005
24910,3.27333333333338
24915,3.27666666666672
24920,3.28000000000005
24925,3.28333333333338
24930,3.28666666666672
24935,3.29000000000005
24940,3.29333333333338
24945,3.29666666666672
24950,3.30000000000005
24955,3.30333333333338
24960,3.30666666666672
24965,3.31000000000005
24970,3.31333333333338
24975,3.31666666666672
24980,3.32000000000005
24985,3.32333333333338
24990,3.32666666666672
24995,3.33000000000005
25000,3.33333333333338
25005,3.33666666666672
25010,3.34000000000005
25015,3.34333333333338
25020,3.34666666666672
25025,3.35000000000005
25030,3.35333333333338
25035,3.35666666666672
25040,3.36000000000005
25045,3.36333333333338
25050,3.36666666666672
25055,3.37000000000005
25060,3.37333333333338
25065,3.37666666666672
25070,3.38000000000005
25075,3.38333333333338
25080,3.38666666666672
25085,3.39000000000005
25090,3.39333333333338
25095,3.39666666666672
25100,3.40000000000005
25105,3.40333333333338
25110,3.40666666666672
25115,3.41000000000005
25120,3.41333333333339
25125,3.41666666666672
25130,3.42000000000005
25135,3.42333333333339
25140,3.42666666666672
25145,3.43000000000005
25150,3.43333333333339
25155,3.43666666666672
25160,3.44000000000005
25165,3.44333333333339
25170,3.44666666666672
25175,3.45000000000005
25180,3.45333333333339
25185,3.45666666666672
25190,3.46000000000005
25195,3.46333333333339
25200,3.46666666666672
25205,3.47000000000005
25210,3.47333333333339
25215,3.47666666666672
25220,3.48000000000005
25225,3.48333333333339
25230,3.48666666666672
25235,3.49000000000005
25240,3.49333333333339
25245,3.49666666666672
25250,3.50000000000005
25255,3.50333333333339
25260,3.50666666666672
25265,3.51000000000005
25270,3.51333333333339
25275,3.51666666666672
25280,3.52000000000005
25285,3.52333333333339
25290,3.52666666666672
25295,3.53000000000005
25300,3.53333333333339
25305,3.53666666666672
25310,3.54000000000005
25315,3.54333333333339
25320,3.54666666666672
25325,3.55000000000005
25330,3.55333333333339
25335,3.55666666666672
25340,3.56000000000006
25345,3.56333333333339
25350,3.56666666666672
25355,3.57000000000006
25360,3.57333333333339
25365,3.57666666666672
25370,3.58000000000006
25375,3.58333333333339
25380,3.58666666666672
25385,3.59000000000006
25390,3.59333333333339
25395,3.59666666666672
25400,3.60000000000006
25405,3.60333333333339
25410,3.60666666666672
25415,3.61000000000006
25420,3.61333333333339
25425,3.61666666666672
25430,3.62000000000006
25435,3.62333333333339
25440,3.62666666666672
25445,3.63000000000006
25450,3.63333333333339
25455,3.63666666666672
25460,3.64000000000006
25465,3.64333333333339
25470,3.64666666666672
25475,3.65000000000006
25480,3.65333333333339
25485,3.65666666666672
25490,3.66000000000006
25495,3.66333333333339
25500,3.66666666666672
25505,3.67000000000006
25510,3.67333333333339
25515,3.67666666666672
25520,3.68000000000006
25525,3.68333333333339
25530,3.68666666666672
25535,3.69000000000006
25540,3.69333333333339
25545,3.69666666666672
25550,3.70000000000006
25555,3.70333333333339
25560,3.70666666666673
25565,3.71000000000006
25570,3.71333333333339
25575,3.71666666666673
25580,3.72000000000006
25585,3.72333333333339
25590,3.72666666666673
25595,3.73000000000006
25600,3.73333333333339
25605,3.73666666666673
25610,3.74000000000006
25615,3.74333333333339
25620,3.74666666666673
25625,3.75000000000006
25630,3.75333333333339
25635,3.75666666666673
25640,3.76000000000006
25645,3.76333333333339
25650,3.76666666666673
25655,3.77000000000006
25660,3.77333333333339
25665,3.77666666666673
25670,3.78000000000006
25675,3.78333333333339
25680,3.78666666666673
25685,3.79000000000006
25690,3.79333333333339
25695,3.79666666666673
25700,3.80000000000006
25705,3.80333333333339
25710,3.80666666666673
25715,3.81000000000006
25720,3.81333333333339
25725,3.81666666666673
25730,3.82000000000006
25735,3.82333333333339
25740,3.82666666666673
25745,3.83000000000006
25750,3.83333333333339
25755,3.83666666666673
25760,3.84000000000006
25765,3.84333333333339
25770,3.84666666666673
25775,3.85000000000006
25780,3.8533333333334
25785,3.85666666666673
25790,3.86000000000006
25795,3.8633333333334
25800,3.86666666666673
25805,3.87000000000006
25810,3.8733333333334
25815,3.87666666666673
25820,3.88000000000006
25825,3.8833333333334
25830,3.88666666666673
25835,3.89000000000006
25840,3.8933333333334
25845,3.89666666666673
25850,3.90000000000006
25855,3.9033333333334
25860,3.90666666666673
25865,3.91000000000006
25870,3.9133333333334
25875,3.91666666666673
25880,3.92000000000006
25885,3.9233333333334
25890,3.92666666666673
25895,3.93000000000006
25900,3.9333333333334
25905,3.93666666666673
25910,3.94000000000006
25915,3.9433333333334
25920,3.94666666666673
25925,3.95000000000006
25930,3.9533333333334
25935,3.95666666666673
25940,3.96000000000006
25945,3.9633333333334
25950,3.96666666666673
25955,3.97000000000006
25960,3.9733333333334
25965,3.97666666666673
25970,3.98000000000006
25975,3.9833333333334
25980,3.98666666666673
25985,3.99000000000007
25990,3.9933333333334
25995,3.99666666666673
26000,4.00000000000006
26005,4.0033333333334
26010,4.00666666666673
26015,4.01000000000006
26020,4.0133333333334
26025,4.01666666666673
26030,4.02000000000006
26035,4.0233333333334
26040,4.02666666666673
26045,4.03000000000006
26050,4.03333333333339
26055,4.03666666666673
26060,4.04000000000006
26065,4.04333333333339
26070,4.04666666666673
26075,4.05000000000006
26080,4.05333333333339
26085,4.05666666666673
26090,4.06000000000006
26095,4.06333333333339
26100,4.06666666666672
26105,4.07000000000006
26110,4.07333333333339
26115,4.07666666666672
26120,4.08000000000006
26125,4.08333333333339
26130,4.08666666666672
26135,4.09000000000005
26140,4.09333333333339
26145,4.09666666666672
26150,4.10000000000005
26155,4.10333333333339
26160,4.10666666666672
26165,4.11000000000005
26170,4.11333333333339
26175,4.11666666666672
26180,4.12000000000005
26185,4.12333333333338
26190,4.12666666666672
26195,4.13000000000005
26200,4.13333333333338
26205,4.13666666666672
26210,4.14000000000005
26215,4.14333333333338
26220,4.14666666666672
26225,4.15000000000005
26230,4.15333333333338
26235,4.15666666666671
26240,4.16000000000005
26245,4.16333333333338
26250,4.16666666666671
26255,4.17000000000005
26260,4.17333333333338
26265,4.17666666666671
26270,4.18000000000005
26275,4.18333333333338
26280,4.18666666666671
26285,4.19000000000004
26290,4.19333333333338
26295,4.19666666666671
26300,4.20000000000004
26305,4.20333333333338
26310,4.20666666666671
26315,4.21000000000004
26320,4.21333333333337
26325,4.21666666666671
26330,4.22000000000004
26335,4.22333333333337
26340,4.22666666666671
26345,4.23000000000004
26350,4.23333333333337
26355,4.23666666666671
26360,4.24000000000004
26365,4.24333333333337
26370,4.2466666666667
26375,4.25000000000004
26380,4.25333333333337
26385,4.2566666666667
26390,4.26000000000004
26395,4.26333333333337
26400,4.2666666666667
26405,4.27000000000004
26410,4.27333333333337
26415,4.2766666666667
26420,4.28000000000003
26425,4.28333333333337
26430,4.2866666666667
26435,4.29000000000003
26440,4.29333333333337
26445,4.2966666666667
26450,4.30000000000003
26455,4.30333333333336
26460,4.3066666666667
26465,4.31000000000003
26470,4.31333333333336
26475,4.3166666666667
26480,4.32000000000003
26485,4.32333333333336
26490,4.3266666666667
26495,4.33000000000003
26500,4.33333333333336
26505,4.33666666666669
26510,4.34000000000003
26515,4.34333333333336
26520,4.34666666666669
26525,4.35000000000003
26530,4.35333333333336
26535,4.35666666666669
26540,4.36000000000003
26545,4.36333333333336
26550,4.36666666666669
26555,4.37000000000002
26560,4.37333333333336
26565,4.37666666666669
26570,4.38000000000002
26575,4.38333333333336
26580,4.38666666666669
26585,4.39000000000002
26590,4.39333333333335
26595,4.39666666666669
26600,4.40000000000002
26605,4.40333333333335
26610,4.40666666666669
26615,4.41000000000002
26620,4.41333333333335
26625,4.41666666666669
26630,4.42000000000002
26635,4.42333333333335
26640,4.42666666666668
26645,4.43000000000002
26650,4.43333333333335
26655,4.43666666666668
26660,4.44000000000002
26665,4.44333333333335
26670,4.44666666666668
26675,4.45000000000002
26680,4.45333333333335
26685,4.45666666666668
26690,4.46000000000001
26695,4.46333333333335
26700,4.46666666666668
26705,4.47000000000001
26710,4.47333333333335
26715,4.47666666666668
26720,4.48000000000001
26725,4.48333333333334
26730,4.48666666666668
26735,4.49000000000001
26740,4.49333333333334
26745,4.49666666666668
26750,4.50000000000001
26755,4.50333333333334
26760,4.50666666666668
26765,4.51000000000001
26770,4.51333333333334
26775,4.51666666666667
26780,4.52000000000001
26785,4.52333333333334
26790,4.52666666666667
26795,4.53000000000001
26800,4.53333333333334
26805,4.53666666666667
26810,4.54000000000001
26815,4.54333333333334
26820,4.54666666666667
26825,4.55
26830,4.55333333333334
26835,4.55666666666667
26840,4.56
26845,4.56333333333334
26850,4.56666666666667
26855,4.57
26860,4.57333333333334
26865,4.57666666666667
26870,4.58
26875,4.58333333333333
26880,4.58666666666667
26885,4.59
26890,4.59333333333333
26895,4.59666666666667
26900,4.6
26905,4.60333333333333
26910,4.60666666666666
26915,4.61
26920,4.61333333333333
26925,4.61666666666666
26930,4.62
26935,4.62333333333333
26940,4.62666666666666
26945,4.63
26950,4.63333333333333
26955,4.63666666666666
26960,4.63999999999999
26965,4.64333333333333
26970,4.64666666666666
26975,4.64999999999999
26980,4.65333333333333
26985,4.65666666666666
26990,4.65999999999999
26995,4.66333333333333
27000,4.66666666666666
27005,4.66999999999999
27010,4.67333333333332
27015,4.67666666666666
27020,4.67999999999999
27025,4.68333333333332
27030,4.68666666666666
27035,4.68999999999999
27040,4.69333333333332
27045,4.69666666666665
27050,4.69999999999999
27055,4.70333333333332
27060,4.70666666666665
27065,4.70999999999999
27070,4.71333333333332
27075,4.71666666666665
27080,4.71999999999999
27085,4.72333333333332
27090,4.72666666666665
27095,4.72999999999998
27100,4.73333333333332
27105,4.73666666666665
27110,4.73999999999998
27115,4.74333333333332
27120,4.74666666666665
27125,4.74999999999998
27130,4.75333333333332
27135,4.75666666666665
27140,4.75999999999998
27145,4.76333333333331
27150,4.76666666666665
27155,4.76999999999998
27160,4.77333333333331
27165,4.77666666666665
27170,4.77999999999998
27175,4.78333333333331
27180,4.78666666666664
27185,4.78999999999998
27190,4.79333333333331
27195,4.79666666666664
27200,4.79999999999998
27205,4.80333333333331
27210,4.80666666666664
27215,4.80999999999998
27220,4.81333333333331
27225,4.81666666666664
27230,4.81999999999997
27235,4.82333333333331
27240,4.82666666666664
27245,4.82999999999997
27250,4.83333333333331
27255,4.83666666666664
27260,4.83999999999997
27265,4.84333333333331
27270,4.84666666666664
27275,4.84999999999997
27280,4.8533333333333
27285,4.85666666666664
27290,4.85999999999997
27295,4.8633333333333
27300,4.86666666666664
27305,4.86999999999997
27310,4.8733333333333
27315,4.87666666666663
27320,4.87999999999997
27325,4.8833333333333
27330,4.88666666666663
27335,4.88999999999997
27340,4.8933333333333
27345,4.89666666666663
27350,4.89999999999997
27355,4.9033333333333
27360,4.90666666666663
27365,4.90999999999996
27370,4.9133333333333
27375,4.91666666666663
27380,4.91999999999996
27385,4.9233333333333
27390,4.92666666666663
27395,4.92999999999996
27400,4.9333333333333
27405,4.93666666666663
27410,4.93999999999996
27415,4.94333333333329
27420,4.94666666666663
27425,4.94999999999996
27430,4.95333333333329
27435,4.95666666666663
27440,4.95999999999996
27445,4.96333333333329
27450,4.96666666666663
27455,4.96999999999996
27460,4.97333333333329
27465,4.97666666666662
27470,4.97999999999996
27475,4.98333333333329
27480,4.98666666666662
27485,4.98999999999996
27490,4.99333333333329
27495,4.99666666666662
27500,4.99999999999995
27505,5.00333333333329
27510,5.00666666666662
27515,5.00999999999995
27520,5.01333333333329
27525,5.01666666666662
27530,5.01999999999995
27535,5.02333333333329
27540,5.02666666666662
27545,5.02999999999995
27550,5.03333333333328
27555,5.03666666666662
27560,5.03999999999995
27565,5.04333333333328
27570,5.04666666666662
27575,5.04999999999995
27580,5.05333333333328
27585,5.05666666666662
27590,5.05999999999995
27595,5.06333333333328
27600,5.06666666666661
27605,5.06999999999995
27610,5.07333333333328
27615,5.07666666666661
27620,5.07999999999995
27625,5.08333333333328
27630,5.08666666666661
27635,5.08999999999994
27640,5.09333333333328
27645,5.09666666666661
27650,5.09999999999994
27655,5.10333333333328
27660,5.10666666666661
27665,5.10999999999994
27670,5.11333333333328
27675,5.11666666666661
27680,5.11999999999994
27685,5.12333333333327
27690,5.12666666666661
27695,5.12999999999994
27700,5.13333333333327
27705,5.13666666666661
27710,5.13999999999994
27715,5.14333333333327
27720,5.14666666666661
27725,5.14999999999994
27730,5.15333333333327
27735,5.1566666666666
27740,5.15999999999994
27745,5.16333333333327
27750,5.1666666666666
27755,5.16999999999994
27760,5.17333333333327
27765,5.1766666666666
27770,5.17999999999993
27775,5.18333333333327
27780,5.1866666666666
27785,5.18999999999993
27790,5.19333333333327
27795,5.1966666666666
27800,5.19999999999993
27805,5.20333333333327
27810,5.2066666666666
27815,5.20999999999993
27820,5.21333333333326
27825,5.2166666666666
27830,5.21999999999993
27835,5.22333333333326
27840,5.2266666666666
27845,5.22999999999993
27850,5.23333333333326
27855,5.2366666666666
27860,5.23999999999993
27865,5.24333333333326
27870,5.24666666666659
27875,5.24999999999993
27880,5.25333333333326
27885,5.25666666666659
27890,5.25999999999993
27895,5.26333333333326
27900,5.26666666666659
27905,5.26999999999992
27910,5.27333333333326
27915,5.27666666666659
27920,5.27999999999992
27925,5.28333333333326
27930,5.28666666666659
27935,5.28999999999992
27940,5.29333333333326
27945,5.29666666666659
27950,5.29999999999992
27955,5.30333333333325
27960,5.30666666666659
27965,5.30999999999992
27970,5.31333333333325
27975,5.31666666666659
27980,5.31999999999992
27985,5.32333333333325
27990,5.32666666666659
27995,5.32999999999992
28000,5.33333333333325
28005,5.33666666666658
28010,5.33999999999992
28015,5.34333333333325
28020,5.34666666666658
28025,5.34999999999992
28030,5.35333333333325
28035,5.35666666666658
28040,5.35999999999992
28045,5.36333333333325
28050,5.36666666666658
28055,5.36999999999991
28060,5.37333333333325
28065,5.37666666666658
28070,5.37999999999991
28075,5.38333333333325
28080,5.38666666666658
28085,5.38999999999991
28090,5.39333333333324
28095,5.39666666666658
28100,5.39999999999991
28105,5.40333333333324
28110,5.40666666666658
28115,5.40999999999991
28120,5.41333333333324
28125,5.41666666666658
28130,5.41999999999991
28135,5.42333333333324
28140,5.42666666666657
28145,5.42999999999991
28150,5.43333333333324
28155,5.43666666666657
28160,5.43999999999991
28165,5.44333333333324
28170,5.44666666666657
28175,5.44999999999991
28180,5.45333333333324
28185,5.45666666666657
28190,5.4599999999999
28195,5.46333333333324
28200,5.46666666666657
28205,5.4699999999999
28210,5.47333333333324
28215,5.47666666666657
28220,5.4799999999999
28225,5.48333333333323
28230,5.48666666666657
28235,5.4899999999999
28240,5.49333333333323
28245,5.49666666666657
28250,5.4999999999999
28255,5.50333333333323
28260,5.50666666666657
28265,5.5099999999999
28270,5.51333333333323
28275,5.51666666666656
28280,5.5199999999999
28285,5.52333333333323
28290,5.52666666666656
28295,5.5299999999999
28300,5.53333333333323
28305,5.53666666666656
28310,5.5399999999999
28315,5.54333333333323
28320,5.54666666666656
28325,5.54999999999989
28330,5.55333333333323
28335,5.55666666666656
28340,5.55999999999989
28345,5.56333333333323
28350,5.56666666666656
28355,5.56999999999989
28360,5.57333333333322
28365,5.57666666666656
28370,5.57999999999989
28375,5.58333333333322
28380,5.58666666666656
28385,5.58999999999989
28390,5.59333333333322
28395,5.59666666666656
28400,5.59999999999989
28405,5.60333333333322
28410,5.60666666666655
28415,5.60999999999989
28420,5.61333333333322
28425,5.61666666666655
28430,5.61999999999989
28435,5.62333333333322
28440,5.62666666666655
28445,5.62999999999989
28450,5.63333333333322
28455,5.63666666666655
28460,5.63999999999988
28465,5.64333333333322
28470,5.64666666666655
28475,5.64999999999988
28480,5.65333333333322
28485,5.65666666666655
28490,5.65999999999988
28495,5.66333333333321
28500,5.66666666666655
28505,5.66999999999988
28510,5.67333333333321
28515,5.67666666666655
28520,5.67999999999988
28525,5.68333333333321
28530,5.68666666666655
28535,5.68999999999988
28540,5.69333333333321
28545,5.69666666666654
28550,5.69999999999988
28555,5.70333333333321
28560,5.70666666666654
28565,5.70999999999988
28570,5.71333333333321
28575,5.71666666666654
28580,5.71999999999988
28585,5.72333333333321
28590,5.72666666666654
28595,5.72999999999987
28600,5.73333333333321
28605,5.73666666666654
28610,5.73999999999987
28615,5.74333333333321
28620,5.74666666666654
28625,5.74999999999987
28630,5.75333333333321
28635,5.75666666666654
28640,5.75999999999987
28645,5.7633333333332
28650,5.76666666666654
28655,5.76999999999987
28660,5.7733333333332
28665,5.77666666666654
28670,5.77999999999987
28675,5.7833333333332
28680,5.78666666666653
28685,5.78999999999987
28690,5.7933333333332
28695,5.79666666666653
28700,5.79999999999987
28705,5.8033333333332
28710,5.80666666666653
28715,5.80999999999987
28720,5.8133333333332
28725,5.81666666666653
28730,5.81999999999986
28735,5.8233333333332
28740,5.82666666666653
28745,5.82999999999986
28750,5.8333333333332
28755,5.83666666666653
28760,5.83999999999986
28765,5.8433333333332
28770,5.84666666666653
28775,5.84999999999986
28780,5.85333333333319
28785,5.85666666666653
28790,5.85999999999986
28795,5.86333333333319
28800,5.86666666666653
28805,5.86999999999986
28810,5.87333333333319
28815,5.87666666666652
28820,5.87999999999986
28825,5.88333333333319
28830,5.88666666666652
28835,5.88999999999986
28840,5.89333333333319
28845,5.89666666666652
28850,5.89999999999986
28855,5.90333333333319
28860,5.90666666666652
28865,5.90999999999985
28870,5.91333333333319
28875,5.91666666666652
28880,5.91999999999985
28885,5.92333333333319
28890,5.92666666666652
28895,5.92999999999985
28900,5.93333333333319
28905,5.93666666666652
28910,5.93999999999985
28915,5.94333333333318
28920,5.94666666666652
28925,5.94999999999985
28930,5.95333333333318
28935,5.95666666666652
28940,5.95999999999985
28945,5.96333333333318
28950,5.96666666666651
28955,5.96999999999985
28960,5.97333333333318
28965,5.97666666666651
28970,5.97999999999985
28975,5.98333333333318
28980,5.98666666666651
28985,5.98999999999985
28990,5.99333333333318
28995,5.99666666666651
29000,5.99999999999984
29005,6.00333333333318
29010,6.00666666666651
29015,6.00999999999984
29020,6.01333333333318
29025,6.01666666666651
29030,6.01999999999984
29035,6.02333333333318
29040,6.02666666666651
29045,6.02999999999984
29050,6.03333333333317
29055,6.03666666666651
29060,6.03999999999984
29065,6.04333333333317
29070,6.04666666666651
29075,6.04999999999984
29080,6.05333333333317
29085,6.0566666666665
29090,6.05999999999984
29095,6.06333333333317
29100,6.0666666666665
29105,6.06999999999984
29110,6.07333333333317
29115,6.0766666666665
29120,6.07999999999984
29125,6.08333333333317
29130,6.0866666666665
29135,6.08999999999983
29140,6.09333333333317
29145,6.0966666666665
29150,6.09999999999983
29155,6.10333333333317
29160,6.1066666666665
29165,6.10999999999983
29170,6.11333333333317
29175,6.1166666666665
29180,6.11999999999983
29185,6.12333333333316
29190,6.1266666666665
29195,6.12999999999983
29200,6.13333333333316
29205,6.1366666666665
29210,6.13999999999983
29215,6.14333333333316
29220,6.1466666666665
29225,6.14999999999983
29230,6.15333333333316
29235,6.15666666666649
29240,6.15999999999983
29245,6.16333333333316
29250,6.16666666666649
29255,6.16999999999983
29260,6.17333333333316
29265,6.17666666666649
29270,6.17999999999982
29275,6.18333333333316
29280,6.18666666666649
29285,6.18999999999982
29290,6.19333333333316
29295,6.19666666666649
29300,6.19999999999982
29305,6.20333333333316
29310,6.20666666666649
29315,6.20999999999982
29320,6.21333333333315
29325,6.21666666666649
29330,6.21999999999982
29335,6.22333333333315
29340,6.22666666666649
29345,6.22999999999982
29350,6.23333333333315
29355,6.23666666666649
29360,6.23999999999982
29365,6.24333333333315
29370,6.24666666666648
29375,6.24999999999982
29380,6.25333333333315
29385,6.25666666666648
29390,6.25999999999982
29395,6.26333333333315
29400,6.26666666666648
29405,6.26999999999981
29410,6.27333333333315
29415,6.27666666666648
29420,6.27999999999981
29425,6.28333333333315
29430,6.28666666666648
29435,6.28999999999981
29440,6.29333333333315
29445,6.29666666666648
29450,6.29999999999981
29455,6.30333333333314
29460,6.30666666666648
29465,6.30999999999981
29470,6.31333333333314
29475,6.31666666666648
29480,6.31999999999981
29485,6.32333333333314
29490,6.32666666666648
29495,6.32999999999981
29500,6.33333333333314
29505,6.33666666666647
29510,6.33999999999981
29515,6.34333333333314
29520,6.34666666666647
29525,6.34999999999981
29530,6.35333333333314
29535,6.35666666666647
29540,6.3599999999998
29545,6.36333333333314
29550,6.36666666666647
29555,6.3699999999998
29560,6.37333333333314
29565,6.37666666666647
29570,6.3799999999998
29575,6.38333333333314
29580,6.38666666666647
29585,6.3899999999998
29590,6.39333333333313
29595,6.39666666666647
29600,6.3999999999998
29605,6.40333333333313
29610,6.40666666666647
29615,6.4099999999998
29620,6.41333333333313
29625,6.41666666666647
29630,6.4199999999998
29635,6.42333333333313
29640,6.42666666666646
29645,6.4299999999998
29650,6.43333333333313
29655,6.43666666666646
29660,6.4399999999998
29665,6.44333333333313
29670,6.44666666666646
29675,6.4499999999998
29680,6.45333333333313
29685,6.45666666666646
29690,6.45999999999979
29695,6.46333333333313
29700,6.46666666666646
29705,6.46999999999979
29710,6.47333333333313
29715,6.47666666666646
29720,6.47999999999979
29725,6.48333333333312
29730,6.48666666666646
29735,6.48999999999979
29740,6.49333333333312
29745,6.49666666666646
29750,6.49999999999979
29755,6.50333333333312
29760,6.50666666666646
29765,6.50999999999979
29770,6.51333333333312
29775,6.51666666666645
29780,6.51999999999979
29785,6.52333333333312
29790,6.52666666666645
29795,6.52999999999979
29800,6.53333333333312
29805,6.53666666666645
29810,6.53999999999979
29815,6.54333333333312
29820,6.54666666666645
29825,6.54999999999978
29830,6.55333333333312
29835,6.55666666666645
29840,6.55999999999978
29845,6.56333333333312
29850,6.56666666666645
29855,6.56999999999978
29860,6.57333333333311
29865,6.57666666666645
29870,6.57999999999978
29875,6.58333333333311
29880,6.58666666666645
29885,6.58999999999978
29890,6.59333333333311
29895,6.59666666666645
29900,6.59999999999978
29905,6.60333333333311
29910,6.60666666666644
29915,6.60999999999978
29920,6.61333333333311
29925,6.61666666666644
29930,6.61999999999978
29935,6.62333333333311
29940,6.62666666666644
29945,6.62999999999978
29950,6.63333333333311
29955,6.63666666666644
29960,6.63999999999977
29965,6.64333333333311
29970,6.64666666666644
29975,6.64999999999977
29980,6.65333333333311
29985,6.65666666666644
29990,6.65999999999977
29995,6.6633333333331
30000,6.66666666666644
30005,6.66999999999977
30010,6.6733333333331
30015,6.67666666666644
30020,6.67999999999977
30025,6.6833333333331
30030,6.68666666666644
30035,6.68999999999977
30040,6.6933333333331
30045,6.69666666666643
30050,6.69999999999977
30055,6.7033333333331
30060,6.70666666666643
30065,6.70999999999977
30070,6.7133333333331
30075,6.71666666666643
30080,6.71999999999977
30085,6.7233333333331
30090,6.72666666666643
30095,6.72999999999976
30100,6.7333333333331
30105,6.73666666666643
30110,6.73999999999976
30115,6.7433333333331
30120,6.74666666666643
30125,6.74999999999976
30130,6.75333333333309
30135,6.75666666666643
30140,6.75999999999976
30145,6.76333333333309
30150,6.76666666666643
30155,6.76999999999976
30160,6.77333333333309
30165,6.77666666666643
30170,6.77999999999976
30175,6.78333333333309
30180,6.78666666666642
30185,6.78999999999976
30190,6.79333333333309
30195,6.79666666666642
30200,6.79999999999976
30205,6.80333333333309
30210,6.80666666666642
30215,6.80999999999976
30220,6.81333333333309
30225,6.81666666666642
30230,6.81999999999975
30235,6.82333333333309
30240,6.82666666666642
30245,6.82999999999975
30250,6.83333333333309
30255,6.83666666666642
30260,6.83999999999975
30265,6.84333333333309
30270,6.84666666666642
30275,6.84999999999975
30280,6.85333333333308
30285,6.85666666666642
30290,6.85999999999975
30295,6.86333333333308
30300,6.86666666666642
30305,6.86999999999975
30310,6.87333333333308
30315,6.87666666666641
30320,6.87999999999975
30325,6.88333333333308
30330,6.88666666666641
30335,6.88999999999975
30340,6.89333333333308
30345,6.89666666666641
30350,6.89999999999975
30355,6.90333333333308
30360,6.90666666666641
30365,6.90999999999974
30370,6.91333333333308
30375,6.91666666666641
30380,6.91999999999974
30385,6.92333333333308
30390,6.92666666666641
30395,6.92999999999974
30400,6.93333333333308
30405,6.93666666666641
30410,6.93999999999974
30415,6.94333333333307
30420,6.94666666666641
30425,6.94999999999974
30430,6.95333333333307
30435,6.95666666666641
30440,6.95999999999974
30445,6.96333333333307
30450,6.9666666666664
30455,6.96999999999974
30460,6.97333333333307
30465,6.9766666666664
30470,6.97999999999974
30475,6.98333333333307
30480,6.9866666666664
30485,6.98999999999974
30490,6.99333333333307
30495,6.9966666666664
30500,6.99999999999973
30505,7.00333333333307
30510,7.0066666666664
30515,7.00999999999973
30520,7.01333333333307
30525,7.0166666666664
30530,7.01999999999973
30535,7.02333333333307
30540,7.0266666666664
30545,7.02999999999973
30550,7.03333333333306
30555,7.0366666666664
30560,7.03999999999973
30565,7.04333333333306
30570,7.0466666666664
30575,7.04999999999973
30580,7.05333333333306
30585,7.05666666666639
30590,7.05999999999973
30595,7.06333333333306
30600,7.06666666666639
30605,7.06999999999973
30610,7.07333333333306
30615,7.07666666666639
30620,7.07999999999973
30625,7.08333333333306
30630,7.08666666666639
30635,7.08999999999972
30640,7.09333333333306
30645,7.09666666666639
30650,7.09999999999972
30655,7.10333333333306
30660,7.10666666666639
30665,7.10999999999972
30670,7.11333333333306
30675,7.11666666666639
30680,7.11999999999972
30685,7.12333333333305
30690,7.12666666666639
30695,7.12999999999972
30700,7.13333333333305
30705,7.13666666666639
30710,7.13999999999972
30715,7.14333333333305
30720,7.14666666666638
30725,7.14999999999972
30730,7.15333333333305
30735,7.15666666666638
30740,7.15999999999972
30745,7.16333333333305
30750,7.16666666666638
30755,7.16999999999972
30760,7.17333333333305
30765,7.17666666666638
30770,7.17999999999971
30775,7.18333333333305
30780,7.18666666666638
30785,7.18999999999971
30790,7.19333333333305
30795,7.19666666666638
30800,7.19999999999971
30805,7.20333333333305
30810,7.20666666666638
30815,7.20999999999971
30820,7.21333333333304
30825,7.21666666666638
30830,7.21999999999971
30835,7.22333333333304
30840,7.22666666666638
30845,7.22999999999971
30850,7.23333333333304
30855,7.23666666666638
30860,7.23999999999971
30865,7.24333333333304
30870,7.24666666666637
30875,7.24999999999971
30880,7.25333333333304
30885,7.25666666666637
30890,7.25999999999971
30895,7.26333333333304
30900,7.26666666666637
30905,7.2699999999997
30910,7.27333333333304
30915,7.27666666666637
30920,7.2799999999997
30925,7.28333333333304
30930,7.28666666666637
30935,7.2899999999997
30940,7.29333333333304
30945,7.29666666666637
30950,7.2999999999997
30955,7.30333333333303
30960,7.30666666666637
30965,7.3099999999997
30970,7.31333333333303
30975,7.31666666666637
30980,7.3199999999997
30985,7.32333333333303
30990,7.32666666666637
30995,7.3299999999997
31000,7.33333333333303
31005,7.33666666666636
31010,7.3399999999997
31015,7.34333333333303
31020,7.34666666666636
31025,7.3499999999997
31030,7.35333333333303
31035,7.35666666666636
31040,7.35999999999969
31045,7.36333333333303
31050,7.36666666666636
31055,7.36999999999969
31060,7.37333333333303
31065,7.37666666666636
31070,7.37999999999969
31075,7.38333333333303
31080,7.38666666666636
31085,7.38999999999969
31090,7.39333333333302
31095,7.39666666666636
31100,7.39999999999969
31105,7.40333333333302
31110,7.40666666666636
31115,7.40999999999969
31120,7.41333333333302
31125,7.41666666666636
31130,7.41999999999969
31135,7.42333333333302
31140,7.42666666666635
31145,7.42999999999969
31150,7.43333333333302
31155,7.43666666666635
31160,7.43999999999969
31165,7.44333333333302
31170,7.44666666666635
31175,7.44999999999968
31180,7.45333333333302
31185,7.45666666666635
31190,7.45999999999968
31195,7.46333333333302
31200,7.46666666666635
31205,7.46999999999968
31210,7.47333333333302
31215,7.47666666666635
31220,7.47999999999968
31225,7.48333333333301
31230,7.48666666666635
31235,7.48999999999968
31240,7.49333333333301
31245,7.49666666666635
31250,7.49999999999968
31255,7.50333333333301
31260,7.50666666666635
31265,7.50999999999968
31270,7.51333333333301
31275,7.51666666666634
31280,7.51999999999968
31285,7.52333333333301
31290,7.52666666666634
31295,7.52999999999968
31300,7.53333333333301
31305,7.53666666666634
31310,7.53999999999967
31315,7.54333333333301
31320,7.54666666666634
31325,7.54999999999967
31330,7.55333333333301
31335,7.55666666666634
31340,7.55999999999967
31345,7.56333333333301
31350,7.56666666666634
31355,7.56999999999967
31360,7.573333333333
31365,7.57666666666634
31370,7.57999999999967
31375,7.583333333333
31380,7.58666666666634
31385,7.58999999999967
31390,7.593333333333
31395,7.59666666666634
31400,7.59999999999967
31405,7.603333333333
31410,7.60666666666633
31415,7.60999999999967
31420,7.613333333333
31425,7.61666666666633
31430,7.61999999999967
31435,7.623333333333
31440,7.62666666666633
31445,7.62999999999967
31450,7.633333333333
31455,7.63666666666633
31460,7.63999999999966
31465,7.643333333333
31470,7.64666666666633
31475,7.64999999999966
31480,7.653333333333
31485,7.65666666666633
31490,7.65999999999966
31495,7.66333333333299
31500,7.66666666666633
31505,7.66999999999966
31510,7.67333333333299
31515,7.67666666666633
31520,7.67999999999966
31525,7.68333333333299
31530,7.68666666666633
31535,7.68999999999966
31540,7.69333333333299
31545,7.69666666666632
31550,7.69999999999966
31555,7.70333333333299
31560,7.70666666666632
31565,7.70999999999966
31570,7.71333333333299
31575,7.71666666666632
31580,7.71999999999966
31585,7.72333333333299
31590,7.72666666666632
31595,7.72999999999965
31600,7.73333333333299
31605,7.73666666666632
31610,7.73999999999965
31615,7.74333333333299
31620,7.74666666666632
31625,7.74999999999965
31630,7.75333333333298
31635,7.75666666666632
31640,7.75999999999965
31645,7.76333333333298
31650,7.76666666666632
31655,7.76999999999965
31660,7.77333333333298
31665,7.77666666666632
31670,7.77999999999965
31675,7.78333333333298
31680,7.78666666666631
31685,7.78999999999965
31690,7.79333333333298
31695,7.79666666666631
31700,7.79999999999965
31705,7.80333333333298
31710,7.80666666666631
31715,7.80999999999965
31720,7.81333333333298
31725,7.81666666666631
31730,7.81999999999964
31735,7.82333333333298
31740,7.82666666666631
31745,7.82999999999964
31750,7.83333333333298
31755,7.83666666666631
31760,7.83999999999964
31765,7.84333333333297
31770,7.84666666666631
31775,7.84999999999964
31780,7.85333333333297
31785,7.85666666666631
31790,7.85999999999964
31795,7.86333333333297
31800,7.86666666666631
31805,7.86999999999964
31810,7.87333333333297
31815,7.8766666666663
31820,7.87999999999964
31825,7.88333333333297
31830,7.8866666666663
31835,7.88999999999964
31840,7.89333333333297
31845,7.8966666666663
31850,7.89999999999964
31855,7.90333333333297
31860,7.9066666666663
31865,7.90999999999963
31870,7.91333333333297
31875,7.9166666666663
31880,7.91999999999963
31885,7.92333333333297
31890,7.9266666666663
31895,7.92999999999963
31900,7.93333333333296
31905,7.9366666666663
31910,7.93999999999963
31915,7.94333333333296
31920,7.9466666666663
31925,7.94999999999963
31930,7.95333333333296
31935,7.9566666666663
31940,7.95999999999963
31945,7.96333333333296
31950,7.96666666666629
31955,7.96999999999963
31960,7.97333333333296
31965,7.97666666666629
31970,7.97999999999963
31975,7.98333333333296
31980,7.98666666666629
31985,7.98999999999963
31990,7.99333333333296
31995,7.99666666666629
32000,7.99999999999962
32005,8.00333333333296
32010,8.00666666666629
32015,8.00999999999962
32020,8.01333333333296
32025,8.01666666666629
32030,8.01999999999963
32035,8.02333333333296
32040,8.02666666666629
32045,8.02999999999963
32050,8.03333333333296
32055,8.0366666666663
32060,8.03999999999963
32065,8.04333333333296
32070,8.0466666666663
32075,8.04999999999963
32080,8.05333333333297
32085,8.0566666666663
32090,8.05999999999963
32095,8.06333333333297
32100,8.0666666666663
32105,8.06999999999963
32110,8.07333333333297
32115,8.0766666666663
32120,8.07999999999964
32125,8.08333333333297
32130,8.0866666666663
32135,8.08999999999964
32140,8.09333333333297
32145,8.09666666666631
32150,8.09999999999964
32155,8.10333333333297
32160,8.10666666666631
32165,8.10999999999964
32170,8.11333333333297
32175,8.11666666666631
32180,8.11999999999964
32185,8.12333333333298
32190,8.12666666666631
32195,8.12999999999964
32200,8.13333333333298
32205,8.13666666666631
32210,8.13999999999965
32215,8.14333333333298
32220,8.14666666666631
32225,8.14999999999965
32230,8.15333333333298
32235,8.15666666666631
32240,8.15999999999965
32245,8.16333333333298
32250,8.16666666666632
32255,8.16999999999965
32260,8.17333333333298
32265,8.17666666666632
32270,8.17999999999965
32275,8.18333333333299
32280,8.18666666666632
32285,8.18999999999965
32290,8.19333333333299
32295,8.19666666666632
32300,8.19999999999965
32305,8.20333333333299
32310,8.20666666666632
32315,8.20999999999966
32320,8.21333333333299
32325,8.21666666666632
32330,8.21999999999966
32335,8.22333333333299
32340,8.22666666666633
32345,8.22999999999966
32350,8.23333333333299
32355,8.23666666666633
32360,8.23999999999966
32365,8.24333333333299
32370,8.24666666666633
32375,8.24999999999966
32380,8.253333333333
32385,8.25666666666633
32390,8.25999999999966
32395,8.263333333333
32400,8.26666666666633
32405,8.26999999999967
32410,8.273333333333
32415,8.27666666666633
32420,8.27999999999967
32425,8.283333333333
32430,8.28666666666633
32435,8.28999999999967
32440,8.293333333333
32445,8.29666666666634
32450,8.29999999999967
32455,8.303333333333
32460,8.30666666666634
32465,8.30999999999967
32470,8.31333333333301
32475,8.31666666666634
32480,8.31999999999967
32485,8.32333333333301
32490,8.32666666666634
32495,8.32999999999967
32500,8.33333333333301
32505,8.33666666666634
32510,8.33999999999968
32515,8.34333333333301
32520,8.34666666666634
32525,8.34999999999968
32530,8.35333333333301
32535,8.35666666666635
32540,8.35999999999968
32545,8.36333333333301
32550,8.36666666666635
32555,8.36999999999968
32560,8.37333333333302
32565,8.37666666666635
32570,8.37999999999968
32575,8.38333333333302
32580,8.38666666666635
32585,8.38999999999968
32590,8.39333333333302
32595,8.39666666666635
32600,8.39999999999969
32605,8.40333333333302
32610,8.40666666666635
32615,8.40999999999969
32620,8.41333333333302
32625,8.41666666666636
32630,8.41999999999969
32635,8.42333333333302
32640,8.42666666666636
32645,8.42999999999969
32650,8.43333333333302
32655,8.43666666666636
32660,8.43999999999969
32665,8.44333333333303
32670,8.44666666666636
32675,8.44999999999969
32680,8.45333333333303
32685,8.45666666666636
32690,8.4599999999997
32695,8.46333333333303
32700,8.46666666666636
32705,8.4699999999997
32710,8.47333333333303
32715,8.47666666666636
32720,8.4799999999997
32725,8.48333333333303
32730,8.48666666666637
32735,8.4899999999997
32740,8.49333333333303
32745,8.49666666666637
32750,8.4999999999997
32755,8.50333333333304
32760,8.50666666666637
32765,8.5099999999997
32770,8.51333333333304
32775,8.51666666666637
32780,8.5199999999997
32785,8.52333333333304
32790,8.52666666666637
32795,8.52999999999971
32800,8.53333333333304
32805,8.53666666666637
32810,8.53999999999971
32815,8.54333333333304
32820,8.54666666666638
32825,8.54999999999971
32830,8.55333333333304
32835,8.55666666666638
32840,8.55999999999971
32845,8.56333333333304
32850,8.56666666666638
32855,8.56999999999971
32860,8.57333333333305
32865,8.57666666666638
32870,8.57999999999971
32875,8.58333333333305
32880,8.58666666666638
32885,8.58999999999972
32890,8.59333333333305
32895,8.59666666666638
32900,8.59999999999972
32905,8.60333333333305
32910,8.60666666666638
32915,8.60999999999972
32920,8.61333333333305
32925,8.61666666666639
32930,8.61999999999972
32935,8.62333333333305
32940,8.62666666666639
32945,8.62999999999972
32950,8.63333333333306
32955,8.63666666666639
32960,8.63999999999972
32965,8.64333333333306
32970,8.64666666666639
32975,8.64999999999973
32980,8.65333333333306
32985,8.65666666666639
32990,8.65999999999973
32995,8.66333333333306
33000,8.66666666666639
33005,8.66999999999973
33010,8.67333333333306
33015,8.6766666666664
33020,8.67999999999973
33025,8.68333333333306
33030,8.6866666666664
33035,8.68999999999973
33040,8.69333333333307
33045,8.6966666666664
33050,8.69999999999973
33055,8.70333333333307
33060,8.7066666666664
33065,8.70999999999973
33070,8.71333333333307
33075,8.7166666666664
33080,8.71999999999974
33085,8.72333333333307
33090,8.7266666666664
33095,8.72999999999974
33100,8.73333333333307
33105,8.73666666666641
33110,8.73999999999974
33115,8.74333333333307
33120,8.74666666666641
33125,8.74999999999974
33130,8.75333333333307
33135,8.75666666666641
33140,8.75999999999974
33145,8.76333333333308
33150,8.76666666666641
33155,8.76999999999974
33160,8.77333333333308
33165,8.77666666666641
33170,8.77999999999975
33175,8.78333333333308
33180,8.78666666666641
33185,8.78999999999975
33190,8.79333333333308
33195,8.79666666666641
33200,8.79999999999975
33205,8.80333333333308
33210,8.80666666666642
33215,8.80999999999975
33220,8.81333333333308
33225,8.81666666666642
33230,8.81999999999975
33235,8.82333333333309
33240,8.82666666666642
33245,8.82999999999975
33250,8.83333333333309
33255,8.83666666666642
33260,8.83999999999975
33265,8.84333333333309
33270,8.84666666666642
33275,8.84999999999976
33280,8.85333333333309
33285,8.85666666666642
33290,8.85999999999976
33295,8.86333333333309
33300,8.86666666666643
33305,8.86999999999976
33310,8.87333333333309
33315,8.87666666666643
33320,8.87999999999976
33325,8.88333333333309
33330,8.88666666666643
33335,8.88999999999976
33340,8.8933333333331
33345,8.89666666666643
33350,8.89999999999976
33355,8.9033333333331
33360,8.90666666666643
33365,8.90999999999977
33370,8.9133333333331
33375,8.91666666666643
33380,8.91999999999977
33385,8.9233333333331
33390,8.92666666666643
33395,8.92999999999977
33400,8.9333333333331
33405,8.93666666666644
33410,8.93999999999977
33415,8.9433333333331
33420,8.94666666666644
33425,8.94999999999977
33430,8.95333333333311
33435,8.95666666666644
33440,8.95999999999977
33445,8.96333333333311
33450,8.96666666666644
33455,8.96999999999978
33460,8.97333333333311
33465,8.97666666666644
33470,8.97999999999978
33475,8.98333333333311
33480,8.98666666666644
33485,8.98999999999978
33490,8.99333333333311
33495,8.99666666666645
33500,8.99999999999978
33505,9.00333333333311
33510,9.00666666666645
33515,9.00999999999978
33520,9.01333333333312
33525,9.01666666666645
33530,9.01999999999978
33535,9.02333333333312
33540,9.02666666666645
33545,9.02999999999978
33550,9.03333333333312
33555,9.03666666666645
33560,9.03999999999979
33565,9.04333333333312
33570,9.04666666666645
33575,9.04999999999979
33580,9.05333333333312
33585,9.05666666666646
33590,9.05999999999979
33595,9.06333333333312
33600,9.06666666666646
33605,9.06999999999979
33610,9.07333333333312
33615,9.07666666666646
33620,9.07999999999979
33625,9.08333333333313
33630,9.08666666666646
33635,9.08999999999979
33640,9.09333333333313
33645,9.09666666666646
33650,9.0999999999998
33655,9.10333333333313
33660,9.10666666666646
33665,9.1099999999998
33670,9.11333333333313
33675,9.11666666666646
33680,9.1199999999998
33685,9.12333333333313
33690,9.12666666666647
33695,9.1299999999998
33700,9.13333333333313
33705,9.13666666666647
33710,9.1399999999998
33715,9.14333333333314
33720,9.14666666666647
33725,9.1499999999998
33730,9.15333333333314
33735,9.15666666666647
33740,9.1599999999998
33745,9.16333333333314
33750,9.16666666666647
33755,9.16999999999981
33760,9.17333333333314
33765,9.17666666666647
33770,9.17999999999981
33775,9.18333333333314
33780,9.18666666666648
33785,9.18999999999981
33790,9.19333333333314
33795,9.19666666666648
33800,9.19999999999981
33805,9.20333333333314
33810,9.20666666666648
33815,9.20999999999981
33820,9.21333333333315
33825,9.21666666666648
33830,9.21999999999981
33835,9.22333333333315
33840,9.22666666666648
33845,9.22999999999982
33850,9.23333333333315
33855,9.23666666666648
33860,9.23999999999982
33865,9.24333333333315
33870,9.24666666666648
33875,9.24999999999982
33880,9.25333333333315
33885,9.25666666666649
33890,9.25999999999982
33895,9.26333333333315
33900,9.26666666666649
33905,9.26999999999982
33910,9.27333333333316
33915,9.27666666666649
33920,9.27999999999982
33925,9.28333333333316
33930,9.28666666666649
33935,9.28999999999983
33940,9.29333333333316
33945,9.29666666666649
33950,9.29999999999983
33955,9.30333333333316
33960,9.30666666666649
33965,9.30999999999983
33970,9.31333333333316
33975,9.3166666666665
33980,9.31999999999983
33985,9.32333333333316
33990,9.3266666666665
33995,9.32999999999983
34000,9.33333333333317
34005,9.3366666666665
34010,9.33999999999983
34015,9.34333333333317
34020,9.3466666666665
34025,9.34999999999983
34030,9.35333333333317
34035,9.3566666666665
34040,9.35999999999984
34045,9.36333333333317
34050,9.3666666666665
34055,9.36999999999984
34060,9.37333333333317
34065,9.37666666666651
34070,9.37999999999984
34075,9.38333333333317
34080,9.38666666666651
34085,9.38999999999984
34090,9.39333333333317
34095,9.39666666666651
34100,9.39999999999984
34105,9.40333333333318
34110,9.40666666666651
34115,9.40999999999984
34120,9.41333333333318
34125,9.41666666666651
34130,9.41999999999985
34135,9.42333333333318
34140,9.42666666666651
34145,9.42999999999985
34150,9.43333333333318
34155,9.43666666666651
34160,9.43999999999985
34165,9.44333333333318
34170,9.44666666666652
34175,9.44999999999985
34180,9.45333333333318
34185,9.45666666666652
34190,9.45999999999985
34195,9.46333333333319
34200,9.46666666666652
34205,9.46999999999985
34210,9.47333333333319
34215,9.47666666666652
34220,9.47999999999985
34225,9.48333333333319
34230,9.48666666666652
34235,9.48999999999986
34240,9.49333333333319
34245,9.49666666666652
34250,9.49999999999986
34255,9.50333333333319
34260,9.50666666666653
34265,9.50999999999986
34270,9.51333333333319
34275,9.51666666666653
34280,9.51999999999986
34285,9.52333333333319
34290,9.52666666666653
34295,9.52999999999986
34300,9.5333333333332
34305,9.53666666666653
34310,9.53999999999986
34315,9.5433333333332
34320,9.54666666666653
34325,9.54999999999987
34330,9.5533333333332
34335,9.55666666666653
34340,9.55999999999987
34345,9.5633333333332
34350,9.56666666666653
34355,9.56999999999987
34360,9.5733333333332
34365,9.57666666666654
34370,9.57999999999987
34375,9.5833333333332
34380,9.58666666666654
34385,9.58999999999987
34390,9.59333333333321
34395,9.59666666666654
34400,9.59999999999987
34405,9.60333333333321
34410,9.60666666666654
34415,9.60999999999988
34420,9.61333333333321
34425,9.61666666666654
34430,9.61999999999988
34435,9.62333333333321
34440,9.62666666666654
34445,9.62999999999988
34450,9.63333333333321
34455,9.63666666666655
34460,9.63999999999988
34465,9.64333333333321
34470,9.64666666666655
34475,9.64999999999988
34480,9.65333333333322
34485,9.65666666666655
34490,9.65999999999988
34495,9.66333333333322
34500,9.66666666666655
34505,9.66999999999988
34510,9.67333333333322
34515,9.67666666666655
34520,9.67999999999989
34525,9.68333333333322
34530,9.68666666666655
34535,9.68999999999989
34540,9.69333333333322
34545,9.69666666666656
34550,9.69999999999989
34555,9.70333333333322
34560,9.70666666666656
34565,9.70999999999989
34570,9.71333333333322
34575,9.71666666666656
34580,9.71999999999989
34585,9.72333333333323
34590,9.72666666666656
34595,9.72999999999989
34600,9.73333333333323
34605,9.73666666666656
34610,9.7399999999999
34615,9.74333333333323
34620,9.74666666666656
34625,9.7499999999999
34630,9.75333333333323
34635,9.75666666666656
34640,9.7599999999999
34645,9.76333333333323
34650,9.76666666666657
34655,9.7699999999999
34660,9.77333333333323
34665,9.77666666666657
34670,9.7799999999999
34675,9.78333333333324
34680,9.78666666666657
34685,9.7899999999999
34690,9.79333333333324
34695,9.79666666666657
34700,9.7999999999999
34705,9.80333333333324
34710,9.80666666666657
34715,9.80999999999991
34720,9.81333333333324
34725,9.81666666666657
34730,9.81999999999991
34735,9.82333333333324
34740,9.82666666666658
34745,9.82999999999991
34750,9.83333333333324
34755,9.83666666666658
34760,9.83999999999991
34765,9.84333333333324
34770,9.84666666666658
34775,9.84999999999991
34780,9.85333333333325
34785,9.85666666666658
34790,9.85999999999991
34795,9.86333333333325
34800,9.86666666666658
34805,9.86999999999992
34810,9.87333333333325
34815,9.87666666666658
34820,9.87999999999992
34825,9.88333333333325
34830,9.88666666666659
34835,9.88999999999992
34840,9.89333333333325
34845,9.89666666666659
34850,9.89999999999992
34855,9.90333333333325
34860,9.90666666666659
34865,9.90999999999992
34870,9.91333333333326
34875,9.91666666666659
34880,9.91999999999992
34885,9.92333333333326
34890,9.92666666666659
34895,9.92999999999993
34900,9.93333333333326
34905,9.93666666666659
34910,9.93999999999993
34915,9.94333333333326
34920,9.94666666666659
34925,9.94999999999993
34930,9.95333333333326
34935,9.9566666666666
34940,9.95999999999993
34945,9.96333333333326
34950,9.9666666666666
34955,9.96999999999993
34960,9.97333333333327
34965,9.9766666666666
34970,9.97999999999993
34975,9.98333333333327
34980,9.9866666666666
34985,9.98999999999993
34990,9.99333333333327
34995,9.9966666666666
35000,9.99999999999994
