"Iteration: Iteration","Physical Time: Physical Time (s)"
20005,0.005
20010,0.01
20015,0.015
20020,0.02
20025,0.025
20030,0.03
20035,0.035
20040,0.04
20045,0.045
20050,0.05
20055,0.055
20060,0.06
20065,0.065
20070,0.07
20075,0.075
20080,0.08
20085,0.085
20090,0.09
20095,0.095
20100,0.1
20105,0.105
20110,0.11
20115,0.115
20120,0.12
20125,0.125
20130,0.13
20135,0.135
20140,0.14
20145,0.145
20150,0.15
20155,0.155
20160,0.16
20165,0.165
20170,0.17
20175,0.175
20180,0.18
20185,0.185
20190,0.19
20195,0.195
20200,0.2
20205,0.205
20210,0.21
20215,0.215
20220,0.22
20225,0.225
20230,0.23
20235,0.235
20240,0.24
20245,0.245
20250,0.25
20255,0.255
20260,0.26
20265,0.265
20270,0.27
20275,0.275
20280,0.28
20285,0.285
20290,0.29
20295,0.295
20300,0.3
20305,0.305
20310,0.31
20315,0.315
20320,0.32
20325,0.325
20330,0.33
20335,0.335
20340,0.34
20345,0.345
20350,0.35
20355,0.355
20360,0.36
20365,0.365
20370,0.37
20375,0.375
20380,0.38
20385,0.385
20390,0.39
20395,0.395
20400,0.4
20405,0.405
20410,0.41
20415,0.415
20420,0.42
20425,0.425
20430,0.43
20435,0.435
20440,0.44
20445,0.445
20450,0.45
20455,0.455
20460,0.46
20465,0.465
20470,0.47
20475,0.475
20480,0.48
20485,0.485
20490,0.49
20495,0.495
20500,0.5
20505,0.505
20510,0.51
20515,0.515
20520,0.52
20525,0.525
20530,0.53
20535,0.535
20540,0.54
20545,0.545
20550,0.55
20555,0.555
20560,0.56
20565,0.565
20570,0.57
20575,0.575
20580,0.58
20585,0.585
20590,0.59
20595,0.595
20600,0.6
20605,0.605
20610,0.61
20615,0.615
20620,0.62
20625,0.625
20630,0.63
20635,0.635
20640,0.64
20645,0.645
20650,0.65
20655,0.655
20660,0.66
20665,0.665
20670,0.67
20675,0.675
20680,0.68
20685,0.685
20690,0.690000000000001
20695,0.695000000000001
20700,0.700000000000001
20705,0.705000000000001
20710,0.710000000000001
20715,0.715000000000001
20720,0.720000000000001
20725,0.725000000000001
20730,0.730000000000001
20735,0.735000000000001
20740,0.740000000000001
20745,0.745000000000001
20750,0.750000000000001
20755,0.755000000000001
20760,0.760000000000001
20765,0.765000000000001
20770,0.770000000000001
20775,0.775000000000001
20780,0.780000000000001
20785,0.785000000000001
20790,0.790000000000001
20795,0.795000000000001
20800,0.800000000000001
20805,0.805000000000001
20810,0.810000000000001
20815,0.815000000000001
20820,0.820000000000001
20825,0.825000000000001
20830,0.830000000000001
20835,0.835000000000001
20840,0.840000000000001
20845,0.845000000000001
20850,0.850000000000001
20855,0.855000000000001
20860,0.860000000000001
20865,0.865000000000001
20870,0.870000000000001
20875,0.875000000000001
20880,0.880000000000001
20885,0.885000000000001
20890,0.890000000000001
20895,0.895000000000001
20900,0.900000000000001
20905,0.905000000000001
20910,0.910000000000001
20915,0.915000000000001
20920,0.920000000000001
20925,0.925000000000001
20930,0.930000000000001
20935,0.935000000000001
20940,0.940000000000001
20945,0.945000000000001
20950,0.950000000000001
20955,0.955000000000001
20960,0.960000000000001
20965,0.965000000000001
20970,0.970000000000001
20975,0.975000000000001
20980,0.980000000000001
20985,0.985000000000001
20990,0.990000000000001
20995,0.995000000000001
21000,1
21005,1.005
21010,1.01
21015,1.015
21020,1.02
21025,1.025
21030,1.03
21035,1.035
21040,1.04
21045,1.045
21050,1.05
21055,1.055
21060,1.06
21065,1.065
21070,1.07
21075,1.075
21080,1.08
21085,1.085
21090,1.09
21095,1.095
21100,1.1
21105,1.105
21110,1.11
21115,1.115
21120,1.12
21125,1.125
21130,1.13
21135,1.135
21140,1.14
21145,1.145
21150,1.15
21155,1.155
21160,1.16
21165,1.165
21170,1.17
21175,1.175
21180,1.18
21185,1.185
21190,1.19
21195,1.195
21200,1.2
21205,1.205
21210,1.21
21215,1.215
21220,1.22
21225,1.225
21230,1.23
21235,1.235
21240,1.24
21245,1.245
21250,1.25
21255,1.255
21260,1.26
21265,1.265
21270,1.26999999999999
21275,1.27499999999999
21280,1.27999999999999
21285,1.28499999999999
21290,1.28999999999999
21295,1.29499999999999
21300,1.29999999999999
21305,1.30499999999999
21310,1.30999999999999
21315,1.31499999999999
21320,1.31999999999999
21325,1.32499999999999
21330,1.32999999999999
21335,1.33499999999999
21340,1.33999999999999
21345,1.34499999999999
21350,1.34999999999999
21355,1.35499999999999
21360,1.35999999999999
21365,1.36499999999999
21370,1.36999999999999
21375,1.37499999999999
21380,1.37999999999999
21385,1.38499999999999
21390,1.38999999999999
21395,1.39499999999999
21400,1.39999999999999
21405,1.40499999999999
21410,1.40999999999999
21415,1.41499999999999
21420,1.41999999999999
21425,1.42499999999999
21430,1.42999999999999
21435,1.43499999999999
21440,1.43999999999999
21445,1.44499999999999
21450,1.44999999999999
21455,1.45499999999999
21460,1.45999999999999
21465,1.46499999999999
21470,1.46999999999999
21475,1.47499999999999
21480,1.47999999999999
21485,1.48499999999999
21490,1.48999999999999
21495,1.49499999999999
21500,1.49999999999999
21505,1.50499999999999
21510,1.50999999999999
21515,1.51499999999999
21520,1.51999999999999
21525,1.52499999999999
21530,1.52999999999999
21535,1.53499999999999
21540,1.53999999999999
21545,1.54499999999999
21550,1.54999999999999
21555,1.55499999999999
21560,1.55999999999999
21565,1.56499999999999
21570,1.56999999999999
21575,1.57499999999999
21580,1.57999999999999
21585,1.58499999999999
21590,1.58999999999999
21595,1.59499999999999
21600,1.59999999999999
21605,1.60499999999999
21610,1.60999999999999
21615,1.61499999999999
21620,1.61999999999999
21625,1.62499999999999
21630,1.62999999999999
21635,1.63499999999999
21640,1.63999999999999
21645,1.64499999999999
21650,1.64999999999999
21655,1.65499999999999
21660,1.65999999999999
21665,1.66499999999999
21670,1.66999999999999
21675,1.67499999999999
21680,1.67999999999999
21685,1.68499999999999
21690,1.68999999999999
21695,1.69499999999999
21700,1.69999999999999
21705,1.70499999999999
21710,1.70999999999999
21715,1.71499999999999
21720,1.71999999999999
21725,1.72499999999999
21730,1.72999999999999
21735,1.73499999999998
21740,1.73999999999998
21745,1.74499999999998
21750,1.74999999999998
21755,1.75499999999998
21760,1.75999999999998
21765,1.76499999999998
21770,1.76999999999998
21775,1.77499999999998
21780,1.77999999999998
21785,1.78499999999998
21790,1.78999999999998
21795,1.79499999999998
21800,1.79999999999998
21805,1.80499999999998
21810,1.80999999999998
21815,1.81499999999998
21820,1.81999999999998
21825,1.82499999999998
21830,1.82999999999998
21835,1.83499999999998
21840,1.83999999999998
21845,1.84499999999998
21850,1.84999999999998
21855,1.85499999999998
21860,1.85999999999998
21865,1.86499999999998
21870,1.86999999999998
21875,1.87499999999998
21880,1.87999999999998
21885,1.88499999999998
21890,1.88999999999998
21895,1.89499999999998
21900,1.89999999999998
21905,1.90499999999998
21910,1.90999999999998
21915,1.91499999999998
21920,1.91999999999998
21925,1.92499999999998
21930,1.92999999999998
21935,1.93499999999998
21940,1.93999999999998
21945,1.94499999999998
21950,1.94999999999998
21955,1.95499999999998
21960,1.95999999999998
21965,1.96499999999998
21970,1.96999999999998
21975,1.97499999999998
21980,1.97999999999998
21985,1.98499999999998
21990,1.98999999999998
21995,1.99499999999998
22000,1.99999999999998
22005,2.00499999999998
22010,2.00999999999998
22015,2.01499999999998
22020,2.01999999999998
22025,2.02499999999998
22030,2.02999999999998
22035,2.03499999999998
22040,2.03999999999998
22045,2.04499999999998
22050,2.04999999999998
22055,2.05499999999998
22060,2.05999999999998
22065,2.06499999999998
22070,2.06999999999998
22075,2.07499999999998
22080,2.07999999999998
22085,2.08499999999998
22090,2.08999999999998
22095,2.09499999999998
22100,2.09999999999998
22105,2.10499999999998
22110,2.10999999999998
22115,2.11499999999998
22120,2.11999999999998
22125,2.12499999999998
22130,2.12999999999998
22135,2.13499999999998
22140,2.13999999999998
22145,2.14499999999998
22150,2.14999999999998
22155,2.15499999999998
22160,2.15999999999998
22165,2.16499999999998
22170,2.16999999999998
22175,2.17499999999998
22180,2.17999999999998
22185,2.18499999999998
22190,2.18999999999998
22195,2.19499999999998
22200,2.19999999999998
22205,2.20499999999998
22210,2.20999999999998
22215,2.21499999999997
22220,2.21999999999997
22225,2.22499999999997
22230,2.22999999999997
22235,2.23499999999997
22240,2.23999999999997
22245,2.24499999999997
22250,2.24999999999997
22255,2.25499999999997
22260,2.25999999999997
22265,2.26499999999997
22270,2.26999999999997
22275,2.27499999999997
22280,2.27999999999997
22285,2.28499999999997
22290,2.28999999999997
22295,2.29499999999997
22300,2.29999999999997
22305,2.30499999999997
22310,2.30999999999997
22315,2.31499999999997
22320,2.31999999999997
22325,2.32499999999997
22330,2.32999999999997
22335,2.33499999999997
22340,2.33999999999997
22345,2.34499999999997
22350,2.34999999999997
22355,2.35499999999997
22360,2.35999999999997
22365,2.36499999999997
22370,2.36999999999997
22375,2.37499999999997
22380,2.37999999999997
22385,2.38499999999997
22390,2.38999999999997
22395,2.39499999999997
22400,2.39999999999997
22405,2.40499999999997
22410,2.40999999999997
22415,2.41499999999997
22420,2.41999999999997
22425,2.42499999999997
22430,2.42999999999997
22435,2.43499999999997
22440,2.43999999999997
22445,2.44499999999997
22450,2.44999999999997
22455,2.45499999999997
22460,2.45999999999997
22465,2.46499999999997
22470,2.46999999999997
22475,2.47499999999997
22480,2.47999999999997
22485,2.48499999999997
22490,2.48999999999997
22495,2.49499999999997
22500,2.49999999999997
22505,2.50499999999997
22510,2.50999999999997
22515,2.51499999999997
22520,2.51999999999997
22525,2.52499999999997
22530,2.52999999999997
22535,2.53499999999997
22540,2.53999999999997
22545,2.54499999999997
22550,2.54999999999997
22555,2.55499999999997
22560,2.55999999999997
22565,2.56499999999997
22570,2.56999999999997
22575,2.57499999999997
22580,2.57999999999997
22585,2.58499999999997
22590,2.58999999999997
22595,2.59499999999997
22600,2.59999999999997
22605,2.60499999999997
22610,2.60999999999997
22615,2.61499999999997
22620,2.61999999999997
22625,2.62499999999997
22630,2.62999999999997
22635,2.63499999999997
22640,2.63999999999997
22645,2.64499999999997
22650,2.64999999999997
22655,2.65499999999997
22660,2.65999999999997
22665,2.66499999999997
22670,2.66999999999997
22675,2.67499999999997
22680,2.67999999999997
22685,2.68499999999996
22690,2.68999999999996
22695,2.69499999999996
22700,2.69999999999996
22705,2.70499999999996
22710,2.70999999999996
22715,2.71499999999996
22720,2.71999999999996
22725,2.72499999999996
22730,2.72999999999996
22735,2.73499999999996
22740,2.73999999999996
22745,2.74499999999996
22750,2.74999999999996
22755,2.75499999999996
22760,2.75999999999996
22765,2.76499999999996
22770,2.76999999999996
22775,2.77499999999996
22780,2.77999999999996
22785,2.78499999999996
22790,2.78999999999996
22795,2.79499999999996
22800,2.79999999999996
22805,2.80499999999996
22810,2.80999999999996
22815,2.81499999999996
22820,2.81999999999996
22825,2.82499999999996
22830,2.82999999999996
22835,2.83499999999996
22840,2.83999999999996
22845,2.84499999999996
22850,2.84999999999996
22855,2.85499999999996
22860,2.85999999999996
22865,2.86499999999996
22870,2.86999999999996
22875,2.87499999999996
22880,2.87999999999996
22885,2.88499999999996
22890,2.88999999999996
22895,2.89499999999996
22900,2.89999999999996
22905,2.90499999999996
22910,2.90999999999996
22915,2.91499999999996
22920,2.91999999999996
22925,2.92499999999996
22930,2.92999999999996
22935,2.93499999999996
22940,2.93999999999996
22945,2.94499999999996
22950,2.94999999999996
22955,2.95499999999996
22960,2.95999999999996
22965,2.96499999999996
22970,2.96999999999996
22975,2.97499999999996
22980,2.97999999999996
22985,2.98499999999996
22990,2.98999999999996
22995,2.99499999999996
23000,2.99999999999996
23005,3.00499999999996
23010,3.00999999999996
23015,3.01499999999996
23020,3.01999999999996
23025,3.02499999999996
23030,3.02999999999996
23035,3.03499999999996
23040,3.03999999999996
23045,3.04499999999996
23050,3.04999999999996
23055,3.05499999999996
23060,3.05999999999996
23065,3.06499999999996
23070,3.06999999999996
23075,3.07499999999996
23080,3.07999999999996
23085,3.08499999999996
23090,3.08999999999996
23095,3.09499999999996
23100,3.09999999999996
23105,3.10499999999996
23110,3.10999999999996
23115,3.11499999999996
23120,3.11999999999996
23125,3.12499999999996
23130,3.12999999999996
23135,3.13499999999996
23140,3.13999999999996
23145,3.14499999999996
23150,3.14999999999996
23155,3.15499999999995
23160,3.15999999999995
23165,3.16499999999995
23170,3.16999999999995
23175,3.17499999999995
23180,3.17999999999995
23185,3.18499999999995
23190,3.18999999999995
23195,3.19499999999995
23200,3.19999999999995
23205,3.20499999999995
23210,3.20999999999995
23215,3.21499999999995
23220,3.21999999999995
23225,3.22499999999995
23230,3.22999999999995
23235,3.23499999999995
23240,3.23999999999995
23245,3.24499999999995
23250,3.24999999999995
23255,3.25499999999995
23260,3.25999999999995
23265,3.26499999999995
23270,3.26999999999995
23275,3.27499999999995
23280,3.27999999999995
23285,3.28499999999995
23290,3.28999999999995
23295,3.29499999999995
23300,3.29999999999995
23305,3.30499999999995
23310,3.30999999999995
23315,3.31499999999995
23320,3.31999999999995
23325,3.32499999999995
23330,3.32999999999995
23335,3.33499999999995
23340,3.33999999999995
23345,3.34499999999995
23350,3.34999999999995
23355,3.35499999999995
23360,3.35999999999995
23365,3.36499999999995
23370,3.36999999999995
23375,3.37499999999995
23380,3.37999999999995
23385,3.38499999999995
23390,3.38999999999995
23395,3.39499999999995
23400,3.39999999999995
23405,3.40499999999995
23410,3.40999999999995
23415,3.41499999999995
23420,3.41999999999995
23425,3.42499999999995
23430,3.42999999999995
23435,3.43499999999995
23440,3.43999999999995
23445,3.44499999999995
23450,3.44999999999995
23455,3.45499999999995
23460,3.45999999999995
23465,3.46499999999995
23470,3.46999999999995
23475,3.47499999999995
23480,3.47999999999995
23485,3.48499999999995
23490,3.48999999999995
23495,3.49499999999995
23500,3.49999999999995
23505,3.50499999999995
23510,3.50999999999995
23515,3.51499999999995
23520,3.51999999999995
23525,3.52499999999995
23530,3.52999999999995
23535,3.53499999999995
23540,3.53999999999995
23545,3.54499999999995
23550,3.54999999999995
23555,3.55499999999995
23560,3.55999999999995
23565,3.56499999999995
23570,3.56999999999995
23575,3.57499999999995
23580,3.57999999999995
23585,3.58499999999995
23590,3.58999999999995
23595,3.59499999999995
23600,3.59999999999995
23605,3.60499999999995
23610,3.60999999999995
23615,3.61499999999995
23620,3.61999999999995
23625,3.62499999999994
23630,3.62999999999994
23635,3.63499999999994
23640,3.63999999999994
23645,3.64499999999994
23650,3.64999999999994
23655,3.65499999999994
23660,3.65999999999994
23665,3.66499999999994
23670,3.66999999999994
23675,3.67499999999994
23680,3.67999999999994
23685,3.68499999999994
23690,3.68999999999994
23695,3.69499999999994
23700,3.69999999999994
23705,3.70499999999994
23710,3.70999999999994
23715,3.71499999999994
23720,3.71999999999994
23725,3.72499999999994
23730,3.72999999999994
23735,3.73499999999994
23740,3.73999999999994
23745,3.74499999999994
23750,3.74999999999994
23755,3.75499999999994
23760,3.75999999999994
23765,3.76499999999994
23770,3.76999999999994
23775,3.77499999999994
23780,3.77999999999994
23785,3.78499999999994
23790,3.78999999999994
23795,3.79499999999994
23800,3.79999999999994
23805,3.80499999999994
23810,3.80999999999994
23815,3.81499999999994
23820,3.81999999999994
23825,3.82499999999994
23830,3.82999999999994
23835,3.83499999999994
23840,3.83999999999994
23845,3.84499999999994
23850,3.84999999999994
23855,3.85499999999994
23860,3.85999999999994
23865,3.86499999999994
23870,3.86999999999994
23875,3.87499999999994
23880,3.87999999999994
23885,3.88499999999994
23890,3.88999999999994
23895,3.89499999999994
23900,3.89999999999994
23905,3.90499999999994
23910,3.90999999999994
23915,3.91499999999994
23920,3.91999999999994
23925,3.92499999999994
23930,3.92999999999994
23935,3.93499999999994
23940,3.93999999999994
23945,3.94499999999994
23950,3.94999999999994
23955,3.95499999999994
23960,3.95999999999994
23965,3.96499999999994
23970,3.96999999999994
23975,3.97499999999994
23980,3.97999999999994
23985,3.98499999999994
23990,3.98999999999994
23995,3.99499999999994
24000,3.99999999999994
24005,4.00499999999994
24010,4.00999999999994
24015,4.01499999999994
24020,4.01999999999994
24025,4.02499999999994
24030,4.02999999999994
24035,4.03499999999994
24040,4.03999999999994
24045,4.04499999999994
24050,4.04999999999994
24055,4.05499999999994
24060,4.05999999999994
24065,4.06499999999994
24070,4.06999999999994
24075,4.07499999999994
24080,4.07999999999994
24085,4.08499999999994
24090,4.08999999999994
24095,4.09499999999993
24100,4.09999999999993
24105,4.10499999999993
24110,4.10999999999993
24115,4.11499999999993
24120,4.11999999999993
24125,4.12499999999993
24130,4.12999999999993
24135,4.13499999999993
24140,4.13999999999993
24145,4.14499999999993
24150,4.14999999999993
24155,4.15499999999993
24160,4.15999999999993
24165,4.16499999999993
24170,4.16999999999993
24175,4.17499999999993
24180,4.17999999999993
24185,4.18499999999993
24190,4.18999999999993
24195,4.19499999999993
24200,4.19999999999993
24205,4.20499999999993
24210,4.20999999999993
24215,4.21499999999993
24220,4.21999999999993
24225,4.22499999999993
24230,4.22999999999993
24235,4.23499999999993
24240,4.23999999999993
24245,4.24499999999993
24250,4.24999999999993
24255,4.25499999999993
24260,4.25999999999993
24265,4.26499999999993
24270,4.26999999999993
24275,4.27499999999993
24280,4.27999999999993
24285,4.28499999999993
24290,4.28999999999993
24295,4.29499999999993
24300,4.29999999999993
24305,4.30499999999993
24310,4.30999999999993
24315,4.31499999999993
24320,4.31999999999993
24325,4.32499999999993
24330,4.32999999999993
24335,4.33499999999993
24340,4.33999999999993
24345,4.34499999999993
24350,4.34999999999993
24355,4.35499999999993
24360,4.35999999999993
24365,4.36499999999993
24370,4.36999999999993
24375,4.37499999999993
24380,4.37999999999993
24385,4.38499999999993
24390,4.38999999999993
24395,4.39499999999993
24400,4.39999999999993
24405,4.40499999999993
24410,4.40999999999993
24415,4.41499999999993
24420,4.41999999999993
24425,4.42499999999993
24430,4.42999999999993
24435,4.43499999999993
24440,4.43999999999993
24445,4.44499999999993
24450,4.44999999999993
24455,4.45499999999993
24460,4.45999999999993
24465,4.46499999999993
24470,4.46999999999993
24475,4.47499999999993
24480,4.47999999999993
24485,4.48499999999993
24490,4.48999999999993
24495,4.49499999999993
24500,4.49999999999993
24505,4.50499999999993
24510,4.50999999999993
24515,4.51499999999993
24520,4.51999999999993
24525,4.52499999999993
24530,4.52999999999993
24535,4.53499999999993
24540,4.53999999999993
24545,4.54499999999993
24550,4.54999999999993
24555,4.55499999999993
24560,4.55999999999993
24565,4.56499999999992
24570,4.56999999999992
24575,4.57499999999992
24580,4.57999999999992
24585,4.58499999999992
24590,4.58999999999992
24595,4.59499999999992
24600,4.59999999999992
24605,4.60499999999992
24610,4.60999999999992
24615,4.61499999999992
24620,4.61999999999992
24625,4.62499999999992
24630,4.62999999999992
24635,4.63499999999992
24640,4.63999999999992
24645,4.64499999999992
24650,4.64999999999992
24655,4.65499999999992
24660,4.65999999999992
24665,4.66499999999992
24670,4.66999999999992
24675,4.67499999999992
24680,4.67999999999992
24685,4.68499999999992
24690,4.68999999999992
24695,4.69499999999992
24700,4.69999999999992
24705,4.70499999999992
24710,4.70999999999992
24715,4.71499999999992
24720,4.71999999999992
24725,4.72499999999992
24730,4.72999999999992
24735,4.73499999999992
24740,4.73999999999992
24745,4.74499999999992
24750,4.74999999999992
24755,4.75499999999992
24760,4.75999999999992
24765,4.76499999999992
24770,4.76999999999992
24775,4.77499999999992
24780,4.77999999999992
24785,4.78499999999992
24790,4.78999999999992
24795,4.79499999999992
24800,4.79999999999992
24805,4.80499999999992
24810,4.80999999999992
24815,4.81499999999992
24820,4.81999999999992
24825,4.82499999999992
24830,4.82999999999992
24835,4.83499999999992
24840,4.83999999999992
24845,4.84499999999992
24850,4.84999999999992
24855,4.85499999999992
24860,4.85999999999992
24865,4.86499999999992
24870,4.86999999999992
24875,4.87499999999992
24880,4.87999999999992
24885,4.88499999999992
24890,4.88999999999992
24895,4.89499999999992
24900,4.89999999999992
24905,4.90499999999992
24910,4.90999999999992
24915,4.91499999999992
24920,4.91999999999992
24925,4.92499999999992
24930,4.92999999999992
24935,4.93499999999992
24940,4.93999999999992
24945,4.94499999999992
24950,4.94999999999992
24955,4.95499999999992
24960,4.95999999999992
24965,4.96499999999992
24970,4.96999999999992
24975,4.97499999999992
24980,4.97999999999992
24985,4.98499999999992
24990,4.98999999999992
24995,4.99499999999992
25000,4.99999999999992
25005,5.00499999999992
25010,5.00999999999992
25015,5.01499999999992
25020,5.01999999999992
25025,5.02499999999992
25030,5.02999999999991
25035,5.03499999999991
25040,5.03999999999991
25045,5.04499999999991
25050,5.04999999999991
25055,5.05499999999991
25060,5.05999999999991
25065,5.06499999999991
25070,5.06999999999991
25075,5.07499999999991
25080,5.07999999999991
25085,5.08499999999991
25090,5.08999999999991
25095,5.09499999999991
25100,5.09999999999991
25105,5.10499999999991
25110,5.10999999999991
25115,5.11499999999991
25120,5.11999999999991
25125,5.12499999999991
25130,5.12999999999991
25135,5.13499999999991
25140,5.13999999999991
25145,5.14499999999991
25150,5.14999999999991
25155,5.15499999999991
25160,5.15999999999991
25165,5.16499999999991
25170,5.16999999999991
25175,5.17499999999991
25180,5.17999999999991
25185,5.18499999999991
25190,5.18999999999991
25195,5.19499999999991
25200,5.19999999999991
25205,5.20499999999991
25210,5.20999999999991
25215,5.21499999999991
25220,5.21999999999991
25225,5.22499999999991
25230,5.22999999999991
25235,5.23499999999991
25240,5.23999999999991
25245,5.24499999999991
25250,5.24999999999991
25255,5.25499999999991
25260,5.25999999999991
25265,5.26499999999991
25270,5.26999999999991
25275,5.27499999999991
25280,5.27999999999991
25285,5.28499999999991
25290,5.28999999999991
25295,5.29499999999991
25300,5.29999999999991
25305,5.30499999999991
25310,5.30999999999991
25315,5.31499999999991
25320,5.31999999999991
25325,5.32499999999991
25330,5.32999999999991
25335,5.33499999999991
25340,5.33999999999991
25345,5.34499999999991
25350,5.34999999999991
25355,5.35499999999991
25360,5.35999999999991
25365,5.36499999999991
25370,5.36999999999991
25375,5.37499999999991
25380,5.37999999999991
25385,5.38499999999991
25390,5.38999999999991
25395,5.39499999999991
25400,5.39999999999991
25405,5.40499999999991
25410,5.40999999999991
25415,5.41499999999991
25420,5.41999999999991
25425,5.42499999999991
25430,5.42999999999991
25435,5.43499999999991
25440,5.43999999999991
25445,5.44499999999991
25450,5.44999999999991
25455,5.45499999999991
25460,5.45999999999991
25465,5.46499999999991
25470,5.46999999999991
25475,5.47499999999991
25480,5.47999999999991
25485,5.48499999999991
25490,5.48999999999991
25495,5.49499999999991
25500,5.4999999999999
25505,5.5049999999999
25510,5.5099999999999
25515,5.5149999999999
25520,5.5199999999999
25525,5.5249999999999
25530,5.5299999999999
25535,5.5349999999999
25540,5.5399999999999
25545,5.5449999999999
25550,5.5499999999999
25555,5.5549999999999
25560,5.5599999999999
25565,5.5649999999999
25570,5.5699999999999
25575,5.5749999999999
25580,5.5799999999999
25585,5.5849999999999
25590,5.5899999999999
25595,5.5949999999999
25600,5.5999999999999
25605,5.6049999999999
25610,5.6099999999999
25615,5.6149999999999
25620,5.6199999999999
25625,5.6249999999999
25630,5.6299999999999
25635,5.6349999999999
25640,5.6399999999999
25645,5.6449999999999
25650,5.6499999999999
25655,5.6549999999999
25660,5.6599999999999
25665,5.6649999999999
25670,5.6699999999999
25675,5.6749999999999
25680,5.6799999999999
25685,5.6849999999999
25690,5.6899999999999
25695,5.6949999999999
25700,5.6999999999999
25705,5.7049999999999
25710,5.7099999999999
25715,5.7149999999999
25720,5.7199999999999
25725,5.7249999999999
25730,5.7299999999999
25735,5.7349999999999
25740,5.7399999999999
25745,5.7449999999999
25750,5.7499999999999
25755,5.7549999999999
25760,5.7599999999999
25765,5.7649999999999
25770,5.7699999999999
25775,5.7749999999999
25780,5.7799999999999
25785,5.7849999999999
25790,5.7899999999999
25795,5.7949999999999
25800,5.7999999999999
25805,5.8049999999999
25810,5.8099999999999
25815,5.8149999999999
25820,5.8199999999999
25825,5.8249999999999
25830,5.8299999999999
25835,5.8349999999999
25840,5.8399999999999
25845,5.8449999999999
25850,5.8499999999999
25855,5.8549999999999
25860,5.8599999999999
25865,5.8649999999999
25870,5.8699999999999
25875,5.8749999999999
25880,5.8799999999999
25885,5.8849999999999
25890,5.8899999999999
25895,5.8949999999999
25900,5.8999999999999
25905,5.9049999999999
25910,5.9099999999999
25915,5.9149999999999
25920,5.9199999999999
25925,5.9249999999999
25930,5.9299999999999
25935,5.9349999999999
25940,5.9399999999999
25945,5.9449999999999
25950,5.9499999999999
25955,5.9549999999999
25960,5.9599999999999
25965,5.9649999999999
25970,5.96999999999989
25975,5.97499999999989
25980,5.97999999999989
25985,5.98499999999989
25990,5.98999999999989
25995,5.99499999999989
26000,5.99999999999989
26005,6.00499999999989
26010,6.00999999999989
26015,6.01499999999989
26020,6.01999999999989
26025,6.02499999999989
26030,6.02999999999989
26035,6.03499999999989
26040,6.03999999999989
26045,6.04499999999989
26050,6.04999999999989
26055,6.05499999999989
26060,6.05999999999989
26065,6.06499999999989
26070,6.06999999999989
26075,6.07499999999989
26080,6.07999999999989
26085,6.08499999999989
26090,6.08999999999989
26095,6.09499999999989
26100,6.09999999999989
26105,6.10499999999989
26110,6.10999999999989
26115,6.11499999999989
26120,6.11999999999989
26125,6.12499999999989
26130,6.12999999999989
26135,6.13499999999989
26140,6.13999999999989
26145,6.14499999999989
26150,6.14999999999989
26155,6.15499999999989
26160,6.15999999999989
26165,6.16499999999989
26170,6.16999999999989
26175,6.17499999999989
26180,6.17999999999989
26185,6.18499999999989
26190,6.18999999999989
26195,6.19499999999989
26200,6.19999999999989
26205,6.20499999999989
26210,6.20999999999989
26215,6.21499999999989
26220,6.21999999999989
26225,6.22499999999989
26230,6.22999999999989
26235,6.23499999999989
26240,6.23999999999989
26245,6.24499999999989
26250,6.24999999999989
26255,6.25499999999989
26260,6.25999999999989
26265,6.26499999999989
26270,6.26999999999989
26275,6.27499999999989
26280,6.27999999999989
26285,6.28499999999989
26290,6.28999999999989
26295,6.29499999999989
26300,6.29999999999989
26305,6.30499999999989
26310,6.30999999999989
26315,6.31499999999989
26320,6.31999999999989
26325,6.32499999999989
26330,6.32999999999989
26335,6.33499999999989
26340,6.33999999999989
26345,6.34499999999989
26350,6.34999999999989
26355,6.35499999999989
26360,6.35999999999989
26365,6.36499999999989
26370,6.36999999999989
26375,6.37499999999989
26380,6.37999999999989
26385,6.38499999999989
26390,6.38999999999989
26395,6.39499999999989
26400,6.39999999999989
26405,6.40499999999989
26410,6.40999999999989
26415,6.41499999999989
26420,6.41999999999989
26425,6.42499999999989
26430,6.42999999999989
26435,6.43499999999989
26440,6.43999999999988
26445,6.44499999999988
26450,6.44999999999988
26455,6.45499999999988
26460,6.45999999999988
26465,6.46499999999988
26470,6.46999999999988
26475,6.47499999999988
26480,6.47999999999988
26485,6.48499999999988
26490,6.48999999999988
26495,6.49499999999988
26500,6.49999999999988
26505,6.50499999999988
26510,6.50999999999988
26515,6.51499999999988
26520,6.51999999999988
26525,6.52499999999988
26530,6.52999999999988
26535,6.53499999999988
26540,6.53999999999988
26545,6.54499999999988
26550,6.54999999999988
26555,6.55499999999988
26560,6.55999999999988
26565,6.56499999999988
26570,6.56999999999988
26575,6.57499999999988
26580,6.57999999999988
26585,6.58499999999988
26590,6.58999999999988
26595,6.59499999999988
26600,6.59999999999988
26605,6.60499999999988
26610,6.60999999999988
26615,6.61499999999988
26620,6.61999999999988
26625,6.62499999999988
26630,6.62999999999988
26635,6.63499999999988
26640,6.63999999999988
26645,6.64499999999988
26650,6.64999999999988
26655,6.65499999999988
26660,6.65999999999988
26665,6.66499999999988
26670,6.66999999999988
26675,6.67499999999988
26680,6.67999999999988
26685,6.68499999999988
26690,6.68999999999988
26695,6.69499999999988
26700,6.69999999999988
26705,6.70499999999988
26710,6.70999999999988
26715,6.71499999999988
26720,6.71999999999988
26725,6.72499999999988
26730,6.72999999999988
26735,6.73499999999988
26740,6.73999999999988
26745,6.74499999999988
26750,6.74999999999988
26755,6.75499999999988
26760,6.75999999999988
26765,6.76499999999988
26770,6.76999999999988
26775,6.77499999999988
26780,6.77999999999988
26785,6.78499999999988
26790,6.78999999999988
26795,6.79499999999988
26800,6.79999999999988
26805,6.80499999999988
26810,6.80999999999988
26815,6.81499999999988
26820,6.81999999999988
26825,6.82499999999988
26830,6.82999999999988
26835,6.83499999999988
26840,6.83999999999988
26845,6.84499999999988
26850,6.84999999999988
26855,6.85499999999988
26860,6.85999999999988
26865,6.86499999999988
26870,6.86999999999988
26875,6.87499999999988
26880,6.87999999999988
26885,6.88499999999988
26890,6.88999999999988
26895,6.89499999999988
26900,6.89999999999988
26905,6.90499999999988
26910,6.90999999999987
26915,6.91499999999987
26920,6.91999999999987
26925,6.92499999999987
26930,6.92999999999987
26935,6.93499999999987
26940,6.93999999999987
26945,6.94499999999987
26950,6.94999999999987
26955,6.95499999999987
26960,6.95999999999987
26965,6.96499999999987
26970,6.96999999999987
26975,6.97499999999987
26980,6.97999999999987
26985,6.98499999999987
26990,6.98999999999987
26995,6.99499999999987
27000,6.99999999999987
27005,7.00499999999987
27010,7.00999999999987
27015,7.01499999999987
27020,7.01999999999987
27025,7.02499999999987
27030,7.02999999999987
27035,7.03499999999987
27040,7.03999999999987
27045,7.04499999999987
27050,7.04999999999987
27055,7.05499999999987
27060,7.05999999999987
27065,7.06499999999987
27070,7.06999999999987
27075,7.07499999999987
27080,7.07999999999987
27085,7.08499999999987
27090,7.08999999999987
27095,7.09499999999987
27100,7.09999999999987
27105,7.10499999999987
27110,7.10999999999987
27115,7.11499999999987
27120,7.11999999999987
27125,7.12499999999987
27130,7.12999999999987
27135,7.13499999999987
27140,7.13999999999987
27145,7.14499999999987
27150,7.14999999999987
27155,7.15499999999987
27160,7.15999999999987
27165,7.16499999999987
27170,7.16999999999987
27175,7.17499999999987
27180,7.17999999999987
27185,7.18499999999987
27190,7.18999999999987
27195,7.19499999999987
27200,7.19999999999987
27205,7.20499999999987
27210,7.20999999999987
27215,7.21499999999987
27220,7.21999999999987
27225,7.22499999999987
27230,7.22999999999987
27235,7.23499999999987
27240,7.23999999999987
27245,7.24499999999987
27250,7.24999999999987
27255,7.25499999999987
27260,7.25999999999987
27265,7.26499999999987
27270,7.26999999999987
27275,7.27499999999987
27280,7.27999999999987
27285,7.28499999999987
27290,7.28999999999987
27295,7.29499999999987
27300,7.29999999999987
27305,7.30499999999987
27310,7.30999999999987
27315,7.31499999999987
27320,7.31999999999987
27325,7.32499999999987
27330,7.32999999999987
27335,7.33499999999987
27340,7.33999999999987
27345,7.34499999999987
27350,7.34999999999987
27355,7.35499999999987
27360,7.35999999999987
27365,7.36499999999987
27370,7.36999999999987
27375,7.37499999999986
27380,7.37999999999986
27385,7.38499999999986
27390,7.38999999999986
27395,7.39499999999986
27400,7.39999999999986
27405,7.40499999999986
27410,7.40999999999986
27415,7.41499999999986
27420,7.41999999999986
27425,7.42499999999986
27430,7.42999999999986
27435,7.43499999999986
27440,7.43999999999986
27445,7.44499999999986
27450,7.44999999999986
27455,7.45499999999986
27460,7.45999999999986
27465,7.46499999999986
27470,7.46999999999986
27475,7.47499999999986
27480,7.47999999999986
27485,7.48499999999986
27490,7.48999999999986
27495,7.49499999999986
27500,7.49999999999986
27505,7.50499999999986
27510,7.50999999999986
27515,7.51499999999986
27520,7.51999999999986
27525,7.52499999999986
27530,7.52999999999986
27535,7.53499999999986
27540,7.53999999999986
27545,7.54499999999986
27550,7.54999999999986
27555,7.55499999999986
27560,7.55999999999986
27565,7.56499999999986
27570,7.56999999999986
27575,7.57499999999986
27580,7.57999999999986
27585,7.58499999999986
27590,7.58999999999986
27595,7.59499999999986
27600,7.59999999999986
27605,7.60499999999986
27610,7.60999999999986
27615,7.61499999999986
27620,7.61999999999986
27625,7.62499999999986
27630,7.62999999999986
27635,7.63499999999986
27640,7.63999999999986
27645,7.64499999999986
27650,7.64999999999986
27655,7.65499999999986
27660,7.65999999999986
27665,7.66499999999986
27670,7.66999999999986
27675,7.67499999999986
27680,7.67999999999986
27685,7.68499999999986
27690,7.68999999999986
27695,7.69499999999986
27700,7.69999999999986
27705,7.70499999999986
27710,7.70999999999986
27715,7.71499999999986
27720,7.71999999999986
27725,7.72499999999986
27730,7.72999999999986
27735,7.73499999999986
27740,7.73999999999986
27745,7.74499999999986
27750,7.74999999999986
27755,7.75499999999986
27760,7.75999999999986
27765,7.76499999999986
27770,7.76999999999986
27775,7.77499999999986
27780,7.77999999999986
27785,7.78499999999986
27790,7.78999999999986
27795,7.79499999999986
27800,7.79999999999986
27805,7.80499999999986
27810,7.80999999999986
27815,7.81499999999986
27820,7.81999999999986
27825,7.82499999999986
27830,7.82999999999986
27835,7.83499999999986
27840,7.83999999999986
27845,7.84499999999985
27850,7.84999999999985
27855,7.85499999999985
27860,7.85999999999985
27865,7.86499999999985
27870,7.86999999999985
27875,7.87499999999985
27880,7.87999999999985
27885,7.88499999999985
27890,7.88999999999985
27895,7.89499999999985
27900,7.89999999999985
27905,7.90499999999985
27910,7.90999999999985
27915,7.91499999999985
27920,7.91999999999985
27925,7.92499999999985
27930,7.92999999999985
27935,7.93499999999985
27940,7.93999999999985
27945,7.94499999999985
27950,7.94999999999985
27955,7.95499999999985
27960,7.95999999999985
27965,7.96499999999985
27970,7.96999999999985
27975,7.97499999999985
27980,7.97999999999985
27985,7.98499999999985
27990,7.98999999999985
27995,7.99499999999985
28000,7.99999999999985
28005,8.00499999999985
28010,8.00999999999985
28015,8.01499999999985
28020,8.01999999999985
28025,8.02499999999985
28030,8.02999999999986
28035,8.03499999999986
28040,8.03999999999986
28045,8.04499999999986
28050,8.04999999999986
28055,8.05499999999986
28060,8.05999999999986
28065,8.06499999999986
28070,8.06999999999986
28075,8.07499999999986
28080,8.07999999999986
28085,8.08499999999986
28090,8.08999999999986
28095,8.09499999999987
28100,8.09999999999987
28105,8.10499999999987
28110,8.10999999999987
28115,8.11499999999987
28120,8.11999999999987
28125,8.12499999999987
28130,8.12999999999987
28135,8.13499999999987
28140,8.13999999999987
28145,8.14499999999987
28150,8.14999999999987
28155,8.15499999999988
28160,8.15999999999988
28165,8.16499999999988
28170,8.16999999999988
28175,8.17499999999988
28180,8.17999999999988
28185,8.18499999999988
28190,8.18999999999988
28195,8.19499999999988
28200,8.19999999999988
28205,8.20499999999988
28210,8.20999999999988
28215,8.21499999999988
28220,8.21999999999989
28225,8.22499999999989
28230,8.22999999999989
28235,8.23499999999989
28240,8.23999999999989
28245,8.24499999999989
28250,8.24999999999989
28255,8.25499999999989
28260,8.25999999999989
28265,8.26499999999989
28270,8.26999999999989
28275,8.27499999999989
28280,8.27999999999989
28285,8.2849999999999
28290,8.2899999999999
28295,8.2949999999999
28300,8.2999999999999
28305,8.3049999999999
28310,8.3099999999999
28315,8.3149999999999
28320,8.3199999999999
28325,8.3249999999999
28330,8.3299999999999
28335,8.3349999999999
28340,8.3399999999999
28345,8.3449999999999
28350,8.34999999999991
28355,8.35499999999991
28360,8.35999999999991
28365,8.36499999999991
28370,8.36999999999991
28375,8.37499999999991
28380,8.37999999999991
28385,8.38499999999991
28390,8.38999999999991
28395,8.39499999999991
28400,8.39999999999991
28405,8.40499999999991
28410,8.40999999999991
28415,8.41499999999992
28420,8.41999999999992
28425,8.42499999999992
28430,8.42999999999992
28435,8.43499999999992
28440,8.43999999999992
28445,8.44499999999992
28450,8.44999999999992
28455,8.45499999999992
28460,8.45999999999992
28465,8.46499999999992
28470,8.46999999999992
28475,8.47499999999993
28480,8.47999999999993
28485,8.48499999999993
28490,8.48999999999993
28495,8.49499999999993
28500,8.49999999999993
28505,8.50499999999993
28510,8.50999999999993
28515,8.51499999999993
28520,8.51999999999993
28525,8.52499999999993
28530,8.52999999999993
28535,8.53499999999993
28540,8.53999999999994
28545,8.54499999999994
28550,8.54999999999994
28555,8.55499999999994
28560,8.55999999999994
28565,8.56499999999994
28570,8.56999999999994
28575,8.57499999999994
28580,8.57999999999994
28585,8.58499999999994
28590,8.58999999999994
28595,8.59499999999994
28600,8.59999999999994
28605,8.60499999999995
28610,8.60999999999995
28615,8.61499999999995
28620,8.61999999999995
28625,8.62499999999995
28630,8.62999999999995
28635,8.63499999999995
28640,8.63999999999995
28645,8.64499999999995
28650,8.64999999999995
28655,8.65499999999995
28660,8.65999999999995
28665,8.66499999999995
28670,8.66999999999996
28675,8.67499999999996
28680,8.67999999999996
28685,8.68499999999996
28690,8.68999999999996
28695,8.69499999999996
28700,8.69999999999996
28705,8.70499999999996
28710,8.70999999999996
28715,8.71499999999996
28720,8.71999999999996
28725,8.72499999999996
28730,8.72999999999996
28735,8.73499999999997
28740,8.73999999999997
28745,8.74499999999997
28750,8.74999999999997
28755,8.75499999999997
28760,8.75999999999997
28765,8.76499999999997
28770,8.76999999999997
28775,8.77499999999997
28780,8.77999999999997
28785,8.78499999999997
28790,8.78999999999997
28795,8.79499999999998
28800,8.79999999999998
28805,8.80499999999998
28810,8.80999999999998
28815,8.81499999999998
28820,8.81999999999998
28825,8.82499999999998
28830,8.82999999999998
28835,8.83499999999998
28840,8.83999999999998
28845,8.84499999999998
28850,8.84999999999998
28855,8.85499999999998
28860,8.85999999999999
28865,8.86499999999999
28870,8.86999999999999
28875,8.87499999999999
28880,8.87999999999999
28885,8.88499999999999
28890,8.88999999999999
28895,8.89499999999999
28900,8.89999999999999
28905,8.90499999999999
28910,8.90999999999999
28915,8.91499999999999
28920,8.91999999999999
28925,8.925
28930,8.93
28935,8.935
28940,8.94
28945,8.945
28950,8.95
28955,8.955
28960,8.96
28965,8.965
28970,8.97
28975,8.975
28980,8.98
28985,8.985
28990,8.99000000000001
28995,8.99500000000001
29000,9.00000000000001
29005,9.00500000000001
29010,9.01000000000001
29015,9.01500000000001
29020,9.02000000000001
29025,9.02500000000001
29030,9.03000000000001
29035,9.03500000000001
29040,9.04000000000001
29045,9.04500000000001
29050,9.05000000000001
29055,9.05500000000002
29060,9.06000000000002
29065,9.06500000000002
29070,9.07000000000002
29075,9.07500000000002
29080,9.08000000000002
29085,9.08500000000002
29090,9.09000000000002
29095,9.09500000000002
29100,9.10000000000002
29105,9.10500000000002
29110,9.11000000000002
29115,9.11500000000003
29120,9.12000000000003
29125,9.12500000000003
29130,9.13000000000003
29135,9.13500000000003
29140,9.14000000000003
29145,9.14500000000003
29150,9.15000000000003
29155,9.15500000000003
29160,9.16000000000003
29165,9.16500000000003
29170,9.17000000000003
29175,9.17500000000003
29180,9.18000000000004
29185,9.18500000000004
29190,9.19000000000004
29195,9.19500000000004
29200,9.20000000000004
29205,9.20500000000004
29210,9.21000000000004
29215,9.21500000000004
29220,9.22000000000004
29225,9.22500000000004
29230,9.23000000000004
29235,9.23500000000004
29240,9.24000000000004
29245,9.24500000000005
29250,9.25000000000005
29255,9.25500000000005
29260,9.26000000000005
29265,9.26500000000005
29270,9.27000000000005
29275,9.27500000000005
29280,9.28000000000005
29285,9.28500000000005
29290,9.29000000000005
29295,9.29500000000005
29300,9.30000000000005
29305,9.30500000000005
29310,9.31000000000006
29315,9.31500000000006
29320,9.32000000000006
29325,9.32500000000006
29330,9.33000000000006
29335,9.33500000000006
29340,9.34000000000006
29345,9.34500000000006
29350,9.35000000000006
29355,9.35500000000006
29360,9.36000000000006
29365,9.36500000000006
29370,9.37000000000006
29375,9.37500000000007
29380,9.38000000000007
29385,9.38500000000007
29390,9.39000000000007
29395,9.39500000000007
29400,9.40000000000007
29405,9.40500000000007
29410,9.41000000000007
29415,9.41500000000007
29420,9.42000000000007
29425,9.42500000000007
29430,9.43000000000007
29435,9.43500000000008
29440,9.44000000000008
29445,9.44500000000008
29450,9.45000000000008
29455,9.45500000000008
29460,9.46000000000008
29465,9.46500000000008
29470,9.47000000000008
29475,9.47500000000008
29480,9.48000000000008
29485,9.48500000000008
29490,9.49000000000008
29495,9.49500000000008
29500,9.50000000000009
29505,9.50500000000009
29510,9.51000000000009
29515,9.51500000000009
29520,9.52000000000009
29525,9.52500000000009
29530,9.53000000000009
29535,9.53500000000009
29540,9.54000000000009
29545,9.54500000000009
29550,9.55000000000009
29555,9.55500000000009
29560,9.56000000000009
29565,9.5650000000001
29570,9.5700000000001
29575,9.5750000000001
29580,9.5800000000001
29585,9.5850000000001
29590,9.5900000000001
29595,9.5950000000001
29600,9.6000000000001
29605,9.6050000000001
29610,9.6100000000001
29615,9.6150000000001
29620,9.6200000000001
29625,9.6250000000001
29630,9.63000000000011
29635,9.63500000000011
29640,9.64000000000011
29645,9.64500000000011
29650,9.65000000000011
29655,9.65500000000011
29660,9.66000000000011
29665,9.66500000000011
29670,9.67000000000011
29675,9.67500000000011
29680,9.68000000000011
29685,9.68500000000011
29690,9.69000000000011
29695,9.69500000000012
29700,9.70000000000012
29705,9.70500000000012
29710,9.71000000000012
29715,9.71500000000012
29720,9.72000000000012
29725,9.72500000000012
29730,9.73000000000012
29735,9.73500000000012
29740,9.74000000000012
29745,9.74500000000012
29750,9.75000000000012
29755,9.75500000000013
29760,9.76000000000013
29765,9.76500000000013
29770,9.77000000000013
29775,9.77500000000013
29780,9.78000000000013
29785,9.78500000000013
29790,9.79000000000013
29795,9.79500000000013
29800,9.80000000000013
29805,9.80500000000013
29810,9.81000000000013
29815,9.81500000000013
29820,9.82000000000014
29825,9.82500000000014
29830,9.83000000000014
29835,9.83500000000014
29840,9.84000000000014
29845,9.84500000000014
29850,9.85000000000014
29855,9.85500000000014
29860,9.86000000000014
29865,9.86500000000014
29870,9.87000000000014
29875,9.87500000000014
29880,9.88000000000014
29885,9.88500000000015
29890,9.89000000000015
29895,9.89500000000015
29900,9.90000000000015
29905,9.90500000000015
29910,9.91000000000015
29915,9.91500000000015
29920,9.92000000000015
29925,9.92500000000015
29930,9.93000000000015
29935,9.93500000000015
29940,9.94000000000015
29945,9.94500000000015
29950,9.95000000000016
29955,9.95500000000016
29960,9.96000000000016
29965,9.96500000000016
29970,9.97000000000016
29975,9.97500000000016
29980,9.98000000000016
29985,9.98500000000016
29990,9.99000000000016
29995,9.99500000000016
30000,10.0000000000002
