"Physical Time: Physical Time (s)","Solver Elapsed Time per Time Step Monitor: Solver Elapsed Time per Time Step (s)"
0.005,0.171777248382568
0.01,0.141953706741333
0.015,0.185417652130127
0.02,0.146176815032959
0.025,0.147961139678955
0.03,0.149761199951172
0.035,0.149861335754395
0.04,0.152409315109253
0.045,0.153066396713257
0.05,0.151030302047729
0.055,0.203860998153687
0.06,0.149116516113281
0.065,0.149724006652832
0.07,0.185284852981567
0.075,0.146145343780518
0.08,0.145826578140259
0.085,0.145509243011475
0.09,0.145843744277954
0.095,0.145660638809204
0.1,0.146402597427368
0.105,0.146677017211914
0.11,0.146899223327637
0.115,0.146317720413208
0.12,0.151933670043945
0.125,0.149895429611206
0.13,0.146287679672241
0.135,0.147356033325195
0.14,0.146616697311401
0.145,0.146823406219482
0.15,0.146214962005615
0.155,0.148711442947388
0.16,0.148499488830566
0.165,0.14716625213623
0.17,0.147732973098755
0.175,0.149115085601807
0.18,0.147627353668213
0.185,0.147544384002686
0.19,0.148167610168457
0.195,0.148137092590332
0.2,0.147670984268188
0.205,0.148331165313721
0.21,0.14884614944458
0.215,0.148646354675293
0.22,0.148986101150513
0.225,0.14887523651123
0.23,0.150148868560791
0.235,0.149457931518555
0.24,0.149372816085815
0.245,0.149183750152588
0.25,0.148910045623779
0.255,0.149219989776611
0.26,0.148942947387695
0.265,0.149308681488037
0.27,0.149187088012695
0.275,0.149739742279053
0.28,0.148382663726807
0.285,0.149561643600464
0.29,0.148796319961548
0.295,0.149150609970093
0.3,0.148766994476318
0.305,0.149009227752686
0.31,0.148883581161499
0.315,0.149324178695679
0.32,0.149930477142334
0.325,0.149245262145996
0.33,0.148586750030518
0.335,0.149082660675049
0.34,0.148986339569092
0.345,0.149512052536011
0.35,0.149052143096924
0.355,0.149494647979736
0.36,0.149762392044067
0.365,0.148643732070923
0.37,0.148447036743164
0.375,0.148611545562744
0.38,0.148437738418579
0.385,0.148865938186646
0.39,0.148378133773804
0.395,0.148604393005371
0.4,0.148954629898071
0.405,0.148428201675415
0.41,0.147952079772949
0.415,0.148533344268799
0.42,0.148414850234985
0.425,0.148901224136353
0.43,0.149216651916504
0.435,0.149488925933838
0.44,0.149919748306274
0.445,0.149376392364502
0.45,0.148900508880615
0.455,0.154823780059814
0.46,0.149183750152588
0.465,0.148904800415039
0.47,0.149158239364624
0.475,0.14888072013855
0.48,0.149796009063721
0.485,0.148712873458862
0.49,0.147613763809204
0.495,0.149875640869141
0.5,0.1475830078125
0.505,0.148298263549805
0.51,0.147132396697998
0.515,0.146876096725464
0.52,0.148560762405396
0.525,0.149176120758057
0.53,0.148053884506226
0.535,0.14631986618042
0.54,0.148015022277832
0.545,0.147358894348145
0.55,0.147197723388672
0.555,0.146710872650146
0.56,0.148279190063477
0.565,0.148052453994751
0.57,0.149202108383179
0.575,0.148951530456543
0.58,0.149604082107544
0.585,0.149062156677246
0.59,0.149065494537354
0.595,0.148127317428589
0.6,0.149872779846191
0.605,0.149757146835327
0.61,0.149366140365601
0.615,0.149775266647339
0.62,0.148909091949463
0.625,0.14902925491333
0.63,0.149629354476929
0.635,0.149002552032471
0.64,0.14909291267395
0.645,0.148057460784912
0.65,0.148701429367065
0.655,0.149177551269531
0.66,0.14868950843811
0.665,0.148954391479492
0.67,0.1491379737854
0.675,0.149117469787598
0.68,0.149121284484863
0.685,0.149082660675049
0.690000000000001,0.14954662322998
0.695000000000001,0.148573398590088
0.700000000000001,0.147992134094238
0.705000000000001,0.148067712783813
0.710000000000001,0.148754596710205
0.715000000000001,0.149804830551147
0.720000000000001,0.148565053939819
0.725000000000001,0.148707151412964
0.730000000000001,0.148825645446777
0.735000000000001,0.148407459259033
0.740000000000001,0.148091793060303
0.745000000000001,0.1483154296875
0.750000000000001,0.147847414016724
0.755000000000001,0.148803234100342
0.760000000000001,0.148341417312622
0.765000000000001,0.147969007492065
0.770000000000001,0.149399518966675
0.775000000000001,0.157627820968628
0.780000000000001,0.147075176239014
0.785000000000001,0.14812445640564
0.790000000000001,0.151167154312134
0.795000000000001,0.148180723190308
0.800000000000001,0.148536205291748
0.805000000000001,0.147878885269165
0.810000000000001,0.149358510971069
0.815000000000001,0.147433280944824
0.820000000000001,0.148018836975098
0.825000000000001,0.147218942642212
0.830000000000001,0.147767066955566
0.835000000000001,0.147013902664185
0.840000000000001,0.147819995880127
0.845000000000001,0.148048162460327
0.850000000000001,0.147754192352295
0.855000000000001,0.148036956787109
0.860000000000001,0.148873805999756
0.865000000000001,0.148571014404297
0.870000000000001,0.147991895675659
0.875000000000001,0.148593902587891
0.880000000000001,0.148793935775757
0.885000000000001,0.147925138473511
0.890000000000001,0.148190498352051
0.895000000000001,0.148642778396606
0.900000000000001,0.148993492126465
0.905000000000001,0.148536205291748
0.910000000000001,0.148124694824219
0.915000000000001,0.146530866622925
0.920000000000001,0.147498846054077
0.925000000000001,0.146534204483032
0.930000000000001,0.147441625595093
0.935000000000001,0.147201299667358
0.940000000000001,0.147870063781738
0.945000000000001,0.148315906524658
0.950000000000001,0.146701812744141
0.955000000000001,0.146446466445923
0.960000000000001,0.147583723068237
0.965000000000001,0.147960186004639
0.970000000000001,0.145944833755493
0.975000000000001,0.148407459259033
0.980000000000001,0.147835254669189
0.985000000000001,0.148063659667969
0.990000000000001,0.147643566131592
0.995000000000001,0.14686918258667
1,0.148743152618408
1.005,0.146651983261108
1.01,0.14610767364502
1.015,0.147629022598267
1.02,0.146720170974731
1.025,0.148195266723633
1.03,0.145740985870361
1.035,0.146929979324341
1.04,0.146188974380493
1.045,0.145901441574097
1.05,0.146437644958496
1.055,0.146294593811035
1.06,0.146607637405396
1.065,0.146389722824097
1.07,0.147229194641113
1.075,0.146939277648926
1.08,0.146662950515747
1.085,0.14606237411499
1.09,0.146405458450317
1.095,0.145969152450562
1.1,0.146124124526978
1.105,0.146578788757324
1.11,0.145746231079102
1.115,0.146020174026489
1.12,0.148252248764038
1.125,0.146369457244873
1.13,0.147356510162354
1.135,0.149171113967896
1.14,0.148587465286255
1.145,0.147504091262817
1.15,0.148159027099609
1.155,0.152683734893799
1.16,0.148409843444824
1.165,0.147391080856323
1.17,0.157963514328003
1.175,0.147179365158081
1.18,0.147038221359253
1.185,0.152067184448242
1.19,0.149772882461548
1.195,0.169926404953003
1.2,0.14704704284668
1.205,0.148775339126587
1.21,0.148155689239502
1.215,0.147632122039795
1.22,0.14800500869751
1.225,0.147971868515015
1.23,0.14715838432312
1.235,0.148255825042725
1.24,0.148433923721313
1.245,0.146999359130859
1.25,0.147515058517456
1.255,0.148185253143311
1.26,0.148108005523682
1.265,0.148443460464478
1.26999999999999,0.147556066513062
1.27499999999999,0.147485256195068
1.27999999999999,0.146873950958252
1.28499999999999,0.147478818893433
1.28999999999999,0.148809909820557
1.29499999999999,0.14766263961792
1.29999999999999,0.147287845611572
1.30499999999999,0.147792816162109
1.30999999999999,0.147743463516235
1.31499999999999,0.14761757850647
1.31999999999999,0.147990703582764
1.32499999999999,0.149107694625854
1.32999999999999,0.147545099258423
1.33499999999999,0.148719310760498
1.33999999999999,0.150613307952881
1.34499999999999,0.148492097854614
1.34999999999999,0.148360252380371
1.35499999999999,0.150919675827026
1.35999999999999,0.151638507843018
1.36499999999999,0.147542476654053
1.36999999999999,0.148384809494019
1.37499999999999,0.150086879730225
1.37999999999999,0.147976636886597
1.38499999999999,0.147218704223633
1.38999999999999,0.148868083953857
1.39499999999999,0.149868965148926
1.39999999999999,0.14792013168335
1.40499999999999,0.149244785308838
1.40999999999999,0.150858879089355
1.41499999999999,0.148257732391357
1.41999999999999,0.147624015808105
1.42499999999999,0.149995565414429
1.42999999999999,0.14890718460083
1.43499999999999,0.148935079574585
1.43999999999999,0.148459196090698
1.44499999999999,0.150922298431396
1.44999999999999,0.14736270904541
1.45499999999999,0.149306297302246
1.45999999999999,0.149482727050781
1.46499999999999,0.14731240272522
1.46999999999999,0.147426605224609
1.47499999999999,0.178678035736084
1.47999999999999,0.147013425827026
1.48499999999999,0.147325038909912
1.48999999999999,0.147548913955688
1.49499999999999,0.147405385971069
1.49999999999999,0.147201776504517
1.50499999999999,0.147138118743896
1.50999999999999,0.147277116775513
1.51499999999999,0.14783787727356
1.51999999999999,0.147697925567627
1.52499999999999,0.14905834197998
1.52999999999999,0.14740252494812
1.53499999999999,0.147414922714233
1.53999999999999,0.148163080215454
1.54499999999999,0.147026062011719
1.54999999999999,0.147784233093262
1.55499999999999,0.147295713424683
1.55999999999999,0.148173093795776
1.56499999999999,0.147163867950439
1.56999999999999,0.147988557815552
1.57499999999999,0.147319078445435
1.57999999999999,0.146977424621582
1.58499999999999,0.146715402603149
1.58999999999999,0.14774227142334
1.59499999999999,0.147935390472412
1.59999999999999,0.146821022033691
1.60499999999999,0.146641731262207
1.60999999999999,0.147072553634644
1.61499999999999,0.14716100692749
1.61999999999999,0.147100687026978
1.62499999999999,0.146509885787964
1.62999999999999,0.146797180175781
1.63499999999999,0.148650884628296
1.63999999999999,0.147290706634521
1.64499999999999,0.147027254104614
1.64999999999999,0.146583318710327
1.65499999999999,0.147997379302979
1.65999999999999,0.147361040115356
1.66499999999999,0.146541833877563
1.66999999999999,0.148991107940674
1.67499999999999,0.147733211517334
1.67999999999999,0.146876573562622
1.68499999999999,0.147028207778931
1.68999999999999,0.148510932922363
1.69499999999999,0.147997379302979
1.69999999999999,0.147628307342529
1.70499999999999,0.1490478515625
1.70999999999999,0.148508548736572
1.71499999999999,0.146866798400879
1.71999999999999,0.147661447525024
1.72499999999999,0.148003339767456
1.72999999999999,0.147721767425537
1.73499999999998,0.147530317306519
1.73999999999998,0.1482253074646
1.74499999999998,0.148435831069946
1.74999999999998,0.147752285003662
1.75499999999998,0.147510766983032
1.75999999999998,0.147833347320557
1.76499999999998,0.147412776947021
1.76999999999998,0.156754016876221
1.77499999999998,0.148050785064697
1.77999999999998,0.14705228805542
1.78499999999998,0.149466276168823
1.78999999999998,0.147247076034546
1.79499999999998,0.147513151168823
1.79999999999998,0.14800500869751
1.80499999999998,0.147235155105591
1.80999999999998,0.148304462432861
1.81499999999998,0.148035526275635
1.81999999999998,0.147406578063965
1.82499999999998,0.146950006484985
1.82999999999998,0.149014949798584
1.83499999999998,0.151031494140625
1.83999999999998,0.150036573410034
1.84499999999998,0.146769046783447
1.84999999999998,0.147295951843262
1.85499999999998,0.148076057434082
1.85999999999998,0.147238731384277
1.86499999999998,0.147147655487061
1.86999999999998,0.147635698318481
1.87499999999998,0.147815704345703
1.87999999999998,0.147009134292603
1.88499999999998,0.147109985351562
1.88999999999998,0.149000883102417
1.89499999999998,0.147548198699951
1.89999999999998,0.208213329315186
1.90499999999998,0.147341012954712
1.90999999999998,0.14701771736145
1.91499999999998,0.147885084152222
1.91999999999998,0.148436069488525
1.92499999999998,0.147934198379517
1.92999999999998,0.146849632263184
1.93499999999998,0.146915912628174
1.93999999999998,0.147437334060669
1.94499999999998,0.147241353988647
1.94999999999998,0.14762806892395
1.95499999999998,0.146729230880737
1.95999999999998,0.147956132888794
1.96499999999998,0.147937297821045
1.96999999999998,0.147247791290283
1.97499999999998,0.147223472595215
1.97999999999998,0.147274017333984
1.98499999999998,0.147063255310059
1.98999999999998,0.1471107006073
1.99499999999998,0.147340059280396
1.99999999999998,0.147729396820068
2.00499999999998,0.14848518371582
2.00999999999998,0.147277116775513
2.01499999999998,0.147186040878296
2.01999999999998,0.146888732910156
2.02499999999998,0.148578405380249
2.02999999999998,0.148445129394531
2.03499999999998,0.147208452224731
2.03999999999998,0.147275924682617
2.04499999999998,0.148013830184937
2.04999999999998,0.147405624389648
2.05499999999998,0.147282838821411
2.05999999999998,0.147167682647705
2.06499999999998,0.14695930480957
2.06999999999998,0.147621631622314
2.07499999999998,0.146989107131958
2.07999999999998,0.14714241027832
2.08499999999998,0.146735429763794
2.08999999999998,0.146551132202148
2.09499999999998,0.146783828735352
2.09999999999998,0.147131204605103
2.10499999999998,0.146441459655762
2.10999999999998,0.146985530853271
2.11499999999998,0.148581266403198
2.11999999999998,0.147242307662964
2.12499999999998,0.14702844619751
2.12999999999998,0.147629976272583
2.13499999999998,0.146651029586792
2.13999999999998,0.146511554718018
2.14499999999998,0.146959543228149
2.14999999999998,0.146719932556152
2.15499999999998,0.146712064743042
2.15999999999998,0.14684009552002
2.16499999999998,0.146800756454468
2.16999999999998,0.147271633148193
2.17499999999998,0.146890640258789
2.17999999999998,0.146183729171753
2.18499999999998,0.146707773208618
2.18999999999998,0.150698184967041
2.19499999999998,0.146628141403198
2.19999999999998,0.147067546844482
2.20499999999998,0.147010803222656
2.20999999999998,0.146324872970581
2.21499999999997,0.146585702896118
2.21999999999997,0.147041797637939
2.22499999999997,0.147986173629761
2.22999999999997,0.147049903869629
2.23499999999997,0.146445274353027
2.23999999999997,0.147072076797485
2.24499999999997,0.147148370742798
2.24999999999997,0.147196054458618
2.25499999999997,0.147242069244385
2.25999999999997,0.147529125213623
2.26499999999997,0.148276090621948
2.26999999999997,0.14769721031189
2.27499999999997,0.148050785064697
2.27999999999997,0.14722752571106
2.28499999999997,0.148736953735352
2.28999999999997,0.148504257202148
2.29499999999997,0.14811372756958
2.29999999999997,0.148996591567993
2.30499999999997,0.147448539733887
2.30999999999997,0.147363901138306
2.31499999999997,0.149883508682251
2.31999999999997,0.147287130355835
2.32499999999997,0.147213220596313
2.32999999999997,0.147475242614746
2.33499999999997,0.147839784622192
2.33999999999997,0.14747428894043
2.34499999999997,0.147120475769043
2.34999999999997,0.147419214248657
2.35499999999997,0.149117469787598
2.35999999999997,0.147653341293335
2.36499999999997,0.147329330444336
2.36999999999997,0.147326469421387
2.37499999999997,0.147191047668457
2.37999999999997,0.147284984588623
2.38499999999997,0.146929264068604
2.38999999999997,0.147171974182129
2.39499999999997,0.147536516189575
2.39999999999997,0.146932125091553
2.40499999999997,0.146990299224854
2.40999999999997,0.147400379180908
2.41499999999997,0.147205829620361
2.41999999999997,0.147504329681396
2.42499999999997,0.148051261901855
2.42999999999997,0.146965503692627
2.43499999999997,0.148312091827393
2.43999999999997,0.147431373596191
2.44499999999997,0.147144556045532
2.44999999999997,0.149584293365479
2.45499999999997,0.14739465713501
2.45999999999997,0.14729642868042
2.46499999999997,0.146833658218384
2.46999999999997,0.147143840789795
2.47499999999997,0.147280693054199
2.47999999999997,0.149324893951416
2.48499999999997,0.147321701049805
2.48999999999997,0.148116111755371
2.49499999999997,0.146989822387695
2.49999999999997,0.146993160247803
2.50499999999997,0.147368907928467
2.50999999999997,0.147015810012817
2.51499999999997,0.147797822952271
2.51999999999997,0.147351264953613
2.52499999999997,0.148001670837402
2.52999999999997,0.146929264068604
2.53499999999997,0.146934270858765
2.53999999999997,0.147168636322021
2.54499999999997,0.147269248962402
2.54999999999997,0.146804094314575
2.55499999999997,0.146952390670776
2.55999999999997,0.147130966186523
2.56499999999997,0.147409200668335
2.56999999999997,0.14775562286377
2.57499999999997,0.148413419723511
2.57999999999997,0.147840023040771
2.58499999999997,0.146721363067627
2.58999999999997,0.147218227386475
2.59499999999997,0.147578239440918
2.59999999999997,0.147558212280273
2.60499999999997,0.147572755813599
2.60999999999997,0.147196054458618
2.61499999999997,0.146974086761475
2.61999999999997,0.147172212600708
2.62499999999997,0.147913694381714
2.62999999999997,0.147314786911011
2.63499999999997,0.147001981735229
2.63999999999997,0.14658522605896
2.64499999999997,0.146525144577026
2.64999999999997,0.147170782089233
2.65499999999997,0.147154092788696
2.65999999999997,0.147019147872925
2.66499999999997,0.146949052810669
2.66999999999997,0.146896839141846
2.67499999999997,0.146996974945068
2.67999999999997,0.147106885910034
2.68499999999996,0.147223949432373
2.68999999999996,0.146903038024902
2.69499999999996,0.159702062606812
2.69999999999996,0.147087335586548
2.70499999999996,0.147221326828003
2.70999999999996,0.147050857543945
2.71499999999996,0.146546363830566
2.71999999999996,0.146935701370239
2.72499999999996,0.147025346755981
2.72999999999996,0.147266864776611
2.73499999999996,0.146979808807373
2.73999999999996,0.14695930480957
2.74499999999996,0.147181749343872
2.74999999999996,0.147216081619263
2.75499999999996,0.147562026977539
2.75999999999996,0.147748231887817
2.76499999999996,0.147003889083862
2.76999999999996,0.154859781265259
2.77499999999996,0.147101879119873
2.77999999999996,0.146583795547485
2.78499999999996,0.149498701095581
2.78999999999996,0.147098541259766
2.79499999999996,0.147994041442871
2.79999999999996,0.147534847259521
2.80499999999996,0.148675203323364
2.80999999999996,0.14765739440918
2.81499999999996,0.14802098274231
2.81999999999996,0.147109985351562
2.82499999999996,0.147256135940552
2.82999999999996,0.147016286849976
2.83499999999996,0.14724588394165
2.83999999999996,0.147621870040894
2.84499999999996,0.146927356719971
2.84999999999996,0.14726448059082
2.85499999999996,0.147702932357788
2.85999999999996,0.149073839187622
2.86499999999996,0.147574186325073
2.86999999999996,0.147054195404053
2.87499999999996,0.147061347961426
2.87999999999996,0.147226810455322
2.88499999999996,0.147270441055298
2.88999999999996,0.147365570068359
2.89499999999996,0.147647380828857
2.89999999999996,0.147029399871826
2.90499999999996,0.147613525390625
2.90999999999996,0.147073268890381
2.91499999999996,0.147519588470459
2.91999999999996,0.147258043289185
2.92499999999996,0.147418975830078
2.92999999999996,0.146952390670776
2.93499999999996,0.147302627563477
2.93999999999996,0.16689395904541
2.94499999999996,0.147504091262817
2.94999999999996,0.147057294845581
2.95499999999996,0.147770881652832
2.95999999999996,0.14736795425415
2.96499999999996,0.147108554840088
2.96999999999996,0.147567272186279
2.97499999999996,0.148718357086182
2.97999999999996,0.148260116577148
2.98499999999996,0.147070169448853
2.98999999999996,0.146954536437988
2.99499999999996,0.146813869476318
2.99999999999996,0.147343158721924
3.00499999999996,0.147667646408081
3.00999999999996,0.147547006607056
3.01499999999996,0.147782325744629
3.01999999999996,0.147335052490234
3.02499999999996,0.148308753967285
3.02999999999996,0.147099256515503
3.03499999999996,0.147198915481567
3.03999999999996,0.147450923919678
3.04499999999996,0.147588729858398
3.04999999999996,0.147121667861938
3.05499999999996,0.147045612335205
3.05999999999996,0.147452592849731
3.06499999999996,0.148097515106201
3.06999999999996,0.147645950317383
3.07499999999996,0.148032665252686
3.07999999999996,0.148164749145508
3.08499999999996,0.14732027053833
3.08999999999996,0.147571325302124
3.09499999999996,0.147568941116333
3.09999999999996,0.147939205169678
3.10499999999996,0.147987127304077
3.10999999999996,0.149217128753662
3.11499999999996,0.149703502655029
3.11999999999996,0.148295402526855
3.12499999999996,0.148862838745117
3.12999999999996,0.147937774658203
3.13499999999996,0.148518085479736
3.13999999999996,0.149105072021484
3.14499999999996,0.147276639938354
3.14999999999996,0.147234916687012
3.15499999999995,0.147091150283813
3.15999999999995,0.14753246307373
3.16499999999995,0.147955656051636
3.16999999999995,0.147600650787354
3.17499999999995,0.146971464157104
3.17999999999995,0.147050619125366
3.18499999999995,0.147749662399292
3.18999999999995,0.147750854492188
3.19499999999995,0.148961067199707
3.19999999999995,0.147539138793945
3.20499999999995,0.147922992706299
3.20999999999995,0.147198915481567
3.21499999999995,0.147391319274902
3.21999999999995,0.147137880325317
3.22499999999995,0.147951602935791
3.22999999999995,0.147597312927246
3.23499999999995,0.147560596466064
3.23999999999995,0.147115230560303
3.24499999999995,0.147440195083618
3.24999999999995,0.147175788879395
3.25499999999995,0.147391557693481
3.25999999999995,0.147686004638672
3.26499999999995,0.14817214012146
3.26999999999995,0.147689580917358
3.27499999999995,0.14728569984436
3.27999999999995,0.147096395492554
3.28499999999995,0.147544860839844
3.28999999999995,0.147214651107788
3.29499999999995,0.147435426712036
3.29999999999995,0.147296190261841
3.30499999999995,0.147209405899048
3.30999999999995,0.14792537689209
3.31499999999995,0.147441148757935
3.31999999999995,0.147542953491211
3.32499999999995,0.147546768188477
3.32999999999995,0.147525072097778
3.33499999999995,0.147281885147095
3.33999999999995,0.1473069190979
3.34499999999995,0.147432088851929
3.34999999999995,0.147833108901978
3.35499999999995,0.14792537689209
3.35999999999995,0.199838161468506
3.36499999999995,0.147461175918579
3.36999999999995,0.147838354110718
3.37499999999995,0.147042274475098
3.37999999999995,0.147269725799561
3.38499999999995,0.147387266159058
3.38999999999995,0.174513578414917
3.39499999999995,0.147640228271484
3.39999999999995,0.147904872894287
3.40499999999995,0.147606372833252
3.40999999999995,0.146875143051147
3.41499999999995,0.147357702255249
3.41999999999995,0.147681951522827
3.42499999999995,0.147695541381836
3.42999999999995,0.147910356521606
3.43499999999995,0.147309064865112
3.43999999999995,0.147548675537109
3.44499999999995,0.149548530578613
3.44999999999995,0.147188663482666
3.45499999999995,0.147459268569946
3.45999999999995,0.147693634033203
3.46499999999995,0.147352695465088
3.46999999999995,0.147541761398315
3.47499999999995,0.146965742111206
3.47999999999995,0.147064924240112
3.48499999999995,0.146978855133057
3.48999999999995,0.14709734916687
3.49499999999995,0.146914958953857
3.49999999999995,0.146917104721069
3.50499999999995,0.147005796432495
3.50999999999995,0.147028207778931
3.51499999999995,0.147894382476807
3.51999999999995,0.14734959602356
3.52499999999995,0.156218528747559
3.52999999999995,0.147644281387329
3.53499999999995,0.147325992584229
3.53999999999995,0.147619724273682
3.54499999999995,0.147130966186523
3.54999999999995,0.147104024887085
3.55499999999995,0.147478818893433
3.55999999999995,0.147562265396118
3.56499999999995,0.147887706756592
3.56999999999995,0.148471117019653
3.57499999999995,0.147672891616821
3.57999999999995,0.146884679794312
3.58499999999995,0.147081851959229
3.58999999999995,0.148075580596924
3.59499999999995,0.147319078445435
3.59999999999995,0.147695541381836
3.60499999999995,0.14739203453064
3.60999999999995,0.147047519683838
3.61499999999995,0.147103309631348
3.61999999999995,0.147613048553467
3.62499999999994,0.147513866424561
3.62999999999994,0.147290945053101
3.63499999999994,0.147317886352539
3.63999999999994,0.147400140762329
3.64499999999994,0.147254467010498
3.64999999999994,0.147091388702393
3.65499999999994,0.147751331329346
3.65999999999994,0.14745569229126
3.66499999999994,0.147128343582153
3.66999999999994,0.147296667098999
3.67499999999994,0.147589683532715
3.67999999999994,0.147987365722656
3.68499999999994,0.147817373275757
3.68999999999994,0.153014421463013
3.69499999999994,0.147428750991821
3.69999999999994,0.147596597671509
3.70499999999994,0.147886037826538
3.70999999999994,0.148236989974976
3.71499999999994,0.147653579711914
3.71999999999994,0.147634267807007
3.72499999999994,0.147131443023682
3.72999999999994,0.147348403930664
3.73499999999994,0.147148132324219
3.73999999999994,0.147734642028809
3.74499999999994,0.147566556930542
3.74999999999994,0.147315740585327
3.75499999999994,0.147231340408325
3.75999999999994,0.147975921630859
3.76499999999994,0.155611991882324
3.76999999999994,0.147621870040894
3.77499999999994,0.147416114807129
3.77999999999994,0.149353265762329
3.78499999999994,0.147433280944824
3.78999999999994,0.147594451904297
3.79499999999994,0.147697925567627
3.79999999999994,0.147749900817871
3.80499999999994,0.147908926010132
3.80999999999994,0.147159814834595
3.81499999999994,0.147137403488159
3.81999999999994,0.147830963134766
3.82499999999994,0.147688865661621
3.82999999999994,0.147446870803833
3.83499999999994,0.148042917251587
3.83999999999994,0.147099256515503
3.84499999999994,0.147165536880493
3.84999999999994,0.147815942764282
3.85499999999994,0.14792013168335
3.85999999999994,0.148561716079712
3.86499999999994,0.147889614105225
3.86999999999994,0.148519277572632
3.87499999999994,0.147517204284668
3.87999999999994,0.146936655044556
3.88499999999994,0.147442102432251
3.88999999999994,0.147997856140137
3.89499999999994,0.147855043411255
3.89999999999994,0.149009227752686
3.90499999999994,0.148442029953003
3.90999999999994,0.147559881210327
3.91499999999994,0.148688077926636
3.91999999999994,0.147630214691162
3.92499999999994,0.14760684967041
3.92999999999994,0.148267030715942
3.93499999999994,0.148126840591431
3.93999999999994,0.149036645889282
3.94499999999994,0.148308753967285
3.94999999999994,0.147843360900879
3.95499999999994,0.148261070251465
3.95999999999994,0.1474769115448
3.96499999999994,0.148151874542236
3.96999999999994,0.148891687393188
3.97499999999994,0.147247314453125
3.97999999999994,0.147345304489136
3.98499999999994,0.147293567657471
3.98999999999994,0.147598743438721
3.99499999999994,0.146935224533081
3.99999999999994,0.147145509719849
4.00499999999994,0.148084402084351
4.00999999999994,0.147567510604858
4.01499999999994,0.14704418182373
4.01999999999994,0.147367238998413
4.02499999999994,0.148784399032593
4.02999999999994,0.147407531738281
4.03499999999994,0.147679090499878
4.03999999999994,0.147427797317505
4.04499999999994,0.147533893585205
4.04999999999994,0.147264957427979
4.05499999999994,0.147182703018188
4.05999999999994,0.147447824478149
4.06499999999994,0.147667169570923
4.06999999999994,0.148767948150635
4.07499999999994,0.149358749389648
4.07999999999994,0.150384187698364
4.08499999999994,0.150317192077637
4.08999999999994,0.147350549697876
4.09499999999993,0.147632122039795
4.09999999999993,0.14728307723999
4.10499999999993,0.147165536880493
4.10999999999993,0.149506092071533
4.11499999999993,0.147262096405029
4.11999999999993,0.148641347885132
4.12499999999993,0.147433996200562
4.12999999999993,0.148497819900513
4.13499999999993,0.147434711456299
4.13999999999993,0.147115707397461
4.14499999999993,0.147030591964722
4.14999999999993,0.147631883621216
4.15499999999993,0.148946523666382
4.15999999999993,0.147761344909668
4.16499999999993,0.147331953048706
4.16999999999993,0.147460222244263
4.17499999999993,0.147248029708862
4.17999999999993,0.147324562072754
4.18499999999993,0.147562026977539
4.18999999999993,0.152189254760742
4.19499999999993,0.147454738616943
4.19999999999993,0.147413492202759
4.20499999999993,0.147037029266357
4.20999999999993,0.147346258163452
4.21499999999993,0.147198438644409
4.21999999999993,0.147894620895386
4.22499999999993,0.148060321807861
4.22999999999993,0.147815465927124
4.23499999999993,0.147316694259644
4.23999999999993,0.147471189498901
4.24499999999993,0.147185564041138
4.24999999999993,0.147615194320679
4.25499999999993,0.147743463516235
4.25999999999993,0.147567749023438
4.26499999999993,0.147284507751465
4.26999999999993,0.147282361984253
4.27499999999993,0.147686004638672
4.27999999999993,0.14736795425415
4.28499999999993,0.14731764793396
4.28999999999993,0.147560119628906
4.29499999999993,0.14708423614502
4.29999999999993,0.147097587585449
4.30499999999993,0.147503852844238
4.30999999999993,0.147604703903198
4.31499999999993,0.148555755615234
4.31999999999993,0.147210597991943
4.32499999999993,0.147322177886963
4.32999999999993,0.147553682327271
4.33499999999993,0.148158311843872
4.33999999999993,0.147625207901001
4.34499999999993,0.147379636764526
4.34999999999993,0.147241592407227
4.35499999999993,0.146871566772461
4.35999999999993,0.148344039916992
4.36499999999993,0.147189140319824
4.36999999999993,0.147137880325317
4.37499999999993,0.146959066390991
4.37999999999993,0.146674871444702
4.38499999999993,0.147506713867188
4.38999999999993,0.147305011749268
4.39499999999993,0.147653579711914
4.39999999999993,0.14693021774292
4.40499999999993,0.14653754234314
4.40999999999993,0.147398233413696
4.41499999999993,0.147316455841064
4.41999999999993,0.146841526031494
4.42499999999993,0.146888971328735
4.42999999999993,0.147634506225586
4.43499999999993,0.147758722305298
4.43999999999993,0.147706985473633
4.44499999999993,0.149508237838745
4.44999999999993,0.146917343139648
4.45499999999993,0.146582841873169
4.45999999999993,0.146820783615112
4.46499999999993,0.147323846817017
4.46999999999993,0.14686918258667
4.47499999999993,0.146705865859985
4.47999999999993,0.148518323898315
4.48499999999993,0.146784067153931
4.48999999999993,0.146993398666382
4.49499999999993,0.148279190063477
4.49999999999993,0.147165060043335
4.50499999999993,0.147228240966797
4.50999999999993,0.147057771682739
4.51499999999993,0.147242546081543
4.51999999999993,0.14757513999939
4.52499999999993,0.146880865097046
4.52999999999993,0.149077177047729
4.53499999999993,0.1467604637146
4.53999999999993,0.14715051651001
4.54499999999993,0.149747133255005
4.54999999999993,0.149364233016968
4.55499999999993,0.14955735206604
4.55999999999993,0.149413585662842
4.56499999999992,0.1492018699646
4.56999999999992,0.149170875549316
4.57499999999992,0.148922920227051
4.57999999999992,0.148911714553833
4.58499999999992,0.149365186691284
4.58999999999992,0.1492760181427
4.59499999999992,0.149132490158081
4.59999999999992,0.148846864700317
4.60499999999992,0.148844718933105
4.60999999999992,0.149136066436768
4.61499999999992,0.148722887039185
4.61999999999992,0.149012327194214
4.62499999999992,0.149348258972168
4.62999999999992,0.149338006973267
4.63499999999992,0.149032354354858
4.63999999999992,0.148935794830322
4.64499999999992,0.148667573928833
4.64999999999992,0.149036645889282
4.65499999999992,0.148857593536377
4.65999999999992,0.148844718933105
4.66499999999992,0.149135828018188
4.66999999999992,0.148988008499146
4.67499999999992,0.148948192596436
4.67999999999992,0.1492600440979
4.68499999999992,0.149157762527466
4.68999999999992,0.149203777313232
4.69499999999992,0.149998903274536
4.69999999999992,0.148972272872925
4.70499999999992,0.149061918258667
4.70999999999992,0.149211883544922
4.71499999999992,0.148821592330933
4.71999999999992,0.149674892425537
4.72499999999992,0.149075984954834
4.72999999999992,0.149044990539551
4.73499999999992,0.149046421051025
4.73999999999992,0.149322986602783
4.74499999999992,0.149062156677246
4.74999999999992,0.149674654006958
4.75499999999992,0.149955749511719
4.75999999999992,0.151221752166748
4.76499999999992,0.158931255340576
4.76999999999992,0.149772882461548
4.77499999999992,0.151955127716064
4.77999999999992,0.150198459625244
4.78499999999992,0.150200128555298
4.78999999999992,0.151343822479248
4.79499999999992,0.15084171295166
4.79999999999992,0.149741411209106
4.80499999999992,0.150273084640503
4.80999999999992,0.151540756225586
4.81499999999992,0.14980411529541
4.81999999999992,0.149049520492554
4.82499999999992,0.149890899658203
4.82999999999992,0.14977765083313
4.83499999999992,0.150453329086304
4.83999999999992,0.149899244308472
4.84499999999992,0.149482488632202
4.84999999999992,0.150001287460327
4.85499999999992,0.149625301361084
4.85999999999992,0.150721788406372
4.86499999999992,0.149250984191895
4.86999999999992,0.149364709854126
4.87499999999992,0.14946436882019
4.87999999999992,0.149130344390869
4.88499999999992,0.149486541748047
4.88999999999992,0.149045944213867
4.89499999999992,0.148890972137451
4.89999999999992,0.15004301071167
4.90499999999992,0.14932107925415
4.90999999999992,0.149178743362427
4.91499999999992,0.149597406387329
4.91999999999992,0.149720668792725
4.92499999999992,0.149900197982788
4.92999999999992,0.149462223052979
4.93499999999992,0.148996114730835
4.93999999999992,0.149996519088745
4.94499999999992,0.150246143341064
4.94999999999992,0.149920701980591
4.95499999999992,0.149770021438599
4.95999999999992,0.1495680809021
4.96499999999992,0.149688243865967
4.96999999999992,0.149716377258301
4.97499999999992,0.149731636047363
4.97999999999992,0.149338006973267
4.98499999999992,0.148902654647827
4.98999999999992,0.149084329605103
4.99499999999992,0.14912223815918
4.99999999999992,0.883252859115601
5.00499999999992,0.172979354858398
5.00999999999992,0.142416715621948
5.01499999999992,0.142418146133423
5.01999999999992,0.14193868637085
5.02499999999992,0.142175912857056
5.02999999999991,0.14205265045166
5.03499999999991,0.142215728759766
5.03999999999991,0.14229941368103
5.04499999999991,0.142269372940063
5.04999999999991,0.142512321472168
5.05499999999991,0.142457008361816
5.05999999999991,0.142398357391357
5.06499999999991,0.142009019851685
5.06999999999991,0.142925500869751
5.07499999999991,0.142371654510498
5.07999999999991,0.142292022705078
5.08499999999991,0.144187927246094
5.08999999999991,0.142138957977295
5.09499999999991,0.141865968704224
5.09999999999991,0.142381429672241
5.10499999999991,0.142867088317871
5.10999999999991,0.142969608306885
5.11499999999991,0.145216941833496
5.11999999999991,0.145017385482788
5.12499999999991,0.145299911499023
5.12999999999991,0.145333528518677
5.13499999999991,0.145211219787598
5.13999999999991,0.144943237304688
5.14499999999991,0.145445346832275
5.14999999999991,0.14497971534729
5.15499999999991,0.14554500579834
5.15999999999991,0.145378112792969
5.16499999999991,0.145141839981079
5.16999999999991,0.145026206970215
5.17499999999991,0.146882295608521
5.17999999999991,0.144981622695923
5.18499999999991,0.145320892333984
5.18999999999991,0.145049810409546
5.19499999999991,0.144849300384521
5.19999999999991,0.145373821258545
5.20499999999991,0.145272016525269
5.20999999999991,0.145077228546143
5.21499999999991,0.145517587661743
5.21999999999991,0.145082235336304
5.22499999999991,0.145121097564697
5.22999999999991,0.144908666610718
5.23499999999991,0.145629167556763
5.23999999999991,0.145479679107666
5.24499999999991,0.145084381103516
5.24999999999991,0.145425319671631
5.25499999999991,0.145083904266357
5.25999999999991,0.145517110824585
5.26499999999991,0.145449876785278
5.26999999999991,0.145076036453247
5.27499999999991,0.145208358764648
5.27999999999991,0.145065069198608
5.28499999999991,0.145105600357056
5.28999999999991,0.144889354705811
5.29499999999991,0.145368099212646
5.29999999999991,0.145511865615845
5.30499999999991,0.145574569702148
5.30999999999991,0.144982099533081
5.31499999999991,0.145468473434448
5.31999999999991,0.14566445350647
5.32499999999991,0.145576238632202
5.32999999999991,0.144942283630371
5.33499999999991,0.144891262054443
5.33999999999991,0.145406723022461
5.34499999999991,0.146882057189941
5.34999999999991,0.144781589508057
5.35499999999991,0.144953966140747
5.35999999999991,0.145379781723022
5.36499999999991,0.144959926605225
5.36999999999991,0.145319223403931
5.37499999999991,0.14551568031311
5.37999999999991,0.144867420196533
5.38499999999991,0.14525032043457
5.38999999999991,0.144829750061035
5.39499999999991,0.145148277282715
5.39999999999991,0.145244121551514
5.40499999999991,0.144692897796631
5.40999999999991,0.14565372467041
5.41499999999991,0.144643545150757
5.41999999999991,0.145676374435425
5.42499999999991,0.147167921066284
5.42999999999991,0.145060300827026
5.43499999999991,0.144719362258911
5.43999999999991,0.145047903060913
5.44499999999991,0.145099878311157
5.44999999999991,0.145000696182251
5.45499999999991,0.144828081130981
5.45999999999991,0.145118713378906
5.46499999999991,0.144952774047852
5.46999999999991,0.145136833190918
5.47499999999991,0.144955158233643
5.47999999999991,0.145092248916626
5.48499999999991,0.145125150680542
5.48999999999991,0.145066976547241
5.49499999999991,0.144921779632568
5.4999999999999,0.145251989364624
5.5049999999999,0.145680904388428
5.5099999999999,0.145860433578491
5.5149999999999,0.146505832672119
5.5199999999999,0.145480155944824
5.5249999999999,0.145299673080444
5.5299999999999,0.145042657852173
5.5349999999999,0.145391225814819
5.5399999999999,0.145275115966797
5.5449999999999,0.146337747573853
5.5499999999999,0.14510703086853
5.5549999999999,0.146348476409912
5.5599999999999,0.14612603187561
5.5649999999999,0.145719051361084
5.5699999999999,0.146007061004639
5.5749999999999,0.146713972091675
5.5799999999999,0.145902633666992
5.5849999999999,0.145312786102295
5.5899999999999,0.145421743392944
5.5949999999999,0.145607471466064
5.5999999999999,0.146242141723633
5.6049999999999,0.14704704284668
5.6099999999999,0.145208835601807
5.6149999999999,0.146367311477661
5.6199999999999,0.145880699157715
5.6249999999999,0.144940614700317
5.6299999999999,0.146347284317017
5.6349999999999,0.145510196685791
5.6399999999999,0.144788980484009
5.6449999999999,0.145068883895874
5.6499999999999,0.145056486129761
5.6549999999999,0.144971132278442
5.6599999999999,0.14499568939209
5.6649999999999,0.14546012878418
5.6699999999999,0.145046472549438
5.6749999999999,0.145055294036865
5.6799999999999,0.145071029663086
5.6849999999999,0.153873443603516
5.6899999999999,0.144916772842407
5.6949999999999,0.144898891448975
5.6999999999999,0.14502477645874
5.7049999999999,0.146076917648315
5.7099999999999,0.144924879074097
5.7149999999999,0.145215511322021
5.7199999999999,0.144903898239136
5.7249999999999,0.145167112350464
5.7299999999999,0.144826173782349
5.7349999999999,0.145103693008423
5.7399999999999,0.145452737808228
5.7449999999999,0.146067142486572
5.7499999999999,0.152050256729126
5.7549999999999,0.145513534545898
5.7599999999999,0.14493465423584
5.7649999999999,0.147175073623657
5.7699999999999,0.144929885864258
5.7749999999999,0.145153045654297
5.7799999999999,0.145120143890381
5.7849999999999,0.145047664642334
5.7899999999999,0.145233631134033
5.7949999999999,0.14486026763916
5.7999999999999,0.144871711730957
5.8049999999999,0.145826816558838
5.8099999999999,0.144776582717896
5.8149999999999,0.145764112472534
5.8199999999999,0.144788026809692
5.8249999999999,0.145612001419067
5.8299999999999,0.14523720741272
5.8349999999999,0.144883632659912
5.8399999999999,0.145100355148315
5.8449999999999,0.144874572753906
5.8499999999999,0.145464181900024
5.8549999999999,0.146919965744019
5.8599999999999,0.144881248474121
5.8649999999999,0.146076679229736
5.8699999999999,0.145589351654053
5.8749999999999,0.146010637283325
5.8799999999999,0.145197153091431
5.8849999999999,0.145482540130615
5.8899999999999,0.145146608352661
5.8949999999999,0.146220922470093
5.8999999999999,0.145088672637939
5.9049999999999,0.144481420516968
5.9099999999999,0.146344661712646
5.9149999999999,0.145289659500122
5.9199999999999,0.145453929901123
5.9249999999999,0.144896030426025
5.9299999999999,0.145909309387207
5.9349999999999,0.144681453704834
5.9399999999999,0.145320653915405
5.9449999999999,0.145251750946045
5.9499999999999,0.15097975730896
5.9549999999999,0.145472526550293
5.9599999999999,0.145910501480103
5.9649999999999,0.145062208175659
5.96999999999989,0.145441770553589
5.97499999999989,0.14504599571228
5.97999999999989,0.144869804382324
5.98499999999989,0.145465135574341
5.98999999999989,0.144757032394409
5.99499999999989,0.145179986953735
5.99999999999989,0.145442962646484
6.00499999999989,0.14557147026062
6.00999999999989,0.144757986068726
6.01499999999989,0.145270347595215
6.01999999999989,0.145888805389404
6.02499999999989,0.146776914596558
6.02999999999989,0.14529275894165
6.03499999999989,0.144691705703735
6.03999999999989,0.144675731658936
6.04499999999989,0.145606756210327
6.04999999999989,0.145319223403931
6.05499999999989,0.145326614379883
6.05999999999989,0.145413398742676
6.06499999999989,0.145110130310059
6.06999999999989,0.145638704299927
6.07499999999989,0.145307779312134
6.07999999999989,0.145012378692627
6.08499999999989,0.145342826843262
6.08999999999989,0.14525294303894
6.09499999999989,0.144861936569214
6.09999999999989,0.147544145584106
6.10499999999989,0.145070314407349
6.10999999999989,0.145659208297729
6.11499999999989,0.145382404327393
6.11999999999989,0.145410537719727
6.12499999999989,0.14536714553833
6.12999999999989,0.14612603187561
6.13499999999989,0.145370721817017
6.13999999999989,0.144908428192139
6.14499999999989,0.145179986953735
6.14999999999989,0.14636492729187
6.15499999999989,0.145542860031128
6.15999999999989,0.145107269287109
6.16499999999989,0.145249843597412
6.16999999999989,0.14522910118103
6.17499999999989,0.145155906677246
6.17999999999989,0.145093679428101
6.18499999999989,0.145962953567505
6.18999999999989,0.145999431610107
6.19499999999989,0.146405458450317
6.19999999999989,0.144836664199829
6.20499999999989,0.145182371139526
6.20999999999989,0.145077466964722
6.21499999999989,0.144996166229248
6.21999999999989,0.144960165023804
6.22499999999989,0.146252870559692
6.22999999999989,0.144730091094971
6.23499999999989,0.14525842666626
6.23999999999989,0.145405292510986
6.24499999999989,0.146868228912354
6.24999999999989,0.149472951889038
6.25499999999989,0.147420406341553
6.25999999999989,0.145705461502075
6.26499999999989,0.145370721817017
6.26999999999989,0.144913911819458
6.27499999999989,0.144909620285034
6.27999999999989,0.144778728485107
6.28499999999989,0.144927978515625
6.28999999999989,0.14538049697876
6.29499999999989,0.145097017288208
6.29999999999989,0.144954919815063
6.30499999999989,0.145100116729736
6.30999999999989,0.145413875579834
6.31499999999989,0.146060943603516
6.31999999999989,0.145763635635376
6.32499999999989,0.145821332931519
6.32999999999989,0.145339012145996
6.33499999999989,0.145633220672607
6.33999999999989,0.14518141746521
6.34499999999989,0.145165920257568
6.34999999999989,0.145161151885986
6.35499999999989,0.144809722900391
6.35999999999989,0.145081043243408
6.36499999999989,0.145389556884766
6.36999999999989,0.1455237865448
6.37499999999989,0.1447913646698
6.37999999999989,0.145306348800659
6.38499999999989,0.145188331604004
6.38999999999989,0.144629716873169
6.39499999999989,0.145214319229126
6.39999999999989,0.145197868347168
6.40499999999989,0.145159959793091
6.40999999999989,0.144997835159302
6.41499999999989,0.145185947418213
6.41999999999989,0.144517660140991
6.42499999999989,0.144946336746216
6.42999999999989,0.145899772644043
6.43499999999989,0.146460294723511
6.43999999999988,0.146916627883911
6.44499999999988,0.146458148956299
6.44999999999988,0.145277738571167
6.45499999999988,0.145273447036743
6.45999999999988,0.145958662033081
6.46499999999988,0.147594928741455
6.46999999999988,0.145711421966553
6.47499999999988,0.145253658294678
6.47999999999988,0.146482706069946
6.48499999999988,0.146763563156128
6.48999999999988,0.146124601364136
6.49499999999988,0.148256301879883
6.49999999999988,0.145692586898804
6.50499999999988,0.144778490066528
6.50999999999988,0.145708799362183
6.51499999999988,0.145221471786499
6.51999999999988,0.145489931106567
6.52499999999988,0.145343780517578
6.52999999999988,0.14534330368042
6.53499999999988,0.146565675735474
6.53999999999988,0.145867824554443
6.54499999999988,0.145458459854126
6.54999999999988,0.145704984664917
6.55499999999988,0.145324945449829
6.55999999999988,0.14557957649231
6.56499999999988,0.144938707351685
6.56999999999988,0.145243406295776
6.57499999999988,0.145601272583008
6.57999999999988,0.145077705383301
6.58499999999988,0.145198583602905
6.58999999999988,0.146064281463623
6.59499999999988,0.145971775054932
6.59999999999988,0.145157098770142
6.60499999999988,0.145531177520752
6.60999999999988,0.145355224609375
6.61499999999988,0.145744800567627
6.61999999999988,0.145098686218262
6.62499999999988,0.145001888275146
6.62999999999988,0.145656824111938
6.63499999999988,0.145471572875977
6.63999999999988,0.145711183547974
6.64499999999988,0.14542031288147
6.64999999999988,0.144984722137451
6.65499999999988,0.144977331161499
6.65999999999988,0.144557952880859
6.66499999999988,0.145465612411499
6.66999999999988,0.14513897895813
6.67499999999988,0.145028352737427
6.67999999999988,0.145617485046387
6.68499999999988,0.145247220993042
6.68999999999988,0.145520210266113
6.69499999999988,0.145379543304443
6.69999999999988,0.145570278167725
6.70499999999988,0.146722078323364
6.70999999999988,0.145119428634644
6.71499999999988,0.144702196121216
6.71999999999988,0.145944356918335
6.72499999999988,0.145301818847656
6.72999999999988,0.145592212677002
6.73499999999988,0.145240545272827
6.73999999999988,0.145126342773438
6.74499999999988,0.145411491394043
6.74999999999988,0.145542621612549
6.75499999999988,0.145167589187622
6.75999999999988,0.144909381866455
6.76499999999988,0.152593851089478
6.76999999999988,0.145787715911865
6.77499999999988,0.145311832427979
6.77999999999988,0.147011756896973
6.78499999999988,0.145308017730713
6.78999999999988,0.145756244659424
6.79499999999988,0.145536422729492
6.79999999999988,0.145267963409424
6.80499999999988,0.145082950592041
6.80999999999988,0.145663261413574
6.81499999999988,0.145143985748291
6.81999999999988,0.145460367202759
6.82499999999988,0.146220922470093
6.82999999999988,0.14443826675415
6.83499999999988,0.145396709442139
6.83999999999988,0.145669221878052
6.84499999999988,0.145480155944824
6.84999999999988,0.145107746124268
6.85499999999988,0.145628929138184
6.85999999999988,0.14510440826416
6.86499999999988,0.145153045654297
6.86999999999988,0.145667314529419
6.87499999999988,0.146872282028198
6.87999999999988,0.145193576812744
6.88499999999988,0.14521598815918
6.88999999999988,0.145727634429932
6.89499999999988,0.144533634185791
6.89999999999988,0.145302295684814
6.90499999999988,0.144960880279541
6.90999999999987,0.145000457763672
6.91499999999987,0.145822286605835
6.91999999999987,0.144809484481812
6.92499999999987,0.145194053649902
6.92999999999987,0.144685029983521
6.93499999999987,0.145820140838623
6.93999999999987,0.145161628723145
6.94499999999987,0.145123243331909
6.94999999999987,0.145000457763672
6.95499999999987,0.145056009292603
6.95999999999987,0.145116329193115
6.96499999999987,0.144909620285034
6.96999999999987,0.145762920379639
6.97499999999987,0.146706342697144
6.97999999999987,0.145358800888062
6.98499999999987,0.14595365524292
6.98999999999987,0.146178960800171
6.99499999999987,0.145138502120972
6.99999999999987,0.146206617355347
7.00499999999987,0.145651817321777
7.00999999999987,0.145241975784302
7.01499999999987,0.145740985870361
7.01999999999987,0.145550012588501
7.02499999999987,0.145284175872803
7.02999999999987,0.145121097564697
7.03499999999987,0.145006418228149
7.03999999999987,0.145661354064941
7.04499999999987,0.147000551223755
7.04999999999987,0.145011901855469
7.05499999999987,0.14525580406189
7.05999999999987,0.144959211349487
7.06499999999987,0.145410299301147
7.06999999999987,0.146004199981689
7.07499999999987,0.14542031288147
7.07999999999987,0.145468235015869
7.08499999999987,0.145513534545898
7.08999999999987,0.145477533340454
7.09499999999987,0.145184993743896
7.09999999999987,0.145467042922974
7.10499999999987,0.145787239074707
7.10999999999987,0.144874811172485
7.11499999999987,0.14485239982605
7.11999999999987,0.147599935531616
7.12499999999987,0.145735740661621
7.12999999999987,0.145097017288208
7.13499999999987,0.145503997802734
7.13999999999987,0.145467758178711
7.14499999999987,0.145026445388794
7.14999999999987,0.145538091659546
7.15499999999987,0.144675016403198
7.15999999999987,0.14563512802124
7.16499999999987,0.145376920700073
7.16999999999987,0.145180463790894
7.17499999999987,0.145156621932983
7.17999999999987,0.205477714538574
7.18499999999987,0.14552116394043
7.18999999999987,0.145248651504517
7.19499999999987,0.14526104927063
7.19999999999987,0.145426988601685
7.20499999999987,0.144731998443604
7.20999999999987,0.146816253662109
7.21499999999987,0.14520263671875
7.21999999999987,0.14486026763916
7.22499999999987,0.14529275894165
7.22999999999987,0.145345211029053
7.23499999999987,0.14563512802124
7.23999999999987,0.145569562911987
7.24499999999987,0.144998073577881
7.24999999999987,0.145602226257324
7.25499999999987,0.145057678222656
7.25999999999987,0.145663499832153
7.26499999999987,0.144867420196533
7.26999999999987,0.145430326461792
7.27499999999987,0.145463228225708
7.27999999999987,0.145235538482666
7.28499999999987,0.146144151687622
7.28999999999987,0.145956516265869
7.29499999999987,0.14570140838623
7.29999999999987,0.145186901092529
7.30499999999987,0.146247148513794
7.30999999999987,0.145612001419067
7.31499999999987,0.149290561676025
7.31999999999987,0.148824691772461
7.32499999999987,0.148551464080811
7.32999999999987,0.148865222930908
7.33499999999987,0.149577379226685
7.33999999999987,0.14905858039856
7.34499999999987,0.148064613342285
7.34999999999987,0.148706674575806
7.35499999999987,0.148103952407837
7.35999999999987,0.148115873336792
7.36499999999987,0.147925138473511
7.36999999999987,0.148109674453735
7.37499999999986,0.147777557373047
7.37999999999986,0.148051738739014
7.38499999999986,0.147760391235352
7.38999999999986,0.148020505905151
7.39499999999986,0.148093938827515
7.39999999999986,0.147953748703003
7.40499999999986,0.148137807846069
7.40999999999986,0.147723436355591
7.41499999999986,0.147778749465942
7.41999999999986,0.147542238235474
7.42499999999986,0.147411823272705
7.42999999999986,0.147753477096558
7.43499999999986,0.148176193237305
7.43999999999986,0.148194313049316
7.44499999999986,0.14800763130188
7.44999999999986,0.148209095001221
7.45499999999986,0.149232149124146
7.45999999999986,0.147717952728271
7.46499999999986,0.147600650787354
7.46999999999986,0.147321462631226
7.47499999999986,0.148244142532349
7.47999999999986,0.148153066635132
7.48499999999986,0.147917985916138
7.48999999999986,0.148041248321533
7.49499999999986,0.147959232330322
7.49999999999986,0.147569417953491
7.50499999999986,0.147618055343628
7.50999999999986,0.147504329681396
7.51499999999986,0.148141860961914
7.51999999999986,0.148376703262329
7.52499999999986,0.148456335067749
7.52999999999986,0.148592710494995
7.53499999999986,0.148131847381592
7.53999999999986,0.148222923278809
7.54499999999986,0.149015188217163
7.54999999999986,0.147546291351318
7.55499999999986,0.147660732269287
7.55999999999986,0.14854621887207
7.56499999999986,0.147916555404663
7.56999999999986,0.148087024688721
7.57499999999986,0.149065732955933
7.57999999999986,0.147685289382935
7.58499999999986,0.148702383041382
7.58999999999986,0.148581027984619
7.59499999999986,0.149203777313232
7.59999999999986,0.148018836975098
7.60499999999986,0.149509191513062
7.60999999999986,0.147946119308472
7.61499999999986,0.147286415100098
7.61999999999986,0.147765874862671
7.62499999999986,0.147855758666992
7.62999999999986,0.147733926773071
7.63499999999986,0.148473262786865
7.63999999999986,0.148475170135498
7.64499999999986,0.148580074310303
7.64999999999986,0.147969722747803
7.65499999999986,0.148052930831909
7.65999999999986,0.147462129592896
7.66499999999986,0.148036479949951
7.66999999999986,0.147783279418945
7.67499999999986,0.147954225540161
7.67999999999986,0.147899627685547
7.68499999999986,0.148345708847046
7.68999999999986,0.148136377334595
7.69499999999986,0.148282051086426
7.69999999999986,0.147542238235474
7.70499999999986,0.147791624069214
7.70999999999986,0.1476149559021
7.71499999999986,0.149245977401733
7.71999999999986,0.147971153259277
7.72499999999986,0.147998094558716
7.72999999999986,0.147823333740234
7.73499999999986,0.148050308227539
7.73999999999986,0.148633480072021
7.74499999999986,0.148658037185669
7.74999999999986,0.147980928421021
7.75499999999986,0.147269487380981
7.75999999999986,0.147435903549194
7.76499999999986,0.14793848991394
7.76999999999986,0.155607461929321
7.77499999999986,0.147824764251709
7.77999999999986,0.148054599761963
7.78499999999986,0.149917840957642
7.78999999999986,0.148338079452515
7.79499999999986,0.14823317527771
7.79999999999986,0.148497343063354
7.80499999999986,0.148218631744385
7.80999999999986,0.148515224456787
7.81499999999986,0.147632837295532
7.81999999999986,0.147628545761108
7.82499999999986,0.147676944732666
7.82999999999986,0.147941112518311
7.83499999999986,0.147697687149048
7.83999999999986,0.148625135421753
7.84499999999985,0.14835524559021
7.84999999999985,0.148458480834961
7.85499999999985,0.148770570755005
7.85999999999985,0.148343801498413
7.86499999999985,0.147954225540161
7.86999999999985,0.147569894790649
7.87499999999985,0.147583484649658
7.87999999999985,0.148454427719116
7.88499999999985,0.147855043411255
7.88999999999985,0.148042440414429
7.89499999999985,0.148521661758423
7.89999999999985,0.148672819137573
7.90499999999985,0.148401975631714
7.90999999999985,0.148744821548462
7.91499999999985,0.147757530212402
7.91999999999985,0.148006200790405
7.92499999999985,0.14743709564209
7.92999999999985,0.147825241088867
7.93499999999985,0.148526668548584
7.93999999999985,0.147828340530396
7.94499999999985,0.147856712341309
7.94999999999985,0.147881746292114
7.95499999999985,0.148358821868896
7.95999999999985,0.147883176803589
7.96499999999985,0.148476839065552
7.96999999999985,0.147732734680176
7.97499999999985,0.147871732711792
7.97999999999985,0.147956848144531
7.98499999999985,0.148015737533569
7.98999999999985,0.147924184799194
7.99499999999985,0.148449420928955
7.99999999999985,0.148446798324585
8.00499999999985,0.148711919784546
8.00999999999985,0.147869110107422
8.01499999999985,0.147991895675659
8.01999999999985,0.147709369659424
8.02499999999985,0.148398637771606
8.02999999999986,0.14745569229126
8.03499999999986,0.148165225982666
8.03999999999986,0.148070335388184
8.04499999999986,0.149355888366699
8.04999999999986,0.148058176040649
8.05499999999986,0.148313522338867
8.05999999999986,0.148191928863525
8.06499999999986,0.147400856018066
8.06999999999986,0.147792100906372
8.07499999999986,0.147718191146851
8.07999999999986,0.148027420043945
8.08499999999986,0.147950410842896
8.08999999999986,0.148008108139038
8.09499999999987,0.148535251617432
8.09999999999987,0.148032903671265
8.10499999999987,0.148593425750732
8.10999999999987,0.148191690444946
8.11499999999987,0.148155450820923
8.11999999999987,0.150169372558594
8.12499999999987,0.148839950561523
8.12999999999987,0.148273229598999
8.13499999999987,0.148502826690674
8.13999999999987,0.149780988693237
8.14499999999987,0.148561716079712
8.14999999999987,0.149484395980835
8.15499999999988,0.148823022842407
8.15999999999988,0.148369550704956
8.16499999999988,0.14838719367981
8.16999999999988,0.149331092834473
8.17499999999988,0.147911071777344
8.17999999999988,0.147981643676758
8.18499999999988,0.148350477218628
8.18999999999988,0.148107051849365
8.19499999999988,0.148681640625
8.19999999999988,0.148636341094971
8.20499999999988,0.149110317230225
8.20999999999988,0.148403167724609
8.21499999999988,0.14785099029541
8.21999999999989,0.14721155166626
8.22499999999989,0.14788556098938
8.22999999999989,0.1476731300354
8.23499999999989,0.148373365402222
8.23999999999989,0.148241996765137
8.24499999999989,0.147828817367554
8.24999999999989,0.148277997970581
8.25499999999989,0.147740840911865
8.25999999999989,0.148059129714966
8.26499999999989,0.147590637207031
8.26999999999989,0.148064851760864
8.27499999999989,0.14786696434021
8.27999999999989,0.147844314575195
8.2849999999999,0.148216247558594
8.2899999999999,0.147980690002441
8.2949999999999,0.148318290710449
8.2999999999999,0.148183822631836
8.3049999999999,0.148290395736694
8.3099999999999,0.14817214012146
8.3149999999999,0.147899866104126
8.3199999999999,0.147759914398193
8.3249999999999,0.147980213165283
8.3299999999999,0.147913455963135
8.3349999999999,0.14855170249939
8.3399999999999,0.14849328994751
8.3449999999999,0.148204565048218
8.34999999999991,0.148568630218506
8.35499999999991,0.147993803024292
8.35999999999991,0.147629737854004
8.36499999999991,0.147670984268188
8.36999999999991,0.147565841674805
8.37499999999991,0.148032903671265
8.37999999999991,0.149524450302124
8.38499999999991,0.148076295852661
8.38999999999991,0.148069620132446
8.39499999999991,0.148576974868774
8.39999999999991,0.147950887680054
8.40499999999991,0.148039102554321
8.40999999999991,0.147639036178589
8.41499999999992,0.147647142410278
8.41999999999992,0.14784836769104
8.42499999999992,0.147866010665894
8.42999999999992,0.148285627365112
8.43499999999992,0.148299932479858
8.43999999999992,0.148090362548828
8.44499999999992,0.14854097366333
8.44999999999992,0.15124249458313
8.45499999999992,0.148833036422729
8.45999999999992,0.148763179779053
8.46499999999992,0.148392677307129
8.46999999999992,0.148172855377197
8.47499999999993,0.147795438766479
8.47999999999993,0.147948980331421
8.48499999999993,0.147712707519531
8.48999999999993,0.148028135299683
8.49499999999993,0.149351596832275
8.49999999999993,0.147798538208008
8.50499999999993,0.149962186813354
8.50999999999993,0.152893543243408
8.51499999999993,0.152798175811768
8.51999999999993,0.148665904998779
8.52499999999993,0.149178981781006
8.52999999999993,0.1490478515625
8.53499999999993,0.148432970046997
8.53999999999994,0.148458242416382
8.54499999999994,0.150042772293091
8.54999999999994,0.148440361022949
8.55499999999994,0.147753000259399
8.55999999999994,0.148483514785767
8.56499999999994,0.147525072097778
8.56999999999994,0.147657871246338
8.57499999999994,0.147790908813477
8.57999999999994,0.148127794265747
8.58499999999994,0.148312568664551
8.58999999999994,0.14865779876709
8.59499999999994,0.148367643356323
8.59999999999994,0.14910101890564
8.60499999999995,0.148839712142944
8.60999999999995,0.148550748825073
8.61499999999995,0.148674964904785
8.61999999999995,0.147876977920532
8.62499999999995,0.147903680801392
8.62999999999995,0.147790431976318
8.63499999999995,0.14786171913147
8.63999999999995,0.147998571395874
8.64499999999995,0.148092031478882
8.64999999999995,0.148410320281982
8.65499999999995,0.148261785507202
8.65999999999995,0.148188591003418
8.66499999999995,0.148140907287598
8.66999999999996,0.148031949996948
8.67499999999996,0.148093461990356
8.67999999999996,0.147576093673706
8.68499999999996,0.148027420043945
8.68999999999996,0.148163318634033
8.69499999999996,0.147970676422119
8.69999999999996,0.148368120193481
8.70499999999996,0.148567914962769
8.70999999999996,0.14987325668335
8.71499999999996,0.148574829101562
8.71999999999996,0.148242473602295
8.72499999999996,0.148157119750977
8.72999999999996,0.148201704025269
8.73499999999997,0.14805793762207
8.73999999999997,0.147781372070312
8.74499999999997,0.147873878479004
8.74999999999997,0.147732257843018
8.75499999999997,0.147960901260376
8.75999999999997,0.148370742797852
8.76499999999997,0.148717164993286
8.76999999999997,0.147596120834351
8.77499999999997,0.147937774658203
8.77999999999997,0.150339126586914
8.78499999999997,0.147918701171875
8.78999999999997,0.148264408111572
8.79499999999998,0.148447751998901
8.79999999999998,0.147937059402466
8.80499999999998,0.148532152175903
8.80999999999998,0.147988557815552
8.81499999999998,0.147478580474854
8.81999999999998,0.147580623626709
8.82499999999998,0.148087978363037
8.82999999999998,0.148168087005615
8.83499999999998,0.148187637329102
8.83999999999998,0.147861480712891
8.84499999999998,0.149115800857544
8.84999999999998,0.147912979125977
8.85499999999998,0.14882230758667
8.85999999999999,0.147365093231201
8.86499999999999,0.147851705551147
8.86999999999999,0.147472858428955
8.87499999999999,0.148061752319336
8.87999999999999,0.149562835693359
8.88499999999999,0.148308277130127
8.88999999999999,0.148530244827271
8.89499999999999,0.148462533950806
8.89999999999999,0.148476362228394
8.90499999999999,0.148242950439453
8.90999999999999,0.148485660552979
8.91499999999999,0.148203611373901
8.91999999999999,0.148398876190186
8.925,0.147869348526001
8.93,0.147233963012695
8.935,0.148130655288696
8.94,0.148119449615479
8.945,0.148313045501709
8.95,0.148210525512695
8.955,0.148599147796631
8.96,0.149204015731812
8.965,0.149360418319702
8.97,0.149303197860718
8.975,0.148611307144165
8.98,0.148988723754883
8.985,0.150120735168457
8.99000000000001,0.14964747428894
8.99500000000001,0.149266958236694
9.00000000000001,0.148679256439209
9.00500000000001,0.148575305938721
9.01000000000001,0.148785591125488
9.01500000000001,0.149427890777588
9.02000000000001,0.148485898971558
9.02500000000001,0.147932529449463
9.03000000000001,0.14812970161438
9.03500000000001,0.148270130157471
9.04000000000001,0.147895097732544
9.04500000000001,0.149410009384155
9.05000000000001,0.147312164306641
9.05500000000002,0.14860987663269
9.06000000000002,0.147946834564209
9.06500000000002,0.147904872894287
9.07000000000002,0.147666692733765
9.07500000000002,0.148030996322632
9.08000000000002,0.148092985153198
9.08500000000002,0.147950649261475
9.09000000000002,0.147648334503174
9.09500000000002,0.14773154258728
9.10000000000002,0.148019075393677
9.10500000000002,0.148781299591064
9.11000000000002,0.147936582565308
9.11500000000003,0.149980306625366
9.12000000000003,0.147678136825562
9.12500000000003,0.148258686065674
9.13000000000003,0.148464679718018
9.13500000000003,0.148337364196777
9.14000000000003,0.148043155670166
9.14500000000003,0.147503137588501
9.15000000000003,0.147984266281128
9.15500000000003,0.147911787033081
9.16000000000003,0.147901058197021
9.16500000000003,0.148216724395752
9.17000000000003,0.14816951751709
9.17500000000003,0.148076295852661
9.18000000000004,0.148652315139771
9.18500000000004,0.147990942001343
9.19000000000004,0.148118734359741
9.19500000000004,0.147876501083374
9.20000000000004,0.147766351699829
9.20500000000004,0.147931814193726
9.21000000000004,0.149064064025879
9.21500000000004,0.148093938827515
9.22000000000004,0.148251295089722
9.22500000000004,0.148400545120239
9.23000000000004,0.148086071014404
9.23500000000004,0.148135185241699
9.24000000000004,0.148065567016602
9.24500000000005,0.148073196411133
9.25000000000005,0.147609949111938
9.25500000000005,0.148120880126953
9.26000000000005,0.147723913192749
9.26500000000005,0.148591041564941
9.27000000000005,0.148326873779297
9.27500000000005,0.148347139358521
9.28000000000005,0.148262977600098
9.28500000000005,0.14863657951355
9.29000000000005,0.148478507995605
9.29500000000005,0.148189306259155
9.30000000000005,0.148169994354248
9.30500000000005,0.148105144500732
9.31000000000006,0.147797346115112
9.31500000000006,0.147931575775146
9.32000000000006,0.148059129714966
9.32500000000006,0.148276567459106
9.33000000000006,0.148185729980469
9.33500000000006,0.14891505241394
9.34000000000006,0.148153066635132
9.34500000000006,0.149518966674805
9.35000000000006,0.148206949234009
9.35500000000006,0.149042844772339
9.36000000000006,0.148264408111572
9.36500000000006,0.148067712783813
9.37000000000006,0.147796392440796
9.37500000000007,0.148113965988159
9.38000000000007,0.147409439086914
9.38500000000007,0.148100137710571
9.39000000000007,0.148736953735352
9.39500000000007,0.148276567459106
9.40000000000007,0.148381471633911
9.40500000000007,0.148669719696045
9.41000000000007,0.148241758346558
9.41500000000007,0.148127794265747
9.42000000000007,0.148478507995605
9.42500000000007,0.148288488388062
9.43000000000007,0.148025035858154
9.43500000000008,0.147932529449463
9.44000000000008,0.147764921188354
9.44500000000008,0.149850130081177
9.45000000000008,0.147452354431152
9.45500000000008,0.148088693618774
9.46000000000008,0.148196458816528
9.46500000000008,0.148271322250366
9.47000000000008,0.147941827774048
9.47500000000008,0.148360967636108
9.48000000000008,0.148450136184692
9.48500000000008,0.147911310195923
9.49000000000008,0.147768020629883
9.49500000000008,0.147711038589478
9.50000000000009,0.147885322570801
9.50500000000009,0.148190498352051
9.51000000000009,0.147922515869141
9.51500000000009,0.148400068283081
9.52000000000009,0.148193120956421
9.52500000000009,0.14780592918396
9.53000000000009,0.14815354347229
9.53500000000009,0.147840976715088
9.54000000000009,0.868780612945557
9.54500000000009,0.147835969924927
9.55000000000009,0.148297786712646
9.55500000000009,0.147988319396973
9.56000000000009,0.148422956466675
9.5650000000001,0.14773154258728
9.5700000000001,0.147301197052002
9.5750000000001,0.147473573684692
9.5800000000001,0.147763729095459
9.5850000000001,0.147889852523804
9.5900000000001,0.147709846496582
9.5950000000001,0.148337125778198
9.6000000000001,0.147629022598267
9.6050000000001,0.147555589675903
9.6100000000001,0.147690057754517
9.6150000000001,0.1474289894104
9.6200000000001,0.147671699523926
9.6250000000001,0.147353172302246
9.63000000000011,0.147489070892334
9.63500000000011,0.147299289703369
9.64000000000011,0.148112058639526
9.64500000000011,0.147834777832031
9.65000000000011,0.147385835647583
9.65500000000011,0.148315906524658
9.66000000000011,0.147322416305542
9.66500000000011,0.147466659545898
9.67000000000011,0.147735118865967
9.67500000000011,0.147855997085571
9.68000000000011,0.147655963897705
9.68500000000011,0.147292375564575
9.69000000000011,0.148606777191162
9.69500000000012,0.147815942764282
9.70000000000012,0.147461891174316
9.70500000000012,0.14780068397522
9.71000000000012,0.147971391677856
9.71500000000012,0.147942781448364
9.72000000000012,0.147826433181763
9.72500000000012,0.148116827011108
9.73000000000012,0.147701978683472
9.73500000000012,0.147790670394897
9.74000000000012,0.155848979949951
9.74500000000012,0.147669315338135
9.75000000000012,0.147801399230957
9.75500000000013,0.150699138641357
9.76000000000013,0.148262023925781
9.76500000000013,0.148044586181641
9.77000000000013,0.148236274719238
9.77500000000013,0.148714780807495
9.78000000000013,0.148139476776123
9.78500000000013,0.148366928100586
9.79000000000013,0.148550033569336
9.79500000000013,0.148792028427124
9.80000000000013,0.148452758789062
9.80500000000013,0.148480176925659
9.81000000000013,0.149000644683838
9.81500000000013,0.148179054260254
9.82000000000014,0.148684978485107
9.82500000000014,0.147932052612305
9.83000000000014,0.147710561752319
9.83500000000014,0.147757768630981
9.84000000000014,0.147479057312012
9.84500000000014,0.147594690322876
9.85000000000014,0.148378133773804
9.85500000000014,0.148278713226318
9.86000000000014,0.149029016494751
9.86500000000014,0.148158550262451
9.87000000000014,0.148090839385986
9.87500000000014,0.147918701171875
9.88000000000014,0.147736549377441
9.88500000000015,0.148623704910278
9.89000000000015,0.147928714752197
9.89500000000015,0.14913272857666
9.90000000000015,0.147793769836426
9.90500000000015,0.148730039596558
9.91000000000015,0.147663354873657
9.91500000000015,0.148000717163086
9.92000000000015,0.147873640060425
9.92500000000015,0.147578239440918
9.93000000000015,0.148068904876709
9.93500000000015,0.147531747817993
9.94000000000015,0.148506879806519
9.94500000000015,0.147738933563232
9.95000000000016,0.147972345352173
9.95500000000016,0.148488759994507
9.96000000000016,0.147753000259399
9.96500000000016,0.147764921188354
9.97000000000016,0.147910594940186
9.97500000000016,0.147622585296631
9.98000000000016,0.147683382034302
9.98500000000016,0.148086309432983
9.99000000000016,0.147775173187256
9.99500000000016,0.147506952285767
