"Physical Time: Physical Time (s)","Solver CPU Time per Time Step Monitor: Solver CPU Time per Time Step (s)"
0.01,6.61
0.02,5.45
0.03,5.57
0.04,5.58
0.05,5.82
0.06,5.66
0.07,6.2
0.08,5.93
0.09,5.68
0.1,5.66
0.11,5.65
0.12,5.66
0.13,5.64
0.14,9.03
0.15,5.63
0.16,5.64
0.17,5.69
0.18,5.67
0.19,5.69
0.2,5.68
0.21,5.62
0.22,5.65
0.23,5.58
0.24,5.67
0.25,5.64
0.26,5.76
0.27,5.69
0.28,5.66
0.29,5.83
0.3,5.73
0.31,5.66
0.32,5.61
0.33,5.68
0.34,5.59
0.35,5.73
0.36,5.66
0.37,5.64
0.38,5.73
0.39,5.65
0.4,5.7
0.41,5.72
0.42,5.79
0.43,5.63
0.44,5.71
0.45,5.76
0.46,5.71
0.47,5.72
0.48,5.76
0.49,5.66
0.5,5.71
0.51,5.73
0.52,5.75
0.53,5.81
0.54,5.72
0.55,5.75
0.56,5.78
0.57,5.78
0.58,5.8
0.59,5.79
0.6,5.75
0.61,5.76
0.62,5.78
0.63,5.8
0.64,5.84
0.65,5.69
0.66,5.73
0.67,5.81
0.68,5.75
0.69,5.78
0.7,5.71
0.71,5.82
0.72,5.76
0.73,5.76
0.74,5.72
0.75,5.8
0.76,5.74
0.77,5.72
0.78,5.82
0.79,5.77
0.8,5.77
0.81,5.75
0.820000000000001,5.75
0.830000000000001,5.78
0.840000000000001,5.7
0.850000000000001,5.73
0.860000000000001,6
0.870000000000001,5.72
0.880000000000001,5.74
0.890000000000001,5.64
0.900000000000001,5.69
0.910000000000001,5.64
0.920000000000001,5.62
0.930000000000001,5.7
0.940000000000001,5.6
0.950000000000001,5.68
0.960000000000001,5.65
0.970000000000001,5.78
0.980000000000001,5.72
0.990000000000001,5.64
1,5.74
1.01,5.71
1.02,5.61
1.03,5.67
1.04,5.74
1.05,5.69
1.06,5.75
1.07,5.71
1.08,5.68
1.09,5.85
1.1,5.72
1.11,5.65
1.12,5.76
1.13,5.69
1.14,5.7
1.15,5.76
1.16,5.71
1.17,5.68
1.18,5.75
1.19,5.73
1.2,5.68
1.21,5.72
1.22,5.72
1.23,5.64
1.24,5.74
1.25,5.74
1.26,5.62
1.27,5.72
1.28,5.73
1.29,5.64
1.3,5.66
1.31,5.77
1.32,5.73
1.33,5.73
1.34,5.74
1.35,5.78
1.36,5.65
1.37,5.73
1.38,5.69
1.39,5.75
1.4,5.66
1.41,5.71
1.42,5.66
1.43,5.8
1.44,5.74
1.45,5.63
1.46,5.68
1.47,5.7
1.48,5.76
1.49,5.66
1.5,5.75
1.51,5.73
1.52,5.69
1.53,5.67
1.54,5.69
1.55,5.65
1.56,5.64
1.57,5.64
1.58,5.7
1.59,5.65
1.6,5.66
1.61,5.73
1.62,5.68
1.63,5.68
1.64,5.69
1.65,5.69
1.66,5.6
1.67,5.67
1.68,5.66
1.69,5.72
1.7,5.68
1.71,5.71
1.72,5.69
1.73,5.62
1.74,5.65
1.75,5.66
1.76,5.71
1.77,5.72
1.78,5.74
1.79,5.69
1.8,5.81
1.81,5.72
1.82,5.67
1.83,5.78
1.84,5.7
1.85,5.75
1.86,5.65
1.87,5.71
1.88,5.75
1.89,5.67
1.9,5.71
1.91,5.64
1.92,5.82
1.93,5.67
1.94,5.63
1.95,5.76
1.96,5.67
1.97,5.65
1.98,5.66
1.99,5.64
2,5.66
2.01,5.61
2.02,5.66
2.03,5.62
2.04,5.72
2.05,5.6
2.06,5.64
2.07,5.69
2.08,5.61
2.09,5.68
2.1,5.61
2.11,5.64
2.12,5.7
2.13,5.63
2.14,5.71
2.15,5.62
2.16,5.78
2.17,5.62
2.18,5.73
2.19,5.68
2.2,5.63
2.21,5.69
2.22,5.64
2.23,5.77
2.24,5.65
2.25,5.66
2.26,5.63
2.27,5.67
2.28,5.61
2.29,5.71
2.29999999999999,5.66
2.30999999999999,5.7
2.31999999999999,5.74
2.32999999999999,5.75
2.33999999999999,5.72
2.34999999999999,5.75
2.35999999999999,5.74
2.36999999999999,5.78
2.37999999999999,5.74
2.38999999999999,5.85
2.39999999999999,5.82
2.40999999999999,5.86
2.41999999999999,5.9
2.42999999999999,5.89
2.43999999999999,5.8
2.44999999999999,5.89
2.45999999999999,5.82
2.46999999999999,5.78
2.47999999999999,5.84
2.48999999999999,5.77
2.49999999999999,5.8
2.50999999999999,5.81
2.51999999999999,5.92
2.52999999999999,5.79
2.53999999999999,5.78
2.54999999999999,5.73
2.55999999999999,5.73
2.56999999999999,5.73
2.57999999999999,5.73
2.58999999999999,5.78
2.59999999999999,5.82
2.60999999999999,5.76
2.61999999999999,5.78
2.62999999999999,5.72
2.63999999999999,5.8
2.64999999999999,5.81
2.65999999999999,5.73
2.66999999999999,5.78
2.67999999999999,5.8
2.68999999999999,5.7
2.69999999999999,5.75
2.70999999999999,5.8
2.71999999999999,5.68
2.72999999999999,5.77
2.73999999999999,5.76
2.74999999999999,5.81
2.75999999999999,5.76
2.76999999999998,5.71
2.77999999999998,5.75
2.78999999999998,5.84
2.79999999999998,5.69
2.80999999999998,5.73
2.81999999999998,5.69
2.82999999999998,5.79
2.83999999999998,5.67
2.84999999999998,5.73
2.85999999999998,5.71
2.86999999999998,5.78
2.87999999999998,5.78
2.88999999999998,5.7
2.89999999999998,5.75
2.90999999999998,5.74
2.91999999999998,5.8
2.92999999999998,5.72
2.93999999999998,5.85
2.94999999999998,7.09
2.95999999999998,5.7
2.96999999999998,5.82
2.97999999999998,5.78
2.98999999999998,5.73
2.99999999999998,5.67
3.00999999999998,5.79
3.01999999999998,5.73
3.02999999999998,5.79
3.03999999999998,5.78
3.04999999999998,5.82
3.05999999999998,5.71
3.06999999999998,5.73
3.07999999999998,5.78
3.08999999999998,5.83
3.09999999999998,5.72
3.10999999999998,5.66
3.11999999999998,5.8
3.12999999999998,5.79
3.13999999999998,5.72
3.14999999999998,5.87
3.15999999999998,5.79
3.16999999999998,5.74
3.17999999999998,5.78
3.18999999999998,5.77
3.19999999999998,5.71
3.20999999999998,5.76
3.21999999999998,5.81
3.22999999999998,5.78
3.23999999999997,5.83
3.24999999999997,5.77
3.25999999999997,5.81
3.26999999999997,5.72
3.27999999999997,5.68
3.28999999999997,5.75
3.29999999999997,5.77
3.30999999999997,5.81
3.31999999999997,5.81
3.32999999999997,5.69
3.33999999999997,5.71
3.34999999999997,5.72
3.35999999999997,5.84
3.36999999999997,5.81
3.37999999999997,5.89
3.38999999999997,5.79
3.39999999999997,5.81
3.40999999999997,5.81
3.41999999999997,5.79
3.42999999999997,5.72
3.43999999999997,5.73
3.44999999999997,5.78
3.45999999999997,5.8
3.46999999999997,5.81
3.47999999999997,5.8
3.48999999999997,5.77
3.49999999999997,5.77
3.50999999999997,5.78
3.51999999999997,5.8
3.52999999999997,5.84
3.53999999999997,5.83
3.54999999999997,5.84
3.55999999999997,5.73
3.56999999999997,5.74
3.57999999999997,5.76
3.58999999999997,5.7
3.59999999999997,5.79
3.60999999999997,5.83
3.61999999999997,5.79
3.62999999999997,5.83
3.63999999999997,5.84
3.64999999999997,5.81
3.65999999999997,5.81
3.66999999999997,5.75
3.67999999999997,5.72
3.68999999999997,5.77
3.69999999999997,5.76
3.70999999999996,5.83
3.71999999999996,5.8
3.72999999999996,5.78
3.73999999999996,5.81
3.74999999999996,5.81
3.75999999999996,5.75
3.76999999999996,5.7
3.77999999999996,5.72
3.78999999999996,5.8
3.79999999999996,5.71
3.80999999999996,5.81
3.81999999999996,5.76
3.82999999999996,5.83
3.83999999999996,5.85
3.84999999999996,5.87
3.85999999999996,5.8
3.86999999999996,5.78
3.87999999999996,5.91
3.88999999999996,5.87
3.89999999999996,5.86
3.90999999999996,5.76
3.91999999999996,5.84
3.92999999999996,5.83
3.93999999999996,5.74
3.94999999999996,5.83
3.95999999999996,5.74
3.96999999999996,5.74
3.97999999999996,5.74
3.98999999999996,5.76
3.99999999999996,5.78
4.00999999999996,5.82
4.01999999999996,5.8
4.02999999999996,5.8
4.03999999999996,5.83
4.04999999999996,5.93
4.05999999999996,5.78
4.06999999999996,5.77
4.07999999999996,5.79
4.08999999999996,5.81
4.09999999999996,5.82
4.10999999999996,5.79
4.11999999999996,5.93
4.12999999999996,5.97
4.13999999999996,5.88
4.14999999999996,5.86
4.15999999999996,5.81
4.16999999999996,5.8
4.17999999999996,5.8
4.18999999999996,5.81
4.19999999999995,5.85
4.20999999999995,5.88
4.21999999999995,5.77
4.22999999999995,5.81
4.23999999999995,5.81
4.24999999999995,5.78
4.25999999999995,5.87
4.26999999999995,5.89
4.27999999999995,5.9
4.28999999999995,5.82
4.29999999999995,5.8
4.30999999999995,5.83
4.31999999999995,5.76
4.32999999999995,5.78
4.33999999999995,5.82
4.34999999999995,5.81
4.35999999999995,5.81
4.36999999999995,5.77
4.37999999999995,5.74
4.38999999999995,5.77
4.39999999999995,5.77
4.40999999999995,5.77
4.41999999999995,5.74
4.42999999999995,5.77
4.43999999999995,5.82
4.44999999999995,5.79
4.45999999999995,5.82
4.46999999999995,5.9
4.47999999999995,5.9
4.48999999999995,5.81
4.49999999999995,5.75
4.50999999999995,5.76
4.51999999999995,5.77
4.52999999999995,5.76
4.53999999999995,5.75
4.54999999999995,5.77
4.55999999999995,5.87
4.56999999999995,5.86
4.57999999999995,5.81
4.58999999999995,5.8
4.59999999999995,5.88
4.60999999999995,5.87
4.61999999999995,5.75
4.62999999999995,5.75
4.63999999999995,5.85
4.64999999999995,5.74
4.65999999999995,5.81
4.66999999999994,5.83
4.67999999999994,5.78
4.68999999999994,5.73
4.69999999999994,5.74
4.70999999999994,5.86
4.71999999999994,5.79
4.72999999999994,5.76
4.73999999999994,5.75
4.74999999999994,5.85
4.75999999999994,5.9
4.76999999999994,5.83
4.77999999999994,5.75
4.78999999999994,5.76
4.79999999999994,5.81
4.80999999999994,5.8
4.81999999999994,5.91
4.82999999999994,6.01
4.83999999999994,6.01
4.84999999999994,5.88
4.85999999999994,5.89
4.86999999999994,5.82
4.87999999999994,5.83
4.88999999999994,6.1
4.89999999999994,5.72
4.90999999999994,5.82
4.91999999999994,5.78
4.92999999999994,5.82
4.93999999999994,5.75
4.94999999999994,5.8
4.95999999999994,5.79
4.96999999999994,5.83
4.97999999999994,5.8
4.98999999999994,5.88
4.99999999999994,5.94
5.00999999999994,5.89
5.01999999999994,5.82
5.02999999999994,5.83
5.03999999999994,5.84
5.04999999999994,5.87
5.05999999999994,5.81
5.06999999999994,5.8
5.07999999999994,5.8
5.08999999999994,5.75
5.09999999999994,5.74
5.10999999999994,5.74
5.11999999999994,5.68
5.12999999999994,5.75
5.13999999999993,5.7
5.14999999999993,5.77
5.15999999999993,5.74
5.16999999999993,5.74
5.17999999999993,5.76
5.18999999999993,5.74
5.19999999999993,5.84
5.20999999999993,5.8
5.21999999999993,5.86
5.22999999999993,5.86
5.23999999999993,5.82
5.24999999999993,5.83
5.25999999999993,5.75
5.26999999999993,5.72
5.27999999999993,5.69
5.28999999999993,5.75
5.29999999999993,5.82
5.30999999999993,5.71
5.31999999999993,5.74
5.32999999999993,5.77
5.33999999999993,5.86
5.34999999999993,5.92
5.35999999999993,5.87
5.36999999999993,5.86
5.37999999999993,5.86
5.38999999999993,5.87
5.39999999999993,5.82
5.40999999999993,5.81
5.41999999999993,5.84
5.42999999999993,5.81
5.43999999999993,5.84
5.44999999999993,5.83
5.45999999999993,5.8
5.46999999999993,6.04
5.47999999999993,5.77
5.48999999999993,5.8
5.49999999999993,5.79
5.50999999999993,5.78
5.51999999999993,5.85
5.52999999999993,5.82
5.53999999999993,5.8
5.54999999999993,5.81
5.55999999999993,5.78
5.56999999999993,5.85
5.57999999999993,5.82
5.58999999999993,5.8
5.59999999999993,5.81
5.60999999999992,5.82
5.61999999999992,5.68
5.62999999999992,5.76
5.63999999999992,5.76
5.64999999999992,5.79
5.65999999999992,5.72
5.66999999999992,5.84
5.67999999999992,5.86
5.68999999999992,5.81
5.69999999999992,5.76
5.70999999999992,5.75
5.71999999999992,5.85
5.72999999999992,5.78
5.73999999999992,5.75
5.74999999999992,5.69
5.75999999999992,5.71
5.76999999999992,5.81
5.77999999999992,5.8
5.78999999999992,5.82
5.79999999999992,5.92
5.80999999999992,5.84
5.81999999999992,5.82
5.82999999999992,5.82
5.83999999999992,5.77
5.84999999999992,5.86
5.85999999999992,5.76
5.86999999999992,5.89
5.87999999999992,6.68
5.88999999999992,5.79
5.89999999999992,5.85
5.90999999999992,5.83
5.91999999999992,5.76
5.92999999999992,5.84
5.93999999999992,5.83
5.94999999999992,5.86
5.95999999999992,5.77
5.96999999999992,5.86
5.97999999999992,5.71
5.98999999999992,5.78
5.99999999999992,5.79
6.00999999999992,5.74
6.01999999999992,5.73
6.02999999999992,5.84
6.03999999999992,5.86
6.04999999999992,5.8
6.05999999999992,5.81
6.06999999999992,5.8
6.07999999999991,5.85
6.08999999999991,5.81
6.09999999999991,5.81
6.10999999999991,5.78
6.11999999999991,5.75
6.12999999999991,5.77
6.13999999999991,5.74
6.14999999999991,5.78
6.15999999999991,5.8
6.16999999999991,5.74
6.17999999999991,5.79
6.18999999999991,5.81
6.19999999999991,5.85
6.20999999999991,5.83
6.21999999999991,5.77
6.22999999999991,5.76
6.23999999999991,5.76
6.24999999999991,5.7
6.25999999999991,5.67
6.26999999999991,5.77
6.27999999999991,5.79
6.28999999999991,5.83
6.29999999999991,5.83
6.30999999999991,5.72
6.31999999999991,5.72
6.32999999999991,5.65
6.33999999999991,5.71
6.34999999999991,5.84
6.35999999999991,5.78
6.36999999999991,5.79
6.37999999999991,5.81
6.38999999999991,5.8
6.39999999999991,5.81
6.40999999999991,5.74
6.41999999999991,5.71
6.42999999999991,5.63
6.43999999999991,5.75
6.44999999999991,5.84
6.45999999999991,5.86
6.46999999999991,5.79
6.47999999999991,5.73
6.48999999999991,5.9
6.49999999999991,5.82
6.50999999999991,5.83
6.51999999999991,5.81
6.52999999999991,5.78
6.53999999999991,5.67
6.5499999999999,5.73
6.5599999999999,5.81
6.5699999999999,5.74
6.5799999999999,5.76
6.5899999999999,5.77
6.5999999999999,5.85
6.6099999999999,5.85
6.6199999999999,5.67
6.6299999999999,5.88
6.6399999999999,5.71
6.6499999999999,5.7
6.6599999999999,5.73
6.6699999999999,5.9
6.6799999999999,5.9
6.6899999999999,5.76
6.6999999999999,5.84
6.7099999999999,5.88
6.7199999999999,5.88
6.7299999999999,7.11
6.7399999999999,5.78
6.7499999999999,5.85
6.7599999999999,5.71
6.7699999999999,5.8
6.7799999999999,7.4
6.7899999999999,6.07
6.7999999999999,5.71
6.8099999999999,5.7
6.8199999999999,5.81
6.8299999999999,5.76
6.8399999999999,5.86
6.8499999999999,5.83
6.8599999999999,5.81
6.8699999999999,5.7
6.8799999999999,5.98
6.8899999999999,5.72
6.8999999999999,5.73
6.9099999999999,5.75
6.9199999999999,5.79
6.9299999999999,5.77
6.9399999999999,5.73
6.9499999999999,5.87
6.9599999999999,5.82
6.9699999999999,5.87
6.9799999999999,5.84
6.9899999999999,5.76
6.9999999999999,5.75
7.00999999999989,5.74
7.01999999999989,5.78
7.02999999999989,5.78
7.03999999999989,5.8
7.04999999999989,5.81
7.05999999999989,5.81
7.06999999999989,5.74
7.07999999999989,5.82
7.08999999999989,5.85
7.09999999999989,5.78
7.10999999999989,5.79
7.11999999999989,5.74
7.12999999999989,6.1
7.13999999999989,5.83
7.14999999999989,5.81
7.15999999999989,5.81
7.16999999999989,5.87
7.17999999999989,5.8
7.18999999999989,5.79
7.19999999999989,5.77
7.20999999999989,5.7
7.21999999999989,5.71
7.22999999999989,5.76
7.23999999999989,5.76
7.24999999999989,5.76
7.25999999999989,5.77
7.26999999999989,5.82
7.27999999999989,5.88
7.28999999999989,5.8
7.29999999999989,5.83
7.30999999999989,5.81
7.31999999999989,5.8
7.32999999999989,5.75
7.33999999999989,5.68
7.34999999999989,5.69
7.35999999999989,5.73
7.36999999999989,5.8
7.37999999999989,5.73
7.38999999999989,5.75
7.39999999999989,5.76
7.40999999999989,5.69
7.41999999999989,5.81
7.42999999999989,5.82
7.43999999999989,5.83
7.44999999999989,5.86
7.45999999999989,5.91
7.46999999999989,5.7
7.47999999999988,5.86
7.48999999999988,5.9
7.49999999999988,5.87
7.50999999999988,5.73
7.51999999999988,5.89
7.52999999999988,5.84
7.53999999999988,5.9
7.54999999999988,5.78
7.55999999999988,5.85
7.56999999999988,5.86
7.57999999999988,5.79
7.58999999999988,5.77
7.59999999999988,5.77
7.60999999999988,5.74
7.61999999999988,5.64
7.62999999999988,5.78
7.63999999999988,5.76
7.64999999999988,5.78
7.65999999999988,5.83
7.66999999999988,5.83
7.67999999999988,5.88
7.68999999999988,5.83
7.69999999999988,5.75
7.70999999999988,5.74
7.71999999999988,5.83
7.72999999999988,5.72
7.73999999999988,5.74
7.74999999999988,5.72
7.75999999999988,5.71
7.76999999999988,5.74
7.77999999999988,5.8
7.78999999999988,5.8
7.79999999999988,5.87
7.80999999999988,5.82
7.81999999999988,5.85
7.82999999999988,5.81
7.83999999999988,5.81
7.84999999999988,5.71
7.85999999999988,5.79
7.86999999999988,5.72
7.87999999999988,5.84
7.88999999999988,5.79
7.89999999999988,5.74
7.90999999999988,5.71
7.91999999999988,5.78
7.92999999999988,5.79
7.93999999999988,5.84
7.94999999999987,5.79
7.95999999999987,5.75
7.96999999999987,5.76
7.97999999999987,5.75
7.98999999999987,5.81
7.99999999999987,5.74
8.00999999999987,5.88
8.01999999999987,5.81
8.02999999999987,5.83
8.03999999999987,5.78
8.04999999999987,5.79
8.05999999999987,5.87
8.06999999999987,5.72
8.07999999999987,5.82
8.08999999999987,5.8
8.09999999999987,5.69
8.10999999999987,5.81
8.11999999999987,5.81
8.12999999999987,5.89
8.13999999999987,5.72
8.14999999999987,5.74
8.15999999999987,5.77
8.16999999999987,5.69
8.17999999999987,5.72
8.18999999999987,5.83
8.19999999999987,5.87
8.20999999999987,5.86
8.21999999999987,5.78
8.22999999999987,5.72
8.23999999999987,5.74
8.24999999999987,5.67
8.25999999999987,5.86
8.26999999999987,5.8
8.27999999999987,5.87
8.28999999999987,5.68
8.29999999999987,5.86
8.30999999999987,5.76
8.31999999999987,5.74
8.32999999999987,5.64
8.33999999999987,5.9
8.34999999999987,5.82
8.35999999999987,5.87
8.36999999999987,5.79
8.37999999999987,5.81
8.38999999999987,5.74
8.39999999999987,5.65
8.40999999999987,5.82
8.41999999999986,5.78
8.42999999999986,5.74
8.43999999999986,5.83
8.44999999999986,5.75
8.45999999999986,5.76
8.46999999999986,5.75
8.47999999999986,5.75
8.48999999999986,5.67
8.49999999999986,5.78
8.50999999999986,5.66
8.51999999999986,5.76
8.52999999999986,5.79
8.53999999999986,5.78
8.54999999999986,5.77
8.55999999999986,5.82
8.56999999999986,5.74
8.57999999999986,5.81
8.58999999999986,5.65
8.59999999999986,5.86
8.60999999999986,5.81
8.61999999999986,5.76
8.62999999999986,5.77
8.63999999999986,5.8
8.64999999999986,5.7
8.65999999999986,5.74
8.66999999999986,5.74
8.67999999999986,5.78
8.68999999999986,5.71
8.69999999999986,5.86
8.70999999999986,5.75
8.71999999999986,5.79
8.72999999999986,5.74
8.73999999999986,5.81
8.74999999999986,5.83
8.75999999999986,5.67
8.76999999999986,5.78
8.77999999999986,5.75
8.78999999999986,5.81
8.79999999999986,5.67
8.80999999999986,5.78
8.81999999999986,5.81
8.82999999999986,5.8
8.83999999999986,5.75
8.84999999999986,5.74
8.85999999999986,5.69
8.86999999999986,5.66
8.87999999999986,6.02
8.88999999999985,5.77
8.89999999999985,5.74
8.90999999999985,5.7
8.91999999999985,5.78
8.92999999999985,5.8
8.93999999999985,5.69
8.94999999999985,5.75
8.95999999999985,5.76
8.96999999999985,5.73
8.97999999999985,5.81
8.98999999999985,5.83
8.99999999999985,5.78
9.00999999999985,5.78
9.01999999999985,5.77
9.02999999999985,5.81
9.03999999999985,5.72
9.04999999999985,5.71
9.05999999999985,5.72
9.06999999999985,5.78
9.07999999999985,5.73
9.08999999999985,7.38
9.09999999999985,5.82
9.10999999999985,5.7
9.11999999999985,5.74
9.12999999999985,5.86
9.13999999999985,5.94
9.14999999999985,5.66
9.15999999999985,5.76
9.16999999999985,5.74
9.17999999999985,5.72
9.18999999999985,5.69
9.19999999999985,5.86
9.20999999999985,5.82
9.21999999999985,5.82
9.22999999999985,5.69
9.23999999999985,5.73
9.24999999999985,5.84
9.25999999999985,5.76
9.26999999999985,5.66
9.27999999999985,5.77
9.28999999999985,5.77
9.29999999999985,5.79
9.30999999999985,5.91
9.31999999999985,5.8
9.32999999999985,5.8
9.33999999999985,5.73
9.34999999999985,5.79
9.35999999999984,5.82
9.36999999999984,5.7
9.37999999999984,5.76
9.38999999999984,5.73
9.39999999999984,5.79
9.40999999999984,5.68
9.41999999999984,5.79
9.42999999999984,5.74
9.43999999999984,5.69
9.44999999999984,5.79
9.45999999999984,5.89
9.46999999999984,5.86
9.47999999999984,5.74
9.48999999999984,5.81
9.49999999999984,5.76
9.50999999999984,5.74
9.51999999999984,5.77
9.52999999999984,5.8
9.53999999999984,5.76
9.54999999999984,5.68
9.55999999999984,5.83
9.56999999999984,5.72
9.57999999999984,5.58
9.58999999999984,5.73
9.59999999999984,5.77
9.60999999999984,5.74
9.61999999999984,5.78
9.62999999999984,5.83
9.63999999999984,5.81
9.64999999999984,5.68
9.65999999999984,5.65
9.66999999999984,5.76
9.67999999999984,5.78
9.68999999999984,5.73
9.69999999999984,5.72
9.70999999999984,5.73
9.71999999999984,5.75
9.72999999999984,5.83
9.73999999999984,5.73
9.74999999999984,5.71
9.75999999999984,5.7
9.76999999999984,5.77
9.77999999999984,5.74
9.78999999999984,5.63
9.79999999999984,5.81
9.80999999999984,5.88
9.81999999999984,5.75
9.82999999999983,5.73
9.83999999999983,5.78
9.84999999999983,5.74
9.85999999999983,5.71
9.86999999999983,5.7
9.87999999999983,5.76
9.88999999999983,5.72
9.89999999999983,5.72
9.90999999999983,5.79
9.91999999999983,5.72
9.92999999999983,5.7
9.93999999999983,5.7
9.94999999999983,5.84
9.95999999999983,5.71
9.96999999999983,5.71
9.97999999999983,5.74
9.98999999999983,5.77
