"Iteration: Iteration","Physical Time: Physical Time (s)"
20005,0.0015
20010,0.003
20015,0.0045
20020,0.006
20025,0.0075
20030,0.009
20035,0.0105
20040,0.012
20045,0.0135
20050,0.015
20055,0.0165
20060,0.018
20065,0.0195
20070,0.021
20075,0.0225
20080,0.024
20085,0.0255
20090,0.027
20095,0.0285
20100,0.03
20105,0.0315
20110,0.033
20115,0.0345
20120,0.036
20125,0.0375
20130,0.039
20135,0.0405
20140,0.042
20145,0.0435
20150,0.045
20155,0.0465
20160,0.048
20165,0.0495
20170,0.051
20175,0.0525
20180,0.054
20185,0.0555
20190,0.057
20195,0.0585
20200,0.06
20205,0.0615
20210,0.063
20215,0.0645
20220,0.066
20225,0.0675
20230,0.069
20235,0.0705
20240,0.072
20245,0.0735
20250,0.075
20255,0.0765
20260,0.078
20265,0.0795
20270,0.081
20275,0.0825
20280,0.084
20285,0.0855
20290,0.087
20295,0.0885000000000001
20300,0.0900000000000001
20305,0.0915000000000001
20310,0.0930000000000001
20315,0.0945000000000001
20320,0.0960000000000001
20325,0.0975000000000001
20330,0.0990000000000001
20335,0.1005
20340,0.102
20345,0.1035
20350,0.105
20355,0.1065
20360,0.108
20365,0.1095
20370,0.111
20375,0.1125
20380,0.114
20385,0.1155
20390,0.117
20395,0.1185
20400,0.12
20405,0.1215
20410,0.123
20415,0.1245
20420,0.126
20425,0.1275
20430,0.129
20435,0.1305
20440,0.132
20445,0.1335
20450,0.135
20455,0.1365
20460,0.138
20465,0.1395
20470,0.141
20475,0.1425
20480,0.144
20485,0.1455
20490,0.147
20495,0.1485
20500,0.15
20505,0.1515
20510,0.153
20515,0.1545
20520,0.156
20525,0.1575
20530,0.159
20535,0.1605
20540,0.162
20545,0.1635
20550,0.165
20555,0.1665
20560,0.168
20565,0.1695
20570,0.171
20575,0.1725
20580,0.174
20585,0.1755
20590,0.177
20595,0.1785
20600,0.18
20605,0.1815
20610,0.183
20615,0.1845
20620,0.186
20625,0.1875
20630,0.189
20635,0.1905
20640,0.192
20645,0.1935
20650,0.195
20655,0.1965
20660,0.198
20665,0.1995
20670,0.201
20675,0.2025
20680,0.204
20685,0.2055
20690,0.207
20695,0.2085
20700,0.21
20705,0.2115
20710,0.213
20715,0.2145
20720,0.216
20725,0.2175
20730,0.219
20735,0.2205
20740,0.222
20745,0.2235
20750,0.225
20755,0.2265
20760,0.228
20765,0.2295
20770,0.231
20775,0.2325
20780,0.234
20785,0.2355
20790,0.237
20795,0.2385
20800,0.24
20805,0.2415
20810,0.243
20815,0.2445
20820,0.246
20825,0.2475
20830,0.249
20835,0.2505
20840,0.252
20845,0.2535
20850,0.255
20855,0.2565
20860,0.258
20865,0.2595
20870,0.261
20875,0.2625
20880,0.264
20885,0.2655
20890,0.267
20895,0.2685
20900,0.27
20905,0.2715
20910,0.273
20915,0.2745
20920,0.276
20925,0.2775
20930,0.279
20935,0.2805
20940,0.282
20945,0.2835
20950,0.285
20955,0.2865
20960,0.288
20965,0.2895
20970,0.291
20975,0.2925
20980,0.294
20985,0.2955
20990,0.297
20995,0.2985
21000,0.3
21005,0.3015
21010,0.303
21015,0.3045
21020,0.306
21025,0.3075
21030,0.309
21035,0.3105
21040,0.312
21045,0.3135
21050,0.315
21055,0.3165
21060,0.318
21065,0.3195
21070,0.321
21075,0.3225
21080,0.324
21085,0.3255
21090,0.327
21095,0.3285
21100,0.33
21105,0.3315
21110,0.333
21115,0.3345
21120,0.336
21125,0.3375
21130,0.339
21135,0.3405
21140,0.342
21145,0.3435
21150,0.345
21155,0.3465
21160,0.348
21165,0.3495
21170,0.351
21175,0.3525
21180,0.354
21185,0.3555
21190,0.357
21195,0.3585
21200,0.36
21205,0.3615
21210,0.363
21215,0.3645
21220,0.366
21225,0.3675
21230,0.369
21235,0.3705
21240,0.372
21245,0.3735
21250,0.375
21255,0.3765
21260,0.378
21265,0.3795
21270,0.381
21275,0.3825
21280,0.384
21285,0.3855
21290,0.387
21295,0.3885
21300,0.39
21305,0.3915
21310,0.393
21315,0.3945
21320,0.396
21325,0.3975
21330,0.399
21335,0.4005
21340,0.402
21345,0.4035
21350,0.405
21355,0.4065
21360,0.408
21365,0.4095
21370,0.411
21375,0.4125
21380,0.414
21385,0.4155
21390,0.417
21395,0.4185
21400,0.42
21405,0.4215
21410,0.423
21415,0.4245
21420,0.426
21425,0.4275
21430,0.429
21435,0.4305
21440,0.432
21445,0.4335
21450,0.435
21455,0.4365
21460,0.438
21465,0.4395
21470,0.441
21475,0.4425
21480,0.444
21485,0.4455
21490,0.447
21495,0.4485
21500,0.45
21505,0.4515
21510,0.453
21515,0.4545
21520,0.456
21525,0.4575
21530,0.459
21535,0.4605
21540,0.462
21545,0.4635
21550,0.465
21555,0.4665
21560,0.468
21565,0.4695
21570,0.471
21575,0.4725
21580,0.474
21585,0.4755
21590,0.477
21595,0.4785
21600,0.48
21605,0.4815
21610,0.483
21615,0.4845
21620,0.486
21625,0.4875
21630,0.489
21635,0.4905
21640,0.492
21645,0.4935
21650,0.495
21655,0.4965
21660,0.498
21665,0.4995
21670,0.501
21675,0.5025
21680,0.504
21685,0.5055
21690,0.507
21695,0.5085
21700,0.51
21705,0.5115
21710,0.513
21715,0.5145
21720,0.516
21725,0.5175
21730,0.519
21735,0.5205
21740,0.522
21745,0.5235
21750,0.524999999999999
21755,0.526499999999999
21760,0.527999999999999
21765,0.529499999999999
21770,0.530999999999999
21775,0.532499999999999
21780,0.533999999999999
21785,0.535499999999999
21790,0.536999999999999
21795,0.538499999999999
21800,0.539999999999999
21805,0.541499999999999
21810,0.542999999999999
21815,0.544499999999999
21820,0.545999999999999
21825,0.547499999999999
21830,0.548999999999999
21835,0.550499999999999
21840,0.551999999999998
21845,0.553499999999998
21850,0.554999999999998
21855,0.556499999999998
21860,0.557999999999998
21865,0.559499999999998
21870,0.560999999999998
21875,0.562499999999998
21880,0.563999999999998
21885,0.565499999999998
21890,0.566999999999998
21895,0.568499999999998
21900,0.569999999999998
21905,0.571499999999998
21910,0.572999999999998
21915,0.574499999999998
21920,0.575999999999998
21925,0.577499999999998
21930,0.578999999999998
21935,0.580499999999997
21940,0.581999999999997
21945,0.583499999999997
21950,0.584999999999997
21955,0.586499999999997
21960,0.587999999999997
21965,0.589499999999997
21970,0.590999999999997
21975,0.592499999999997
21980,0.593999999999997
21985,0.595499999999997
21990,0.596999999999997
21995,0.598499999999997
22000,0.599999999999997
22005,0.601499999999997
22010,0.602999999999997
22015,0.604499999999997
22020,0.605999999999997
22025,0.607499999999996
22030,0.608999999999996
22035,0.610499999999996
22040,0.611999999999996
22045,0.613499999999996
22050,0.614999999999996
22055,0.616499999999996
22060,0.617999999999996
22065,0.619499999999996
22070,0.620999999999996
22075,0.622499999999996
22080,0.623999999999996
22085,0.625499999999996
22090,0.626999999999996
22095,0.628499999999996
22100,0.629999999999996
22105,0.631499999999996
22110,0.632999999999996
22115,0.634499999999996
22120,0.635999999999995
22125,0.637499999999995
22130,0.638999999999995
22135,0.640499999999995
22140,0.641999999999995
22145,0.643499999999995
22150,0.644999999999995
22155,0.646499999999995
22160,0.647999999999995
22165,0.649499999999995
22170,0.650999999999995
22175,0.652499999999995
22180,0.653999999999995
22185,0.655499999999995
22190,0.656999999999995
22195,0.658499999999995
22200,0.659999999999995
22205,0.661499999999995
22210,0.662999999999994
22215,0.664499999999994
22220,0.665999999999994
22225,0.667499999999994
22230,0.668999999999994
22235,0.670499999999994
22240,0.671999999999994
22245,0.673499999999994
22250,0.674999999999994
22255,0.676499999999994
22260,0.677999999999994
22265,0.679499999999994
22270,0.680999999999994
22275,0.682499999999994
22280,0.683999999999994
22285,0.685499999999994
22290,0.686999999999994
22295,0.688499999999994
22300,0.689999999999994
22305,0.691499999999993
22310,0.692999999999993
22315,0.694499999999993
22320,0.695999999999993
22325,0.697499999999993
22330,0.698999999999993
22335,0.700499999999993
22340,0.701999999999993
22345,0.703499999999993
22350,0.704999999999993
22355,0.706499999999993
22360,0.707999999999993
22365,0.709499999999993
22370,0.710999999999993
22375,0.712499999999993
22380,0.713999999999993
22385,0.715499999999993
22390,0.716999999999993
22395,0.718499999999992
22400,0.719999999999992
22405,0.721499999999992
22410,0.722999999999992
22415,0.724499999999992
22420,0.725999999999992
22425,0.727499999999992
22430,0.728999999999992
22435,0.730499999999992
22440,0.731999999999992
22445,0.733499999999992
22450,0.734999999999992
22455,0.736499999999992
22460,0.737999999999992
22465,0.739499999999992
22470,0.740999999999992
22475,0.742499999999992
22480,0.743999999999992
22485,0.745499999999992
22490,0.746999999999991
22495,0.748499999999991
22500,0.749999999999991
22505,0.751499999999991
22510,0.752999999999991
22515,0.754499999999991
22520,0.755999999999991
22525,0.757499999999991
22530,0.758999999999991
22535,0.760499999999991
22540,0.761999999999991
22545,0.763499999999991
22550,0.764999999999991
22555,0.766499999999991
22560,0.767999999999991
22565,0.769499999999991
22570,0.770999999999991
22575,0.772499999999991
22580,0.77399999999999
22585,0.77549999999999
22590,0.77699999999999
22595,0.77849999999999
22600,0.77999999999999
22605,0.78149999999999
22610,0.78299999999999
22615,0.78449999999999
22620,0.78599999999999
22625,0.78749999999999
22630,0.78899999999999
22635,0.79049999999999
22640,0.79199999999999
22645,0.79349999999999
22650,0.79499999999999
22655,0.79649999999999
22660,0.79799999999999
22665,0.79949999999999
22670,0.800999999999989
22675,0.802499999999989
22680,0.803999999999989
22685,0.805499999999989
22690,0.806999999999989
22695,0.808499999999989
22700,0.809999999999989
22705,0.811499999999989
22710,0.812999999999989
22715,0.814499999999989
22720,0.815999999999989
22725,0.817499999999989
22730,0.818999999999989
22735,0.820499999999989
22740,0.821999999999989
22745,0.823499999999989
22750,0.824999999999989
22755,0.826499999999989
22760,0.827999999999989
22765,0.829499999999988
22770,0.830999999999988
22775,0.832499999999988
22780,0.833999999999988
22785,0.835499999999988
22790,0.836999999999988
22795,0.838499999999988
22800,0.839999999999988
22805,0.841499999999988
22810,0.842999999999988
22815,0.844499999999988
22820,0.845999999999988
22825,0.847499999999988
22830,0.848999999999988
22835,0.850499999999988
22840,0.851999999999988
22845,0.853499999999988
22850,0.854999999999988
22855,0.856499999999987
22860,0.857999999999987
22865,0.859499999999987
22870,0.860999999999987
22875,0.862499999999987
22880,0.863999999999987
22885,0.865499999999987
22890,0.866999999999987
22895,0.868499999999987
22900,0.869999999999987
22905,0.871499999999987
22910,0.872999999999987
22915,0.874499999999987
22920,0.875999999999987
22925,0.877499999999987
22930,0.878999999999987
22935,0.880499999999987
22940,0.881999999999987
22945,0.883499999999987
22950,0.884999999999986
22955,0.886499999999986
22960,0.887999999999986
22965,0.889499999999986
22970,0.890999999999986
22975,0.892499999999986
22980,0.893999999999986
22985,0.895499999999986
22990,0.896999999999986
22995,0.898499999999986
23000,0.899999999999986
23005,0.901499999999986
23010,0.902999999999986
23015,0.904499999999986
23020,0.905999999999986
23025,0.907499999999986
23030,0.908999999999986
23035,0.910499999999986
23040,0.911999999999985
23045,0.913499999999985
23050,0.914999999999985
23055,0.916499999999985
23060,0.917999999999985
23065,0.919499999999985
23070,0.920999999999985
23075,0.922499999999985
23080,0.923999999999985
23085,0.925499999999985
23090,0.926999999999985
23095,0.928499999999985
23100,0.929999999999985
23105,0.931499999999985
23110,0.932999999999985
23115,0.934499999999985
23120,0.935999999999985
23125,0.937499999999985
23130,0.938999999999985
23135,0.940499999999984
23140,0.941999999999984
23145,0.943499999999984
23150,0.944999999999984
23155,0.946499999999984
23160,0.947999999999984
23165,0.949499999999984
23170,0.950999999999984
23175,0.952499999999984
23180,0.953999999999984
23185,0.955499999999984
23190,0.956999999999984
23195,0.958499999999984
23200,0.959999999999984
23205,0.961499999999984
23210,0.962999999999984
23215,0.964499999999984
23220,0.965999999999984
23225,0.967499999999983
23230,0.968999999999983
23235,0.970499999999983
23240,0.971999999999983
23245,0.973499999999983
23250,0.974999999999983
23255,0.976499999999983
23260,0.977999999999983
23265,0.979499999999983
23270,0.980999999999983
23275,0.982499999999983
23280,0.983999999999983
23285,0.985499999999983
23290,0.986999999999983
23295,0.988499999999983
23300,0.989999999999983
23305,0.991499999999983
23310,0.992999999999983
23315,0.994499999999983
23320,0.995999999999982
23325,0.997499999999982
23330,0.998999999999982
23335,1.00049999999998
23340,1.00199999999998
23345,1.00349999999998
23350,1.00499999999998
23355,1.00649999999998
23360,1.00799999999998
23365,1.00949999999998
23370,1.01099999999998
23375,1.01249999999998
23380,1.01399999999998
23385,1.01549999999998
23390,1.01699999999998
23395,1.01849999999998
23400,1.01999999999998
23405,1.02149999999998
23410,1.02299999999998
23415,1.02449999999998
23420,1.02599999999998
23425,1.02749999999998
23430,1.02899999999998
23435,1.03049999999998
23440,1.03199999999998
23445,1.03349999999998
23450,1.03499999999998
23455,1.03649999999998
23460,1.03799999999998
23465,1.03949999999998
23470,1.04099999999998
23475,1.04249999999998
23480,1.04399999999998
23485,1.04549999999998
23490,1.04699999999998
23495,1.04849999999998
23500,1.04999999999998
23505,1.05149999999998
23510,1.05299999999998
23515,1.05449999999998
23520,1.05599999999998
23525,1.05749999999998
23530,1.05899999999998
23535,1.06049999999998
23540,1.06199999999998
23545,1.06349999999998
23550,1.06499999999998
23555,1.06649999999998
23560,1.06799999999998
23565,1.06949999999999
23570,1.07099999999999
23575,1.07249999999999
23580,1.07399999999999
23585,1.07549999999999
23590,1.07699999999999
23595,1.07849999999999
23600,1.07999999999999
23605,1.08149999999999
23610,1.08299999999999
23615,1.08449999999999
23620,1.08599999999999
23625,1.08749999999999
23630,1.08899999999999
23635,1.09049999999999
23640,1.09199999999999
23645,1.09349999999999
23650,1.09499999999999
23655,1.09649999999999
23660,1.09799999999999
23665,1.09949999999999
23670,1.10099999999999
23675,1.10249999999999
23680,1.10399999999999
23685,1.10549999999999
23690,1.10699999999999
23695,1.10849999999999
23700,1.10999999999999
23705,1.11149999999999
23710,1.11299999999999
23715,1.11449999999999
23720,1.11599999999999
23725,1.11749999999999
23730,1.11899999999999
23735,1.12049999999999
23740,1.12199999999999
23745,1.12349999999999
23750,1.12499999999999
23755,1.12649999999999
23760,1.12799999999999
23765,1.12949999999999
23770,1.13099999999999
23775,1.13249999999999
23780,1.13399999999999
23785,1.13549999999999
23790,1.13699999999999
23795,1.13849999999999
23800,1.13999999999999
23805,1.14149999999999
23810,1.14299999999999
23815,1.14449999999999
23820,1.14599999999999
23825,1.14749999999999
23830,1.14899999999999
23835,1.15049999999999
23840,1.15199999999999
23845,1.15349999999999
23850,1.15499999999999
23855,1.15649999999999
23860,1.15799999999999
23865,1.15949999999999
23870,1.16099999999999
23875,1.16249999999999
23880,1.16399999999999
23885,1.16549999999999
23890,1.16699999999999
23895,1.16849999999999
23900,1.16999999999999
23905,1.17149999999999
23910,1.17299999999999
23915,1.17449999999999
23920,1.17599999999999
23925,1.17749999999999
23930,1.17899999999999
23935,1.18049999999999
23940,1.18199999999999
23945,1.18349999999999
23950,1.18499999999999
23955,1.18649999999999
23960,1.18799999999999
23965,1.18949999999999
23970,1.19099999999999
23975,1.19249999999999
23980,1.19399999999999
23985,1.19549999999999
23990,1.19699999999999
23995,1.19849999999999
24000,1.19999999999999
24005,1.20149999999999
24010,1.20299999999999
24015,1.20449999999999
24020,1.20599999999999
24025,1.20749999999999
24030,1.20899999999999
24035,1.21049999999999
24040,1.21199999999999
24045,1.21349999999999
24050,1.21499999999999
24055,1.21649999999999
24060,1.21799999999999
24065,1.21949999999999
24070,1.22099999999999
24075,1.22249999999999
24080,1.22399999999999
24085,1.22549999999999
24090,1.22699999999999
24095,1.22849999999999
24100,1.22999999999999
24105,1.23149999999999
24110,1.23299999999999
24115,1.23449999999999
24120,1.23599999999999
24125,1.23749999999999
24130,1.23899999999999
24135,1.24049999999999
24140,1.24199999999999
24145,1.24349999999999
24150,1.24499999999999
24155,1.24649999999999
24160,1.24799999999999
24165,1.24949999999999
24170,1.25099999999999
24175,1.25249999999999
24180,1.25399999999999
24185,1.25549999999999
24190,1.25699999999999
24195,1.25849999999999
24200,1.25999999999999
24205,1.26149999999999
24210,1.26299999999999
24215,1.26449999999999
24220,1.26599999999999
24225,1.26749999999999
24230,1.26899999999999
24235,1.27049999999999
24240,1.27199999999999
24245,1.27349999999999
24250,1.27499999999999
24255,1.27649999999999
24260,1.27799999999999
24265,1.27949999999999
24270,1.28099999999999
24275,1.28249999999999
24280,1.28399999999999
24285,1.28549999999999
24290,1.28699999999999
24295,1.28849999999999
24300,1.28999999999999
24305,1.29149999999999
24310,1.29299999999999
24315,1.29449999999999
24320,1.29599999999999
24325,1.29749999999999
24330,1.29899999999999
24335,1.30049999999999
24340,1.30199999999999
24345,1.30349999999999
24350,1.30499999999999
24355,1.30649999999999
24360,1.30799999999999
24365,1.30949999999999
24370,1.31099999999999
24375,1.31249999999999
24380,1.31399999999999
24385,1.31549999999999
24390,1.31699999999999
24395,1.31849999999999
24400,1.31999999999999
24405,1.32149999999999
24410,1.32299999999999
24415,1.32449999999999
24420,1.32599999999999
24425,1.32749999999999
24430,1.32899999999999
24435,1.33049999999999
24440,1.33199999999999
24445,1.3335
24450,1.335
24455,1.3365
24460,1.338
24465,1.3395
24470,1.341
24475,1.3425
24480,1.344
24485,1.3455
24490,1.347
24495,1.3485
24500,1.35
24505,1.3515
24510,1.353
24515,1.3545
24520,1.356
24525,1.3575
24530,1.359
24535,1.3605
24540,1.362
24545,1.3635
24550,1.365
24555,1.3665
24560,1.368
24565,1.3695
24570,1.371
24575,1.3725
24580,1.374
24585,1.3755
24590,1.377
24595,1.3785
24600,1.38
24605,1.3815
24610,1.383
24615,1.3845
24620,1.386
24625,1.3875
24630,1.389
24635,1.3905
24640,1.392
24645,1.3935
24650,1.395
24655,1.3965
24660,1.398
24665,1.3995
24670,1.401
24675,1.4025
24680,1.404
24685,1.4055
24690,1.407
24695,1.4085
24700,1.41
24705,1.4115
24710,1.413
24715,1.4145
24720,1.416
24725,1.4175
24730,1.419
24735,1.4205
24740,1.422
24745,1.4235
24750,1.425
24755,1.4265
24760,1.428
24765,1.4295
24770,1.431
24775,1.4325
24780,1.434
24785,1.4355
24790,1.437
24795,1.4385
24800,1.44
24805,1.4415
24810,1.443
24815,1.4445
24820,1.446
24825,1.4475
24830,1.449
24835,1.4505
24840,1.452
24845,1.4535
24850,1.455
24855,1.4565
24860,1.458
24865,1.4595
24870,1.461
24875,1.4625
24880,1.464
24885,1.4655
24890,1.467
24895,1.4685
24900,1.47
24905,1.4715
24910,1.473
24915,1.4745
24920,1.476
24925,1.4775
24930,1.479
24935,1.4805
24940,1.482
24945,1.4835
24950,1.485
24955,1.4865
24960,1.488
24965,1.4895
24970,1.491
24975,1.4925
24980,1.494
24985,1.4955
24990,1.497
24995,1.4985
25000,1.5
25005,1.5015
25010,1.503
25015,1.5045
25020,1.506
25025,1.5075
25030,1.509
25035,1.5105
25040,1.512
25045,1.5135
25050,1.515
25055,1.5165
25060,1.518
25065,1.5195
25070,1.521
25075,1.5225
25080,1.524
25085,1.5255
25090,1.527
25095,1.5285
25100,1.53
25105,1.5315
25110,1.533
25115,1.5345
25120,1.536
25125,1.5375
25130,1.539
25135,1.5405
25140,1.542
25145,1.5435
25150,1.545
25155,1.5465
25160,1.548
25165,1.5495
25170,1.551
25175,1.5525
25180,1.554
25185,1.5555
25190,1.557
25195,1.5585
25200,1.56
25205,1.5615
25210,1.563
25215,1.5645
25220,1.566
25225,1.5675
25230,1.569
25235,1.5705
25240,1.572
25245,1.5735
25250,1.575
25255,1.5765
25260,1.578
25265,1.5795
25270,1.581
25275,1.5825
25280,1.584
25285,1.5855
25290,1.587
25295,1.5885
25300,1.59
25305,1.5915
25310,1.593
25315,1.5945
25320,1.596
25325,1.59750000000001
25330,1.59900000000001
25335,1.60050000000001
25340,1.60200000000001
25345,1.60350000000001
25350,1.60500000000001
25355,1.60650000000001
25360,1.60800000000001
25365,1.60950000000001
25370,1.61100000000001
25375,1.61250000000001
25380,1.61400000000001
25385,1.61550000000001
25390,1.61700000000001
25395,1.61850000000001
25400,1.62000000000001
25405,1.62150000000001
25410,1.62300000000001
25415,1.62450000000001
25420,1.62600000000001
25425,1.62750000000001
25430,1.62900000000001
25435,1.63050000000001
25440,1.63200000000001
25445,1.63350000000001
25450,1.63500000000001
25455,1.63650000000001
25460,1.63800000000001
25465,1.63950000000001
25470,1.64100000000001
25475,1.64250000000001
25480,1.64400000000001
25485,1.64550000000001
25490,1.64700000000001
25495,1.64850000000001
25500,1.65000000000001
25505,1.65150000000001
25510,1.65300000000001
25515,1.65450000000001
25520,1.65600000000001
25525,1.65750000000001
25530,1.65900000000001
25535,1.66050000000001
25540,1.66200000000001
25545,1.66350000000001
25550,1.66500000000001
25555,1.66650000000001
25560,1.66800000000001
25565,1.66950000000001
25570,1.67100000000001
25575,1.67250000000001
25580,1.67400000000001
25585,1.67550000000001
25590,1.67700000000001
25595,1.67850000000001
25600,1.68000000000001
25605,1.68150000000001
25610,1.68300000000001
25615,1.68450000000001
25620,1.68600000000001
25625,1.68750000000001
25630,1.68900000000001
25635,1.69050000000001
25640,1.69200000000001
25645,1.69350000000001
25650,1.69500000000001
25655,1.69650000000001
25660,1.69800000000001
25665,1.69950000000001
25670,1.70100000000001
25675,1.70250000000001
25680,1.70400000000001
25685,1.70550000000001
25690,1.70700000000001
25695,1.70850000000001
25700,1.71000000000001
25705,1.71150000000001
25710,1.71300000000001
25715,1.71450000000001
25720,1.71600000000001
25725,1.71750000000001
25730,1.71900000000001
25735,1.72050000000001
25740,1.72200000000001
25745,1.72350000000001
25750,1.72500000000001
25755,1.72650000000001
25760,1.72800000000001
25765,1.72950000000001
25770,1.73100000000001
25775,1.73250000000001
25780,1.73400000000001
25785,1.73550000000001
25790,1.73700000000001
25795,1.73850000000001
25800,1.74000000000001
25805,1.74150000000001
25810,1.74300000000001
25815,1.74450000000001
25820,1.74600000000001
25825,1.74750000000001
25830,1.74900000000001
25835,1.75050000000001
25840,1.75200000000001
25845,1.75350000000001
25850,1.75500000000001
25855,1.75650000000001
25860,1.75800000000001
25865,1.75950000000001
25870,1.76100000000001
25875,1.76250000000001
25880,1.76400000000001
25885,1.76550000000001
25890,1.76700000000001
25895,1.76850000000001
25900,1.77000000000001
25905,1.77150000000001
25910,1.77300000000001
25915,1.77450000000001
25920,1.77600000000001
25925,1.77750000000001
25930,1.77900000000001
25935,1.78050000000001
25940,1.78200000000001
25945,1.78350000000001
25950,1.78500000000001
25955,1.78650000000001
25960,1.78800000000001
25965,1.78950000000001
25970,1.79100000000001
25975,1.79250000000001
25980,1.79400000000001
25985,1.79550000000001
25990,1.79700000000001
25995,1.79850000000001
26000,1.80000000000001
26005,1.80150000000001
26010,1.80300000000001
26015,1.80450000000001
26020,1.80600000000001
26025,1.80750000000001
26030,1.80900000000001
26035,1.81050000000001
26040,1.81200000000001
26045,1.81350000000001
26050,1.81500000000001
26055,1.81650000000001
26060,1.81800000000001
26065,1.81950000000001
26070,1.82100000000001
26075,1.82250000000001
26080,1.82400000000001
26085,1.82550000000001
26090,1.82700000000001
26095,1.82850000000001
26100,1.83000000000001
26105,1.83150000000001
26110,1.83300000000001
26115,1.83450000000001
26120,1.83600000000001
26125,1.83750000000001
26130,1.83900000000001
26135,1.84050000000001
26140,1.84200000000001
26145,1.84350000000001
26150,1.84500000000001
26155,1.84650000000001
26160,1.84800000000001
26165,1.84950000000001
26170,1.85100000000001
26175,1.85250000000001
26180,1.85400000000001
26185,1.85550000000001
26190,1.85700000000001
26195,1.85850000000001
26200,1.86000000000001
26205,1.86150000000002
26210,1.86300000000002
26215,1.86450000000002
26220,1.86600000000002
26225,1.86750000000002
26230,1.86900000000002
26235,1.87050000000002
26240,1.87200000000002
26245,1.87350000000002
26250,1.87500000000002
26255,1.87650000000002
26260,1.87800000000002
26265,1.87950000000002
26270,1.88100000000002
26275,1.88250000000002
26280,1.88400000000002
26285,1.88550000000002
26290,1.88700000000002
26295,1.88850000000002
26300,1.89000000000002
26305,1.89150000000002
26310,1.89300000000002
26315,1.89450000000002
26320,1.89600000000002
26325,1.89750000000002
26330,1.89900000000002
26335,1.90050000000002
26340,1.90200000000002
26345,1.90350000000002
26350,1.90500000000002
26355,1.90650000000002
26360,1.90800000000002
26365,1.90950000000002
26370,1.91100000000002
26375,1.91250000000002
26380,1.91400000000002
26385,1.91550000000002
26390,1.91700000000002
26395,1.91850000000002
26400,1.92000000000002
26405,1.92150000000002
26410,1.92300000000002
26415,1.92450000000002
26420,1.92600000000002
26425,1.92750000000002
26430,1.92900000000002
26435,1.93050000000002
26440,1.93200000000002
26445,1.93350000000002
26450,1.93500000000002
26455,1.93650000000002
26460,1.93800000000002
26465,1.93950000000002
26470,1.94100000000002
26475,1.94250000000002
26480,1.94400000000002
26485,1.94550000000002
26490,1.94700000000002
26495,1.94850000000002
26500,1.95000000000002
26505,1.95150000000002
26510,1.95300000000002
26515,1.95450000000002
26520,1.95600000000002
26525,1.95750000000002
26530,1.95900000000002
26535,1.96050000000002
26540,1.96200000000002
26545,1.96350000000002
26550,1.96500000000002
26555,1.96650000000002
26560,1.96800000000002
26565,1.96950000000002
26570,1.97100000000002
26575,1.97250000000002
26580,1.97400000000002
26585,1.97550000000002
26590,1.97700000000002
26595,1.97850000000002
26600,1.98000000000002
26605,1.98150000000002
26610,1.98300000000002
26615,1.98450000000002
26620,1.98600000000002
26625,1.98750000000002
26630,1.98900000000002
26635,1.99050000000002
26640,1.99200000000002
26645,1.99350000000002
26650,1.99500000000002
26655,1.99650000000002
26660,1.99800000000002
26665,1.99950000000002
26670,2.00100000000002
26675,2.00250000000002
26680,2.00400000000002
26685,2.00550000000002
26690,2.00700000000002
26695,2.00850000000002
26700,2.01000000000002
26705,2.01150000000002
26710,2.01300000000002
26715,2.01450000000002
26720,2.01600000000002
26725,2.01750000000002
26730,2.01900000000002
26735,2.02050000000002
26740,2.02200000000002
26745,2.02350000000002
26750,2.02500000000002
26755,2.02650000000002
26760,2.02800000000002
26765,2.02950000000002
26770,2.03100000000002
26775,2.03250000000002
26780,2.03400000000002
26785,2.03550000000002
26790,2.03700000000002
26795,2.03850000000002
26800,2.04000000000002
26805,2.04150000000002
26810,2.04300000000002
26815,2.04450000000002
26820,2.04600000000002
26825,2.04750000000002
26830,2.04900000000002
26835,2.05050000000002
26840,2.05200000000002
26845,2.05350000000002
26850,2.05500000000002
26855,2.05650000000002
26860,2.05800000000002
26865,2.05950000000002
26870,2.06100000000002
26875,2.06250000000002
26880,2.06400000000002
26885,2.06550000000002
26890,2.06700000000002
26895,2.06850000000002
26900,2.07000000000002
26905,2.07150000000002
26910,2.07300000000002
26915,2.07450000000002
26920,2.07600000000002
26925,2.07750000000002
26930,2.07900000000002
26935,2.08050000000002
26940,2.08200000000002
26945,2.08350000000002
26950,2.08500000000002
26955,2.08650000000002
26960,2.08800000000002
26965,2.08950000000002
26970,2.09100000000002
26975,2.09250000000002
26980,2.09400000000002
26985,2.09550000000002
26990,2.09700000000002
26995,2.09850000000002
27000,2.10000000000002
27005,2.10150000000002
27010,2.10300000000002
27015,2.10450000000002
27020,2.10600000000002
27025,2.10750000000002
27030,2.10900000000002
27035,2.11050000000002
27040,2.11200000000002
27045,2.11350000000002
27050,2.11500000000002
27055,2.11650000000002
27060,2.11800000000002
27065,2.11950000000002
27070,2.12100000000002
27075,2.12250000000002
27080,2.12400000000002
27085,2.12550000000003
27090,2.12700000000003
27095,2.12850000000003
27100,2.13000000000003
27105,2.13150000000003
27110,2.13300000000003
27115,2.13450000000003
27120,2.13600000000003
27125,2.13750000000003
27130,2.13900000000003
27135,2.14050000000003
27140,2.14200000000003
27145,2.14350000000003
27150,2.14500000000003
27155,2.14650000000003
27160,2.14800000000003
27165,2.14950000000003
27170,2.15100000000003
27175,2.15250000000003
27180,2.15400000000003
27185,2.15550000000003
27190,2.15700000000003
27195,2.15850000000003
27200,2.16000000000003
27205,2.16150000000003
27210,2.16300000000003
27215,2.16450000000003
27220,2.16600000000003
27225,2.16750000000003
27230,2.16900000000003
27235,2.17050000000003
27240,2.17200000000003
27245,2.17350000000003
27250,2.17500000000003
27255,2.17650000000003
27260,2.17800000000003
27265,2.17950000000003
27270,2.18100000000003
27275,2.18250000000003
27280,2.18400000000003
27285,2.18550000000003
27290,2.18700000000003
27295,2.18850000000003
27300,2.19000000000003
27305,2.19150000000003
27310,2.19300000000003
27315,2.19450000000003
27320,2.19600000000003
27325,2.19750000000003
27330,2.19900000000003
27335,2.20050000000003
27340,2.20200000000003
27345,2.20350000000003
27350,2.20500000000003
27355,2.20650000000003
27360,2.20800000000003
27365,2.20950000000003
27370,2.21100000000003
27375,2.21250000000003
27380,2.21400000000003
27385,2.21550000000003
27390,2.21700000000003
27395,2.21850000000003
27400,2.22000000000003
27405,2.22150000000003
27410,2.22300000000003
27415,2.22450000000003
27420,2.22600000000003
27425,2.22750000000003
27430,2.22900000000003
27435,2.23050000000003
27440,2.23200000000003
27445,2.23350000000003
27450,2.23500000000003
27455,2.23650000000003
27460,2.23800000000003
27465,2.23950000000003
27470,2.24100000000003
27475,2.24250000000003
27480,2.24400000000003
27485,2.24550000000003
27490,2.24700000000003
27495,2.24850000000003
27500,2.25000000000003
27505,2.25150000000003
27510,2.25300000000003
27515,2.25450000000003
27520,2.25600000000003
27525,2.25750000000003
27530,2.25900000000003
27535,2.26050000000003
27540,2.26200000000003
27545,2.26350000000003
27550,2.26500000000003
27555,2.26650000000003
27560,2.26800000000003
27565,2.26950000000003
27570,2.27100000000003
27575,2.27250000000003
27580,2.27400000000003
27585,2.27550000000003
27590,2.27700000000003
27595,2.27850000000003
27600,2.28000000000003
27605,2.28150000000003
27610,2.28300000000003
27615,2.28450000000003
27620,2.28600000000003
27625,2.28750000000003
27630,2.28900000000003
27635,2.29050000000003
27640,2.29200000000003
27645,2.29350000000003
27650,2.29500000000003
27655,2.29650000000003
27660,2.29800000000003
27665,2.29950000000003
27670,2.30100000000003
27675,2.30250000000003
27680,2.30400000000003
27685,2.30550000000003
27690,2.30700000000003
27695,2.30850000000003
27700,2.31000000000003
27705,2.31150000000003
27710,2.31300000000003
27715,2.31450000000003
27720,2.31600000000003
27725,2.31750000000003
27730,2.31900000000003
27735,2.32050000000003
27740,2.32200000000003
27745,2.32350000000003
27750,2.32500000000003
27755,2.32650000000003
27760,2.32800000000003
27765,2.32950000000003
27770,2.33100000000003
27775,2.33250000000003
27780,2.33400000000003
27785,2.33550000000003
27790,2.33700000000003
27795,2.33850000000003
27800,2.34000000000003
27805,2.34150000000003
27810,2.34300000000003
27815,2.34450000000003
27820,2.34600000000003
27825,2.34750000000003
27830,2.34900000000003
27835,2.35050000000003
27840,2.35200000000003
27845,2.35350000000003
27850,2.35500000000003
27855,2.35650000000003
27860,2.35800000000003
27865,2.35950000000003
27870,2.36100000000003
27875,2.36250000000003
27880,2.36400000000003
27885,2.36550000000003
27890,2.36700000000003
27895,2.36850000000003
27900,2.37000000000003
27905,2.37150000000003
27910,2.37300000000003
27915,2.37450000000003
27920,2.37600000000003
27925,2.37750000000003
27930,2.37900000000003
27935,2.38050000000003
27940,2.38200000000003
27945,2.38350000000003
27950,2.38500000000003
27955,2.38650000000003
27960,2.38800000000003
27965,2.38950000000004
27970,2.39100000000004
27975,2.39250000000004
27980,2.39400000000004
27985,2.39550000000004
27990,2.39700000000004
27995,2.39850000000004
28000,2.40000000000004
28005,2.40150000000004
28010,2.40300000000004
28015,2.40450000000004
28020,2.40600000000004
28025,2.40750000000004
28030,2.40900000000004
28035,2.41050000000004
28040,2.41200000000004
28045,2.41350000000004
28050,2.41500000000004
28055,2.41650000000004
28060,2.41800000000004
28065,2.41950000000004
28070,2.42100000000004
28075,2.42250000000004
28080,2.42400000000004
28085,2.42550000000004
28090,2.42700000000004
28095,2.42850000000004
28100,2.43000000000004
28105,2.43150000000004
28110,2.43300000000004
28115,2.43450000000004
28120,2.43600000000004
28125,2.43750000000004
28130,2.43900000000004
28135,2.44050000000004
28140,2.44200000000004
28145,2.44350000000004
28150,2.44500000000004
28155,2.44650000000004
28160,2.44800000000004
28165,2.44950000000004
28170,2.45100000000004
28175,2.45250000000004
28180,2.45400000000004
28185,2.45550000000004
28190,2.45700000000004
28195,2.45850000000004
28200,2.46000000000004
28205,2.46150000000004
28210,2.46300000000004
28215,2.46450000000004
28220,2.46600000000004
28225,2.46750000000004
28230,2.46900000000004
28235,2.47050000000004
28240,2.47200000000004
28245,2.47350000000004
28250,2.47500000000004
28255,2.47650000000004
28260,2.47800000000004
28265,2.47950000000004
28270,2.48100000000004
28275,2.48250000000004
28280,2.48400000000004
28285,2.48550000000004
28290,2.48700000000004
28295,2.48850000000004
28300,2.49000000000004
28305,2.49150000000004
28310,2.49300000000004
28315,2.49450000000004
28320,2.49600000000004
28325,2.49750000000004
28330,2.49900000000004
28335,2.50050000000004
